,accuracy,close,date,features,precision,prediction,recall,shape,signal,symbol
0,0.7517006802721088,64.84,2018-05-22,"{'sod_14': 0.15, 'macd': 0.13, 'macdh': 0.13, 'rsi_14': 0.13, 'volume': 0.13, 'obv_2': 0.11, 'wr_14': 0.11, 'roc_2': 0.1}",0.7517006802721088,-1.0,0.7517006802721088,"(1306, 8)",Sell,A
1,0.826530612244898,42.88,2018-05-22,"{'macd': 0.16, 'volume': 0.15, 'sod_14': 0.14, 'macdh': 0.13, 'rsi_14': 0.13, 'obv_2': 0.1, 'wr_14': 0.1, 'roc_2': 0.09}",0.826530612244898,1.0,0.826530612244898,"(1306, 8)",Buy,AAL
2,0.8163265306122449,187.16,2018-05-22,"{'volume': 0.16, 'macd': 0.15, 'macdh': 0.13, 'rsi_14': 0.13, 'sod_14': 0.13, 'wr_14': 0.11, 'obv_2': 0.1, 'roc_2': 0.08}",0.8163265306122449,-1.0,0.8163265306122449,"(1306, 8)",Sell,AAPL
3,0.7857142857142857,79.65,2018-05-22,"{'macd': 0.16, 'sod_14': 0.15, 'macdh': 0.14, 'rsi_14': 0.14, 'volume': 0.13, 'obv_2': 0.1, 'wr_14': 0.1, 'roc_2': 0.08}",0.7857142857142857,1.0,0.7857142857142857,"(1306, 8)",Buy,ACGL
4,0.7278911564625851,238.79,2018-05-22,"{'macd': 0.15, 'sod_14': 0.15, 'volume': 0.14, 'rsi_14': 0.13, 'macdh': 0.12, 'obv_2': 0.12, 'wr_14': 0.1, 'roc_2': 0.09}",0.7278911564625851,2.0,0.7278911564625851,"(1306, 8)",Buy Strong,ADBE
5,0.7312925170068028,95.71,2018-05-22,"{'macd': 0.15, 'macdh': 0.14, 'rsi_14': 0.14, 'volume': 0.13, 'sod_14': 0.12, 'obv_2': 0.11, 'wr_14': 0.1, 'roc_2': 0.09}",0.7312925170068028,1.0,0.7312925170068028,"(1306, 8)",Buy,ADI
6,0.7959183673469388,44.91,2018-05-22,"{'volume': 0.16, 'macd': 0.15, 'rsi_14': 0.14, 'sod_14': 0.14, 'macdh': 0.12, 'obv_2': 0.11, 'roc_2': 0.09, 'wr_14': 0.09}",0.7959183673469388,-2.0,0.7959183673469388,"(1306, 8)",Sell Strong,ADM
7,0.6700680272108843,128.38,2018-05-22,"{'macd': 0.17, 'macdh': 0.13, 'volume': 0.13, 'rsi_14': 0.12, 'sod_14': 0.12, 'obv_2': 0.11, 'wr_14': 0.11, 'roc_2': 0.1}",0.6700680272108843,-2.0,0.6700680272108843,"(1306, 8)",Sell Strong,ADP
8,0.7346938775510204,136.71,2018-05-22,"{'macd': 0.15, 'sod_14': 0.15, 'volume': 0.14, 'macdh': 0.13, 'obv_2': 0.12, 'rsi_14': 0.12, 'wr_14': 0.11, 'roc_2': 0.08}",0.7346938775510204,-2.0,0.7346938775510204,"(1306, 8)",Sell Strong,ADSK
9,0.7925170068027211,13.77,2018-05-22,"{'macd': 0.16, 'volume': 0.16, 'sod_14': 0.14, 'macdh': 0.12, 'obv_2': 0.11, 'rsi_14': 0.11, 'wr_14': 0.11, 'roc_2': 0.09}",0.7925170068027211,-1.0,0.7925170068027211,"(1306, 8)",Sell,AFSI
10,0.7551020408163265,19.11,2018-05-22,"{'macd': 0.16, 'macdh': 0.14, 'sod_14': 0.14, 'rsi_14': 0.13, 'volume': 0.13, 'wr_14': 0.11, 'obv_2': 0.1, 'roc_2': 0.1}",0.7551020408163265,-2.0,0.7551020408163265,"(1306, 8)",Sell Strong,AGNC
11,0.7916666666666666,51.6,2018-05-22,"{'macd': 0.16, 'sod_14': 0.16, 'volume': 0.15, 'macdh': 0.14, 'rsi_14': 0.12, 'obv_2': 0.1, 'wr_14': 0.1, 'roc_2': 0.08}",0.7916666666666666,-2.0,0.7916666666666666,"(611, 8)",Sell Strong,AGR
12,0.7482993197278912,7.0,2018-05-22,"{'macd': 0.16, 'rsi_14': 0.14, 'sod_14': 0.14, 'macdh': 0.13, 'volume': 0.13, 'obv_2': 0.1, 'roc_2': 0.1, 'wr_14': 0.1}",0.7482993197278912,1.0,0.7482993197278912,"(1306, 8)",Buy,AHT
13,0.7244897959183674,46.95,2018-05-22,"{'volume': 0.21, 'macd': 0.14, 'obv_2': 0.14, 'sod_14': 0.12, 'macdh': 0.11, 'rsi_14': 0.1, 'wr_14': 0.1, 'roc_2': 0.08}",0.7244897959183674,2.0,0.7244897959183674,"(1305, 8)",Buy Strong,ALFA
14,0.8061224489795918,297.86,2018-05-22,"{'macd': 0.17, 'sod_14': 0.15, 'macdh': 0.13, 'rsi_14': 0.13, 'volume': 0.12, 'obv_2': 0.11, 'wr_14': 0.1, 'roc_2': 0.09}",0.8061224489795918,1.0,0.8061224489795918,"(1306, 8)",Buy,ALGN
15,0.7789115646258503,119.01,2018-05-22,"{'volume': 0.16, 'macd': 0.15, 'macdh': 0.14, 'sod_14': 0.13, 'obv_2': 0.12, 'rsi_14': 0.11, 'wr_14': 0.1, 'roc_2': 0.09}",0.7789115646258503,2.0,0.7789115646258503,"(1306, 8)",Buy Strong,ALXN
16,0.8027210884353742,50.25,2018-05-22,"{'macd': 0.18, 'rsi_14': 0.14, 'macdh': 0.13, 'volume': 0.13, 'sod_14': 0.12, 'obv_2': 0.11, 'wr_14': 0.11, 'roc_2': 0.1}",0.8027210884353742,-2.0,0.8027210884353742,"(1306, 8)",Sell Strong,AMAT
17,0.7142857142857143,178.36,2018-05-22,"{'macd': 0.14, 'macdh': 0.13, 'rsi_14': 0.13, 'volume': 0.13, 'sod_14': 0.13, 'obv_2': 0.12, 'wr_14': 0.11, 'roc_2': 0.1}",0.7142857142857143,1.0,0.7142857142857143,"(1306, 8)",Buy,AMGN
18,0.7278911564625851,61.33,2018-05-22,"{'macd': 0.15, 'sod_14': 0.15, 'macdh': 0.14, 'volume': 0.13, 'rsi_14': 0.12, 'obv_2': 0.11, 'wr_14': 0.11, 'roc_2': 0.09}",0.7278911564625851,-2.0,0.7278911564625851,"(1306, 8)",Sell Strong,AMTD
19,0.8163265306122449,1581.4,2018-05-22,"{'macd': 0.16, 'sod_14': 0.15, 'macdh': 0.14, 'rsi_14': 0.14, 'volume': 0.12, 'obv_2': 0.11, 'wr_14': 0.11, 'roc_2': 0.09}",0.8163265306122449,-2.0,0.8163265306122449,"(1306, 8)",Sell Strong,AMZN
20,0.8163265306122449,1581.4,2018-05-22,"{'macd': 0.16, 'sod_14': 0.15, 'macdh': 0.14, 'rsi_14': 0.14, 'volume': 0.12, 'obv_2': 0.11, 'wr_14': 0.11, 'roc_2': 0.09}",0.8163265306122449,-2.0,0.8163265306122449,"(1306, 8)",Sell Strong,AMZN
21,0.7346938775510204,121.35,2018-05-22,"{'volume': 0.15, 'rsi_14': 0.14, 'sod_14': 0.14, 'macd': 0.13, 'macdh': 0.12, 'obv_2': 0.12, 'roc_2': 0.09, 'wr_14': 0.09}",0.7346938775510204,-2.0,0.7346938775510204,"(1306, 8)",Sell Strong,ANAT
22,0.7108843537414966,202.54,2018-05-22,"{'macd': 0.14, 'macdh': 0.14, 'sod_14': 0.14, 'rsi_14': 0.13, 'volume': 0.12, 'wr_14': 0.12, 'obv_2': 0.11, 'roc_2': 0.1}",0.7108843537414966,-2.0,0.7108843537414966,"(1306, 8)",Sell Strong,ASML
23,0.7312925170068028,71.35,2018-05-22,"{'macd': 0.17, 'macdh': 0.14, 'sod_14': 0.14, 'rsi_14': 0.13, 'volume': 0.13, 'obv_2': 0.11, 'wr_14': 0.11, 'roc_2': 0.09}",0.7312925170068028,-1.0,0.7312925170068028,"(1306, 8)",Sell,ATVI
24,0.8231292517006803,3.68,2018-05-22,"{'volume': 0.17, 'sod_14': 0.16, 'rsi_14': 0.14, 'macd': 0.13, 'macdh': 0.13, 'obv_2': 0.1, 'roc_2': 0.09, 'wr_14': 0.09}",0.8231292517006803,-2.0,0.8231292517006803,"(1306, 8)",Sell Strong,AUTO
25,0.7857142857142857,238.49,2018-05-22,"{'macd': 0.17, 'macdh': 0.15, 'sod_14': 0.14, 'volume': 0.13, 'rsi_14': 0.12, 'obv_2': 0.1, 'roc_2': 0.09, 'wr_14': 0.09}",0.7857142857142857,-2.0,0.7857142857142857,"(1306, 8)",Sell Strong,AVGO
26,0.8231292517006803,102.7,2018-05-22,"{'macd': 0.17, 'rsi_14': 0.15, 'macdh': 0.14, 'volume': 0.13, 'sod_14': 0.13, 'obv_2': 0.11, 'wr_14': 0.1, 'roc_2': 0.08}",0.8231292517006803,-1.0,0.8231292517006803,"(1306, 8)",Sell,AXP
27,0.7793103448275862,37.05,2018-05-22,"{'macd': 0.17, 'rsi_14': 0.14, 'macdh': 0.13, 'sod_14': 0.13, 'volume': 0.12, 'wr_14': 0.11, 'obv_2': 0.1, 'roc_2': 0.1}",0.7793103448275862,-2.0,0.7793103448275862,"(1289, 8)",Sell Strong,AZN
28,0.8299319727891157,355.02,2018-05-22,"{'sod_14': 0.16, 'macd': 0.15, 'volume': 0.15, 'macdh': 0.13, 'rsi_14': 0.13, 'obv_2': 0.1, 'wr_14': 0.09, 'roc_2': 0.08}",0.8299319727891157,-2.0,0.8299319727891157,"(1306, 8)",Sell Strong,BA
29,0.7857142857142857,29.3,2018-05-22,"{'macd': 0.16, 'sod_14': 0.16, 'volume': 0.14, 'rsi_14': 0.13, 'macdh': 0.12, 'wr_14': 0.11, 'obv_2': 0.1, 'roc_2': 0.08}",0.7857142857142857,-2.0,0.7857142857142857,"(1306, 8)",Sell Strong,BAB
30,0.8743718592964824,195.87,2018-05-22,"{'macd': 0.17, 'volume': 0.17, 'rsi_14': 0.14, 'macdh': 0.13, 'obv_2': 0.11, 'sod_14': 0.11, 'wr_14': 0.09, 'roc_2': 0.07}",0.8743718592964824,-1.0,0.8743718592964824,"(925, 8)",Sell,BABA
31,0.7993197278911565,30.89,2018-05-22,"{'macd': 0.14, 'macdh': 0.14, 'volume': 0.14, 'sod_14': 0.14, 'rsi_14': 0.13, 'obv_2': 0.12, 'wr_14': 0.1, 'roc_2': 0.09}",0.7993197278911565,1.0,0.7993197278911565,"(1306, 8)",Buy,BAC
32,0.7653061224489796,59.74,2018-05-22,"{'macd': 0.17, 'volume': 0.17, 'macdh': 0.13, 'rsi_14': 0.13, 'sod_14': 0.12, 'obv_2': 0.11, 'wr_14': 0.1, 'roc_2': 0.08}",0.7653061224489796,-2.0,0.7653061224489796,"(1306, 8)",Sell Strong,BANR
33,0.8129251700680272,2.55,2018-05-22,"{'volume': 0.16, 'macd': 0.14, 'sod_14': 0.14, 'rsi_14': 0.13, 'macdh': 0.12, 'obv_2': 0.11, 'wr_14': 0.1, 'roc_2': 0.09}",0.8129251700680272,-2.0,0.8129251700680272,"(1306, 8)",Sell Strong,BBOX
34,0.7891156462585034,75.47,2018-05-22,"{'macd': 0.17, 'rsi_14': 0.15, 'macdh': 0.14, 'sod_14': 0.13, 'volume': 0.12, 'obv_2': 0.1, 'wr_14': 0.1, 'roc_2': 0.09}",0.7891156462585034,-1.0,0.7891156462585034,"(1306, 8)",Sell,BBY
35,0.6972789115646258,12.05,2018-05-22,"{'macd': 0.16, 'rsi_14': 0.14, 'volume': 0.14, 'sod_14': 0.14, 'macdh': 0.12, 'obv_2': 0.11, 'wr_14': 0.11, 'roc_2': 0.09}",0.6972789115646258,1.0,0.6972789115646258,"(1306, 8)",Buy,BGCP
36,0.7142857142857143,47.7,2018-05-22,"{'macd': 0.16, 'volume': 0.15, 'obv_2': 0.14, 'sod_14': 0.14, 'macdh': 0.11, 'rsi_14': 0.11, 'wr_14': 0.1, 'roc_2': 0.09}",0.7142857142857143,1.0,0.7142857142857143,"(215, 8)",Buy,BHF
37,0.6870748299319728,239.97,2018-05-22,"{'macd': 0.17, 'macdh': 0.14, 'volume': 0.14, 'sod_14': 0.14, 'rsi_14': 0.13, 'obv_2': 0.1, 'wr_14': 0.1, 'roc_2': 0.09}",0.6870748299319728,-2.0,0.6870748299319728,"(1306, 8)",Sell Strong,BIDU
38,0.717687074829932,279.69,2018-05-22,"{'macd': 0.15, 'volume': 0.15, 'sod_14': 0.14, 'rsi_14': 0.13, 'macdh': 0.12, 'wr_14': 0.11, 'obv_2': 0.1, 'roc_2': 0.1}",0.717687074829932,1.0,0.717687074829932,"(1306, 8)",Buy,BIIB
39,0.7346938775510204,2077.19,2018-05-22,"{'macd': 0.15, 'macdh': 0.15, 'rsi_14': 0.14, 'sod_14': 0.14, 'volume': 0.13, 'wr_14': 0.11, 'obv_2': 0.1, 'roc_2': 0.09}",0.7346938775510204,1.0,0.7346938775510204,"(1306, 8)",Buy,BKNG
40,0.7210884353741497,36.39,2018-05-22,"{'volume': 0.17, 'sod_14': 0.15, 'macd': 0.14, 'rsi_14': 0.14, 'macdh': 0.11, 'obv_2': 0.11, 'wr_14': 0.1, 'roc_2': 0.08}",0.7210884353741497,1.0,0.7210884353741497,"(1306, 8)",Buy,BME
41,0.7414965986394558,87.61,2018-05-22,"{'macd': 0.16, 'macdh': 0.14, 'rsi_14': 0.14, 'sod_14': 0.13, 'volume': 0.12, 'wr_14': 0.11, 'obv_2': 0.1, 'roc_2': 0.09}",0.7414965986394558,-2.0,0.7414965986394558,"(1305, 8)",Sell Strong,BMRN
42,0.7993197278911565,40.8,2018-05-22,"{'macd': 0.16, 'volume': 0.16, 'macdh': 0.14, 'rsi_14': 0.13, 'sod_14': 0.13, 'obv_2': 0.11, 'wr_14': 0.1, 'roc_2': 0.08}",0.7993197278911565,2.0,0.7993197278911565,"(1306, 8)",Buy Strong,BOFI
43,0.8333333333333334,104.8,2018-05-22,"{'volume': 0.18, 'macd': 0.15, 'rsi_14': 0.13, 'sod_14': 0.13, 'obv_2': 0.12, 'macdh': 0.11, 'wr_14': 0.09, 'roc_2': 0.08}",0.8333333333333334,-2.0,0.8333333333333334,"(1306, 8)",Sell Strong,BOKF
44,0.8163265306122449,47.09,2018-05-22,"{'volume': 0.15, 'sod_14': 0.15, 'macd': 0.14, 'macdh': 0.13, 'rsi_14': 0.13, 'obv_2': 0.1, 'wr_14': 0.1, 'roc_2': 0.09}",0.8163265306122449,1.0,0.8163265306122449,"(1306, 8)",Buy,BP
45,0.7414965986394558,47.24,2018-05-22,"{'macd': 0.15, 'macdh': 0.14, 'volume': 0.14, 'sod_14': 0.14, 'rsi_14': 0.13, 'obv_2': 0.11, 'wr_14': 0.11, 'roc_2': 0.09}",0.7414965986394558,-1.0,0.7414965986394558,"(1306, 8)",Sell,BPOP
46,0.8163265306122449,2.63,2018-05-22,"{'volume': 0.18, 'macd': 0.13, 'macdh': 0.13, 'sod_14': 0.13, 'obv_2': 0.12, 'rsi_14': 0.12, 'roc_2': 0.1, 'wr_14': 0.09}",0.8163265306122449,2.0,0.8163265306122449,"(1306, 8)",Buy Strong,BTG
47,0.7925170068027211,71.08,2018-05-22,"{'sod_14': 0.15, 'macd': 0.14, 'volume': 0.14, 'macdh': 0.13, 'rsi_14': 0.13, 'obv_2': 0.11, 'wr_14': 0.1, 'roc_2': 0.09}",0.7925170068027211,2.0,0.7925170068027211,"(1306, 8)",Buy Strong,C
48,0.7040816326530612,35.28,2018-05-22,"{'macd': 0.15, 'volume': 0.14, 'sod_14': 0.14, 'macdh': 0.13, 'obv_2': 0.12, 'rsi_14': 0.12, 'wr_14': 0.11, 'roc_2': 0.1}",0.7040816326530612,-1.0,0.7040816326530612,"(1305, 8)",Sell,CA
49,0.8537414965986394,363.06,2018-05-22,"{'volume': 0.17, 'macd': 0.15, 'macdh': 0.13, 'rsi_14': 0.13, 'sod_14': 0.13, 'obv_2': 0.11, 'wr_14': 0.1, 'roc_2': 0.09}",0.8537414965986394,-2.0,0.8537414965986394,"(1305, 8)",Sell Strong,CACC
50,0.7789115646258503,156.2,2018-05-22,"{'macd': 0.15, 'rsi_14': 0.14, 'volume': 0.14, 'sod_14': 0.13, 'macdh': 0.12, 'obv_2': 0.11, 'wr_14': 0.11, 'roc_2': 0.1}",0.7789115646258503,-2.0,0.7789115646258503,"(1305, 8)",Sell Strong,CAT
51,0.7482993197278912,42.96,2018-05-22,"{'macd': 0.16, 'macdh': 0.14, 'rsi_14': 0.13, 'volume': 0.13, 'sod_14': 0.13, 'wr_14': 0.11, 'obv_2': 0.1, 'roc_2': 0.1}",0.7482993197278912,-2.0,0.7482993197278912,"(1305, 8)",Sell Strong,CATY
52,0.7943262411347518,47.31,2018-03-19,"{'volume': 0.15, 'macd': 0.14, 'macdh': 0.13, 'sod_14': 0.13, 'obv_2': 0.12, 'rsi_14': 0.12, 'wr_14': 0.11, 'roc_2': 0.1}",0.7943262411347518,-2.0,0.7943262411347518,"(1260, 8)",Sell Strong,CBG
53,0.8027210884353742,104.44,2018-05-22,"{'macd': 0.17, 'volume': 0.16, 'rsi_14': 0.14, 'macdh': 0.13, 'sod_14': 0.12, 'obv_2': 0.11, 'wr_14': 0.1, 'roc_2': 0.08}",0.8027210884353742,2.0,0.8027210884353742,"(1305, 8)",Buy Strong,CBOE
54,0.7414965986394558,65.49,2018-05-22,"{'sod_14': 0.15, 'macd': 0.14, 'volume': 0.14, 'macdh': 0.13, 'rsi_14': 0.13, 'obv_2': 0.11, 'wr_14': 0.11, 'roc_2': 0.1}",0.7414965986394558,-2.0,0.7414965986394558,"(1305, 8)",Sell Strong,CBSH
55,0.7624113475177305,21.5,2018-03-08,"{'sod_14': 0.16, 'macdh': 0.14, 'volume': 0.14, 'macd': 0.13, 'rsi_14': 0.13, 'obv_2': 0.11, 'wr_14': 0.11, 'roc_2': 0.09}",0.7624113475177305,1.0,0.7624113475177305,"(1258, 8)",Buy,CCC
56,0.7619047619047619,65.05,2018-05-22,"{'sod_14': 0.16, 'macd': 0.14, 'macdh': 0.13, 'rsi_14': 0.13, 'volume': 0.12, 'wr_14': 0.12, 'obv_2': 0.11, 'roc_2': 0.1}",0.7619047619047619,-1.0,0.7619047619047619,"(1305, 8)",Sell,CCL
57,0.7312925170068028,42.05,2018-05-22,"{'volume': 0.17, 'macd': 0.14, 'sod_14': 0.14, 'macdh': 0.13, 'rsi_14': 0.12, 'obv_2': 0.11, 'roc_2': 0.1, 'wr_14': 0.1}",0.7312925170068028,-2.0,0.7312925170068028,"(1305, 8)",Sell Strong,CDNS
58,0.782312925170068,76.61,2018-05-22,"{'macdh': 0.15, 'sod_14': 0.15, 'volume': 0.14, 'macd': 0.13, 'rsi_14': 0.13, 'wr_14': 0.11, 'obv_2': 0.1, 'roc_2': 0.09}",0.782312925170068,2.0,0.782312925170068,"(1305, 8)",Buy Strong,CELG
59,0.8061224489795918,59.72,2018-05-22,"{'macd': 0.15, 'rsi_14': 0.14, 'sod_14': 0.14, 'macdh': 0.13, 'volume': 0.13, 'obv_2': 0.12, 'wr_14': 0.1, 'roc_2': 0.09}",0.8061224489795918,-2.0,0.8061224489795918,"(1305, 8)",Sell Strong,CERN
60,0.7040816326530612,13.15,2018-05-22,"{'sod_14': 0.16, 'macd': 0.15, 'macdh': 0.14, 'volume': 0.14, 'rsi_14': 0.12, 'wr_14': 0.1, 'obv_2': 0.09, 'roc_2': 0.09}",0.7040816326530612,-2.0,0.7040816326530612,"(1305, 8)",Sell Strong,CFFN
61,0.7755102040816326,58.2,2018-05-22,"{'volume': 0.16, 'macd': 0.15, 'macdh': 0.14, 'rsi_14': 0.13, 'obv_2': 0.11, 'sod_14': 0.11, 'wr_14': 0.1, 'roc_2': 0.09}",0.7755102040816326,1.0,0.7755102040816326,"(1305, 8)",Buy,CHFC
62,0.7551020408163265,96.34,2018-05-22,"{'macd': 0.16, 'macdh': 0.15, 'rsi_14': 0.14, 'sod_14': 0.13, 'volume': 0.12, 'wr_14': 0.11, 'obv_2': 0.1, 'roc_2': 0.09}",0.7551020408163265,2.0,0.7551020408163265,"(1305, 8)",Buy Strong,CHKP
63,0.8027210884353742,267.66,2018-05-22,"{'macd': 0.17, 'volume': 0.16, 'macdh': 0.14, 'rsi_14': 0.13, 'obv_2': 0.12, 'wr_14': 0.1, 'sod_14': 0.1, 'roc_2': 0.09}",0.8027210884353742,-2.0,0.8027210884353742,"(1305, 8)",Sell Strong,CHTR
64,0.8095238095238095,76.2,2018-05-22,"{'macd': 0.16, 'sod_14': 0.15, 'rsi_14': 0.14, 'macdh': 0.13, 'volume': 0.12, 'obv_2': 0.11, 'wr_14': 0.1, 'roc_2': 0.09}",0.8095238095238095,-2.0,0.8095238095238095,"(1305, 8)",Sell Strong,CIGI
65,0.7482993197278912,71.45,2018-05-22,"{'macd': 0.15, 'macdh': 0.14, 'rsi_14': 0.13, 'volume': 0.13, 'sod_14': 0.13, 'obv_2': 0.11, 'wr_14': 0.11, 'roc_2': 0.09}",0.7482993197278912,1.0,0.7482993197278912,"(1305, 8)",Buy,CINF
66,0.8095238095238095,17.92,2018-05-22,"{'macd': 0.15, 'sod_14': 0.14, 'macdh': 0.13, 'volume': 0.13, 'wr_14': 0.12, 'obv_2': 0.11, 'roc_2': 0.11, 'rsi_14': 0.11}",0.8095238095238095,-1.0,0.8095238095238095,"(1305, 8)",Sell,CLI
67,0.7844311377245509,30.56,2018-05-22,"{'macd': 0.15, 'volume': 0.15, 'sod_14': 0.15, 'macdh': 0.14, 'rsi_14': 0.13, 'obv_2': 0.1, 'wr_14': 0.1, 'roc_2': 0.09}",0.7844311377245509,-2.0,0.7844311377245509,"(797, 8)",Sell Strong,CLLS
68,0.8027210884353742,32.51,2018-05-22,"{'macdh': 0.15, 'macd': 0.14, 'volume': 0.14, 'obv_2': 0.13, 'rsi_14': 0.13, 'sod_14': 0.11, 'roc_2': 0.1, 'wr_14': 0.1}",0.8027210884353742,-2.0,0.8027210884353742,"(1305, 8)",Sell Strong,CMCSA
69,0.8571428571428571,14.8,2018-05-22,"{'macd': 0.15, 'macdh': 0.14, 'rsi_14': 0.14, 'sod_14': 0.14, 'volume': 0.13, 'obv_2': 0.1, 'wr_14': 0.1, 'roc_2': 0.09}",0.8571428571428571,2.0,0.8571428571428571,"(1053, 8)",Buy Strong,CMCT
70,0.7414965986394558,160.86,2018-05-22,"{'macd': 0.16, 'volume': 0.15, 'macdh': 0.14, 'rsi_14': 0.13, 'sod_14': 0.13, 'obv_2': 0.11, 'wr_14': 0.1, 'roc_2': 0.09}",0.7414965986394558,2.0,0.7414965986394558,"(1305, 8)",Buy Strong,CME
71,0.7857142857142857,49.06,2018-05-22,"{'sod_14': 0.16, 'macd': 0.15, 'volume': 0.14, 'macdh': 0.13, 'obv_2': 0.12, 'rsi_14': 0.12, 'roc_2': 0.09, 'wr_14': 0.09}",0.7857142857142857,-2.0,0.7857142857142857,"(1305, 8)",Sell Strong,CNA
72,0.7108843537414966,43.45,2018-05-22,"{'macd': 0.16, 'macdh': 0.15, 'sod_14': 0.14, 'rsi_14': 0.12, 'volume': 0.12, 'obv_2': 0.11, 'wr_14': 0.11, 'roc_2': 0.1}",0.7108843537414966,1.0,0.7108843537414966,"(1305, 8)",Buy,COLB
73,0.7857142857142857,51.64,2018-05-22,"{'macd': 0.15, 'rsi_14': 0.15, 'macdh': 0.14, 'volume': 0.14, 'sod_14': 0.13, 'obv_2': 0.11, 'wr_14': 0.1, 'roc_2': 0.08}",0.7857142857142857,-2.0,0.7857142857142857,"(1305, 8)",Sell Strong,CONE
74,0.826530612244898,198.97,2018-05-22,"{'macd': 0.16, 'rsi_14': 0.14, 'sod_14': 0.14, 'macdh': 0.13, 'volume': 0.13, 'obv_2': 0.11, 'wr_14': 0.1, 'roc_2': 0.08}",0.826530612244898,-2.0,0.826530612244898,"(1305, 8)",Sell Strong,COST
75,0.8430034129692833,8.46,2018-05-22,"{'volume': 0.21, 'sod_14': 0.14, 'macd': 0.13, 'macdh': 0.12, 'rsi_14': 0.12, 'obv_2': 0.11, 'wr_14': 0.1, 'roc_2': 0.08}",0.8430034129692833,1.0,0.8430034129692833,"(1304, 8)",Buy,CPG
76,0.7,27.65,2018-05-22,"{'sod_14': 0.14, 'macd': 0.13, 'macdh': 0.13, 'rsi_14': 0.13, 'volume': 0.13, 'obv_2': 0.11, 'roc_2': 0.11, 'wr_14': 0.11}",0.7,1.0,0.7,"(1292, 8)",Buy,CPI
77,0.7959183673469388,37.76,2018-05-22,"{'sod_14': 0.16, 'macd': 0.15, 'volume': 0.14, 'rsi_14': 0.13, 'macdh': 0.12, 'obv_2': 0.11, 'wr_14': 0.1, 'roc_2': 0.09}",0.7959183673469388,-1.0,0.7959183673469388,"(1305, 8)",Sell,CRH
78,0.7925170068027211,43.65,2018-05-22,"{'sod_14': 0.17, 'macd': 0.14, 'rsi_14': 0.14, 'volume': 0.14, 'macdh': 0.12, 'wr_14': 0.11, 'obv_2': 0.1, 'roc_2': 0.09}",0.7925170068027211,-1.0,0.7925170068027211,"(1305, 8)",Sell,CSCO
79,0.7551020408163265,63.47,2018-05-22,"{'macd': 0.16, 'rsi_14': 0.14, 'macdh': 0.13, 'sod_14': 0.13, 'volume': 0.12, 'wr_14': 0.12, 'obv_2': 0.11, 'roc_2': 0.09}",0.7551020408163265,-1.0,0.7551020408163265,"(1305, 8)",Sell,CSX
80,0.6768707482993197,180.87,2018-05-22,"{'macd': 0.15, 'volume': 0.15, 'sod_14': 0.14, 'macdh': 0.12, 'rsi_14': 0.12, 'obv_2': 0.11, 'wr_14': 0.11, 'roc_2': 0.1}",0.6768707482993197,2.0,0.6768707482993197,"(1305, 8)",Buy Strong,CTAS
81,0.7993197278911565,43.44,2018-05-22,"{'macd': 0.15, 'macdh': 0.14, 'volume': 0.14, 'rsi_14': 0.13, 'sod_14': 0.13, 'obv_2': 0.12, 'wr_14': 0.1, 'roc_2': 0.08}",0.7993197278911565,-2.0,0.7993197278911565,"(1305, 8)",Sell Strong,CTRP
82,0.8129251700680272,75.24,2018-05-22,"{'volume': 0.17, 'rsi_14': 0.16, 'macd': 0.14, 'macdh': 0.14, 'sod_14': 0.12, 'obv_2': 0.1, 'wr_14': 0.1, 'roc_2': 0.07}",0.8129251700680272,-2.0,0.8129251700680272,"(1305, 8)",Sell Strong,CTSH
83,0.7346938775510204,105.41,2018-05-22,"{'macd': 0.15, 'rsi_14': 0.15, 'sod_14': 0.14, 'macdh': 0.13, 'volume': 0.13, 'obv_2': 0.11, 'wr_14': 0.11, 'roc_2': 0.09}",0.7346938775510204,-2.0,0.7346938775510204,"(1305, 8)",Sell Strong,CTXS
84,0.8581560283687943,20.68,2018-05-22,"{'volume': 0.19, 'macd': 0.16, 'rsi_14': 0.14, 'macdh': 0.12, 'obv_2': 0.11, 'sod_14': 0.1, 'roc_2': 0.09, 'wr_14': 0.09}",0.8581560283687943,-1.0,0.8581560283687943,"(1258, 8)",Sell,CTY
85,0.7517006802721088,23.6,2018-05-22,"{'macd': 0.19, 'macdh': 0.14, 'rsi_14': 0.13, 'volume': 0.12, 'sod_14': 0.12, 'wr_14': 0.11, 'obv_2': 0.1, 'roc_2': 0.09}",0.7517006802721088,-1.0,0.7517006802721088,"(1305, 8)",Sell,CVBF
86,0.7789115646258503,128.23,2018-05-22,"{'volume': 0.16, 'macdh': 0.14, 'sod_14': 0.14, 'macd': 0.13, 'obv_2': 0.12, 'rsi_14': 0.12, 'wr_14': 0.11, 'roc_2': 0.09}",0.7789115646258503,-2.0,0.7789115646258503,"(1305, 8)",Sell Strong,CVX
87,0.7108843537414966,155.09,2018-05-22,"{'macd': 0.17, 'rsi_14': 0.15, 'volume': 0.14, 'sod_14': 0.14, 'macdh': 0.12, 'obv_2': 0.1, 'roc_2': 0.09, 'wr_14': 0.09}",0.7108843537414966,2.0,0.7108843537414966,"(1305, 8)",Buy Strong,DE
88,0.8469387755102041,104.07,2018-05-22,"{'macd': 0.18, 'rsi_14': 0.16, 'sod_14': 0.14, 'macdh': 0.13, 'volume': 0.11, 'wr_14': 0.1, 'obv_2': 0.09, 'roc_2': 0.07}",0.8469387755102041,2.0,0.8469387755102041,"(1305, 8)",Buy Strong,DIS
89,0.7414965986394558,31.97,2018-05-22,"{'macd': 0.16, 'macdh': 0.14, 'volume': 0.14, 'sod_14': 0.13, 'rsi_14': 0.12, 'wr_14': 0.11, 'obv_2': 0.1, 'roc_2': 0.09}",0.7414965986394558,-2.0,0.7414965986394558,"(1305, 8)",Sell Strong,DISH
90,0.7006802721088435,90.46,2018-05-22,"{'macd': 0.17, 'rsi_14': 0.14, 'volume': 0.13, 'macdh': 0.12, 'sod_14': 0.12, 'obv_2': 0.11, 'wr_14': 0.11, 'roc_2': 0.1}",0.7006802721088435,2.0,0.7006802721088435,"(1305, 8)",Buy Strong,DLN
91,0.8435374149659864,93.59,2018-05-22,"{'macd': 0.16, 'macdh': 0.15, 'rsi_14': 0.14, 'volume': 0.14, 'sod_14': 0.13, 'obv_2': 0.1, 'roc_2': 0.09, 'wr_14': 0.09}",0.8435374149659864,-1.0,0.8435374149659864,"(1305, 8)",Sell,DLTR
92,0.782312925170068,132.18,2018-05-22,"{'macd': 0.16, 'sod_14': 0.16, 'macdh': 0.14, 'rsi_14': 0.12, 'obv_2': 0.11, 'volume': 0.11, 'wr_14': 0.1, 'roc_2': 0.09}",0.782312925170068,-2.0,0.782312925170068,"(1305, 8)",Sell Strong,EA
93,0.7551020408163265,37.77,2018-05-22,"{'macd': 0.15, 'sod_14': 0.14, 'macdh': 0.13, 'rsi_14': 0.13, 'volume': 0.13, 'obv_2': 0.11, 'wr_14': 0.11, 'roc_2': 0.1}",0.7551020408163265,2.0,0.7551020408163265,"(1305, 8)",Buy Strong,EBAY
94,0.9464285714285714,34.16,2018-05-22,"{'volume': 0.24, 'macd': 0.18, 'rsi_14': 0.13, 'obv_2': 0.11, 'sod_14': 0.1, 'macdh': 0.09, 'wr_14': 0.09, 'roc_2': 0.06}",0.9464285714285714,2.0,0.9464285714285714,"(580, 8)",Buy Strong,EDIT
95,0.7346938775510204,383.19,2018-05-22,"{'volume': 0.16, 'macd': 0.14, 'macdh': 0.13, 'rsi_14': 0.13, 'sod_14': 0.12, 'obv_2': 0.11, 'wr_14': 0.11, 'roc_2': 0.09}",0.7346938775510204,-2.0,0.7346938775510204,"(1305, 8)",Sell Strong,EQIX
96,0.7721088435374149,113.78,2018-05-22,"{'sod_14': 0.15, 'macd': 0.14, 'macdh': 0.14, 'volume': 0.14, 'rsi_14': 0.13, 'obv_2': 0.1, 'roc_2': 0.1, 'wr_14': 0.1}",0.7721088435374149,-1.0,0.7721088435374149,"(1305, 8)",Sell,ERIE
97,0.8611111111111112,22.2599,2018-05-22,"{'macd': 0.2, 'macdh': 0.17, 'sod_14': 0.15, 'rsi_14': 0.12, 'wr_14': 0.1, 'obv_2': 0.09, 'volume': 0.09, 'roc_2': 0.08}",0.8611111111111112,-2.0,0.8611111111111112,"(275, 8)",Sell Strong,ERM
98,0.7074829931972789,211.0,2018-05-22,"{'macd': 0.17, 'macdh': 0.14, 'sod_14': 0.14, 'rsi_14': 0.13, 'volume': 0.11, 'wr_14': 0.11, 'obv_2': 0.1, 'roc_2': 0.1}",0.7074829931972789,2.0,0.7074829931972789,"(1305, 8)",Buy Strong,ESGR
99,0.7716535433070866,35.4,2018-05-22,"{'macd': 0.16, 'rsi_14': 0.14, 'sod_14': 0.14, 'volume': 0.13, 'macdh': 0.12, 'wr_14': 0.11, 'obv_2': 0.1, 'roc_2': 0.09}",0.7716535433070866,2.0,0.7716535433070866,"(1147, 8)",Buy Strong,ESNT
100,0.7755102040816326,77.75,2018-05-22,"{'macd': 0.15, 'macdh': 0.14, 'rsi_14': 0.14, 'sod_14': 0.14, 'volume': 0.13, 'wr_14': 0.11, 'obv_2': 0.1, 'roc_2': 0.09}",0.7755102040816326,2.0,0.7755102040816326,"(1305, 8)",Buy Strong,ESRX
101,0.7551020408163265,65.71,2018-05-22,"{'macd': 0.16, 'volume': 0.15, 'macdh': 0.14, 'rsi_14': 0.13, 'sod_14': 0.12, 'obv_2': 0.11, 'wr_14': 0.1, 'roc_2': 0.09}",0.7551020408163265,1.0,0.7551020408163265,"(1305, 8)",Buy,ETFC
102,0.7074829931972789,26.13,2018-05-22,"{'macd': 0.16, 'rsi_14': 0.14, 'volume': 0.14, 'macdh': 0.13, 'sod_14': 0.12, 'obv_2': 0.11, 'wr_14': 0.11, 'roc_2': 0.1}",0.7074829931972789,-2.0,0.7074829931972789,"(1305, 8)",Sell Strong,ETO
103,0.7346938775510204,111.1,2018-05-22,"{'macd': 0.16, 'rsi_14': 0.15, 'macdh': 0.14, 'volume': 0.13, 'sod_14': 0.13, 'obv_2': 0.1, 'wr_14': 0.1, 'roc_2': 0.09}",0.7346938775510204,-1.0,0.7346938775510204,"(1305, 8)",Sell,EVR
104,0.7585034013605442,71.86,2018-05-22,"{'macd': 0.16, 'volume': 0.15, 'macdh': 0.13, 'rsi_14': 0.13, 'sod_14': 0.13, 'obv_2': 0.11, 'wr_14': 0.1, 'roc_2': 0.09}",0.7585034013605442,-1.0,0.7585034013605442,"(1305, 8)",Sell,EWBC
105,0.717687074829932,116.29,2018-05-22,"{'macd': 0.16, 'macdh': 0.14, 'sod_14': 0.14, 'rsi_14': 0.12, 'volume': 0.12, 'wr_14': 0.11, 'obv_2': 0.1, 'roc_2': 0.09}",0.717687074829932,2.0,0.717687074829932,"(1305, 8)",Buy Strong,EXPE
106,0.7887323943661971,131.37,2018-05-22,"{'volume': 0.2, 'sod_14': 0.16, 'macd': 0.13, 'obv_2': 0.13, 'rsi_14': 0.11, 'macdh': 0.1, 'wr_14': 0.1, 'roc_2': 0.08}",0.7887323943661971,1.0,0.7887323943661971,"(1266, 8)",Buy,EZJ
107,0.7585034013605442,52.7,2018-05-22,"{'macd': 0.17, 'volume': 0.15, 'macdh': 0.14, 'rsi_14': 0.13, 'sod_14': 0.13, 'obv_2': 0.1, 'wr_14': 0.1, 'roc_2': 0.09}",0.7585034013605442,-1.0,0.7585034013605442,"(1305, 8)",Sell,FAST
108,0.7482758620689656,183.8,2018-05-22,"{'rsi_14': 0.16, 'sod_14': 0.16, 'macd': 0.15, 'volume': 0.14, 'macdh': 0.11, 'obv_2': 0.1, 'wr_14': 0.1, 'roc_2': 0.09}",0.7482758620689656,-2.0,0.7482758620689656,"(1289, 8)",Sell Strong,FB
109,0.7414965986394558,451.5,2018-05-22,"{'sod_14': 0.16, 'volume': 0.15, 'macd': 0.14, 'macdh': 0.12, 'rsi_14': 0.12, 'obv_2': 0.11, 'wr_14': 0.1, 'roc_2': 0.09}",0.7414965986394558,1.0,0.7414965986394558,"(1305, 8)",Buy,FCNCA
110,0.8527131782945736,22.2,2018-05-22,"{'volume': 0.23, 'sod_14': 0.15, 'macd': 0.12, 'roc_2': 0.11, 'obv_2': 0.1, 'rsi_14': 0.1, 'wr_14': 0.1, 'macdh': 0.09}",0.8527131782945736,-2.0,0.8527131782945736,"(645, 8)",Sell Strong,FCPT
111,0.7721088435374149,50.135,2018-05-22,"{'macd': 0.16, 'volume': 0.15, 'sod_14': 0.14, 'macdh': 0.13, 'rsi_14': 0.13, 'obv_2': 0.1, 'wr_14': 0.1, 'roc_2': 0.08}",0.7721088435374149,-2.0,0.7721088435374149,"(1305, 8)",Sell Strong,FDM
112,0.7278911564625851,32.3,2018-05-22,"{'macd': 0.16, 'rsi_14': 0.14, 'macdh': 0.13, 'volume': 0.13, 'sod_14': 0.13, 'wr_14': 0.11, 'obv_2': 0.1, 'roc_2': 0.09}",0.7278911564625851,-2.0,0.7278911564625851,"(1305, 8)",Sell Strong,FFBC
113,0.7721088435374149,53.3,2018-05-22,"{'macd': 0.15, 'rsi_14': 0.14, 'volume': 0.14, 'sod_14': 0.14, 'macdh': 0.12, 'obv_2': 0.11, 'wr_14': 0.11, 'roc_2': 0.1}",0.7721088435374149,-2.0,0.7721088435374149,"(1305, 8)",Sell Strong,FFIN
114,0.8435374149659864,3.68,2018-05-22,"{'macd': 0.17, 'volume': 0.16, 'rsi_14': 0.13, 'sod_14': 0.13, 'macdh': 0.12, 'obv_2': 0.11, 'wr_14': 0.1, 'roc_2': 0.09}",0.8435374149659864,2.0,0.8435374149659864,"(1305, 8)",Buy Strong,FGP
115,0.7901234567901234,28.88,2018-05-22,"{'rsi_14': 0.18, 'macd': 0.17, 'macdh': 0.16, 'volume': 0.14, 'wr_14': 0.11, 'obv_2': 0.09, 'sod_14': 0.08, 'roc_2': 0.07}",0.7901234567901234,2.0,0.7901234567901234,"(453, 8)",Buy Strong,FHB
116,0.7244897959183674,71.66,2018-05-22,"{'macd': 0.18, 'macdh': 0.14, 'sod_14': 0.13, 'rsi_14': 0.12, 'volume': 0.11, 'wr_14': 0.11, 'obv_2': 0.1, 'roc_2': 0.1}",0.7244897959183674,-1.0,0.7244897959183674,"(1305, 8)",Sell,FISV
117,0.7414965986394558,31.89,2018-05-22,"{'macd': 0.16, 'sod_14': 0.14, 'volume': 0.13, 'macdh': 0.12, 'obv_2': 0.12, 'rsi_14': 0.12, 'wr_14': 0.11, 'roc_2': 0.1}",0.7414965986394558,-2.0,0.7414965986394558,"(1305, 8)",Sell Strong,FITB
118,0.7857142857142857,26.43,2018-05-22,"{'macd': 0.16, 'rsi_14': 0.14, 'macdh': 0.13, 'volume': 0.13, 'sod_14': 0.12, 'obv_2': 0.11, 'wr_14': 0.11, 'roc_2': 0.09}",0.7857142857142857,-1.0,0.7857142857142857,"(1305, 8)",Sell,FMBI
119,0.7687074829931972,44.6,2018-05-22,"{'macd': 0.17, 'sod_14': 0.15, 'macdh': 0.14, 'rsi_14': 0.14, 'volume': 0.13, 'wr_14': 0.1, 'obv_2': 0.09, 'roc_2': 0.08}",0.7687074829931972,-2.0,0.7687074829931972,"(1305, 8)",Sell Strong,FNGN
120,0.7769784172661871,37.74,2018-05-22,"{'macd': 0.16, 'sod_14': 0.16, 'volume': 0.14, 'macdh': 0.13, 'rsi_14': 0.13, 'obv_2': 0.1, 'wr_14': 0.1, 'roc_2': 0.09}",0.7769784172661871,-1.0,0.7769784172661871,"(1241, 8)",Sell,FOX
121,0.7841726618705036,38.16,2018-05-22,"{'macd': 0.17, 'volume': 0.15, 'rsi_14': 0.14, 'macdh': 0.13, 'sod_14': 0.13, 'obv_2': 0.1, 'roc_2': 0.09, 'wr_14': 0.09}",0.7841726618705036,-2.0,0.7841726618705036,"(1241, 8)",Sell Strong,FOXA
122,0.7959183673469388,69.99,2018-05-22,"{'macd': 0.15, 'sod_14': 0.15, 'macdh': 0.13, 'volume': 0.13, 'rsi_14': 0.12, 'obv_2': 0.11, 'wr_14': 0.1, 'roc_2': 0.09}",0.7959183673469388,2.0,0.7959183673469388,"(1305, 8)",Buy Strong,FSLR
123,0.7419354838709677,71.2,2018-05-22,"{'macd': 0.18, 'macdh': 0.16, 'rsi_14': 0.15, 'wr_14': 0.11, 'sod_14': 0.11, 'obv_2': 0.1, 'volume': 0.1, 'roc_2': 0.09}",0.7419354838709677,-2.0,0.7419354838709677,"(750, 8)",Sell Strong,FSV
124,0.7074829931972789,17.85,2018-05-22,"{'macd': 0.15, 'rsi_14': 0.15, 'macdh': 0.13, 'sod_14': 0.13, 'volume': 0.12, 'obv_2': 0.11, 'roc_2': 0.11, 'wr_14': 0.11}",0.7074829931972789,1.0,0.7074829931972789,"(1305, 8)",Buy,FULT
125,0.7755102040816326,40.25,2018-05-22,"{'macd': 0.16, 'macdh': 0.15, 'sod_14': 0.14, 'volume': 0.13, 'rsi_14': 0.12, 'wr_14': 0.12, 'obv_2': 0.09, 'roc_2': 0.09}",0.7755102040816326,1.0,0.7755102040816326,"(1305, 8)",Buy,GBCI
126,0.868421052631579,30.8,2018-05-22,"{'sod_14': 0.16, 'macd': 0.15, 'rsi_14': 0.14, 'obv_2': 0.12, 'volume': 0.12, 'macdh': 0.11, 'wr_14': 0.1, 'roc_2': 0.09}",0.868421052631579,-1.0,0.868421052631579,"(586, 8)",Sell,GCP
127,0.8027210884353742,15.29,2018-05-22,"{'macd': 0.16, 'volume': 0.15, 'macdh': 0.13, 'rsi_14': 0.13, 'sod_14': 0.13, 'obv_2': 0.11, 'wr_14': 0.1, 'roc_2': 0.09}",0.8027210884353742,2.0,0.8027210884353742,"(1305, 8)",Buy Strong,GE
128,0.8299319727891157,67.83,2018-05-22,"{'volume': 0.16, 'macd': 0.15, 'macdh': 0.14, 'rsi_14': 0.13, 'sod_14': 0.13, 'obv_2': 0.11, 'wr_14': 0.1, 'roc_2': 0.09}",0.8299319727891157,-2.0,0.8299319727891157,"(1305, 8)",Sell Strong,GILD
129,0.7789115646258503,10.87,2018-05-22,"{'macd': 0.15, 'rsi_14': 0.15, 'volume': 0.14, 'sod_14': 0.13, 'macdh': 0.12, 'obv_2': 0.12, 'roc_2': 0.1, 'wr_14': 0.1}",0.7789115646258503,1.0,0.7789115646258503,"(1305, 8)",Buy,GLO
130,0.809322033898305,34.6,2018-05-22,"{'macd': 0.18, 'macdh': 0.14, 'volume': 0.14, 'sod_14': 0.13, 'rsi_14': 0.12, 'wr_14': 0.11, 'roc_2': 0.1, 'obv_2': 0.09}",0.809322033898305,-1.0,0.809322033898305,"(1074, 8)",Sell,GLPI
131,0.8231292517006803,3.39,2018-05-22,"{'macd': 0.16, 'volume': 0.15, 'macdh': 0.14, 'rsi_14': 0.14, 'sod_14': 0.14, 'obv_2': 0.1, 'wr_14': 0.1, 'roc_2': 0.08}",0.8231292517006803,-2.0,0.8231292517006803,"(1305, 8)",Sell Strong,GNC
132,0.921875,18.75,2018-05-22,"{'volume': 0.23, 'macd': 0.21, 'rsi_14': 0.12, 'macdh': 0.11, 'sod_14': 0.11, 'wr_14': 0.09, 'obv_2': 0.08, 'roc_2': 0.06}",0.921875,1.0,0.921875,"(898, 8)",Buy,GNK
133,0.8165938864628821,1069.73,2018-05-22,"{'macd': 0.17, 'sod_14': 0.15, 'rsi_14': 0.14, 'volume': 0.13, 'macdh': 0.12, 'obv_2': 0.1, 'wr_14': 0.1, 'roc_2': 0.09}",0.8165938864628821,1.0,0.8165938864628821,"(1047, 8)",Buy,GOOG
134,0.8367346938775511,1075.31,2018-05-22,"{'macd': 0.17, 'rsi_14': 0.14, 'sod_14': 0.14, 'volume': 0.13, 'macdh': 0.12, 'obv_2': 0.11, 'wr_14': 0.1, 'roc_2': 0.09}",0.8367346938775511,1.0,0.8367346938775511,"(1305, 8)",Buy,GOOGL
135,0.7857142857142857,10.65,2018-05-22,"{'volume': 0.15, 'macdh': 0.14, 'sod_14': 0.14, 'macd': 0.13, 'obv_2': 0.13, 'rsi_14': 0.12, 'wr_14': 0.11, 'roc_2': 0.09}",0.7857142857142857,1.0,0.7857142857142857,"(1305, 8)",Buy,GPOR
136,0.7210884353741497,42.99,2018-05-22,"{'macd': 0.16, 'volume': 0.14, 'sod_14': 0.13, 'macdh': 0.12, 'obv_2': 0.12, 'rsi_14': 0.12, 'roc_2': 0.1, 'wr_14': 0.1}",0.7210884353741497,1.0,0.7210884353741497,"(1305, 8)",Buy,GRI
137,0.6700680272108843,238.0,2018-05-22,"{'macd': 0.15, 'rsi_14': 0.14, 'macdh': 0.13, 'volume': 0.13, 'sod_14': 0.13, 'obv_2': 0.12, 'roc_2': 0.1, 'wr_14': 0.1}",0.6700680272108843,-2.0,0.6700680272108843,"(1305, 8)",Sell Strong,GS
138,0.7857142857142857,40.33,2018-05-22,"{'macd': 0.17, 'rsi_14': 0.14, 'sod_14': 0.14, 'volume': 0.13, 'macdh': 0.12, 'obv_2': 0.11, 'wr_14': 0.11, 'roc_2': 0.09}",0.7857142857142857,-1.0,0.7857142857142857,"(1305, 8)",Sell,GSK
139,0.8367346938775511,0.699,2018-05-22,"{'volume': 0.17, 'sod_14': 0.15, 'macd': 0.14, 'macdh': 0.13, 'rsi_14': 0.13, 'obv_2': 0.1, 'roc_2': 0.09, 'wr_14': 0.09}",0.8367346938775511,-1.0,0.8367346938775511,"(1305, 8)",Sell,GSS
140,0.7482993197278912,87.56,2018-05-22,"{'macd': 0.17, 'sod_14': 0.15, 'rsi_14': 0.14, 'macdh': 0.13, 'volume': 0.13, 'obv_2': 0.1, 'wr_14': 0.1, 'roc_2': 0.09}",0.7482993197278912,1.0,0.7482993197278912,"(1305, 8)",Buy,HAS
141,0.7210884353741497,15.36,2018-05-22,"{'macd': 0.15, 'sod_14': 0.15, 'macdh': 0.13, 'rsi_14': 0.13, 'volume': 0.13, 'obv_2': 0.11, 'wr_14': 0.11, 'roc_2': 0.09}",0.7210884353741497,2.0,0.7210884353741497,"(1305, 8)",Buy Strong,HBAN
142,0.7857142857142857,52.5,2018-05-22,"{'macdh': 0.15, 'macd': 0.14, 'volume': 0.14, 'sod_14': 0.13, 'rsi_14': 0.12, 'wr_14': 0.12, 'obv_2': 0.11, 'roc_2': 0.09}",0.7857142857142857,1.0,0.7857142857142857,"(1305, 8)",Buy,HBHC
143,0.7959183673469388,186.87,2018-05-22,"{'macd': 0.14, 'rsi_14': 0.14, 'macdh': 0.13, 'volume': 0.13, 'sod_14': 0.13, 'obv_2': 0.11, 'wr_14': 0.11, 'roc_2': 0.1}",0.7959183673469388,1.0,0.7959183673469388,"(1305, 8)",Buy,HD
144,0.7925170068027211,3.93,2018-05-22,"{'volume': 0.16, 'sod_14': 0.15, 'macd': 0.14, 'rsi_14': 0.13, 'macdh': 0.12, 'obv_2': 0.11, 'wr_14': 0.1, 'roc_2': 0.09}",0.7925170068027211,-2.0,0.7925170068027211,"(1305, 8)",Sell Strong,HL
145,0.717687074829932,38.89,2018-05-22,"{'volume': 0.15, 'macd': 0.14, 'sod_14': 0.14, 'macdh': 0.13, 'rsi_14': 0.13, 'obv_2': 0.11, 'wr_14': 0.11, 'roc_2': 0.08}",0.717687074829932,-2.0,0.717687074829932,"(1305, 8)",Sell Strong,HOLX
146,0.7278911564625851,23.59,2018-05-22,"{'volume': 0.16, 'macd': 0.14, 'macdh': 0.14, 'sod_14': 0.14, 'rsi_14': 0.12, 'obv_2': 0.11, 'wr_14': 0.1, 'roc_2': 0.09}",0.7278911564625851,-1.0,0.7278911564625851,"(1305, 8)",Sell,HOMB
147,0.816793893129771,22.07,2018-05-22,"{'macd': 0.18, 'sod_14': 0.15, 'rsi_14': 0.14, 'volume': 0.13, 'macdh': 0.11, 'obv_2': 0.11, 'wr_14': 0.1, 'roc_2': 0.09}",0.816793893129771,1.0,0.816793893129771,"(653, 8)",Buy,HPQ
148,0.7246376811594203,74.86,2018-05-22,"{'sod_14': 0.16, 'volume': 0.15, 'macdh': 0.13, 'rsi_14': 0.13, 'macd': 0.12, 'obv_2': 0.11, 'wr_14': 0.11, 'roc_2': 0.09}",0.7246376811594203,-1.0,0.7246376811594203,"(960, 8)",Sell,HQY
149,0.8333333333333334,57.43,2018-05-22,"{'macd': 0.15, 'rsi_14': 0.15, 'sod_14': 0.14, 'macdh': 0.13, 'volume': 0.13, 'wr_14': 0.11, 'obv_2': 0.09, 'roc_2': 0.08}",0.8333333333333334,2.0,0.8333333333333334,"(1305, 8)",Buy Strong,HRI
150,0.7789115646258503,71.3,2018-05-22,"{'macd': 0.17, 'macdh': 0.14, 'rsi_14': 0.13, 'sod_14': 0.13, 'volume': 0.12, 'obv_2': 0.11, 'roc_2': 0.1, 'wr_14': 0.1}",0.7789115646258503,1.0,0.7789115646258503,"(1305, 8)",Buy,HSIC
151,0.7755102040816326,5.95,2018-05-22,"{'macd': 0.16, 'macdh': 0.14, 'volume': 0.14, 'rsi_14': 0.13, 'sod_14': 0.13, 'obv_2': 0.12, 'wr_14': 0.11, 'roc_2': 0.09}",0.7755102040816326,-1.0,0.7755102040816326,"(1305, 8)",Sell,IAG
152,0.7721088435374149,81.15,2018-05-22,"{'macd': 0.15, 'volume': 0.15, 'sod_14': 0.14, 'macdh': 0.13, 'rsi_14': 0.13, 'wr_14': 0.11, 'obv_2': 0.1, 'roc_2': 0.1}",0.7721088435374149,-2.0,0.7721088435374149,"(1305, 8)",Sell Strong,IBKC
153,0.8299319727891157,78.73,2018-05-22,"{'macd': 0.17, 'rsi_14': 0.16, 'macdh': 0.15, 'volume': 0.12, 'sod_14': 0.12, 'wr_14': 0.11, 'obv_2': 0.09, 'roc_2': 0.08}",0.8299319727891157,-2.0,0.8299319727891157,"(1305, 8)",Sell Strong,IBKR
154,0.7517006802721088,145.09,2018-05-22,"{'macd': 0.14, 'macdh': 0.14, 'rsi_14': 0.14, 'volume': 0.13, 'sod_14': 0.13, 'obv_2': 0.11, 'wr_14': 0.11, 'roc_2': 0.1}",0.7517006802721088,2.0,0.7517006802721088,"(1305, 8)",Buy Strong,IBM
155,0.7585034013605442,43.925,2018-05-22,"{'macd': 0.18, 'rsi_14': 0.15, 'macdh': 0.13, 'volume': 0.12, 'sod_14': 0.12, 'obv_2': 0.11, 'wr_14': 0.11, 'roc_2': 0.09}",0.7585034013605442,-2.0,0.7585034013605442,"(1305, 8)",Sell Strong,IBOC
156,0.8537414965986394,199.99,2018-05-22,"{'macd': 0.18, 'macdh': 0.14, 'rsi_14': 0.14, 'volume': 0.13, 'sod_14': 0.13, 'wr_14': 0.1, 'obv_2': 0.09, 'roc_2': 0.09}",0.8537414965986394,-2.0,0.8537414965986394,"(1305, 8)",Sell Strong,IDXX
157,0.7959183673469388,65.56,2018-05-22,"{'macd': 0.15, 'sod_14': 0.15, 'rsi_14': 0.14, 'macdh': 0.13, 'volume': 0.12, 'wr_14': 0.12, 'obv_2': 0.1, 'roc_2': 0.09}",0.7959183673469388,2.0,0.7959183673469388,"(1305, 8)",Buy Strong,IHG
158,0.7925170068027211,4.09,2018-05-22,"{'sod_14': 0.16, 'macd': 0.15, 'volume': 0.15, 'rsi_14': 0.13, 'macdh': 0.12, 'obv_2': 0.1, 'wr_14': 0.1, 'roc_2': 0.09}",0.7925170068027211,1.0,0.7925170068027211,"(1305, 8)",Buy,III
159,0.8231292517006803,270.8,2018-05-22,"{'macd': 0.17, 'macdh': 0.15, 'rsi_14': 0.15, 'volume': 0.13, 'sod_14': 0.13, 'obv_2': 0.1, 'wr_14': 0.1, 'roc_2': 0.08}",0.8231292517006803,1.0,0.8231292517006803,"(1305, 8)",Buy,ILMN
160,0.8163265306122449,1.38,2018-05-22,"{'macd': 0.18, 'macdh': 0.17, 'sod_14': 0.14, 'volume': 0.13, 'rsi_14': 0.12, 'obv_2': 0.09, 'wr_14': 0.09, 'roc_2': 0.08}",0.8163265306122449,-2.0,0.8163265306122449,"(1305, 8)",Sell Strong,IMI
161,0.7721088435374149,66.56,2018-05-22,"{'macd': 0.17, 'rsi_14': 0.15, 'volume': 0.14, 'sod_14': 0.14, 'macdh': 0.13, 'wr_14': 0.1, 'obv_2': 0.09, 'roc_2': 0.08}",0.7721088435374149,1.0,0.7721088435374149,"(1305, 8)",Buy,INCY
162,0.7482993197278912,77.0,2018-05-22,"{'macd': 0.16, 'rsi_14': 0.14, 'sod_14': 0.14, 'macdh': 0.13, 'volume': 0.12, 'obv_2': 0.11, 'wr_14': 0.11, 'roc_2': 0.09}",0.7482993197278912,-2.0,0.7482993197278912,"(1305, 8)",Sell Strong,INDB
163,0.8945578231292517,12.37,2018-05-22,"{'volume': 0.16, 'macd': 0.15, 'rsi_14': 0.15, 'sod_14': 0.14, 'macdh': 0.12, 'obv_2': 0.11, 'wr_14': 0.1, 'roc_2': 0.07}",0.8945578231292517,-1.0,0.8945578231292517,"(1305, 8)",Sell,INF
164,0.7953488372093023,51.27,2018-05-22,"{'sod_14': 0.16, 'macd': 0.15, 'macdh': 0.13, 'rsi_14': 0.13, 'volume': 0.13, 'obv_2': 0.1, 'wr_14': 0.1, 'roc_2': 0.09}",0.7953488372093023,-2.0,0.7953488372093023,"(989, 8)",Sell Strong,INFO
165,0.7687074829931972,54.45,2018-05-22,"{'macd': 0.17, 'sod_14': 0.15, 'macdh': 0.14, 'volume': 0.14, 'rsi_14': 0.12, 'obv_2': 0.1, 'wr_14': 0.1, 'roc_2': 0.09}",0.7687074829931972,-2.0,0.7687074829931972,"(1305, 8)",Sell Strong,INTC
166,0.7755102040816326,190.54,2018-05-22,"{'macd': 0.16, 'sod_14': 0.14, 'macdh': 0.13, 'rsi_14': 0.13, 'volume': 0.13, 'obv_2': 0.11, 'wr_14': 0.11, 'roc_2': 0.1}",0.7755102040816326,-1.0,0.7755102040816326,"(1305, 8)",Sell,INTU
167,0.7937743190661478,28.998,2018-05-22,"{'volume': 0.2, 'macd': 0.13, 'obv_2': 0.13, 'sod_14': 0.13, 'rsi_14': 0.12, 'macdh': 0.11, 'wr_14': 0.1, 'roc_2': 0.08}",0.7937743190661478,2.0,0.7937743190661478,"(1158, 8)",Buy Strong,IPO
168,0.8095238095238095,13.7,2018-05-22,"{'volume': 0.21, 'macd': 0.15, 'sod_14': 0.13, 'macdh': 0.12, 'obv_2': 0.11, 'rsi_14': 0.1, 'wr_14': 0.09, 'roc_2': 0.08}",0.8095238095238095,-2.0,0.8095238095238095,"(1305, 8)",Sell Strong,ISBC
169,0.7653061224489796,454.61,2018-05-22,"{'macd': 0.2, 'macdh': 0.14, 'rsi_14': 0.13, 'volume': 0.12, 'sod_14': 0.12, 'wr_14': 0.11, 'obv_2': 0.1, 'roc_2': 0.08}",0.7653061224489796,1.0,0.7653061224489796,"(1305, 8)",Buy,ISRG
170,0.6904761904761905,124.65,2018-05-22,"{'sod_14': 0.16, 'macd': 0.15, 'rsi_14': 0.13, 'macdh': 0.12, 'volume': 0.12, 'obv_2': 0.11, 'wr_14': 0.11, 'roc_2': 0.09}",0.6904761904761905,-1.0,0.6904761904761905,"(1305, 8)",Sell,JBHT
171,0.7853881278538812,36.36,2018-05-22,"{'macd': 0.16, 'volume': 0.16, 'macdh': 0.13, 'rsi_14': 0.13, 'sod_14': 0.13, 'obv_2': 0.11, 'roc_2': 0.09, 'wr_14': 0.09}",0.7853881278538812,1.0,0.7853881278538812,"(1008, 8)",Buy,JD
172,0.717687074829932,3.69,2018-05-22,"{'volume': 0.16, 'macd': 0.14, 'sod_14': 0.14, 'macdh': 0.13, 'rsi_14': 0.13, 'obv_2': 0.11, 'wr_14': 0.1, 'roc_2': 0.09}",0.717687074829932,2.0,0.717687074829932,"(1305, 8)",Buy Strong,JE
173,0.7653061224489796,122.91,2018-05-22,"{'sod_14': 0.15, 'rsi_14': 0.14, 'macdh': 0.13, 'volume': 0.13, 'macd': 0.12, 'wr_14': 0.12, 'obv_2': 0.11, 'roc_2': 0.09}",0.7653061224489796,-1.0,0.7653061224489796,"(1305, 8)",Sell,JNJ
174,0.7619047619047619,113.01,2018-05-22,"{'macd': 0.15, 'sod_14': 0.15, 'volume': 0.14, 'macdh': 0.13, 'rsi_14': 0.12, 'obv_2': 0.11, 'wr_14': 0.11, 'roc_2': 0.09}",0.7619047619047619,2.0,0.7619047619047619,"(1305, 8)",Buy Strong,JPM
175,0.7651006711409396,56.58,2018-05-22,"{'rsi_14': 0.16, 'sod_14': 0.15, 'macd': 0.14, 'volume': 0.14, 'macdh': 0.11, 'obv_2': 0.11, 'wr_14': 0.11, 'roc_2': 0.07}",0.7651006711409396,2.0,0.7651006711409396,"(727, 8)",Buy Strong,KHC
176,0.7482993197278912,31.06,2018-05-22,"{'macd': 0.16, 'macdh': 0.14, 'volume': 0.14, 'sod_14': 0.13, 'rsi_14': 0.12, 'obv_2': 0.11, 'wr_14': 0.11, 'roc_2': 0.1}",0.7482993197278912,2.0,0.7482993197278912,"(1305, 8)",Buy Strong,KIE
177,0.7687074829931972,113.62,2018-05-22,"{'macd': 0.17, 'macdh': 0.14, 'rsi_14': 0.14, 'sod_14': 0.13, 'volume': 0.12, 'obv_2': 0.11, 'wr_14': 0.1, 'roc_2': 0.09}",0.7687074829931972,-1.0,0.7687074829931972,"(1305, 8)",Sell,KLAC
178,0.7380952380952381,42.25,2018-05-22,"{'sod_14': 0.15, 'macd': 0.14, 'volume': 0.14, 'macdh': 0.13, 'rsi_14': 0.13, 'obv_2': 0.11, 'roc_2': 0.1, 'wr_14': 0.1}",0.7380952380952381,-1.0,0.7380952380952381,"(1305, 8)",Sell,KO
179,0.7721088435374149,68.28,2018-05-22,"{'macd': 0.16, 'rsi_14': 0.15, 'sod_14': 0.14, 'volume': 0.13, 'macdh': 0.12, 'wr_14': 0.11, 'obv_2': 0.1, 'roc_2': 0.09}",0.7721088435374149,1.0,0.7721088435374149,"(1305, 8)",Buy,LAMR
180,0.7857142857142857,12.68,2018-05-22,"{'sod_14': 0.15, 'macd': 0.14, 'volume': 0.14, 'obv_2': 0.13, 'rsi_14': 0.13, 'macdh': 0.11, 'roc_2': 0.1, 'wr_14': 0.1}",0.7857142857142857,-1.0,0.7857142857142857,"(1305, 8)",Sell,LAND
181,0.8481675392670157,70.69,2018-05-22,"{'macd': 0.16, 'volume': 0.15, 'sod_14': 0.15, 'rsi_14': 0.14, 'macdh': 0.13, 'obv_2': 0.1, 'wr_14': 0.1, 'roc_2': 0.08}",0.8481675392670157,-2.0,0.8481675392670157,"(893, 8)",Sell Strong,LBRDK
182,0.7687074829931972,29.06,2018-05-22,"{'volume': 0.15, 'macd': 0.14, 'sod_14': 0.14, 'macdh': 0.13, 'wr_14': 0.12, 'obv_2': 0.11, 'roc_2': 0.11, 'rsi_14': 0.11}",0.7687074829931972,-1.0,0.7687074829931972,"(1305, 8)",Sell,LBTYA
183,0.8197278911564626,28.3,2018-05-22,"{'volume': 0.19, 'macdh': 0.13, 'sod_14': 0.13, 'macd': 0.12, 'obv_2': 0.12, 'rsi_14': 0.11, 'wr_14': 0.11, 'roc_2': 0.09}",0.8197278911564626,-1.0,0.8197278911564626,"(1305, 8)",Sell,LBTYK
184,0.8129251700680272,317.13,2018-05-22,"{'macd': 0.16, 'volume': 0.15, 'macdh': 0.13, 'rsi_14': 0.13, 'obv_2': 0.12, 'sod_14': 0.12, 'wr_14': 0.11, 'roc_2': 0.09}",0.8129251700680272,1.0,0.8129251700680272,"(1305, 8)",Buy,LMT
185,0.7857142857142857,72.22,2018-05-22,"{'macd': 0.16, 'rsi_14': 0.15, 'sod_14': 0.14, 'macdh': 0.12, 'volume': 0.12, 'obv_2': 0.11, 'wr_14': 0.1, 'roc_2': 0.09}",0.7857142857142857,-1.0,0.7857142857142857,"(1305, 8)",Sell,LPLA
186,0.7959183673469388,202.98,2018-05-22,"{'macd': 0.16, 'macdh': 0.14, 'rsi_14': 0.14, 'volume': 0.14, 'sod_14': 0.14, 'obv_2': 0.11, 'wr_14': 0.1, 'roc_2': 0.08}",0.7959183673469388,-2.0,0.7959183673469388,"(1305, 8)",Sell Strong,LRCX
187,0.826530612244898,43.74,2018-05-22,"{'macd': 0.16, 'sod_14': 0.16, 'macdh': 0.13, 'rsi_14': 0.13, 'volume': 0.12, 'obv_2': 0.11, 'wr_14': 0.1, 'roc_2': 0.08}",0.826530612244898,-2.0,0.826530612244898,"(1305, 8)",Sell Strong,LTXB
188,0.782312925170068,191.62,2018-05-22,"{'volume': 0.16, 'macd': 0.15, 'rsi_14': 0.14, 'macdh': 0.13, 'obv_2': 0.13, 'sod_14': 0.12, 'wr_14': 0.1, 'roc_2': 0.08}",0.782312925170068,1.0,0.782312925170068,"(1305, 8)",Buy,MA
189,0.8496503496503497,12.65,2018-05-22,"{'volume': 0.16, 'sod_14': 0.16, 'macd': 0.15, 'macdh': 0.13, 'rsi_14': 0.13, 'obv_2': 0.11, 'wr_14': 0.1, 'roc_2': 0.07}",0.8496503496503497,2.0,0.8496503496503497,"(1276, 8)",Buy Strong,MAB
190,0.7687074829931972,137.78,2018-05-22,"{'macd': 0.17, 'rsi_14': 0.14, 'volume': 0.14, 'macdh': 0.13, 'sod_14': 0.13, 'obv_2': 0.11, 'wr_14': 0.1, 'roc_2': 0.09}",0.7687074829931972,-2.0,0.7687074829931972,"(1305, 8)",Sell Strong,MAR
191,0.7891156462585034,50.95,2018-05-22,"{'sod_14': 0.15, 'macd': 0.14, 'macdh': 0.14, 'rsi_14': 0.14, 'volume': 0.13, 'obv_2': 0.11, 'roc_2': 0.1, 'wr_14': 0.1}",0.7891156462585034,-1.0,0.7891156462585034,"(1305, 8)",Sell,MBFI
192,0.7891156462585034,159.45,2018-05-22,"{'macd': 0.16, 'macdh': 0.15, 'rsi_14': 0.13, 'volume': 0.13, 'sod_14': 0.13, 'obv_2': 0.11, 'wr_14': 0.11, 'roc_2': 0.09}",0.7891156462585034,2.0,0.7891156462585034,"(1305, 8)",Buy Strong,MCD
193,0.7585034013605442,94.33,2018-05-22,"{'sod_14': 0.15, 'macd': 0.14, 'volume': 0.14, 'macdh': 0.13, 'rsi_14': 0.12, 'obv_2': 0.11, 'roc_2': 0.1, 'wr_14': 0.1}",0.7585034013605442,2.0,0.7585034013605442,"(1305, 8)",Buy Strong,MCHP
194,0.7801418439716312,26.53,2018-05-21,"{'volume': 0.15, 'sod_14': 0.15, 'macd': 0.13, 'macdh': 0.13, 'rsi_14': 0.12, 'wr_14': 0.12, 'obv_2': 0.1, 'roc_2': 0.09}",0.7801418439716312,-1.0,0.7801418439716312,"(1259, 8)",Sell,MCRO
195,0.7380952380952381,32.15,2018-05-22,"{'macdh': 0.16, 'macd': 0.14, 'sod_14': 0.14, 'rsi_14': 0.12, 'volume': 0.12, 'obv_2': 0.11, 'wr_14': 0.11, 'roc_2': 0.09}",0.7380952380952381,2.0,0.7380952380952381,"(1305, 8)",Buy Strong,MCS
196,0.7414965986394558,30.19,2018-05-22,"{'volume': 0.18, 'sod_14': 0.15, 'macd': 0.12, 'rsi_14': 0.12, 'macdh': 0.11, 'obv_2': 0.11, 'wr_14': 0.11, 'roc_2': 0.1}",0.7414965986394558,-2.0,0.7414965986394558,"(1305, 8)",Sell Strong,MDC
197,0.6598639455782312,39.43,2018-05-22,"{'volume': 0.15, 'macd': 0.14, 'sod_14': 0.14, 'macdh': 0.13, 'rsi_14': 0.13, 'obv_2': 0.11, 'roc_2': 0.11, 'wr_14': 0.11}",0.6598639455782312,-1.0,0.6598639455782312,"(1305, 8)",Sell,MDLZ
198,0.8027210884353742,294.76,2018-05-22,"{'macd': 0.16, 'macdh': 0.14, 'rsi_14': 0.14, 'sod_14': 0.14, 'volume': 0.12, 'obv_2': 0.11, 'wr_14': 0.11, 'roc_2': 0.08}",0.8027210884353742,1.0,0.8027210884353742,"(1305, 8)",Buy,MELI
199,0.826530612244898,210.31,2018-05-22,"{'macd': 0.16, 'sod_14': 0.15, 'macdh': 0.14, 'volume': 0.14, 'rsi_14': 0.13, 'obv_2': 0.1, 'wr_14': 0.1, 'roc_2': 0.09}",0.826530612244898,-2.0,0.826530612244898,"(1305, 8)",Sell Strong,MKTX
200,0.7755102040816326,198.97,2018-05-22,"{'macd': 0.15, 'volume': 0.14, 'sod_14': 0.14, 'rsi_14': 0.13, 'obv_2': 0.12, 'wr_14': 0.12, 'macdh': 0.11, 'roc_2': 0.09}",0.7755102040816326,2.0,0.7755102040816326,"(1305, 8)",Buy Strong,MMM
201,0.8231292517006803,49.68,2018-05-22,"{'macd': 0.15, 'macdh': 0.14, 'volume': 0.14, 'sod_14': 0.14, 'rsi_14': 0.13, 'obv_2': 0.11, 'wr_14': 0.11, 'roc_2': 0.08}",0.8231292517006803,1.0,0.8231292517006803,"(1305, 8)",Buy,MNST
202,0.7789115646258503,20.81,2018-05-22,"{'macd': 0.15, 'volume': 0.15, 'rsi_14': 0.14, 'macdh': 0.13, 'sod_14': 0.13, 'obv_2': 0.1, 'roc_2': 0.1, 'wr_14': 0.1}",0.7789115646258503,1.0,0.7789115646258503,"(1305, 8)",Buy,MRC
203,0.7925170068027211,58.45,2018-05-22,"{'sod_14': 0.17, 'macdh': 0.14, 'volume': 0.14, 'macd': 0.13, 'rsi_14': 0.11, 'wr_14': 0.11, 'obv_2': 0.1, 'roc_2': 0.09}",0.7925170068027211,-1.0,0.7925170068027211,"(1305, 8)",Sell,MRK
204,0.8129251700680272,21.54,2018-05-22,"{'volume': 0.2, 'macd': 0.15, 'obv_2': 0.13, 'macdh': 0.12, 'rsi_14': 0.12, 'sod_14': 0.12, 'wr_14': 0.09, 'roc_2': 0.08}",0.8129251700680272,-2.0,0.8129251700680272,"(1305, 8)",Sell Strong,MRO
205,0.7103448275862069,97.5,2018-05-22,"{'sod_14': 0.15, 'macd': 0.14, 'volume': 0.14, 'rsi_14': 0.13, 'macdh': 0.12, 'obv_2': 0.12, 'roc_2': 0.1, 'wr_14': 0.1}",0.7103448275862069,1.0,0.7103448275862069,"(1289, 8)",Buy,MSFT
206,0.7891156462585034,59.03,2018-05-22,"{'macd': 0.21, 'rsi_14': 0.15, 'macdh': 0.13, 'volume': 0.13, 'sod_14': 0.12, 'obv_2': 0.1, 'wr_14': 0.09, 'roc_2': 0.08}",0.7891156462585034,1.0,0.7891156462585034,"(1305, 8)",Buy,MU
207,0.7312925170068028,58.48,2018-05-22,"{'macd': 0.16, 'macdh': 0.14, 'sod_14': 0.14, 'rsi_14': 0.13, 'volume': 0.13, 'obv_2': 0.1, 'wr_14': 0.1, 'roc_2': 0.09}",0.7312925170068028,1.0,0.7312925170068028,"(1305, 8)",Buy,MXIM
208,0.7925170068027211,12.38,2018-05-22,"{'volume': 0.16, 'macd': 0.14, 'sod_14': 0.14, 'macdh': 0.13, 'obv_2': 0.13, 'rsi_14': 0.13, 'wr_14': 0.1, 'roc_2': 0.08}",0.7925170068027211,2.0,0.7925170068027211,"(1305, 8)",Buy Strong,MYI
209,0.7721088435374149,39.21,2018-05-22,"{'macd': 0.15, 'sod_14': 0.15, 'rsi_14': 0.14, 'volume': 0.14, 'macdh': 0.12, 'wr_14': 0.11, 'obv_2': 0.1, 'roc_2': 0.09}",0.7721088435374149,-2.0,0.7721088435374149,"(1305, 8)",Sell Strong,MYL
210,0.7006802721088435,59.6,2018-05-22,"{'macd': 0.14, 'macdh': 0.14, 'rsi_14': 0.14, 'volume': 0.14, 'sod_14': 0.14, 'obv_2': 0.11, 'roc_2': 0.1, 'wr_14': 0.1}",0.7006802721088435,2.0,0.7006802721088435,"(1305, 8)",Buy Strong,NAVG
211,0.8266666666666667,14.41,2018-05-22,"{'volume': 0.17, 'macd': 0.14, 'sod_14': 0.14, 'rsi_14': 0.13, 'macdh': 0.12, 'obv_2': 0.11, 'wr_14': 0.1, 'roc_2': 0.09}",0.8266666666666667,-2.0,0.8266666666666667,"(1032, 8)",Sell Strong,NAVI
212,0.7551020408163265,38.59,2018-05-22,"{'macd': 0.15, 'sod_14': 0.15, 'macdh': 0.14, 'volume': 0.13, 'rsi_14': 0.12, 'obv_2': 0.11, 'wr_14': 0.11, 'roc_2': 0.1}",0.7551020408163265,2.0,0.7551020408163265,"(1305, 8)",Buy Strong,NBTB
213,0.7585034013605442,91.51,2018-05-22,"{'macd': 0.16, 'volume': 0.15, 'rsi_14': 0.14, 'obv_2': 0.12, 'sod_14': 0.12, 'macdh': 0.11, 'wr_14': 0.1, 'roc_2': 0.09}",0.7585034013605442,-2.0,0.7585034013605442,"(1305, 8)",Sell Strong,NDAQ
214,0.7993197278911565,331.62,2018-05-22,"{'volume': 0.16, 'macdh': 0.14, 'macd': 0.13, 'rsi_14': 0.13, 'sod_14': 0.13, 'obv_2': 0.11, 'wr_14': 0.1, 'roc_2': 0.09}",0.7993197278911565,2.0,0.7993197278911565,"(1305, 8)",Buy Strong,NFLX
215,0.7551020408163265,4.58,2018-05-22,"{'macd': 0.16, 'volume': 0.16, 'macdh': 0.12, 'obv_2': 0.12, 'rsi_14': 0.12, 'sod_14': 0.12, 'wr_14': 0.11, 'roc_2': 0.08}",0.7551020408163265,1.0,0.7551020408163265,"(1305, 8)",Buy,NG
216,0.7829787234042553,26.98,2018-05-22,"{'macd': 0.17, 'volume': 0.15, 'sod_14': 0.14, 'rsi_14': 0.13, 'macdh': 0.12, 'obv_2': 0.1, 'wr_14': 0.1, 'roc_2': 0.08}",0.7829787234042553,-1.0,0.7829787234042553,"(1072, 8)",Sell,NGHC
217,0.8095238095238095,71.31,2018-05-22,"{'macd': 0.15, 'macdh': 0.14, 'rsi_14': 0.14, 'volume': 0.14, 'sod_14': 0.14, 'obv_2': 0.1, 'wr_14': 0.1, 'roc_2': 0.09}",0.8095238095238095,-1.0,0.8095238095238095,"(1305, 8)",Sell,NKE
218,0.7482993197278912,324.5,2018-05-22,"{'macd': 0.17, 'volume': 0.14, 'sod_14': 0.14, 'macdh': 0.13, 'rsi_14': 0.13, 'obv_2': 0.12, 'wr_14': 0.1, 'roc_2': 0.08}",0.7482993197278912,1.0,0.7482993197278912,"(1305, 8)",Buy,NOC
219,0.7789115646258503,235.38,2018-05-22,"{'macd': 0.16, 'volume': 0.14, 'macdh': 0.13, 'sod_14': 0.13, 'obv_2': 0.12, 'rsi_14': 0.12, 'roc_2': 0.1, 'wr_14': 0.1}",0.7789115646258503,-1.0,0.7789115646258503,"(1305, 8)",Sell,NTES
220,0.8020833333333334,24.58,2018-05-22,"{'macd': 0.18, 'macdh': 0.15, 'volume': 0.14, 'rsi_14': 0.13, 'sod_14': 0.13, 'wr_14': 0.11, 'obv_2': 0.09, 'roc_2': 0.07}",0.8020833333333334,1.0,0.8020833333333334,"(515, 8)",Buy,NTLA
221,0.7142857142857143,108.43,2018-05-22,"{'macd': 0.16, 'rsi_14': 0.14, 'sod_14': 0.14, 'macdh': 0.13, 'volume': 0.12, 'obv_2': 0.11, 'wr_14': 0.11, 'roc_2': 0.1}",0.7142857142857143,2.0,0.7142857142857143,"(1305, 8)",Buy Strong,NTRS
222,0.8197278911564626,242.7,2018-05-22,"{'macd': 0.22, 'macdh': 0.15, 'volume': 0.14, 'rsi_14': 0.12, 'wr_14': 0.1, 'sod_14': 0.1, 'obv_2': 0.09, 'roc_2': 0.08}",0.8197278911564626,2.0,0.8197278911564626,"(1305, 8)",Buy Strong,NVDA
223,0.782312925170068,17.17,2018-05-22,"{'macd': 0.16, 'macdh': 0.14, 'volume': 0.13, 'sod_14': 0.13, 'rsi_14': 0.12, 'obv_2': 0.11, 'wr_14': 0.11, 'roc_2': 0.1}",0.782312925170068,2.0,0.782312925170068,"(1305, 8)",Buy Strong,NWBI
224,0.7346938775510204,18.2,2018-05-22,"{'macd': 0.17, 'volume': 0.15, 'sod_14': 0.14, 'rsi_14': 0.13, 'macdh': 0.11, 'obv_2': 0.11, 'wr_14': 0.1, 'roc_2': 0.09}",0.7346938775510204,2.0,0.7346938775510204,"(1305, 8)",Buy Strong,ONB
225,0.78839590443686,46.37,2018-05-22,"{'macd': 0.16, 'volume': 0.14, 'macdh': 0.13, 'rsi_14': 0.13, 'sod_14': 0.13, 'wr_14': 0.11, 'obv_2': 0.1, 'roc_2': 0.1}",0.78839590443686,-2.0,0.78839590443686,"(1303, 8)",Sell Strong,ORCL
226,0.7380952380952381,267.45,2018-05-22,"{'macd': 0.16, 'macdh': 0.15, 'rsi_14': 0.13, 'volume': 0.12, 'roc_2': 0.11, 'wr_14': 0.11, 'sod_14': 0.11, 'obv_2': 0.1}",0.7380952380952381,-1.0,0.7380952380952381,"(1305, 8)",Sell,ORLY
227,0.7992957746478874,41.48,2018-05-22,"{'volume': 0.2, 'macd': 0.14, 'sod_14': 0.14, 'obv_2': 0.13, 'rsi_14': 0.11, 'macdh': 0.1, 'roc_2': 0.09, 'wr_14': 0.09}",0.7992957746478874,1.0,0.7992957746478874,"(1267, 8)",Buy,OSB
228,0.8095238095238095,48.93,2018-05-22,"{'volume': 0.17, 'macd': 0.15, 'rsi_14': 0.14, 'macdh': 0.12, 'sod_14': 0.12, 'obv_2': 0.11, 'wr_14': 0.1, 'roc_2': 0.09}",0.8095238095238095,-2.0,0.8095238095238095,"(1305, 8)",Sell Strong,OZRK
229,0.7142857142857143,54.37,2018-05-22,"{'volume': 0.2, 'sod_14': 0.15, 'macd': 0.14, 'macdh': 0.12, 'rsi_14': 0.11, 'obv_2': 0.1, 'wr_14': 0.1, 'roc_2': 0.08}",0.7142857142857143,-2.0,0.7142857142857143,"(1305, 8)",Sell Strong,PACW
230,0.7857142857142857,47.8,2018-05-22,"{'volume': 0.16, 'sod_14': 0.16, 'macd': 0.15, 'macdh': 0.12, 'rsi_14': 0.12, 'obv_2': 0.11, 'wr_14': 0.1, 'roc_2': 0.09}",0.7857142857142857,-1.0,0.7857142857142857,"(1305, 8)",Sell,PAG
231,0.7585034013605442,65.42,2018-05-22,"{'macd': 0.18, 'sod_14': 0.14, 'rsi_14': 0.13, 'macdh': 0.12, 'volume': 0.12, 'obv_2': 0.1, 'wr_14': 0.1, 'roc_2': 0.09}",0.7585034013605442,-2.0,0.7585034013605442,"(1305, 8)",Sell Strong,PAYX
232,0.6938775510204082,19.02,2018-05-22,"{'macd': 0.16, 'rsi_14': 0.14, 'sod_14': 0.14, 'macdh': 0.13, 'volume': 0.13, 'obv_2': 0.11, 'roc_2': 0.1, 'wr_14': 0.1}",0.6938775510204082,1.0,0.6938775510204082,"(1305, 8)",Buy,PBCT
233,0.7414965986394558,65.74,2018-05-22,"{'macd': 0.17, 'sod_14': 0.14, 'rsi_14': 0.13, 'volume': 0.13, 'macdh': 0.11, 'obv_2': 0.11, 'wr_14': 0.11, 'roc_2': 0.09}",0.7414965986394558,-2.0,0.7414965986394558,"(1305, 8)",Sell Strong,PCAR
234,0.7585034013605442,49.9,2018-05-22,"{'macd': 0.17, 'macdh': 0.14, 'sod_14': 0.14, 'volume': 0.13, 'rsi_14': 0.12, 'obv_2': 0.11, 'wr_14': 0.11, 'roc_2': 0.09}",0.7585034013605442,2.0,0.7585034013605442,"(1305, 8)",Buy Strong,PCH
235,0.7448979591836735,36.8,2018-05-22,"{'macd': 0.15, 'macdh': 0.15, 'volume': 0.14, 'rsi_14': 0.13, 'sod_14': 0.12, 'obv_2': 0.11, 'wr_14': 0.11, 'roc_2': 0.09}",0.7448979591836735,-2.0,0.7448979591836735,"(1305, 8)",Sell Strong,PETS
236,0.8027210884353742,35.72,2018-05-22,"{'macd': 0.14, 'volume': 0.14, 'sod_14': 0.14, 'macdh': 0.13, 'rsi_14': 0.13, 'obv_2': 0.12, 'roc_2': 0.1, 'wr_14': 0.1}",0.8027210884353742,1.0,0.8027210884353742,"(1305, 8)",Buy,PFE
237,0.7482993197278912,59.96,2018-05-22,"{'sod_14': 0.17, 'volume': 0.15, 'macd': 0.14, 'macdh': 0.13, 'rsi_14': 0.12, 'obv_2': 0.11, 'wr_14': 0.1, 'roc_2': 0.08}",0.7482993197278912,1.0,0.7482993197278912,"(1305, 8)",Buy,PFG
238,0.7517006802721088,74.03,2018-05-22,"{'macd': 0.16, 'sod_14': 0.15, 'volume': 0.14, 'macdh': 0.12, 'rsi_14': 0.12, 'obv_2': 0.11, 'roc_2': 0.1, 'wr_14': 0.1}",0.7517006802721088,-2.0,0.7517006802721088,"(1305, 8)",Sell Strong,PG
239,0.7789115646258503,24.18,2018-05-22,"{'sod_14': 0.17, 'volume': 0.15, 'macd': 0.14, 'macdh': 0.12, 'rsi_14': 0.12, 'wr_14': 0.11, 'obv_2': 0.1, 'roc_2': 0.09}",0.7789115646258503,-1.0,0.7789115646258503,"(1305, 8)",Sell,PIN
240,0.7448979591836735,68.05,2018-05-22,"{'macd': 0.17, 'volume': 0.17, 'macdh': 0.13, 'rsi_14': 0.13, 'sod_14': 0.12, 'obv_2': 0.1, 'wr_14': 0.1, 'roc_2': 0.08}",0.7448979591836735,-2.0,0.7448979591836735,"(1305, 8)",Sell Strong,PNFP
241,0.7653061224489796,39.9,2018-05-22,"{'macd': 0.16, 'rsi_14': 0.14, 'macdh': 0.13, 'volume': 0.13, 'sod_14': 0.13, 'obv_2': 0.12, 'wr_14': 0.1, 'roc_2': 0.09}",0.7653061224489796,-1.0,0.7653061224489796,"(1305, 8)",Sell,PRAA
242,0.7414965986394558,101.96,2018-05-22,"{'macd': 0.15, 'volume': 0.15, 'macdh': 0.14, 'sod_14': 0.14, 'rsi_14': 0.12, 'obv_2': 0.11, 'wr_14': 0.11, 'roc_2': 0.09}",0.7414965986394558,1.0,0.7414965986394558,"(1305, 8)",Buy,PRU
243,0.7718120805369127,80.62,2018-05-22,"{'rsi_14': 0.16, 'macd': 0.15, 'sod_14': 0.15, 'volume': 0.14, 'wr_14': 0.11, 'roc_2': 0.1, 'macdh': 0.09, 'obv_2': 0.09}",0.7718120805369127,-2.0,0.7718120805369127,"(727, 8)",Sell Strong,PYPL
244,0.8469387755102041,10.06,2018-05-22,"{'macd': 0.16, 'sod_14': 0.16, 'macdh': 0.15, 'rsi_14': 0.12, 'volume': 0.12, 'wr_14': 0.11, 'obv_2': 0.09, 'roc_2': 0.09}",0.8469387755102041,-1.0,0.8469387755102041,"(1305, 8)",Sell,PZC
245,0.7448979591836735,57.39,2018-05-22,"{'macd': 0.15, 'sod_14': 0.15, 'volume': 0.14, 'macdh': 0.13, 'rsi_14': 0.13, 'obv_2': 0.1, 'wr_14': 0.1, 'roc_2': 0.09}",0.7448979591836735,-2.0,0.7448979591836735,"(1305, 8)",Sell Strong,QCOM
246,0.7832167832167832,19.03,2018-05-22,"{'macd': 0.17, 'rsi_14': 0.14, 'volume': 0.13, 'sod_14': 0.13, 'macdh': 0.12, 'wr_14': 0.11, 'obv_2': 0.1, 'roc_2': 0.08}",0.7832167832167832,1.0,0.7832167832167832,"(1273, 8)",Buy,QIWI
247,0.8503401360544217,22.0,2018-05-22,"{'sod_14': 0.16, 'volume': 0.15, 'macd': 0.14, 'macdh': 0.14, 'rsi_14': 0.12, 'wr_14': 0.11, 'obv_2': 0.1, 'roc_2': 0.08}",0.8503401360544217,1.0,0.8503401360544217,"(1305, 8)",Buy,QRTEA
248,0.7687074829931972,8.04,2018-05-22,"{'volume': 0.17, 'macd': 0.15, 'rsi_14': 0.14, 'sod_14': 0.13, 'macdh': 0.11, 'obv_2': 0.11, 'wr_14': 0.1, 'roc_2': 0.08}",0.7687074829931972,1.0,0.7687074829931972,"(1305, 8)",Buy,RBS
249,0.7755102040816326,15.35,2018-05-22,"{'macdh': 0.16, 'sod_14': 0.15, 'macd': 0.14, 'rsi_14': 0.13, 'volume': 0.12, 'wr_14': 0.11, 'obv_2': 0.1, 'roc_2': 0.1}",0.7755102040816326,-1.0,0.7755102040816326,"(1305, 8)",Sell,RDI
250,0.7142857142857143,294.68,2018-05-22,"{'macd': 0.17, 'macdh': 0.16, 'sod_14': 0.13, 'rsi_14': 0.12, 'volume': 0.12, 'obv_2': 0.1, 'wr_14': 0.1, 'roc_2': 0.09}",0.7142857142857143,2.0,0.7142857142857143,"(1305, 8)",Buy Strong,REGN
251,0.7993197278911565,58.96,2018-05-22,"{'volume': 0.16, 'sod_14': 0.16, 'macd': 0.13, 'macdh': 0.12, 'rsi_14': 0.12, 'obv_2': 0.11, 'wr_14': 0.1, 'roc_2': 0.09}",0.7993197278911565,-1.0,0.7993197278911565,"(1305, 8)",Sell,RIO
252,0.7312925170068028,48.1,2018-05-22,"{'macd': 0.15, 'volume': 0.15, 'macdh': 0.14, 'sod_14': 0.14, 'rsi_14': 0.12, 'obv_2': 0.11, 'wr_14': 0.1, 'roc_2': 0.08}",0.7312925170068028,-2.0,0.7312925170068028,"(1305, 8)",Sell Strong,RNST
253,0.7312925170068028,17.67,2018-05-22,"{'volume': 0.17, 'macd': 0.14, 'rsi_14': 0.13, 'macdh': 0.12, 'obv_2': 0.12, 'sod_14': 0.12, 'wr_14': 0.1, 'roc_2': 0.09}",0.7312925170068028,1.0,0.7312925170068028,"(1305, 8)",Buy,ROIC
254,0.8129251700680272,82.34,2018-05-22,"{'macd': 0.15, 'rsi_14': 0.14, 'volume': 0.14, 'macdh': 0.13, 'sod_14': 0.13, 'obv_2': 0.11, 'wr_14': 0.11, 'roc_2': 0.09}",0.8129251700680272,2.0,0.8129251700680272,"(1305, 8)",Buy Strong,ROST
255,0.8,18.39,2018-05-22,"{'macd': 0.2, 'volume': 0.19, 'macdh': 0.16, 'rsi_14': 0.11, 'wr_14': 0.09, 'sod_14': 0.09, 'obv_2': 0.08, 'roc_2': 0.08}",0.8,-2.0,0.8,"(231, 8)",Sell Strong,SAFE
256,0.8061224489795918,157.29,2018-05-22,"{'macd': 0.15, 'sod_14': 0.15, 'rsi_14': 0.14, 'volume': 0.14, 'macdh': 0.12, 'obv_2': 0.11, 'wr_14': 0.11, 'roc_2': 0.1}",0.8061224489795918,-2.0,0.8061224489795918,"(1305, 8)",Sell Strong,SBAC
257,0.8469387755102041,132.02,2018-05-22,"{'macd': 0.17, 'macdh': 0.15, 'volume': 0.15, 'sod_14': 0.13, 'rsi_14': 0.12, 'wr_14': 0.11, 'obv_2': 0.1, 'roc_2': 0.08}",0.8469387755102041,-1.0,0.8469387755102041,"(1305, 8)",Sell,SBNY
258,0.7585034013605442,19.67,2018-05-22,"{'volume': 0.17, 'macd': 0.14, 'macdh': 0.13, 'rsi_14': 0.13, 'sod_14': 0.12, 'obv_2': 0.11, 'wr_14': 0.1, 'roc_2': 0.09}",0.7585034013605442,-2.0,0.7585034013605442,"(1305, 8)",Sell Strong,SBRA
259,0.8129251700680272,56.96,2018-05-22,"{'sod_14': 0.17, 'rsi_14': 0.16, 'macd': 0.14, 'macdh': 0.13, 'volume': 0.11, 'wr_14': 0.11, 'obv_2': 0.1, 'roc_2': 0.09}",0.8129251700680272,-1.0,0.8129251700680272,"(1305, 8)",Sell,SBUX
260,0.7747440273037542,18.7522,2018-05-22,"{'sod_14': 0.16, 'macd': 0.14, 'macdh': 0.13, 'rsi_14': 0.13, 'volume': 0.13, 'obv_2': 0.11, 'wr_14': 0.11, 'roc_2': 0.09}",0.7747440273037542,2.0,0.7747440273037542,"(1302, 8)",Buy Strong,SCIN
261,0.7671232876712328,27.45,2018-05-22,"{'macd': 0.14, 'macdh': 0.14, 'rsi_14': 0.14, 'volume': 0.14, 'sod_14': 0.13, 'wr_14': 0.12, 'obv_2': 0.1, 'roc_2': 0.09}",0.7671232876712328,2.0,0.7671232876712328,"(1297, 8)",Buy Strong,SDP
262,0.8469387755102041,1.69,2018-05-22,"{'macd': 0.17, 'sod_14': 0.14, 'macdh': 0.13, 'rsi_14': 0.13, 'volume': 0.13, 'obv_2': 0.11, 'wr_14': 0.11, 'roc_2': 0.09}",0.8469387755102041,-2.0,0.8469387755102041,"(1305, 8)",Sell Strong,SDR
263,0.7755102040816326,65.46,2018-05-22,"{'macd': 0.18, 'volume': 0.14, 'rsi_14': 0.13, 'sod_14': 0.13, 'macdh': 0.12, 'obv_2': 0.1, 'wr_14': 0.1, 'roc_2': 0.09}",0.7755102040816326,1.0,0.7755102040816326,"(1305, 8)",Buy,SEIC
264,0.7647058823529411,43.67,2018-05-22,"{'macd': 0.17, 'volume': 0.17, 'macdh': 0.14, 'rsi_14': 0.12, 'sod_14': 0.12, 'obv_2': 0.11, 'wr_14': 0.09, 'roc_2': 0.08}",0.7647058823529411,2.0,0.7647058823529411,"(1014, 8)",Buy Strong,SFBS
265,0.7789115646258503,31.5,2018-05-22,"{'volume': 0.19, 'macd': 0.14, 'obv_2': 0.13, 'sod_14': 0.13, 'macdh': 0.12, 'rsi_14': 0.12, 'wr_14': 0.1, 'roc_2': 0.08}",0.7789115646258503,-2.0,0.7789115646258503,"(1305, 8)",Sell Strong,SFNC
266,0.791095890410959,23.17,2018-05-22,"{'macd': 0.15, 'macdh': 0.15, 'volume': 0.15, 'sod_14': 0.14, 'rsi_14': 0.12, 'obv_2': 0.11, 'wr_14': 0.1, 'roc_2': 0.08}",0.791095890410959,1.0,0.791095890410959,"(1300, 8)",Buy,SGC
267,0.7755102040816326,15.65,2018-05-22,"{'macd': 0.17, 'macdh': 0.15, 'volume': 0.14, 'sod_14': 0.14, 'rsi_14': 0.12, 'obv_2': 0.1, 'wr_14': 0.1, 'roc_2': 0.08}",0.7755102040816326,-1.0,0.7755102040816326,"(1305, 8)",Sell,SGMO
268,0.8469387755102041,71.29,2018-05-22,"{'macd': 0.16, 'rsi_14': 0.16, 'volume': 0.15, 'sod_14': 0.13, 'macdh': 0.12, 'obv_2': 0.1, 'roc_2': 0.09, 'wr_14': 0.09}",0.8469387755102041,-2.0,0.8469387755102041,"(1305, 8)",Sell Strong,SHI
269,0.8027210884353742,169.89,2018-05-22,"{'volume': 0.22, 'macd': 0.14, 'sod_14': 0.13, 'macdh': 0.12, 'obv_2': 0.12, 'rsi_14': 0.11, 'roc_2': 0.08, 'wr_14': 0.08}",0.8027210884353742,-1.0,0.8027210884353742,"(1305, 8)",Sell,SHPG
270,0.6870748299319728,56.3,2018-05-22,"{'volume': 0.17, 'rsi_14': 0.15, 'macd': 0.12, 'obv_2': 0.12, 'sod_14': 0.12, 'macdh': 0.11, 'wr_14': 0.11, 'roc_2': 0.1}",0.6870748299319728,2.0,0.6870748299319728,"(1305, 8)",Buy Strong,SIGI
271,0.8129251700680272,6.94,2018-05-22,"{'sod_14': 0.16, 'macd': 0.14, 'macdh': 0.14, 'volume': 0.14, 'obv_2': 0.11, 'rsi_14': 0.11, 'wr_14': 0.1, 'roc_2': 0.09}",0.8129251700680272,1.0,0.8129251700680272,"(1305, 8)",Buy,SIRI
272,0.8129251700680272,324.31,2018-05-22,"{'macd': 0.15, 'volume': 0.14, 'sod_14': 0.14, 'macdh': 0.13, 'rsi_14': 0.13, 'obv_2': 0.11, 'wr_14': 0.11, 'roc_2': 0.09}",0.8129251700680272,2.0,0.8129251700680272,"(1305, 8)",Buy Strong,SIVB
273,0.9115646258503401,28.73,2018-05-22,"{'macd': 0.16, 'sod_14': 0.14, 'macdh': 0.13, 'rsi_14': 0.13, 'volume': 0.13, 'obv_2': 0.11, 'wr_14': 0.1, 'roc_2': 0.09}",0.9115646258503401,1.0,0.9115646258503401,"(1305, 8)",Buy,SKY
274,0.7789115646258503,11.82,2018-05-22,"{'macd': 0.16, 'sod_14': 0.15, 'macdh': 0.14, 'rsi_14': 0.13, 'volume': 0.13, 'obv_2': 0.1, 'wr_14': 0.1, 'roc_2': 0.08}",0.7789115646258503,2.0,0.7789115646258503,"(1305, 8)",Buy Strong,SLM
275,0.8111888111888111,44.91,2018-05-22,"{'volume': 0.19, 'macd': 0.15, 'rsi_14': 0.13, 'sod_14': 0.13, 'macdh': 0.12, 'wr_14': 0.11, 'obv_2': 0.1, 'roc_2': 0.07}",0.8111888111888111,-2.0,0.8111888111888111,"(1275, 8)",Sell Strong,SMIN
276,0.7380952380952381,44.33,2018-05-22,"{'macd': 0.17, 'rsi_14': 0.16, 'macdh': 0.13, 'sod_14': 0.13, 'volume': 0.12, 'wr_14': 0.11, 'obv_2': 0.1, 'roc_2': 0.08}",0.7380952380952381,2.0,0.7380952380952381,"(1305, 8)",Buy Strong,SMP
277,0.8605442176870748,4.08,2018-05-22,"{'volume': 0.19, 'macd': 0.16, 'macdh': 0.13, 'rsi_14': 0.13, 'obv_2': 0.11, 'sod_14': 0.11, 'wr_14': 0.09, 'roc_2': 0.08}",0.8605442176870748,-1.0,0.8605442176870748,"(1305, 8)",Sell,SN
278,0.8163265306122449,35.82,2018-05-22,"{'macd': 0.15, 'volume': 0.15, 'sod_14': 0.15, 'macdh': 0.13, 'rsi_14': 0.13, 'wr_14': 0.11, 'obv_2': 0.09, 'roc_2': 0.08}",0.8163265306122449,1.0,0.8163265306122449,"(1305, 8)",Buy,SNN
279,0.7380952380952381,89.27,2018-05-22,"{'sod_14': 0.17, 'macd': 0.14, 'macdh': 0.14, 'volume': 0.14, 'obv_2': 0.11, 'rsi_14': 0.11, 'wr_14': 0.1, 'roc_2': 0.09}",0.7380952380952381,2.0,0.7380952380952381,"(1305, 8)",Buy Strong,SNPS
280,0.8229166666666666,7.64,2018-05-22,"{'volume': 0.18, 'macd': 0.15, 'sod_14': 0.14, 'rsi_14': 0.13, 'obv_2': 0.11, 'macdh': 0.1, 'wr_14': 0.1, 'roc_2': 0.08}",0.8229166666666666,-1.0,0.8229166666666666,"(899, 8)",Sell,SNR
281,0.7105263157894737,0.411854,2018-05-22,"{'volume': 0.18, 'macd': 0.16, 'rsi_14': 0.13, 'obv_2': 0.12, 'sod_14': 0.12, 'macdh': 0.11, 'roc_2': 0.09, 'wr_14': 0.09}",0.7105263157894737,1.0,0.7105263157894737,"(587, 8)",Buy,SPI
282,0.7482993197278912,90.35,2018-05-22,"{'macd': 0.16, 'sod_14': 0.15, 'volume': 0.14, 'macdh': 0.13, 'rsi_14': 0.13, 'obv_2': 0.1, 'wr_14': 0.1, 'roc_2': 0.09}",0.7482993197278912,-2.0,0.7482993197278912,"(1305, 8)",Sell Strong,SSB
283,0.7857142857142857,58.01,2018-05-22,"{'macd': 0.14, 'macdh': 0.14, 'volume': 0.14, 'rsi_14': 0.13, 'sod_14': 0.13, 'obv_2': 0.12, 'wr_14': 0.11, 'roc_2': 0.1}",0.7857142857142857,-1.0,0.7857142857142857,"(1305, 8)",Sell,STX
284,0.7714285714285715,9.25,2018-05-22,"{'volume': 0.16, 'sod_14': 0.15, 'macd': 0.14, 'macdh': 0.13, 'rsi_14': 0.13, 'obv_2': 0.1, 'wr_14': 0.1, 'roc_2': 0.09}",0.7714285714285715,-2.0,0.7714285714285715,"(1252, 8)",Sell Strong,SVT
285,0.8129251700680272,100.04,2018-05-22,"{'macd': 0.16, 'volume': 0.15, 'sod_14': 0.15, 'macdh': 0.13, 'rsi_14': 0.13, 'obv_2': 0.1, 'wr_14': 0.1, 'roc_2': 0.07}",0.8129251700680272,-2.0,0.8129251700680272,"(1305, 8)",Sell Strong,SWKS
286,0.8469387755102041,21.37,2018-05-22,"{'volume': 0.2, 'macd': 0.13, 'obv_2': 0.13, 'sod_14': 0.13, 'macdh': 0.12, 'rsi_14': 0.12, 'roc_2': 0.08, 'wr_14': 0.08}",0.8469387755102041,-2.0,0.8469387755102041,"(1305, 8)",Sell Strong,SYMC
287,0.7857142857142857,1.95,2018-05-22,"{'volume': 0.16, 'sod_14': 0.16, 'macd': 0.14, 'macdh': 0.12, 'rsi_14': 0.12, 'obv_2': 0.11, 'wr_14': 0.1, 'roc_2': 0.08}",0.7857142857142857,-1.0,0.7857142857142857,"(1305, 8)",Sell,SYNC
288,0.8061224489795918,31.38,2018-05-22,"{'volume': 0.16, 'macd': 0.15, 'macdh': 0.13, 'rsi_14': 0.13, 'sod_14': 0.13, 'obv_2': 0.11, 'wr_14': 0.1, 'roc_2': 0.09}",0.8061224489795918,2.0,0.8061224489795918,"(1305, 8)",Buy Strong,SYNT
289,0.7891156462585034,11.33,2018-05-22,"{'macd': 0.17, 'volume': 0.14, 'macdh': 0.13, 'rsi_14': 0.13, 'sod_14': 0.13, 'obv_2': 0.11, 'wr_14': 0.1, 'roc_2': 0.09}",0.7891156462585034,2.0,0.7891156462585034,"(1305, 8)",Buy Strong,TCAP
290,0.8129251700680272,100.4,2018-05-22,"{'macd': 0.16, 'macdh': 0.14, 'rsi_14': 0.14, 'volume': 0.14, 'sod_14': 0.14, 'obv_2': 0.1, 'wr_14': 0.1, 'roc_2': 0.08}",0.8129251700680272,-2.0,0.8129251700680272,"(1305, 8)",Sell Strong,TCBI
291,0.7755102040816326,9.3,2018-05-22,"{'macd': 0.15, 'sod_14': 0.14, 'macdh': 0.13, 'rsi_14': 0.13, 'volume': 0.13, 'obv_2': 0.11, 'wr_14': 0.11, 'roc_2': 0.09}",0.7755102040816326,-1.0,0.7755102040816326,"(1305, 8)",Sell,TEF
292,0.7711267605633803,44.65,2018-05-22,"{'volume': 0.21, 'sod_14': 0.15, 'macd': 0.13, 'obv_2': 0.12, 'macdh': 0.11, 'rsi_14': 0.11, 'wr_14': 0.09, 'roc_2': 0.08}",0.7711267605633803,-2.0,0.7711267605633803,"(1266, 8)",Sell Strong,TEP
293,0.7687074829931972,15.39,2018-05-22,"{'macd': 0.16, 'volume': 0.16, 'sod_14': 0.15, 'macdh': 0.13, 'rsi_14': 0.12, 'obv_2': 0.11, 'roc_2': 0.09, 'wr_14': 0.09}",0.7687074829931972,-1.0,0.7687074829931972,"(1305, 8)",Sell,TFSL
294,0.7762237762237763,57.18,2018-05-22,"{'macd': 0.16, 'rsi_14': 0.14, 'sod_14': 0.14, 'macdh': 0.13, 'volume': 0.13, 'obv_2': 0.1, 'roc_2': 0.1, 'wr_14': 0.1}",0.7762237762237763,-1.0,0.7762237762237763,"(1275, 8)",Sell,TMUS
295,0.7414965986394558,32.96,2018-05-22,"{'macd': 0.14, 'macdh': 0.14, 'volume': 0.14, 'sod_14': 0.14, 'rsi_14': 0.13, 'obv_2': 0.11, 'wr_14': 0.1, 'roc_2': 0.09}",0.7414965986394558,-1.0,0.7414965986394558,"(1305, 8)",Sell,TRMK
296,0.6972789115646258,122.66,2018-05-22,"{'macd': 0.14, 'macdh': 0.14, 'sod_14': 0.14, 'rsi_14': 0.13, 'volume': 0.13, 'obv_2': 0.11, 'wr_14': 0.11, 'roc_2': 0.09}",0.6972789115646258,-1.0,0.6972789115646258,"(1305, 8)",Sell,TROW
297,0.7006802721088435,131.42,2018-05-22,"{'macd': 0.17, 'rsi_14': 0.16, 'volume': 0.14, 'sod_14': 0.12, 'macdh': 0.11, 'obv_2': 0.11, 'wr_14': 0.1, 'roc_2': 0.09}",0.7006802721088435,2.0,0.7006802721088435,"(1305, 8)",Buy Strong,TRV
298,0.7755102040816326,73.69,2018-05-22,"{'macd': 0.16, 'volume': 0.16, 'sod_14': 0.14, 'macdh': 0.13, 'rsi_14': 0.13, 'obv_2': 0.1, 'wr_14': 0.1, 'roc_2': 0.09}",0.7755102040816326,-1.0,0.7755102040816326,"(1305, 8)",Sell,TSCO
299,0.7619047619047619,275.01,2018-05-22,"{'macdh': 0.14, 'rsi_14': 0.14, 'volume': 0.14, 'sod_14': 0.14, 'macd': 0.13, 'obv_2': 0.11, 'wr_14': 0.1, 'roc_2': 0.09}",0.7619047619047619,-1.0,0.7619047619047619,"(1305, 8)",Sell,TSLA
300,0.7687074829931972,113.24,2018-05-22,"{'macd': 0.17, 'sod_14': 0.15, 'macdh': 0.13, 'rsi_14': 0.13, 'volume': 0.12, 'obv_2': 0.1, 'wr_14': 0.1, 'roc_2': 0.09}",0.7687074829931972,-1.0,0.7687074829931972,"(1305, 8)",Sell,TTWO
301,0.849802371541502,32.86,2018-05-22,"{'macd': 0.16, 'macdh': 0.15, 'volume': 0.15, 'sod_14': 0.15, 'rsi_14': 0.12, 'roc_2': 0.1, 'wr_14': 0.1, 'obv_2': 0.09}",0.849802371541502,-2.0,0.849802371541502,"(1142, 8)",Sell Strong,TWTR
302,0.7380952380952381,110.86,2018-05-22,"{'macd': 0.16, 'macdh': 0.14, 'sod_14': 0.14, 'rsi_14': 0.13, 'volume': 0.13, 'wr_14': 0.11, 'obv_2': 0.1, 'roc_2': 0.1}",0.7380952380952381,1.0,0.7380952380952381,"(1305, 8)",Buy,TXN
303,0.9166666666666666,17.7858,2018-05-18,"{'sod_14': 0.19, 'volume': 0.16, 'macd': 0.15, 'rsi_14': 0.13, 'wr_14': 0.11, 'macdh': 0.09, 'obv_2': 0.09, 'roc_2': 0.07}",0.9166666666666666,1.0,0.9166666666666666,"(900, 8)",Buy,UBM
304,0.7857142857142857,37.1,2018-05-22,"{'volume': 0.17, 'macd': 0.16, 'sod_14': 0.13, 'macdh': 0.12, 'obv_2': 0.11, 'rsi_14': 0.11, 'wr_14': 0.1, 'roc_2': 0.09}",0.7857142857142857,-2.0,0.7857142857142857,"(1305, 8)",Sell Strong,UBSI
305,0.7653061224489796,33.41,2018-05-22,"{'volume': 0.17, 'macd': 0.14, 'macdh': 0.13, 'rsi_14': 0.13, 'sod_14': 0.12, 'obv_2': 0.11, 'roc_2': 0.1, 'wr_14': 0.1}",0.7653061224489796,-1.0,0.7653061224489796,"(1305, 8)",Sell,UCBI
306,0.8428571428571429,16.5,2018-05-22,"{'volume': 0.2, 'sod_14': 0.15, 'macd': 0.14, 'rsi_14': 0.12, 'macdh': 0.11, 'obv_2': 0.11, 'wr_14': 0.1, 'roc_2': 0.08}",0.8428571428571429,2.0,0.8428571428571429,"(1252, 8)",Buy Strong,ULE
307,0.8741496598639455,252.69,2018-05-22,"{'macd': 0.18, 'rsi_14': 0.15, 'volume': 0.14, 'macdh': 0.13, 'sod_14': 0.12, 'obv_2': 0.1, 'wr_14': 0.1, 'roc_2': 0.07}",0.8741496598639455,-1.0,0.8741496598639455,"(1305, 8)",Sell,ULTA
308,0.7517006802721088,79.09,2018-05-22,"{'macd': 0.16, 'macdh': 0.14, 'rsi_14': 0.13, 'volume': 0.13, 'sod_14': 0.13, 'obv_2': 0.11, 'wr_14': 0.1, 'roc_2': 0.09}",0.7517006802721088,2.0,0.7517006802721088,"(1305, 8)",Buy Strong,UMBF
309,0.717687074829932,24.0,2018-05-22,"{'macd': 0.16, 'sod_14': 0.16, 'volume': 0.15, 'macdh': 0.12, 'rsi_14': 0.11, 'obv_2': 0.1, 'roc_2': 0.1, 'wr_14': 0.1}",0.717687074829932,-2.0,0.717687074829932,"(1305, 8)",Sell Strong,UMPQ
310,0.7380952380952381,245.18,2018-05-22,"{'macd': 0.15, 'macdh': 0.14, 'volume': 0.14, 'sod_14': 0.14, 'rsi_14': 0.13, 'obv_2': 0.11, 'wr_14': 0.11, 'roc_2': 0.09}",0.7380952380952381,-1.0,0.7380952380952381,"(1305, 8)",Sell,UNH
311,0.8148148148148148,20.09,2018-05-22,"{'macd': 0.2, 'macdh': 0.14, 'rsi_14': 0.13, 'sod_14': 0.13, 'volume': 0.12, 'wr_14': 0.11, 'obv_2': 0.09, 'roc_2': 0.08}",0.8148148148148148,-1.0,0.8148148148148148,"(780, 8)",Sell,UNIT
312,0.8197278911564626,28.17,2018-05-22,"{'macd': 0.16, 'rsi_14': 0.15, 'volume': 0.14, 'macdh': 0.13, 'sod_14': 0.13, 'obv_2': 0.11, 'wr_14': 0.1, 'roc_2': 0.08}",0.8197278911564626,-2.0,0.8197278911564626,"(1305, 8)",Sell Strong,UTG
313,0.7585034013605442,127.87,2018-05-22,"{'sod_14': 0.16, 'macd': 0.15, 'rsi_14': 0.13, 'volume': 0.13, 'macdh': 0.12, 'obv_2': 0.1, 'roc_2': 0.1, 'wr_14': 0.1}",0.7585034013605442,-1.0,0.7585034013605442,"(1305, 8)",Sell,UTX
314,0.7346938775510204,130.71,2018-05-22,"{'macd': 0.16, 'macdh': 0.14, 'rsi_14': 0.13, 'volume': 0.13, 'sod_14': 0.13, 'obv_2': 0.11, 'wr_14': 0.11, 'roc_2': 0.09}",0.7346938775510204,1.0,0.7346938775510204,"(1305, 8)",Buy,V
315,0.7891156462585034,26.94,2018-05-22,"{'macd': 0.16, 'volume': 0.15, 'sod_14': 0.15, 'macdh': 0.13, 'rsi_14': 0.13, 'obv_2': 0.1, 'wr_14': 0.1, 'roc_2': 0.07}",0.7891156462585034,-1.0,0.7891156462585034,"(1305, 8)",Sell,VOD
316,0.7925170068027211,105.65,2018-05-22,"{'sod_14': 0.15, 'macd': 0.14, 'macdh': 0.14, 'volume': 0.13, 'rsi_14': 0.12, 'wr_14': 0.12, 'obv_2': 0.11, 'roc_2': 0.1}",0.7925170068027211,-1.0,0.7925170068027211,"(1305, 8)",Sell,VRSK
317,0.717687074829932,156.28,2018-05-22,"{'macd': 0.17, 'rsi_14': 0.15, 'sod_14': 0.14, 'macdh': 0.12, 'volume': 0.12, 'wr_14': 0.11, 'roc_2': 0.1, 'obv_2': 0.09}",0.717687074829932,-1.0,0.717687074829932,"(1305, 8)",Sell,VRTX
318,0.7074829931972789,48.81,2018-05-22,"{'volume': 0.15, 'sod_14': 0.15, 'macd': 0.14, 'macdh': 0.13, 'obv_2': 0.12, 'rsi_14': 0.12, 'wr_14': 0.1, 'roc_2': 0.09}",0.7074829931972789,2.0,0.7074829931972789,"(1305, 8)",Buy Strong,VZ
319,0.7619047619047619,57.78,2018-05-22,"{'macd': 0.16, 'volume': 0.14, 'macdh': 0.13, 'rsi_14': 0.13, 'wr_14': 0.12, 'sod_14': 0.12, 'obv_2': 0.11, 'roc_2': 0.1}",0.7619047619047619,2.0,0.7619047619047619,"(1305, 8)",Buy Strong,WABC
320,0.7721088435374149,32.9,2018-05-22,"{'macd': 0.15, 'macdh': 0.15, 'sod_14': 0.14, 'rsi_14': 0.13, 'volume': 0.13, 'wr_14': 0.11, 'obv_2': 0.09, 'roc_2': 0.09}",0.7721088435374149,1.0,0.7721088435374149,"(1305, 8)",Buy,WAFD
321,0.7517006802721088,64.23,2018-05-22,"{'macd': 0.14, 'volume': 0.14, 'sod_14': 0.14, 'macdh': 0.13, 'rsi_14': 0.13, 'obv_2': 0.12, 'wr_14': 0.11, 'roc_2': 0.1}",0.7517006802721088,-1.0,0.7517006802721088,"(1305, 8)",Sell,WBA
322,0.7040816326530612,130.35,2018-05-22,"{'macd': 0.14, 'macdh': 0.14, 'volume': 0.14, 'sod_14': 0.14, 'rsi_14': 0.13, 'obv_2': 0.11, 'wr_14': 0.11, 'roc_2': 0.08}",0.7040816326530612,1.0,0.7040816326530612,"(1305, 8)",Buy,WDAY
323,0.8639455782312925,87.87,2018-05-22,"{'volume': 0.17, 'macd': 0.15, 'sod_14': 0.14, 'rsi_14': 0.13, 'macdh': 0.12, 'obv_2': 0.11, 'roc_2': 0.09, 'wr_14': 0.09}",0.8639455782312925,-1.0,0.8639455782312925,"(1305, 8)",Sell,WDC
324,0.7857142857142857,11.33,2018-05-22,"{'macd': 0.18, 'macdh': 0.15, 'volume': 0.14, 'rsi_14': 0.13, 'sod_14': 0.12, 'wr_14': 0.1, 'obv_2': 0.09, 'roc_2': 0.09}",0.7857142857142857,-1.0,0.7857142857142857,"(1305, 8)",Sell,WETF
325,0.8345070422535211,0.155,2018-03-26,"{'macd': 0.17, 'rsi_14': 0.15, 'sod_14': 0.15, 'macdh': 0.13, 'volume': 0.11, 'obv_2': 0.1, 'roc_2': 0.09, 'wr_14': 0.09}",0.8345070422535211,2.0,0.8345070422535211,"(1265, 8)",Buy Strong,WG
326,0.7948717948717948,155.88,2018-05-22,"{'macd': 0.17, 'volume': 0.15, 'sod_14': 0.14, 'macdh': 0.12, 'rsi_14': 0.12, 'wr_14': 0.11, 'obv_2': 0.1, 'roc_2': 0.08}",0.7948717948717948,-1.0,0.7948717948717948,"(600, 8)",Sell,WLTW
327,0.8435374149659864,83.37,2018-05-22,"{'macd': 0.16, 'volume': 0.15, 'sod_14': 0.14, 'macdh': 0.13, 'rsi_14': 0.13, 'obv_2': 0.11, 'wr_14': 0.11, 'roc_2': 0.08}",0.8435374149659864,2.0,0.8435374149659864,"(1305, 8)",Buy Strong,WMT
328,0.717687074829932,91.42,2018-05-22,"{'volume': 0.17, 'macd': 0.14, 'macdh': 0.14, 'rsi_14': 0.12, 'sod_14': 0.12, 'obv_2': 0.11, 'roc_2': 0.1, 'wr_14': 0.1}",0.717687074829932,2.0,0.717687074829932,"(1305, 8)",Buy Strong,WPP
329,0.7482993197278912,96.81,2018-05-22,"{'macd': 0.16, 'rsi_14': 0.14, 'sod_14': 0.14, 'volume': 0.13, 'macdh': 0.12, 'wr_14': 0.11, 'obv_2': 0.1, 'roc_2': 0.1}",0.7482993197278912,1.0,0.7482993197278912,"(1305, 8)",Buy,WTFC
330,0.8469387755102041,193.88,2018-05-22,"{'macd': 0.19, 'volume': 0.15, 'rsi_14': 0.14, 'macdh': 0.12, 'sod_14': 0.12, 'obv_2': 0.11, 'wr_14': 0.09, 'roc_2': 0.08}",0.8469387755102041,1.0,0.8469387755102041,"(1305, 8)",Buy,WYNN
331,0.7517006802721088,71.67,2018-05-22,"{'macd': 0.14, 'macdh': 0.14, 'rsi_14': 0.13, 'volume': 0.13, 'sod_14': 0.13, 'obv_2': 0.11, 'wr_14': 0.11, 'roc_2': 0.1}",0.7517006802721088,2.0,0.7517006802721088,"(1305, 8)",Buy Strong,XLNX
332,0.7687074829931972,81.64,2018-05-22,"{'macdh': 0.15, 'volume': 0.15, 'macd': 0.14, 'rsi_14': 0.13, 'sod_14': 0.13, 'obv_2': 0.11, 'wr_14': 0.11, 'roc_2': 0.09}",0.7687074829931972,2.0,0.7687074829931972,"(1305, 8)",Buy Strong,XOM
333,0.7585034013605442,47.25,2018-05-22,"{'volume': 0.17, 'macd': 0.15, 'rsi_14': 0.13, 'macdh': 0.12, 'obv_2': 0.12, 'sod_14': 0.12, 'roc_2': 0.1, 'wr_14': 0.1}",0.7585034013605442,1.0,0.7585034013605442,"(1305, 8)",Buy,XRAY
334,0.7653061224489796,51.69,2018-05-22,"{'macd': 0.17, 'volume': 0.15, 'macdh': 0.14, 'rsi_14': 0.13, 'sod_14': 0.13, 'obv_2': 0.11, 'wr_14': 0.1, 'roc_2': 0.08}",0.7653061224489796,2.0,0.7653061224489796,"(1305, 8)",Buy Strong,ZG
335,0.7448979591836735,58.54,2018-05-22,"{'macd': 0.15, 'volume': 0.15, 'macdh': 0.14, 'sod_14': 0.14, 'rsi_14': 0.12, 'obv_2': 0.11, 'wr_14': 0.11, 'roc_2': 0.09}",0.7448979591836735,1.0,0.7448979591836735,"(1305, 8)",Buy,ZION
