,(-1) close,(-1) date,accuracy,close,date,features,precision,prediction,recall,shape,signal,symbol
0,186.31,2018-05-18,0.8026315789473685,173.4765,2017-11-07,"{'volume': 0.17, 'macd': 0.16, 'rsi_14': 0.13, 'macdh': 0.12, 'sod_14': 0.12, 'obv_2': 0.11, 'wr_14': 0.1, 'roc_2': 0.09}",0.8026315789473685,-1.0,0.8026315789473685,"(1304, 8)",Sell,AAPL
1,100.99,2018-05-18,0.8125,95.0347,2017-11-07,"{'macd': 0.17, 'macdh': 0.14, 'rsi_14': 0.14, 'volume': 0.13, 'obv_2': 0.12, 'sod_14': 0.12, 'wr_14': 0.1, 'roc_2': 0.09}",0.8125,-1.0,0.8125,"(1304, 8)",Sell,AXP
2,351.23,2018-05-18,0.7960526315789473,263.4068,2017-11-07,"{'macd': 0.17, 'rsi_14': 0.15, 'volume': 0.14, 'macdh': 0.13, 'sod_14': 0.13, 'obv_2': 0.1, 'wr_14': 0.09, 'roc_2': 0.08}",0.7960526315789473,2.0,0.7960526315789473,"(1304, 8)",Buy Strong,BA
3,155.71,2018-05-18,0.743421052631579,138.1687,2017-11-07,"{'macd': 0.17, 'rsi_14': 0.14, 'macdh': 0.13, 'volume': 0.13, 'sod_14': 0.13, 'obv_2': 0.11, 'wr_14': 0.1, 'roc_2': 0.09}",0.743421052631579,1.0,0.743421052631579,"(1303, 8)",Buy,CAT
4,43.21,2018-05-18,0.7861842105263158,34.1453,2017-11-07,"{'volume': 0.16, 'macd': 0.15, 'rsi_14': 0.14, 'sod_14': 0.14, 'macdh': 0.12, 'obv_2': 0.11, 'wr_14': 0.11, 'roc_2': 0.08}",0.7861842105263158,2.0,0.7861842105263158,"(1303, 8)",Buy Strong,CSCO
5,127.86,2018-05-18,0.7664473684210527,115.0078,2017-11-07,"{'volume': 0.15, 'sod_14': 0.15, 'macd': 0.13, 'macdh': 0.13, 'rsi_14': 0.13, 'obv_2': 0.11, 'roc_2': 0.1, 'wr_14': 0.1}",0.7664473684210527,-1.0,0.7664473684210527,"(1303, 8)",Sell,CVX
6,103.93,2018-05-18,0.7763157894736842,100.7992,2017-11-07,"{'macd': 0.15, 'rsi_14': 0.15, 'sod_14': 0.15, 'macdh': 0.13, 'volume': 0.12, 'wr_14': 0.11, 'obv_2': 0.1, 'roc_2': 0.09}",0.7763157894736842,-1.0,0.7763157894736842,"(1303, 8)",Sell,DIS
7,14.97,2018-05-18,0.7697368421052632,19.9067,2017-11-07,"{'macd': 0.17, 'volume': 0.14, 'rsi_14': 0.13, 'sod_14': 0.13, 'macdh': 0.12, 'obv_2': 0.11, 'wr_14': 0.1, 'roc_2': 0.09}",0.7697368421052632,-2.0,0.7697368421052632,"(1303, 8)",Sell Strong,GE
8,237.0,2018-05-18,0.7105263157894737,238.3896,2017-11-07,"{'macd': 0.15, 'rsi_14': 0.15, 'macdh': 0.14, 'sod_14': 0.14, 'volume': 0.13, 'obv_2': 0.1, 'wr_14': 0.1, 'roc_2': 0.09}",0.7105263157894737,2.0,0.7105263157894737,"(1303, 8)",Buy Strong,GS
9,187.42,2018-05-18,0.7664473684210527,161.9117,2017-11-07,"{'macd': 0.15, 'rsi_14': 0.14, 'sod_14': 0.14, 'macdh': 0.13, 'volume': 0.12, 'obv_2': 0.11, 'wr_14': 0.11, 'roc_2': 0.1}",0.7664473684210527,1.0,0.7664473684210527,"(1303, 8)",Buy,HD
10,144.08,2018-05-18,0.743421052631579,148.3912,2017-11-07,"{'macd': 0.14, 'rsi_14': 0.14, 'volume': 0.14, 'macdh': 0.13, 'obv_2': 0.12, 'sod_14': 0.12, 'wr_14': 0.1, 'roc_2': 0.09}",0.743421052631579,2.0,0.743421052631579,"(1303, 8)",Buy Strong,IBM
11,53.5,2018-05-18,0.7631578947368421,46.4648,2017-11-07,"{'macd': 0.14, 'macdh': 0.14, 'rsi_14': 0.14, 'sod_14': 0.14, 'volume': 0.13, 'wr_14': 0.11, 'obv_2': 0.1, 'roc_2': 0.09}",0.7631578947368421,1.0,0.7631578947368421,"(1303, 8)",Buy,INTC
12,124.24,2018-05-18,0.7730263157894737,138.0353,2017-11-07,"{'macd': 0.15, 'volume': 0.14, 'sod_14': 0.14, 'macdh': 0.13, 'rsi_14': 0.13, 'obv_2': 0.11, 'roc_2': 0.11, 'wr_14': 0.1}",0.7730263157894737,-2.0,0.7730263157894737,"(1303, 8)",Sell Strong,JNJ
13,111.13,2018-05-18,0.6907894736842105,98.2383,2017-11-07,"{'sod_14': 0.16, 'macd': 0.15, 'rsi_14': 0.14, 'volume': 0.13, 'macdh': 0.12, 'obv_2': 0.11, 'wr_14': 0.1, 'roc_2': 0.09}",0.6907894736842105,2.0,0.6907894736842105,"(1303, 8)",Buy Strong,JPM
14,42.18,2018-05-18,0.7138157894736842,45.1677,2017-11-07,"{'macd': 0.16, 'sod_14': 0.15, 'macdh': 0.13, 'rsi_14': 0.13, 'volume': 0.12, 'wr_14': 0.11, 'obv_2': 0.1, 'roc_2': 0.1}",0.7138157894736842,-2.0,0.7138157894736842,"(1303, 8)",Sell Strong,KO
15,160.98,2018-05-18,0.805921052631579,168.6907,2017-11-07,"{'macd': 0.16, 'rsi_14': 0.15, 'sod_14': 0.15, 'volume': 0.14, 'macdh': 0.11, 'obv_2': 0.11, 'wr_14': 0.1, 'roc_2': 0.08}",0.805921052631579,-2.0,0.805921052631579,"(1303, 8)",Sell Strong,MCD
16,198.96,2018-05-18,0.75,227.5536,2017-11-07,"{'macd': 0.15, 'macdh': 0.14, 'volume': 0.14, 'rsi_14': 0.13, 'sod_14': 0.13, 'obv_2': 0.11, 'wr_14': 0.11, 'roc_2': 0.1}",0.75,-1.0,0.75,"(1303, 8)",Sell,MMM
17,59.14,2018-05-18,0.7368421052631579,54.6433,2017-11-07,"{'sod_14': 0.16, 'volume': 0.15, 'macd': 0.13, 'macdh': 0.13, 'rsi_14': 0.12, 'wr_14': 0.11, 'obv_2': 0.1, 'roc_2': 0.1}",0.7368421052631579,-1.0,0.7368421052631579,"(1303, 8)",Sell,MRK
18,96.36,2018-05-18,0.6766666666666666,83.4569,2017-11-07,"{'volume': 0.15, 'rsi_14': 0.14, 'macd': 0.13, 'obv_2': 0.13, 'macdh': 0.12, 'sod_14': 0.12, 'wr_14': 0.11, 'roc_2': 0.1}",0.6766666666666666,1.0,0.6766666666666666,"(1287, 8)",Buy,MSFT
19,71.32,2018-05-18,0.7861842105263158,54.8017,2017-11-07,"{'macd': 0.16, 'sod_14': 0.15, 'rsi_14': 0.14, 'macdh': 0.13, 'volume': 0.13, 'obv_2': 0.1, 'wr_14': 0.1, 'roc_2': 0.09}",0.7861842105263158,2.0,0.7861842105263158,"(1303, 8)",Buy Strong,NKE
20,35.64,2018-05-18,0.7861842105263158,34.7182,2017-11-07,"{'macd': 0.15, 'volume': 0.14, 'macdh': 0.13, 'rsi_14': 0.13, 'sod_14': 0.13, 'obv_2': 0.12, 'wr_14': 0.11, 'roc_2': 0.1}",0.7861842105263158,1.0,0.7861842105263158,"(1303, 8)",Buy,PFE
21,73.45,2018-05-18,0.7828947368421053,86.3223,2017-11-07,"{'macd': 0.16, 'rsi_14': 0.14, 'sod_14': 0.14, 'macdh': 0.13, 'volume': 0.13, 'wr_14': 0.11, 'obv_2': 0.1, 'roc_2': 0.1}",0.7828947368421053,-2.0,0.7828947368421053,"(1303, 8)",Sell Strong,PG
22,129.85,2018-05-18,0.7072368421052632,132.3131,2017-11-07,"{'macd': 0.15, 'rsi_14': 0.14, 'macdh': 0.13, 'volume': 0.13, 'sod_14': 0.13, 'obv_2': 0.11, 'wr_14': 0.11, 'roc_2': 0.1}",0.7072368421052632,1.0,0.7072368421052632,"(1303, 8)",Buy,TRV
23,244.64,2018-05-18,0.6677631578947368,211.2847,2017-11-07,"{'macd': 0.16, 'rsi_14': 0.13, 'volume': 0.13, 'sod_14': 0.13, 'macdh': 0.12, 'wr_14': 0.12, 'obv_2': 0.11, 'roc_2': 0.1}",0.6677631578947368,-1.0,0.6677631578947368,"(1303, 8)",Sell,UNH
24,125.19,2018-05-18,0.756578947368421,119.3679,2017-11-07,"{'sod_14': 0.16, 'macd': 0.15, 'rsi_14': 0.14, 'volume': 0.13, 'macdh': 0.12, 'wr_14': 0.11, 'obv_2': 0.1, 'roc_2': 0.1}",0.756578947368421,1.0,0.756578947368421,"(1303, 8)",Buy,UTX
25,129.93,2018-05-18,0.6907894736842105,111.6972,2017-11-07,"{'macd': 0.14, 'macdh': 0.14, 'sod_14': 0.14, 'volume': 0.13, 'obv_2': 0.12, 'rsi_14': 0.12, 'wr_14': 0.11, 'roc_2': 0.1}",0.6907894736842105,1.0,0.6907894736842105,"(1303, 8)",Buy,V
26,47.74,2018-05-18,0.6611842105263158,45.0568,2017-11-07,"{'macd': 0.16, 'macdh': 0.13, 'rsi_14': 0.13, 'volume': 0.13, 'sod_14': 0.13, 'obv_2': 0.11, 'wr_14': 0.11, 'roc_2': 0.1}",0.6611842105263158,2.0,0.6611842105263158,"(1303, 8)",Buy Strong,VZ
27,83.64,2018-05-18,0.8125,87.5007,2017-11-07,"{'sod_14': 0.17, 'volume': 0.15, 'macd': 0.14, 'rsi_14': 0.13, 'macdh': 0.12, 'obv_2': 0.1, 'wr_14': 0.1, 'roc_2': 0.08}",0.8125,-1.0,0.8125,"(1303, 8)",Sell,WMT
28,81.3,2018-05-18,0.756578947368421,81.9753,2017-11-07,"{'volume': 0.16, 'macd': 0.14, 'macdh': 0.14, 'obv_2': 0.12, 'rsi_14': 0.12, 'sod_14': 0.12, 'wr_14': 0.11, 'roc_2': 0.09}",0.756578947368421,-2.0,0.756578947368421,"(1303, 8)",Sell Strong,XOM
29,4.14,2018-05-18,0.7598684210526315,3.87,2017-11-07,"{'volume': 0.15, 'rsi_14': 0.14, 'sod_14': 0.14, 'macd': 0.13, 'macdh': 0.13, 'wr_14': 0.11, 'obv_2': 0.1, 'roc_2': 0.1}",0.7598684210526315,1.0,0.7598684210526315,"(1303, 8)",Buy,III
30,45.02,2018-05-18,0.7697368421052632,38.9179,2017-11-07,"{'macd': 0.14, 'volume': 0.14, 'macdh': 0.13, 'rsi_14': 0.13, 'sod_14': 0.13, 'obv_2': 0.11, 'wr_14': 0.11, 'roc_2': 0.1}",0.7697368421052632,2.0,0.7697368421052632,"(1304, 8)",Buy Strong,ADM
31,43.38,2018-05-18,0.7796052631578947,46.2695,2017-11-07,"{'macd': 0.16, 'sod_14': 0.15, 'macdh': 0.13, 'rsi_14': 0.13, 'volume': 0.13, 'obv_2': 0.11, 'wr_14': 0.11, 'roc_2': 0.09}",0.7796052631578947,1.0,0.7796052631578947,"(1304, 8)",Buy,AAL
32,6.87,2018-05-18,0.7368421052631579,6.0906,2017-11-07,"{'macd': 0.15, 'volume': 0.15, 'macdh': 0.14, 'sod_14': 0.14, 'wr_14': 0.12, 'rsi_14': 0.11, 'obv_2': 0.1, 'roc_2': 0.09}",0.7368421052631579,1.0,0.7368421052631579,"(1304, 8)",Buy,AHT
33,36.33,2018-05-18,0.7433333333333333,32.6829,2017-11-07,"{'macd': 0.15, 'sod_14': 0.14, 'macdh': 0.13, 'rsi_14': 0.13, 'volume': 0.12, 'obv_2': 0.11, 'wr_14': 0.11, 'roc_2': 0.1}",0.7433333333333333,1.0,0.7433333333333333,"(1287, 8)",Buy,AZN
34,351.23,2018-05-18,0.7960526315789473,263.4068,2017-11-07,"{'macd': 0.17, 'rsi_14': 0.15, 'volume': 0.14, 'macdh': 0.13, 'sod_14': 0.13, 'obv_2': 0.1, 'wr_14': 0.09, 'roc_2': 0.08}",0.7960526315789473,2.0,0.7960526315789473,"(1304, 8)",Buy Strong,BA
35,47.38,2018-05-18,0.7960526315789473,40.2712,2017-11-07,"{'macd': 0.15, 'volume': 0.15, 'rsi_14': 0.14, 'sod_14': 0.13, 'macdh': 0.12, 'obv_2': 0.12, 'roc_2': 0.1, 'wr_14': 0.1}",0.7960526315789473,-1.0,0.7960526315789473,"(1304, 8)",Sell,BP
36,64.84,2018-05-18,0.7401315789473685,65.0842,2017-11-07,"{'sod_14': 0.16, 'macd': 0.14, 'macdh': 0.14, 'volume': 0.13, 'rsi_14': 0.12, 'wr_14': 0.11, 'obv_2': 0.1, 'roc_2': 0.09}",0.7401315789473685,-1.0,0.7401315789473685,"(1303, 8)",Sell,CCL
37,49.27,2018-05-18,0.7631578947368421,52.1072,2017-11-07,"{'sod_14': 0.15, 'macdh': 0.14, 'macd': 0.13, 'rsi_14': 0.13, 'volume': 0.13, 'wr_14': 0.11, 'obv_2': 0.1, 'roc_2': 0.1}",0.7631578947368421,-1.0,0.7631578947368421,"(1303, 8)",Sell,CNA
38,8.49,2018-05-18,0.8322368421052632,8.6216,2017-11-07,"{'volume': 0.18, 'sod_14': 0.15, 'macd': 0.13, 'macdh': 0.12, 'obv_2': 0.11, 'rsi_14': 0.11, 'roc_2': 0.1, 'wr_14': 0.1}",0.8322368421052632,-1.0,0.8322368421052632,"(1302, 8)",Sell,CPG
39,37.73,2018-05-18,0.7138157894736842,35.42,2017-11-07,"{'sod_14': 0.16, 'volume': 0.15, 'macd': 0.13, 'macdh': 0.12, 'rsi_14': 0.12, 'obv_2': 0.11, 'wr_14': 0.11, 'roc_2': 0.1}",0.7138157894736842,-2.0,0.7138157894736842,"(1303, 8)",Sell Strong,CRH
40,131.37,2018-05-18,0.7789115646258503,123.05,2017-10-30,"{'sod_14': 0.17, 'macd': 0.15, 'volume': 0.15, 'obv_2': 0.11, 'roc_2': 0.11, 'rsi_14': 0.11, 'macdh': 0.1, 'wr_14': 0.1}",0.7789115646258503,-1.0,0.7789115646258503,"(1264, 8)",Sell,EZJ
41,108.25,2018-05-18,0.6973684210526315,76.2264,2017-11-07,"{'macd': 0.15, 'sod_14': 0.15, 'rsi_14': 0.14, 'volume': 0.13, 'macdh': 0.12, 'wr_14': 0.11, 'obv_2': 0.1, 'roc_2': 0.1}",0.6973684210526315,2.0,0.6973684210526315,"(1303, 8)",Buy Strong,EVR
42,40.03,2018-05-18,0.8125,34.709,2017-11-07,"{'macd': 0.16, 'sod_14': 0.16, 'macdh': 0.13, 'volume': 0.13, 'rsi_14': 0.12, 'obv_2': 0.11, 'wr_14': 0.11, 'roc_2': 0.09}",0.8125,2.0,0.8125,"(1303, 8)",Buy Strong,GSK
43,3.96,2018-05-18,0.743421052631579,4.5839,2017-11-07,"{'macd': 0.15, 'volume': 0.15, 'sod_14': 0.15, 'macdh': 0.13, 'rsi_14': 0.13, 'obv_2': 0.11, 'wr_14': 0.1, 'roc_2': 0.08}",0.743421052631579,-2.0,0.743421052631579,"(1303, 8)",Sell Strong,HL
44,12.25,2018-05-18,0.8223684210526315,12.7542,2017-11-07,"{'rsi_14': 0.15, 'sod_14': 0.15, 'macd': 0.14, 'macdh': 0.13, 'volume': 0.13, 'obv_2': 0.12, 'wr_14': 0.1, 'roc_2': 0.09}",0.8223684210526315,-1.0,0.8223684210526315,"(1303, 8)",Sell,INF
45,65.23,2018-05-18,0.7598684210526315,56.59,2017-11-07,"{'macd': 0.15, 'sod_14': 0.15, 'macdh': 0.14, 'rsi_14': 0.13, 'wr_14': 0.12, 'volume': 0.11, 'obv_2': 0.1, 'roc_2': 0.1}",0.7598684210526315,1.0,0.7598684210526315,"(1303, 8)",Buy,IHG
46,6.01,2018-05-18,0.7598684210526315,5.75,2017-11-07,"{'macdh': 0.15, 'volume': 0.14, 'macd': 0.13, 'sod_14': 0.13, 'rsi_14': 0.12, 'obv_2': 0.11, 'roc_2': 0.11, 'wr_14': 0.11}",0.7598684210526315,-1.0,0.7598684210526315,"(1303, 8)",Sell,IAG
47,3.6,2018-05-18,0.7598684210526315,5.1944,2017-11-07,"{'macd': 0.14, 'macdh': 0.14, 'volume': 0.14, 'sod_14': 0.13, 'obv_2': 0.12, 'rsi_14': 0.12, 'wr_14': 0.11, 'roc_2': 0.1}",0.7598684210526315,-1.0,0.7598684210526315,"(1303, 8)",Sell,JE
48,12.72,2018-05-18,0.7368421052631579,13.7324,2017-11-07,"{'volume': 0.15, 'sod_14': 0.15, 'macd': 0.14, 'rsi_14': 0.13, 'macdh': 0.12, 'obv_2': 0.11, 'wr_14': 0.1, 'roc_2': 0.09}",0.7368421052631579,-1.0,0.7368421052631579,"(1303, 8)",Sell,LAND
49,30.55,2018-05-18,0.7269736842105263,29.6866,2017-11-07,"{'volume': 0.15, 'macd': 0.14, 'rsi_14': 0.14, 'sod_14': 0.14, 'obv_2': 0.12, 'macdh': 0.11, 'wr_14': 0.11, 'roc_2': 0.09}",0.7269736842105263,-1.0,0.7269736842105263,"(1303, 8)",Sell,MDC
50,21.41,2018-05-18,0.7927631578947368,16.0566,2017-11-07,"{'volume': 0.19, 'obv_2': 0.14, 'sod_14': 0.13, 'macd': 0.12, 'macdh': 0.12, 'rsi_14': 0.12, 'wr_14': 0.11, 'roc_2': 0.09}",0.7927631578947368,-1.0,0.7927631578947368,"(1303, 8)",Sell,MRO
51,26.4806,2018-05-18,0.8191126279863481,26.345,2017-10-12,"{'volume': 0.16, 'macd': 0.15, 'macdh': 0.13, 'rsi_14': 0.13, 'sod_14': 0.13, 'obv_2': 0.11, 'wr_14': 0.11, 'roc_2': 0.09}",0.8191126279863481,1.0,0.8191126279863481,"(1258, 8)",Buy,MCRO
52,4.83,2018-05-18,0.7039473684210527,4.09,2017-11-07,"{'macd': 0.14, 'sod_14': 0.14, 'rsi_14': 0.13, 'volume': 0.13, 'macdh': 0.12, 'wr_14': 0.12, 'obv_2': 0.11, 'roc_2': 0.09}",0.7039473684210527,-1.0,0.7039473684210527,"(1303, 8)",Sell,NG
53,102.43,2018-05-18,0.7467105263157895,110.2604,2017-11-07,"{'sod_14': 0.16, 'rsi_14': 0.14, 'volume': 0.14, 'macd': 0.13, 'macdh': 0.13, 'obv_2': 0.11, 'wr_14': 0.1, 'roc_2': 0.09}",0.7467105263157895,-1.0,0.7467105263157895,"(1303, 8)",Sell,PRU
54,58.41,2018-05-18,0.7828947368421053,49.89,2017-11-07,"{'macd': 0.15, 'volume': 0.15, 'sod_14': 0.14, 'macdh': 0.12, 'rsi_14': 0.12, 'wr_14': 0.12, 'obv_2': 0.11, 'roc_2': 0.09}",0.7828947368421053,1.0,0.7828947368421053,"(1303, 8)",Buy,RIO
55,7.92,2018-05-18,0.7631578947368421,7.3,2017-11-07,"{'volume': 0.16, 'macd': 0.14, 'sod_14': 0.14, 'rsi_14': 0.13, 'macdh': 0.12, 'obv_2': 0.12, 'roc_2': 0.1, 'wr_14': 0.1}",0.7631578947368421,2.0,0.7631578947368421,"(1303, 8)",Buy Strong,RBS
56,1.38,2018-05-18,0.7894736842105263,1.2739,2017-11-07,"{'macd': 0.15, 'sod_14': 0.15, 'volume': 0.14, 'macdh': 0.13, 'rsi_14': 0.12, 'obv_2': 0.11, 'wr_14': 0.11, 'roc_2': 0.09}",0.7894736842105263,-2.0,0.7894736842105263,"(1303, 8)",Sell Strong,SDR
57,9.125,2018-05-18,0.7525773195876289,8.9,2017-11-06,"{'macd': 0.15, 'rsi_14': 0.14, 'sod_14': 0.14, 'volume': 0.13, 'macdh': 0.12, 'obv_2': 0.12, 'roc_2': 0.1, 'wr_14': 0.1}",0.7525773195876289,1.0,0.7525773195876289,"(1250, 8)",Buy,SVT
58,29.62,2018-05-18,0.8223684210526315,12.79,2017-11-07,"{'macd': 0.16, 'sod_14': 0.16, 'macdh': 0.13, 'rsi_14': 0.13, 'volume': 0.12, 'wr_14': 0.11, 'obv_2': 0.1, 'roc_2': 0.09}",0.8223684210526315,2.0,0.8223684210526315,"(1303, 8)",Buy Strong,SKY
59,3.96,2018-05-18,0.8618421052631579,5.11,2017-11-07,"{'volume': 0.2, 'macd': 0.13, 'macdh': 0.13, 'rsi_14': 0.13, 'obv_2': 0.12, 'sod_14': 0.12, 'wr_14': 0.09, 'roc_2': 0.08}",0.8618421052631579,-2.0,0.8618421052631579,"(1303, 8)",Sell Strong,SN
60,45.3,2018-05-18,0.7710437710437711,48.3461,2017-11-07,"{'volume': 0.16, 'sod_14': 0.16, 'macd': 0.13, 'macdh': 0.12, 'obv_2': 0.12, 'rsi_14': 0.12, 'wr_14': 0.11, 'roc_2': 0.08}",0.7710437710437711,-1.0,0.7710437710437711,"(1273, 8)",Sell,SMIN
61,72.82,2018-05-18,0.7467105263157895,58.6461,2017-11-07,"{'macd': 0.15, 'macdh': 0.14, 'rsi_14': 0.14, 'sod_14': 0.14, 'volume': 0.13, 'obv_2': 0.11, 'wr_14': 0.1, 'roc_2': 0.08}",0.7467105263157895,1.0,0.7467105263157895,"(1303, 8)",Buy,TSCO
62,26.41,2018-05-18,0.7664473684210527,28.3925,2017-11-07,"{'macd': 0.17, 'macdh': 0.14, 'volume': 0.14, 'sod_14': 0.14, 'rsi_14': 0.13, 'obv_2': 0.1, 'wr_14': 0.1, 'roc_2': 0.08}",0.7664473684210527,-1.0,0.7664473684210527,"(1303, 8)",Sell,VOD
63,89.19,2018-05-18,0.6973684210526315,85.52,2017-11-07,"{'volume': 0.15, 'macd': 0.13, 'macdh': 0.13, 'obv_2': 0.13, 'sod_14': 0.13, 'roc_2': 0.11, 'rsi_14': 0.11, 'wr_14': 0.11}",0.6973684210526315,-2.0,0.6973684210526315,"(1303, 8)",Sell Strong,WPP
64,46.74,2018-05-18,0.7730263157894737,42.24,2017-11-07,"{'volume': 0.17, 'sod_14': 0.17, 'macd': 0.13, 'obv_2': 0.12, 'macdh': 0.11, 'rsi_14': 0.11, 'roc_2': 0.09, 'wr_14': 0.09}",0.7730263157894737,2.0,0.7730263157894737,"(1303, 8)",Buy Strong,ALFA
65,51.47,2018-05-18,0.8244274809160306,50.4388,2017-11-07,"{'sod_14': 0.16, 'macd': 0.15, 'volume': 0.15, 'rsi_14': 0.13, 'obv_2': 0.12, 'macdh': 0.1, 'wr_14': 0.1, 'roc_2': 0.08}",0.8244274809160306,-2.0,0.8244274809160306,"(609, 8)",Sell Strong,AGR
66,3.74,2018-05-18,0.8256578947368421,7.67,2017-11-07,"{'sod_14': 0.16, 'volume': 0.15, 'rsi_14': 0.14, 'macd': 0.13, 'macdh': 0.13, 'wr_14': 0.1, 'obv_2': 0.09, 'roc_2': 0.09}",0.8256578947368421,-2.0,0.8256578947368421,"(1304, 8)",Sell Strong,AUTO
67,36.15,2018-05-18,0.7401315789473685,35.0374,2017-11-07,"{'sod_14': 0.16, 'volume': 0.15, 'macd': 0.13, 'macdh': 0.13, 'rsi_14': 0.12, 'obv_2': 0.11, 'roc_2': 0.1, 'wr_14': 0.1}",0.7401315789473685,-1.0,0.7401315789473685,"(1304, 8)",Sell,BME
68,29.4,2018-05-18,0.756578947368421,30.2488,2017-11-07,"{'macd': 0.16, 'macdh': 0.14, 'rsi_14': 0.14, 'volume': 0.14, 'sod_14': 0.13, 'wr_14': 0.11, 'obv_2': 0.1, 'roc_2': 0.08}",0.756578947368421,-2.0,0.756578947368421,"(1304, 8)",Sell Strong,BAB
69,78.25,2018-05-18,0.756578947368421,54.8276,2017-11-07,"{'macd': 0.17, 'rsi_14': 0.14, 'sod_14': 0.14, 'macdh': 0.13, 'volume': 0.12, 'obv_2': 0.11, 'wr_14': 0.1, 'roc_2': 0.09}",0.756578947368421,2.0,0.756578947368421,"(1304, 8)",Buy Strong,BBY
70,2.69,2018-05-18,0.7894736842105263,2.56,2017-11-07,"{'volume': 0.16, 'macd': 0.15, 'rsi_14': 0.13, 'sod_14': 0.13, 'macdh': 0.12, 'obv_2': 0.11, 'roc_2': 0.1, 'wr_14': 0.1}",0.7894736842105263,1.0,0.7894736842105263,"(1304, 8)",Buy,BTG
71,27.6225,2018-05-18,0.7674418604651163,27.2312,2017-11-02,"{'macdh': 0.14, 'sod_14': 0.14, 'macd': 0.13, 'rsi_14': 0.13, 'volume': 0.13, 'obv_2': 0.12, 'roc_2': 0.11, 'wr_14': 0.11}",0.7674418604651163,2.0,0.7674418604651163,"(1290, 8)",Buy Strong,CPI
72,20.64,2018-05-18,0.886986301369863,22.8988,2017-11-07,"{'volume': 0.19, 'macd': 0.15, 'rsi_14': 0.14, 'sod_14': 0.12, 'macdh': 0.11, 'obv_2': 0.11, 'wr_14': 0.1, 'roc_2': 0.09}",0.886986301369863,-2.0,0.886986301369863,"(1256, 8)",Sell Strong,CTY
73,47.31,2018-03-19,0.7235494880546075,36.0,2017-09-07,"{'macdh': 0.14, 'volume': 0.14, 'sod_14': 0.14, 'macd': 0.13, 'obv_2': 0.12, 'rsi_14': 0.12, 'wr_14': 0.11, 'roc_2': 0.09}",0.7235494880546075,2.0,0.7235494880546075,"(1260, 8)",Buy Strong,CBG
74,17.51,2018-05-18,0.7697368421052632,22.9055,2017-11-07,"{'macd': 0.16, 'sod_14': 0.15, 'macdh': 0.13, 'rsi_14': 0.12, 'volume': 0.12, 'obv_2': 0.11, 'roc_2': 0.1, 'wr_14': 0.1}",0.7697368421052632,-2.0,0.7697368421052632,"(1303, 8)",Sell Strong,CLI
75,21.5,2018-03-08,0.6996587030716723,12.6,2017-08-28,"{'sod_14': 0.16, 'volume': 0.15, 'macd': 0.13, 'macdh': 0.13, 'obv_2': 0.12, 'rsi_14': 0.11, 'wr_14': 0.11, 'roc_2': 0.09}",0.6996587030716723,2.0,0.6996587030716723,"(1258, 8)",Buy Strong,CCC
76,10.89,2018-05-18,0.7796052631578947,11.0295,2017-11-07,"{'macd': 0.15, 'rsi_14': 0.15, 'sod_14': 0.14, 'macdh': 0.12, 'obv_2': 0.12, 'volume': 0.12, 'wr_14': 0.1, 'roc_2': 0.09}",0.7796052631578947,-1.0,0.7796052631578947,"(1303, 8)",Sell,GLO
77,90.08,2018-05-18,0.7039473684210527,88.1898,2017-11-07,"{'macd': 0.14, 'rsi_14': 0.14, 'sod_14': 0.14, 'macdh': 0.13, 'volume': 0.13, 'wr_14': 0.11, 'obv_2': 0.1, 'roc_2': 0.1}",0.7039473684210527,-1.0,0.7039473684210527,"(1303, 8)",Sell,DLN
78,25.97,2018-05-18,0.7302631578947368,23.9326,2017-11-07,"{'macd': 0.14, 'rsi_14': 0.14, 'macdh': 0.13, 'volume': 0.13, 'obv_2': 0.12, 'sod_14': 0.12, 'wr_14': 0.11, 'roc_2': 0.1}",0.7302631578947368,1.0,0.7302631578947368,"(1303, 8)",Buy,ETO
79,35.54,2018-05-18,0.7849056603773585,41.44,2017-11-07,"{'macd': 0.16, 'rsi_14': 0.14, 'sod_14': 0.14, 'macdh': 0.13, 'volume': 0.12, 'wr_14': 0.11, 'obv_2': 0.1, 'roc_2': 0.1}",0.7849056603773585,-1.0,0.7849056603773585,"(1145, 8)",Sell,ESNT
80,22.04,2018-05-18,0.7659574468085106,20.994,2017-10-31,"{'sod_14': 0.15, 'macd': 0.14, 'macdh': 0.14, 'rsi_14': 0.14, 'roc_2': 0.13, 'obv_2': 0.12, 'volume': 0.09, 'wr_14': 0.09}",0.7659574468085106,2.0,0.7659574468085106,"(273, 8)",Buy Strong,ERM
81,22.06,2018-05-18,0.841726618705036,25.6249,2017-11-07,"{'volume': 0.21, 'sod_14': 0.15, 'macd': 0.13, 'obv_2': 0.13, 'rsi_14': 0.11, 'macdh': 0.1, 'wr_14': 0.1, 'roc_2': 0.09}",0.841726618705036,-2.0,0.841726618705036,"(643, 8)",Sell Strong,FCPT
82,50.03,2018-05-18,0.6710526315789473,45.6115,2017-11-07,"{'macd': 0.15, 'sod_14': 0.15, 'volume': 0.13, 'macdh': 0.12, 'rsi_14': 0.12, 'wr_14': 0.12, 'obv_2': 0.1, 'roc_2': 0.1}",0.6710526315789473,1.0,0.6710526315789473,"(1303, 8)",Buy,FDM
83,3.73,2018-05-18,0.8355263157894737,4.5994,2017-11-07,"{'macd': 0.15, 'sod_14': 0.15, 'rsi_14': 0.14, 'volume': 0.14, 'macdh': 0.12, 'obv_2': 0.11, 'wr_14': 0.11, 'roc_2': 0.09}",0.8355263157894737,-2.0,0.8355263157894737,"(1303, 8)",Sell Strong,FGP
84,31.25,2018-05-18,0.9032258064516129,28.7,2017-11-07,"{'sod_14': 0.16, 'macd': 0.15, 'macdh': 0.14, 'rsi_14': 0.13, 'volume': 0.12, 'wr_14': 0.12, 'obv_2': 0.11, 'roc_2': 0.08}",0.9032258064516129,-1.0,0.9032258064516129,"(584, 8)",Sell,GCP
85,0.7047,2018-05-18,0.7894736842105263,0.7863,2017-11-07,"{'macd': 0.15, 'rsi_14': 0.15, 'volume': 0.14, 'macdh': 0.13, 'sod_14': 0.13, 'obv_2': 0.1, 'wr_14': 0.1, 'roc_2': 0.09}",0.7894736842105263,-1.0,0.7894736842105263,"(1303, 8)",Sell,GSS
86,10.65,2018-05-18,0.7302631578947368,14.18,2017-11-07,"{'macd': 0.15, 'sod_14': 0.14, 'rsi_14': 0.13, 'volume': 0.13, 'macdh': 0.12, 'obv_2': 0.12, 'wr_14': 0.11, 'roc_2': 0.1}",0.7302631578947368,-2.0,0.7302631578947368,"(1303, 8)",Sell Strong,GPOR
87,42.7053,2018-05-18,0.7335526315789473,44.0976,2017-11-07,"{'macd': 0.14, 'rsi_14': 0.14, 'volume': 0.14, 'sod_14': 0.14, 'macdh': 0.12, 'obv_2': 0.12, 'wr_14': 0.11, 'roc_2': 0.1}",0.7335526315789473,-1.0,0.7335526315789473,"(1303, 8)",Sell,GRI
88,3.4,2018-05-18,0.7796052631578947,6.3,2017-11-07,"{'macd': 0.16, 'rsi_14': 0.15, 'volume': 0.15, 'sod_14': 0.14, 'macdh': 0.12, 'obv_2': 0.11, 'roc_2': 0.09, 'wr_14': 0.09}",0.7796052631578947,-1.0,0.7796052631578947,"(1303, 8)",Sell,GNC
89,17.71,2018-05-18,0.8613861386138614,11.38,2017-11-07,"{'volume': 0.24, 'macd': 0.18, 'rsi_14': 0.13, 'obv_2': 0.11, 'macdh': 0.1, 'sod_14': 0.1, 'roc_2': 0.07, 'wr_14': 0.07}",0.8613861386138614,2.0,0.8613861386138614,"(896, 8)",Buy Strong,GNK
90,88.71,2018-05-18,0.7697368421052632,89.3465,2017-11-07,"{'sod_14': 0.15, 'macd': 0.14, 'macdh': 0.14, 'rsi_14': 0.14, 'volume': 0.14, 'wr_14': 0.11, 'obv_2': 0.1, 'roc_2': 0.09}",0.7697368421052632,-1.0,0.7697368421052632,"(1303, 8)",Sell,HAS
91,58.74,2018-05-18,0.7631578947368421,48.29,2017-11-07,"{'macd': 0.16, 'macdh': 0.14, 'rsi_14': 0.14, 'volume': 0.13, 'sod_14': 0.13, 'wr_14': 0.11, 'obv_2': 0.1, 'roc_2': 0.1}",0.7631578947368421,2.0,0.7631578947368421,"(1303, 8)",Buy Strong,HRI
92,1.44,2018-05-18,0.805921052631579,1.17,2017-11-07,"{'macd': 0.18, 'volume': 0.15, 'macdh': 0.14, 'sod_14': 0.14, 'rsi_14': 0.13, 'obv_2': 0.1, 'wr_14': 0.1, 'roc_2': 0.07}",0.805921052631579,2.0,0.805921052631579,"(1303, 8)",Buy Strong,IMI
93,190.54,2018-05-18,0.694078947368421,152.1478,2017-11-07,"{'macd': 0.15, 'macdh': 0.14, 'sod_14': 0.14, 'rsi_14': 0.13, 'volume': 0.12, 'obv_2': 0.11, 'wr_14': 0.11, 'roc_2': 0.1}",0.694078947368421,2.0,0.694078947368421,"(1303, 8)",Buy Strong,INTU
94,28.85,2018-05-18,0.8052434456928839,27.4964,2017-11-07,"{'volume': 0.17, 'sod_14': 0.14, 'macd': 0.13, 'obv_2': 0.13, 'rsi_14': 0.13, 'macdh': 0.11, 'wr_14': 0.1, 'roc_2': 0.09}",0.8052434456928839,1.0,0.8052434456928839,"(1156, 8)",Buy,IPO
95,35.71,2018-05-18,0.7652173913043478,39.79,2017-11-07,"{'volume': 0.16, 'macd': 0.15, 'macdh': 0.13, 'rsi_14': 0.13, 'obv_2': 0.11, 'sod_14': 0.11, 'wr_14': 0.1, 'roc_2': 0.09}",0.7652173913043478,1.0,0.7652173913043478,"(1006, 8)",Buy,JD
96,30.68,2018-05-18,0.6381578947368421,30.3932,2017-11-07,"{'macd': 0.15, 'rsi_14': 0.14, 'sod_14': 0.13, 'macdh': 0.12, 'volume': 0.12, 'obv_2': 0.11, 'roc_2': 0.11, 'wr_14': 0.11}",0.6381578947368421,-1.0,0.6381578947368421,"(1303, 8)",Sell,KIE
97,32.3,2018-05-18,0.7203947368421053,26.2373,2017-11-07,"{'macd': 0.15, 'sod_14': 0.14, 'macdh': 0.13, 'rsi_14': 0.13, 'volume': 0.13, 'obv_2': 0.11, 'wr_14': 0.11, 'roc_2': 0.1}",0.7203947368421053,1.0,0.7203947368421053,"(1303, 8)",Buy,MCS
98,20.81,2018-05-18,0.8026315789473685,16.12,2017-11-07,"{'macd': 0.14, 'rsi_14': 0.14, 'volume': 0.14, 'sod_14': 0.14, 'macdh': 0.13, 'obv_2': 0.11, 'roc_2': 0.1, 'wr_14': 0.1}",0.8026315789473685,1.0,0.8026315789473685,"(1303, 8)",Buy,MRC
99,12.68,2018-05-18,0.8181818181818182,13.2428,2017-10-26,"{'macd': 0.15, 'sod_14': 0.15, 'volume': 0.14, 'macdh': 0.13, 'rsi_14': 0.13, 'obv_2': 0.11, 'wr_14': 0.11, 'roc_2': 0.09}",0.8181818181818182,-2.0,0.8181818181818182,"(1274, 8)",Sell Strong,MAB
100,12.4,2018-05-18,0.7368421052631579,13.8232,2017-11-07,"{'macd': 0.15, 'volume': 0.14, 'sod_14': 0.14, 'rsi_14': 0.13, 'macdh': 0.12, 'obv_2': 0.12, 'wr_14': 0.1, 'roc_2': 0.09}",0.7368421052631579,-2.0,0.7368421052631579,"(1303, 8)",Sell Strong,MYI
101,41.12,2018-05-18,0.6915254237288135,34.5193,2017-11-07,"{'volume': 0.19, 'macd': 0.14, 'obv_2': 0.13, 'sod_14': 0.12, 'macdh': 0.11, 'rsi_14': 0.11, 'wr_14': 0.11, 'roc_2': 0.1}",0.6915254237288135,1.0,0.6915254237288135,"(1265, 8)",Buy,OSB
102,24.26,2018-05-18,0.7171052631578947,25.43,2017-11-07,"{'volume': 0.17, 'sod_14': 0.14, 'macd': 0.13, 'macdh': 0.13, 'rsi_14': 0.12, 'obv_2': 0.11, 'roc_2': 0.1, 'wr_14': 0.1}",0.7171052631578947,-1.0,0.7171052631578947,"(1303, 8)",Sell,PIN
103,48.0,2018-05-18,0.7532894736842105,45.6832,2017-11-07,"{'macd': 0.16, 'volume': 0.14, 'sod_14': 0.14, 'rsi_14': 0.13, 'macdh': 0.12, 'obv_2': 0.11, 'wr_14': 0.11, 'roc_2': 0.09}",0.7532894736842105,-1.0,0.7532894736842105,"(1303, 8)",Sell,PAG
104,35.85,2018-05-18,0.7894736842105263,36.7915,2017-11-07,"{'macd': 0.15, 'rsi_14': 0.14, 'sod_14': 0.14, 'volume': 0.13, 'macdh': 0.12, 'wr_14': 0.12, 'obv_2': 0.1, 'roc_2': 0.1}",0.7894736842105263,2.0,0.7894736842105263,"(1303, 8)",Buy Strong,PETS
105,58.8,2018-05-18,0.6743421052631579,68.0596,2017-11-07,"{'macd': 0.14, 'volume': 0.14, 'sod_14': 0.14, 'macdh': 0.12, 'obv_2': 0.12, 'rsi_14': 0.12, 'wr_14': 0.12, 'roc_2': 0.09}",0.6743421052631579,-2.0,0.6743421052631579,"(1303, 8)",Sell Strong,PFG
106,10.01,2018-05-18,0.8256578947368421,10.0544,2017-11-07,"{'macd': 0.18, 'sod_14': 0.16, 'rsi_14': 0.13, 'macdh': 0.12, 'volume': 0.12, 'wr_14': 0.11, 'obv_2': 0.1, 'roc_2': 0.08}",0.8256578947368421,-1.0,0.8256578947368421,"(1303, 8)",Sell,PZC
107,15.45,2018-05-18,0.7335526315789473,14.83,2017-11-07,"{'macd': 0.16, 'macdh': 0.14, 'rsi_14': 0.14, 'sod_14': 0.13, 'volume': 0.12, 'obv_2': 0.11, 'roc_2': 0.09, 'wr_14': 0.09}",0.7335526315789473,2.0,0.7335526315789473,"(1303, 8)",Buy Strong,RDI
108,18.36,2018-05-18,0.6388888888888888,17.2131,2017-11-07,"{'sod_14': 0.18, 'macd': 0.14, 'volume': 0.14, 'macdh': 0.12, 'roc_2': 0.12, 'rsi_14': 0.11, 'wr_14': 0.1, 'obv_2': 0.09}",0.6388888888888888,2.0,0.6388888888888888,"(229, 8)",Buy Strong,SAFE
109,35.85,2018-05-18,0.7828947368421053,37.08,2017-11-07,"{'macd': 0.17, 'rsi_14': 0.14, 'volume': 0.14, 'sod_14': 0.14, 'macdh': 0.12, 'obv_2': 0.1, 'wr_14': 0.1, 'roc_2': 0.09}",0.7828947368421053,-1.0,0.7828947368421053,"(1303, 8)",Sell,SNN
110,28.18,2018-05-18,0.7483443708609272,23.29,2017-11-07,"{'volume': 0.15, 'sod_14': 0.15, 'macd': 0.14, 'macdh': 0.13, 'rsi_14': 0.13, 'obv_2': 0.11, 'wr_14': 0.11, 'roc_2': 0.09}",0.7483443708609272,2.0,0.7483443708609272,"(1295, 8)",Buy Strong,SDP
111,18.69,2018-05-18,0.7425742574257426,21.1865,2017-11-07,"{'macd': 0.15, 'volume': 0.15, 'sod_14': 0.14, 'macdh': 0.12, 'rsi_14': 0.12, 'obv_2': 0.11, 'wr_14': 0.11, 'roc_2': 0.1}",0.7425742574257426,-1.0,0.7425742574257426,"(1300, 8)",Sell,SCIN
112,7.47,2018-05-18,0.7783251231527094,7.6413,2017-11-07,"{'volume': 0.16, 'sod_14': 0.15, 'macd': 0.14, 'macdh': 0.13, 'rsi_14': 0.13, 'obv_2': 0.1, 'wr_14': 0.1, 'roc_2': 0.08}",0.7783251231527094,1.0,0.7783251231527094,"(897, 8)",Buy,SNR
113,69.39,2018-05-18,0.7927631578947368,58.94,2017-11-07,"{'macd': 0.16, 'volume': 0.15, 'sod_14': 0.14, 'macdh': 0.13, 'rsi_14': 0.13, 'obv_2': 0.1, 'wr_14': 0.1, 'roc_2': 0.08}",0.7927631578947368,-1.0,0.7927631578947368,"(1303, 8)",Sell,SHI
114,0.3803,2018-05-18,0.856,1.355,2017-10-24,"{'volume': 0.19, 'rsi_14': 0.17, 'macd': 0.13, 'obv_2': 0.13, 'sod_14': 0.11, 'wr_14': 0.1, 'macdh': 0.08, 'roc_2': 0.08}",0.856,1.0,0.856,"(585, 8)",Buy,SPI
115,44.01,2018-05-18,0.7401315789473685,41.333,2017-11-07,"{'macd': 0.15, 'rsi_14': 0.15, 'volume': 0.14, 'sod_14': 0.14, 'macdh': 0.12, 'obv_2': 0.11, 'wr_14': 0.1, 'roc_2': 0.09}",0.7401315789473685,2.0,0.7401315789473685,"(1303, 8)",Buy Strong,SMP
116,23.2,2018-05-18,0.7722772277227723,22.8869,2017-11-07,"{'macdh': 0.15, 'sod_14': 0.15, 'macd': 0.14, 'volume': 0.14, 'rsi_14': 0.12, 'wr_14': 0.11, 'obv_2': 0.1, 'roc_2': 0.1}",0.7722772277227723,1.0,0.7722772277227723,"(1298, 8)",Buy,SGC
117,1.9,2018-05-18,0.7763157894736842,2.45,2017-11-07,"{'volume': 0.16, 'sod_14': 0.15, 'macd': 0.14, 'rsi_14': 0.13, 'macdh': 0.12, 'obv_2': 0.11, 'wr_14': 0.11, 'roc_2': 0.08}",0.7763157894736842,-2.0,0.7763157894736842,"(1303, 8)",Sell Strong,SYNC
118,30.3,2018-05-18,0.7828947368421053,23.38,2017-11-07,"{'volume': 0.15, 'sod_14': 0.14, 'macd': 0.13, 'macdh': 0.13, 'obv_2': 0.13, 'rsi_14': 0.12, 'wr_14': 0.1, 'roc_2': 0.09}",0.7828947368421053,2.0,0.7828947368421053,"(1303, 8)",Buy Strong,SYNT
119,43.47,2018-05-18,0.7857142857142857,45.9061,2017-11-07,"{'volume': 0.19, 'macd': 0.13, 'obv_2': 0.13, 'sod_14': 0.13, 'macdh': 0.12, 'rsi_14': 0.12, 'wr_14': 0.1, 'roc_2': 0.08}",0.7857142857142857,-2.0,0.7857142857142857,"(1264, 8)",Sell Strong,TEP
120,11.33,2018-05-18,0.7927631578947368,9.2046,2017-11-07,"{'macd': 0.16, 'rsi_14': 0.14, 'volume': 0.14, 'sod_14': 0.14, 'macdh': 0.13, 'obv_2': 0.11, 'roc_2': 0.1, 'wr_14': 0.09}",0.7927631578947368,2.0,0.7927631578947368,"(1303, 8)",Buy Strong,TCAP
121,2.7,2018-05-18,0.7796052631578947,2.925,2017-11-07,"{'volume': 0.17, 'macd': 0.14, 'sod_14': 0.14, 'rsi_14': 0.13, 'macdh': 0.12, 'obv_2': 0.11, 'roc_2': 0.1, 'wr_14': 0.09}",0.7796052631578947,-1.0,0.7796052631578947,"(1304, 8)",Sell,BBOX
122,17.7858,2018-05-18,0.8719211822660099,15.4,2017-02-23,"{'volume': 0.16, 'sod_14': 0.16, 'macd': 0.14, 'rsi_14': 0.13, 'macdh': 0.11, 'obv_2': 0.11, 'wr_14': 0.1, 'roc_2': 0.09}",0.8719211822660099,2.0,0.8719211822660099,"(900, 8)",Buy Strong,UBM
123,16.52,2018-05-18,0.7972508591065293,16.38,2017-11-07,"{'volume': 0.17, 'macd': 0.15, 'sod_14': 0.15, 'rsi_14': 0.12, 'macdh': 0.11, 'obv_2': 0.11, 'wr_14': 0.09, 'roc_2': 0.08}",0.7972508591065293,2.0,0.7972508591065293,"(1250, 8)",Buy Strong,ULE
124,28.15,2018-05-18,0.7828947368421053,30.5363,2017-11-07,"{'macd': 0.15, 'macdh': 0.14, 'sod_14': 0.14, 'rsi_14': 0.13, 'volume': 0.13, 'wr_14': 0.11, 'obv_2': 0.1, 'roc_2': 0.09}",0.7828947368421053,-2.0,0.7828947368421053,"(1303, 8)",Sell Strong,UTG
125,0.155,2018-03-26,0.8,2.77,2017-09-14,"{'macd': 0.17, 'sod_14': 0.15, 'rsi_14': 0.14, 'macdh': 0.13, 'volume': 0.12, 'obv_2': 0.1, 'wr_14': 0.1, 'roc_2': 0.08}",0.8,-2.0,0.8,"(1265, 8)",Sell Strong,WG
126,71.99,2018-05-18,0.7532894736842105,60.96,2017-11-07,"{'macd': 0.16, 'macdh': 0.15, 'rsi_14': 0.13, 'sod_14': 0.13, 'volume': 0.12, 'obv_2': 0.11, 'roc_2': 0.1, 'wr_14': 0.1}",0.7532894736842105,1.0,0.7532894736842105,"(1304, 8)",Buy,ATVI
127,238.09,2018-05-18,0.7006578947368421,180.88,2017-11-07,"{'macd': 0.14, 'rsi_14': 0.14, 'sod_14': 0.14, 'macdh': 0.13, 'volume': 0.13, 'obv_2': 0.11, 'wr_14': 0.11, 'roc_2': 0.1}",0.7006578947368421,2.0,0.7006578947368421,"(1304, 8)",Buy Strong,ADBE
128,121.07,2018-05-18,0.6907894736842105,117.42,2017-11-07,"{'macd': 0.16, 'volume': 0.15, 'macdh': 0.13, 'sod_14': 0.13, 'obv_2': 0.12, 'rsi_14': 0.11, 'roc_2': 0.1, 'wr_14': 0.09}",0.6907894736842105,1.0,0.6907894736842105,"(1304, 8)",Buy,ALXN
129,298.0,2018-05-18,0.7894736842105263,246.46,2017-11-07,"{'macd': 0.18, 'rsi_14': 0.14, 'macdh': 0.13, 'sod_14': 0.13, 'volume': 0.11, 'wr_14': 0.11, 'obv_2': 0.1, 'roc_2': 0.1}",0.7894736842105263,-1.0,0.7894736842105263,"(1304, 8)",Sell,ALGN
130,1066.36,2018-05-18,0.7666666666666667,1033.33,2017-11-07,"{'macd': 0.17, 'macdh': 0.14, 'rsi_14': 0.13, 'volume': 0.13, 'sod_14': 0.13, 'obv_2': 0.11, 'roc_2': 0.1, 'wr_14': 0.1}",0.7666666666666667,-1.0,0.7666666666666667,"(1045, 8)",Sell,GOOG
131,1069.64,2018-05-18,0.75,1052.39,2017-11-07,"{'macd': 0.16, 'macdh': 0.14, 'rsi_14': 0.13, 'volume': 0.13, 'sod_14': 0.13, 'obv_2': 0.11, 'roc_2': 0.1, 'wr_14': 0.1}",0.75,1.0,0.75,"(1303, 8)",Buy,GOOGL
132,1574.37,2018-05-18,0.805921052631579,1123.17,2017-11-07,"{'sod_14': 0.15, 'macd': 0.14, 'macdh': 0.14, 'rsi_14': 0.14, 'volume': 0.13, 'obv_2': 0.11, 'wr_14': 0.1, 'roc_2': 0.09}",0.805921052631579,2.0,0.805921052631579,"(1304, 8)",Buy Strong,AMZN
133,43.38,2018-05-18,0.7796052631578947,46.2695,2017-11-07,"{'macd': 0.16, 'sod_14': 0.15, 'macdh': 0.13, 'rsi_14': 0.13, 'volume': 0.13, 'obv_2': 0.11, 'wr_14': 0.11, 'roc_2': 0.09}",0.7796052631578947,1.0,0.7796052631578947,"(1304, 8)",Buy,AAL
134,176.3,2018-05-18,0.6907894736842105,171.0095,2017-11-07,"{'sod_14': 0.15, 'macd': 0.14, 'rsi_14': 0.14, 'macdh': 0.13, 'wr_14': 0.12, 'obv_2': 0.11, 'roc_2': 0.11, 'volume': 0.11}",0.6907894736842105,1.0,0.6907894736842105,"(1304, 8)",Buy,AMGN
135,94.88,2018-05-18,0.7401315789473685,90.9441,2017-11-07,"{'macd': 0.15, 'macdh': 0.14, 'sod_14': 0.14, 'rsi_14': 0.13, 'volume': 0.13, 'obv_2': 0.11, 'wr_14': 0.11, 'roc_2': 0.1}",0.7401315789473685,-1.0,0.7401315789473685,"(1304, 8)",Sell,ADI
136,186.31,2018-05-18,0.8026315789473685,173.4765,2017-11-07,"{'volume': 0.17, 'macd': 0.16, 'rsi_14': 0.13, 'macdh': 0.12, 'sod_14': 0.12, 'obv_2': 0.11, 'wr_14': 0.1, 'roc_2': 0.09}",0.8026315789473685,-1.0,0.8026315789473685,"(1304, 8)",Sell,AAPL
137,49.51,2018-05-18,0.7467105263157895,56.2715,2017-11-07,"{'macd': 0.16, 'rsi_14': 0.14, 'macdh': 0.13, 'volume': 0.12, 'sod_14': 0.12, 'obv_2': 0.11, 'roc_2': 0.11, 'wr_14': 0.1}",0.7467105263157895,-1.0,0.7467105263157895,"(1304, 8)",Sell,AMAT
138,197.34,2018-05-18,0.743421052631579,183.52,2017-11-07,"{'macd': 0.16, 'macdh': 0.14, 'sod_14': 0.14, 'rsi_14': 0.13, 'volume': 0.12, 'obv_2': 0.11, 'roc_2': 0.1, 'wr_14': 0.1}",0.743421052631579,1.0,0.743421052631579,"(1304, 8)",Buy,ASML
139,138.85,2018-05-18,0.743421052631579,123.4,2017-11-07,"{'sod_14': 0.15, 'macd': 0.14, 'macdh': 0.13, 'volume': 0.13, 'obv_2': 0.12, 'rsi_14': 0.12, 'wr_14': 0.11, 'roc_2': 0.1}",0.743421052631579,1.0,0.743421052631579,"(1304, 8)",Buy,ADSK
140,128.91,2018-05-18,0.7105263157894737,111.5238,2017-11-07,"{'macd': 0.15, 'rsi_14': 0.13, 'volume': 0.13, 'sod_14': 0.13, 'macdh': 0.12, 'obv_2': 0.12, 'wr_14': 0.12, 'roc_2': 0.11}",0.7105263157894737,1.0,0.7105263157894737,"(1304, 8)",Buy,ADP
141,253.01,2018-05-18,0.7598684210526315,243.47,2017-11-07,"{'macd': 0.15, 'sod_14': 0.15, 'macdh': 0.14, 'volume': 0.14, 'rsi_14': 0.13, 'obv_2': 0.11, 'wr_14': 0.11, 'roc_2': 0.08}",0.7598684210526315,1.0,0.7598684210526315,"(1304, 8)",Buy,BIDU
142,280.4,2018-05-18,0.75,313.57,2017-11-07,"{'macd': 0.14, 'volume': 0.14, 'sod_14': 0.14, 'macdh': 0.13, 'rsi_14': 0.13, 'obv_2': 0.11, 'roc_2': 0.11, 'wr_14': 0.11}",0.75,-2.0,0.75,"(1304, 8)",Sell Strong,BIIB
143,88.88,2018-05-18,0.7335526315789473,83.77,2017-11-07,"{'macd': 0.15, 'sod_14': 0.15, 'macdh': 0.14, 'rsi_14': 0.13, 'volume': 0.12, 'obv_2': 0.11, 'wr_14': 0.11, 'roc_2': 0.1}",0.7335526315789473,-1.0,0.7335526315789473,"(1303, 8)",Sell,BMRN
144,2066.34,2018-05-18,0.8092105263157895,1645.72,2017-11-07,"{'macd': 0.16, 'rsi_14': 0.15, 'macdh': 0.14, 'sod_14': 0.14, 'volume': 0.12, 'obv_2': 0.1, 'wr_14': 0.1, 'roc_2': 0.09}",0.8092105263157895,2.0,0.8092105263157895,"(1304, 8)",Buy Strong,BKNG
145,235.99,2018-05-18,0.7105263157894737,269.5331,2017-11-07,"{'macd': 0.17, 'macdh': 0.14, 'rsi_14': 0.14, 'volume': 0.13, 'sod_14': 0.12, 'wr_14': 0.11, 'obv_2': 0.1, 'roc_2': 0.09}",0.7105263157894737,-2.0,0.7105263157894737,"(1304, 8)",Sell Strong,AVGO
146,35.17,2018-05-18,0.7335526315789473,31.8149,2017-11-07,"{'sod_14': 0.15, 'macd': 0.14, 'macdh': 0.13, 'rsi_14': 0.13, 'volume': 0.13, 'obv_2': 0.11, 'wr_14': 0.11, 'roc_2': 0.1}",0.7335526315789473,2.0,0.7335526315789473,"(1303, 8)",Buy Strong,CA
147,41.8,2018-05-18,0.7368421052631579,44.3,2017-11-07,"{'volume': 0.16, 'macd': 0.13, 'sod_14': 0.13, 'macdh': 0.12, 'obv_2': 0.12, 'roc_2': 0.12, 'rsi_14': 0.11, 'wr_14': 0.11}",0.7368421052631579,-2.0,0.7368421052631579,"(1303, 8)",Sell Strong,CDNS
148,78.37,2018-05-18,0.75,102.33,2017-11-07,"{'macd': 0.15, 'macdh': 0.15, 'sod_14': 0.15, 'rsi_14': 0.13, 'volume': 0.12, 'obv_2': 0.11, 'wr_14': 0.1, 'roc_2': 0.08}",0.75,-2.0,0.75,"(1303, 8)",Sell Strong,CELG
149,61.34,2018-05-18,0.7335526315789473,65.92,2017-11-07,"{'rsi_14': 0.15, 'sod_14': 0.15, 'macd': 0.14, 'volume': 0.13, 'macdh': 0.12, 'obv_2': 0.11, 'wr_14': 0.11, 'roc_2': 0.1}",0.7335526315789473,-1.0,0.7335526315789473,"(1303, 8)",Sell,CERN
150,270.17,2018-05-18,0.75,343.01,2017-11-07,"{'macd': 0.15, 'rsi_14': 0.14, 'volume': 0.14, 'macdh': 0.13, 'sod_14': 0.13, 'obv_2': 0.11, 'wr_14': 0.1, 'roc_2': 0.09}",0.75,-1.0,0.75,"(1303, 8)",Sell,CHTR
151,95.68,2018-05-18,0.7532894736842105,104.99,2017-11-07,"{'macd': 0.15, 'sod_14': 0.15, 'macdh': 0.13, 'rsi_14': 0.13, 'volume': 0.13, 'obv_2': 0.11, 'wr_14': 0.11, 'roc_2': 0.09}",0.7532894736842105,-1.0,0.7532894736842105,"(1303, 8)",Sell,CHKP
152,182.85,2018-05-18,0.7236842105263158,146.2689,2017-11-07,"{'macd': 0.16, 'rsi_14': 0.15, 'volume': 0.14, 'sod_14': 0.13, 'macdh': 0.12, 'wr_14': 0.11, 'obv_2': 0.1, 'roc_2': 0.1}",0.7236842105263158,2.0,0.7236842105263158,"(1303, 8)",Buy Strong,CTAS
153,43.21,2018-05-18,0.7861842105263158,34.1453,2017-11-07,"{'volume': 0.16, 'macd': 0.15, 'rsi_14': 0.14, 'sod_14': 0.14, 'macdh': 0.12, 'obv_2': 0.11, 'wr_14': 0.11, 'roc_2': 0.08}",0.7861842105263158,2.0,0.7861842105263158,"(1303, 8)",Buy Strong,CSCO
154,105.34,2018-05-18,0.7598684210526315,84.48,2017-11-07,"{'sod_14': 0.15, 'volume': 0.14, 'macd': 0.13, 'macdh': 0.13, 'rsi_14': 0.13, 'obv_2': 0.12, 'wr_14': 0.11, 'roc_2': 0.09}",0.7598684210526315,1.0,0.7598684210526315,"(1303, 8)",Buy,CTXS
155,76.04,2018-05-18,0.743421052631579,74.3187,2017-11-07,"{'volume': 0.17, 'macdh': 0.14, 'macd': 0.13, 'rsi_14': 0.13, 'sod_14': 0.13, 'obv_2': 0.11, 'wr_14': 0.1, 'roc_2': 0.09}",0.743421052631579,1.0,0.743421052631579,"(1303, 8)",Buy,CTSH
156,32.72,2018-05-18,0.75,36.2469,2017-11-07,"{'macd': 0.15, 'macdh': 0.14, 'volume': 0.13, 'sod_14': 0.13, 'obv_2': 0.12, 'rsi_14': 0.12, 'wr_14': 0.11, 'roc_2': 0.1}",0.75,-2.0,0.75,"(1303, 8)",Sell Strong,CMCSA
157,198.96,2018-05-18,0.7072368421052632,165.3455,2017-11-07,"{'macd': 0.18, 'macdh': 0.14, 'sod_14': 0.14, 'rsi_14': 0.13, 'volume': 0.12, 'obv_2': 0.1, 'wr_14': 0.1, 'roc_2': 0.09}",0.7072368421052632,2.0,0.7072368421052632,"(1303, 8)",Buy Strong,COST
158,63.76,2018-05-18,0.7368421052631579,51.4151,2017-11-07,"{'macd': 0.16, 'sod_14': 0.15, 'rsi_14': 0.14, 'macdh': 0.13, 'volume': 0.12, 'wr_14': 0.11, 'obv_2': 0.1, 'roc_2': 0.09}",0.7368421052631579,1.0,0.7368421052631579,"(1303, 8)",Buy,CSX
159,43.09,2018-05-18,0.7960526315789473,45.9,2017-11-07,"{'macd': 0.15, 'sod_14': 0.15, 'macdh': 0.13, 'volume': 0.13, 'obv_2': 0.12, 'rsi_14': 0.12, 'wr_14': 0.1, 'roc_2': 0.09}",0.7960526315789473,1.0,0.7960526315789473,"(1303, 8)",Buy,CTRP
160,47.5,2018-05-18,0.7467105263157895,64.2947,2017-11-07,"{'macd': 0.16, 'rsi_14': 0.14, 'volume': 0.14, 'macdh': 0.13, 'obv_2': 0.12, 'sod_14': 0.12, 'wr_14': 0.1, 'roc_2': 0.09}",0.7467105263157895,-2.0,0.7467105263157895,"(1303, 8)",Sell Strong,XRAY
161,32.35,2018-05-18,0.7532894736842105,50.07,2017-11-07,"{'macdh': 0.16, 'macd': 0.15, 'volume': 0.14, 'rsi_14': 0.13, 'sod_14': 0.12, 'wr_14': 0.11, 'obv_2': 0.1, 'roc_2': 0.09}",0.7532894736842105,-2.0,0.7532894736842105,"(1303, 8)",Sell Strong,DISH
162,93.1,2018-05-18,0.7861842105263158,93.62,2017-11-07,"{'macd': 0.16, 'macdh': 0.14, 'volume': 0.14, 'rsi_14': 0.13, 'sod_14': 0.13, 'obv_2': 0.11, 'wr_14': 0.1, 'roc_2': 0.08}",0.7861842105263158,-1.0,0.7861842105263158,"(1303, 8)",Sell,DLTR
163,38.32,2018-05-18,0.6776315789473685,37.41,2017-11-07,"{'macd': 0.14, 'sod_14': 0.14, 'macdh': 0.13, 'rsi_14': 0.13, 'volume': 0.13, 'wr_14': 0.12, 'obv_2': 0.11, 'roc_2': 0.1}",0.6776315789473685,2.0,0.6776315789473685,"(1303, 8)",Buy Strong,EBAY
164,132.0,2018-05-18,0.7664473684210527,111.7,2017-11-07,"{'macd': 0.17, 'macdh': 0.14, 'rsi_14': 0.14, 'sod_14': 0.14, 'volume': 0.12, 'obv_2': 0.1, 'wr_14': 0.1, 'roc_2': 0.09}",0.7664473684210527,1.0,0.7664473684210527,"(1303, 8)",Buy,EA
165,115.07,2018-05-18,0.75,118.9866,2017-11-07,"{'macd': 0.15, 'rsi_14': 0.14, 'macdh': 0.13, 'volume': 0.13, 'sod_14': 0.13, 'wr_14': 0.12, 'obv_2': 0.11, 'roc_2': 0.1}",0.75,-2.0,0.75,"(1303, 8)",Sell Strong,EXPE
166,75.65,2018-05-18,0.7532894736842105,60.6,2017-11-07,"{'macd': 0.17, 'rsi_14': 0.14, 'sod_14': 0.14, 'macdh': 0.13, 'volume': 0.12, 'obv_2': 0.1, 'wr_14': 0.1, 'roc_2': 0.09}",0.7532894736842105,2.0,0.7532894736842105,"(1303, 8)",Buy Strong,ESRX
167,182.68,2018-05-18,0.7566666666666667,180.25,2017-11-07,"{'volume': 0.16, 'rsi_14': 0.15, 'sod_14': 0.14, 'macd': 0.13, 'macdh': 0.11, 'obv_2': 0.11, 'roc_2': 0.1, 'wr_14': 0.1}",0.7566666666666667,-2.0,0.7566666666666667,"(1287, 8)",Sell Strong,FB
168,52.76,2018-05-18,0.743421052631579,47.7252,2017-11-07,"{'macd': 0.17, 'rsi_14': 0.15, 'volume': 0.14, 'macdh': 0.13, 'sod_14': 0.12, 'obv_2': 0.1, 'roc_2': 0.1, 'wr_14': 0.1}",0.743421052631579,2.0,0.743421052631579,"(1303, 8)",Buy Strong,FAST
169,72.98,2018-05-18,0.6677631578947368,126.97,2017-11-07,"{'macd': 0.15, 'macdh': 0.14, 'sod_14': 0.14, 'rsi_14': 0.12, 'volume': 0.12, 'obv_2': 0.11, 'roc_2': 0.11, 'wr_14': 0.11}",0.6677631578947368,2.0,0.6677631578947368,"(1303, 8)",Buy Strong,FISV
170,68.02,2018-05-18,0.7796052631578947,72.2019,2017-11-07,"{'macd': 0.15, 'rsi_14': 0.14, 'volume': 0.14, 'sod_14': 0.14, 'macdh': 0.13, 'wr_14': 0.11, 'obv_2': 0.1, 'roc_2': 0.09}",0.7796052631578947,1.0,0.7796052631578947,"(1303, 8)",Buy,GILD
171,88.71,2018-05-18,0.7697368421052632,89.3465,2017-11-07,"{'sod_14': 0.15, 'macd': 0.14, 'macdh': 0.14, 'rsi_14': 0.14, 'volume': 0.14, 'wr_14': 0.11, 'obv_2': 0.1, 'roc_2': 0.09}",0.7697368421052632,-1.0,0.7697368421052632,"(1303, 8)",Sell,HAS
172,71.94,2018-05-18,0.756578947368421,71.01,2017-11-07,"{'macd': 0.17, 'macdh': 0.13, 'rsi_14': 0.13, 'volume': 0.13, 'sod_14': 0.13, 'obv_2': 0.11, 'roc_2': 0.1, 'wr_14': 0.1}",0.756578947368421,-2.0,0.756578947368421,"(1303, 8)",Sell Strong,HSIC
173,38.82,2018-05-18,0.756578947368421,39.5,2017-11-07,"{'sod_14': 0.16, 'volume': 0.14, 'macd': 0.13, 'rsi_14': 0.13, 'macdh': 0.12, 'obv_2': 0.12, 'wr_14': 0.11, 'roc_2': 0.09}",0.756578947368421,-2.0,0.756578947368421,"(1303, 8)",Sell Strong,HOLX
174,200.76,2018-05-18,0.8322368421052632,150.08,2017-11-07,"{'macd': 0.17, 'macdh': 0.14, 'sod_14': 0.14, 'rsi_14': 0.13, 'volume': 0.13, 'wr_14': 0.11, 'obv_2': 0.1, 'roc_2': 0.09}",0.8322368421052632,2.0,0.8322368421052632,"(1303, 8)",Buy Strong,IDXX
175,269.67,2018-05-18,0.7763157894736842,211.74,2017-11-07,"{'macd': 0.18, 'macdh': 0.15, 'rsi_14': 0.14, 'sod_14': 0.14, 'volume': 0.11, 'obv_2': 0.1, 'wr_14': 0.1, 'roc_2': 0.09}",0.7763157894736842,1.0,0.7763157894736842,"(1303, 8)",Buy,ILMN
176,67.83,2018-05-18,0.7368421052631579,108.14,2017-11-07,"{'macd': 0.16, 'rsi_14': 0.15, 'volume': 0.15, 'macdh': 0.14, 'sod_14': 0.14, 'obv_2': 0.1, 'wr_14': 0.1, 'roc_2': 0.07}",0.7368421052631579,-2.0,0.7368421052631579,"(1303, 8)",Sell Strong,INCY
177,53.5,2018-05-18,0.7631578947368421,46.4648,2017-11-07,"{'macd': 0.14, 'macdh': 0.14, 'rsi_14': 0.14, 'sod_14': 0.14, 'volume': 0.13, 'wr_14': 0.11, 'obv_2': 0.1, 'roc_2': 0.09}",0.7631578947368421,1.0,0.7631578947368421,"(1303, 8)",Buy,INTC
178,190.54,2018-05-18,0.694078947368421,152.1478,2017-11-07,"{'macd': 0.15, 'macdh': 0.14, 'sod_14': 0.14, 'rsi_14': 0.13, 'volume': 0.12, 'obv_2': 0.11, 'wr_14': 0.11, 'roc_2': 0.1}",0.694078947368421,2.0,0.694078947368421,"(1303, 8)",Buy Strong,INTU
179,458.79,2018-05-18,0.7401315789473685,391.04,2017-11-07,"{'macd': 0.16, 'rsi_14': 0.14, 'macdh': 0.13, 'volume': 0.13, 'sod_14': 0.13, 'wr_14': 0.11, 'obv_2': 0.1, 'roc_2': 0.09}",0.7401315789473685,1.0,0.7401315789473685,"(1303, 8)",Buy,ISRG
180,126.86,2018-05-18,0.7171052631578947,106.433,2017-11-07,"{'macd': 0.14, 'macdh': 0.14, 'volume': 0.14, 'sod_14': 0.14, 'rsi_14': 0.12, 'obv_2': 0.11, 'wr_14': 0.11, 'roc_2': 0.1}",0.7171052631578947,2.0,0.7171052631578947,"(1303, 8)",Buy Strong,JBHT
181,35.71,2018-05-18,0.7652173913043478,39.79,2017-11-07,"{'volume': 0.16, 'macd': 0.15, 'macdh': 0.13, 'rsi_14': 0.13, 'obv_2': 0.11, 'sod_14': 0.11, 'wr_14': 0.1, 'roc_2': 0.09}",0.7652173913043478,1.0,0.7652173913043478,"(1006, 8)",Buy,JD
182,109.39,2018-05-18,0.7598684210526315,106.2726,2017-11-07,"{'macd': 0.16, 'macdh': 0.14, 'rsi_14': 0.13, 'volume': 0.13, 'sod_14': 0.12, 'wr_14': 0.11, 'obv_2': 0.1, 'roc_2': 0.1}",0.7598684210526315,1.0,0.7598684210526315,"(1303, 8)",Buy,KLAC
183,195.49,2018-05-18,0.7598684210526315,208.0865,2017-11-07,"{'macd': 0.16, 'volume': 0.14, 'macdh': 0.13, 'rsi_14': 0.13, 'sod_14': 0.13, 'obv_2': 0.11, 'wr_14': 0.11, 'roc_2': 0.09}",0.7598684210526315,-1.0,0.7598684210526315,"(1303, 8)",Sell,LRCX
184,29.22,2018-05-18,0.7796052631578947,30.54,2017-11-07,"{'macd': 0.14, 'macdh': 0.14, 'volume': 0.14, 'sod_14': 0.14, 'rsi_14': 0.12, 'obv_2': 0.11, 'wr_14': 0.11, 'roc_2': 0.1}",0.7796052631578947,2.0,0.7796052631578947,"(1303, 8)",Buy Strong,LBTYA
185,28.46,2018-05-18,0.7763157894736842,29.68,2017-11-07,"{'volume': 0.16, 'macd': 0.14, 'sod_14': 0.14, 'macdh': 0.13, 'rsi_14': 0.13, 'obv_2': 0.11, 'wr_14': 0.1, 'roc_2': 0.09}",0.7763157894736842,1.0,0.7763157894736842,"(1303, 8)",Buy,LBTYK
186,138.52,2018-05-18,0.7927631578947368,120.2928,2017-11-07,"{'macd': 0.17, 'rsi_14': 0.15, 'sod_14': 0.15, 'volume': 0.13, 'macdh': 0.12, 'obv_2': 0.1, 'wr_14': 0.1, 'roc_2': 0.09}",0.7927631578947368,1.0,0.7927631578947368,"(1303, 8)",Buy,MAR
187,57.93,2018-05-18,0.7730263157894737,53.9771,2017-11-07,"{'sod_14': 0.17, 'macd': 0.14, 'macdh': 0.14, 'rsi_14': 0.12, 'volume': 0.12, 'obv_2': 0.11, 'wr_14': 0.11, 'roc_2': 0.1}",0.7730263157894737,2.0,0.7730263157894737,"(1303, 8)",Buy Strong,MXIM
188,295.37,2018-05-18,0.8322368421052632,265.5052,2017-11-07,"{'macd': 0.15, 'macdh': 0.14, 'rsi_14': 0.14, 'sod_14': 0.14, 'volume': 0.13, 'obv_2': 0.11, 'wr_14': 0.11, 'roc_2': 0.09}",0.8322368421052632,2.0,0.8322368421052632,"(1303, 8)",Buy Strong,MELI
189,92.8,2018-05-18,0.6611842105263158,90.6806,2017-11-07,"{'volume': 0.15, 'macd': 0.14, 'macdh': 0.14, 'rsi_14': 0.13, 'sod_14': 0.13, 'obv_2': 0.12, 'roc_2': 0.1, 'wr_14': 0.1}",0.6611842105263158,-1.0,0.6611842105263158,"(1303, 8)",Sell,MCHP
190,53.39,2018-05-18,0.8092105263157895,43.95,2017-11-07,"{'macd': 0.21, 'macdh': 0.14, 'rsi_14': 0.14, 'volume': 0.13, 'obv_2': 0.1, 'wr_14': 0.1, 'sod_14': 0.1, 'roc_2': 0.08}",0.8092105263157895,1.0,0.8092105263157895,"(1303, 8)",Buy,MU
191,96.36,2018-05-18,0.6766666666666666,83.4569,2017-11-07,"{'volume': 0.15, 'rsi_14': 0.14, 'macd': 0.13, 'obv_2': 0.13, 'macdh': 0.12, 'sod_14': 0.12, 'wr_14': 0.11, 'roc_2': 0.1}",0.6766666666666666,1.0,0.6766666666666666,"(1287, 8)",Buy,MSFT
192,39.65,2018-05-18,0.7203947368421053,41.0004,2017-11-07,"{'macd': 0.14, 'sod_14': 0.14, 'macdh': 0.13, 'rsi_14': 0.13, 'volume': 0.13, 'obv_2': 0.12, 'wr_14': 0.11, 'roc_2': 0.1}",0.7203947368421053,1.0,0.7203947368421053,"(1303, 8)",Buy,MDLZ
193,49.47,2018-05-18,0.8157894736842105,57.92,2017-11-07,"{'volume': 0.16, 'macd': 0.15, 'rsi_14': 0.14, 'sod_14': 0.13, 'macdh': 0.12, 'obv_2': 0.11, 'wr_14': 0.1, 'roc_2': 0.09}",0.8157894736842105,-1.0,0.8157894736842105,"(1303, 8)",Sell,MNST
194,39.66,2018-05-18,0.7467105263157895,36.67,2017-11-07,"{'macd': 0.16, 'macdh': 0.14, 'volume': 0.14, 'rsi_14': 0.13, 'sod_14': 0.13, 'obv_2': 0.11, 'wr_14': 0.11, 'roc_2': 0.09}",0.7467105263157895,1.0,0.7467105263157895,"(1303, 8)",Buy,MYL
195,246.33,2018-05-18,0.7138157894736842,305.5352,2017-11-07,"{'macd': 0.16, 'rsi_14': 0.14, 'volume': 0.14, 'sod_14': 0.13, 'macdh': 0.11, 'obv_2': 0.11, 'wr_14': 0.11, 'roc_2': 0.09}",0.7138157894736842,-1.0,0.7138157894736842,"(1303, 8)",Sell,NTES
196,324.18,2018-05-18,0.8256578947368421,195.89,2017-11-07,"{'volume': 0.16, 'macd': 0.13, 'macdh': 0.13, 'rsi_14': 0.13, 'sod_14': 0.13, 'obv_2': 0.11, 'wr_14': 0.11, 'roc_2': 0.1}",0.8256578947368421,2.0,0.8256578947368421,"(1303, 8)",Buy Strong,NFLX
197,245.94,2018-05-18,0.7894736842105263,211.7513,2017-11-07,"{'macd': 0.22, 'volume': 0.14, 'macdh': 0.13, 'rsi_14': 0.12, 'sod_14': 0.12, 'obv_2': 0.1, 'wr_14': 0.09, 'roc_2': 0.08}",0.7894736842105263,2.0,0.7894736842105263,"(1303, 8)",Buy Strong,NVDA
198,272.09,2018-05-18,0.75,208.11,2017-11-07,"{'macd': 0.16, 'macdh': 0.15, 'rsi_14': 0.13, 'volume': 0.13, 'wr_14': 0.11, 'sod_14': 0.11, 'obv_2': 0.1, 'roc_2': 0.09}",0.75,2.0,0.75,"(1303, 8)",Buy Strong,ORLY
199,65.01,2018-05-18,0.7171052631578947,69.9667,2017-11-07,"{'macd': 0.16, 'sod_14': 0.15, 'rsi_14': 0.13, 'volume': 0.13, 'macdh': 0.12, 'obv_2': 0.11, 'wr_14': 0.11, 'roc_2': 0.1}",0.7171052631578947,-2.0,0.7171052631578947,"(1303, 8)",Sell Strong,PCAR
200,64.82,2018-05-18,0.7236842105263158,63.8013,2017-11-07,"{'macd': 0.16, 'sod_14': 0.15, 'rsi_14': 0.14, 'macdh': 0.13, 'wr_14': 0.12, 'volume': 0.11, 'obv_2': 0.1, 'roc_2': 0.09}",0.7236842105263158,-1.0,0.7236842105263158,"(1303, 8)",Sell,PAYX
201,80.79,2018-05-18,0.76875,74.41,2017-11-07,"{'rsi_14': 0.17, 'macd': 0.15, 'sod_14': 0.15, 'volume': 0.14, 'obv_2': 0.1, 'roc_2': 0.1, 'wr_14': 0.1, 'macdh': 0.09}",0.76875,-1.0,0.76875,"(725, 8)",Sell,PYPL
202,57.51,2018-05-18,0.7861842105263158,63.0229,2017-11-07,"{'macd': 0.15, 'rsi_14': 0.14, 'sod_14': 0.14, 'macdh': 0.13, 'volume': 0.13, 'wr_14': 0.11, 'obv_2': 0.1, 'roc_2': 0.09}",0.7861842105263158,-1.0,0.7861842105263158,"(1303, 8)",Sell,QCOM
203,22.6,2018-05-18,0.743421052631579,21.55,2017-11-07,"{'macd': 0.16, 'sod_14': 0.14, 'macdh': 0.13, 'volume': 0.13, 'rsi_14': 0.12, 'obv_2': 0.11, 'wr_14': 0.11, 'roc_2': 0.09}",0.743421052631579,2.0,0.743421052631579,"(1303, 8)",Buy Strong,QRTEA
204,301.81,2018-05-18,0.7269736842105263,404.39,2017-11-07,"{'macd': 0.19, 'macdh': 0.15, 'rsi_14': 0.12, 'volume': 0.12, 'sod_14': 0.12, 'obv_2': 0.1, 'roc_2': 0.1, 'wr_14': 0.1}",0.7269736842105263,-2.0,0.7269736842105263,"(1303, 8)",Sell Strong,REGN
205,82.47,2018-05-18,0.7730263157894737,64.4641,2017-11-07,"{'macd': 0.15, 'sod_14': 0.15, 'rsi_14': 0.14, 'macdh': 0.13, 'wr_14': 0.12, 'volume': 0.11, 'obv_2': 0.1, 'roc_2': 0.09}",0.7730263157894737,2.0,0.7730263157894737,"(1303, 8)",Buy Strong,ROST
206,56.31,2018-05-18,0.7960526315789473,36.576,2017-11-07,"{'macd': 0.15, 'rsi_14': 0.14, 'volume': 0.14, 'macdh': 0.13, 'sod_14': 0.13, 'obv_2': 0.11, 'wr_14': 0.11, 'roc_2': 0.08}",0.7960526315789473,2.0,0.7960526315789473,"(1303, 8)",Buy Strong,STX
207,169.61,2018-05-18,0.8322368421052632,143.7251,2017-11-07,"{'volume': 0.2, 'macd': 0.15, 'macdh': 0.12, 'obv_2': 0.12, 'sod_14': 0.12, 'rsi_14': 0.11, 'wr_14': 0.1, 'roc_2': 0.08}",0.8322368421052632,-1.0,0.8322368421052632,"(1303, 8)",Sell,SHPG
208,6.97,2018-05-18,0.6973684210526315,5.3193,2017-11-07,"{'macd': 0.15, 'macdh': 0.14, 'volume': 0.13, 'sod_14': 0.13, 'obv_2': 0.12, 'rsi_14': 0.12, 'roc_2': 0.11, 'wr_14': 0.11}",0.6973684210526315,2.0,0.6973684210526315,"(1303, 8)",Buy Strong,SIRI
209,98.49,2018-05-18,0.7828947368421053,110.5332,2017-11-07,"{'volume': 0.16, 'macd': 0.15, 'sod_14': 0.15, 'macdh': 0.14, 'rsi_14': 0.12, 'obv_2': 0.11, 'wr_14': 0.09, 'roc_2': 0.08}",0.7828947368421053,-1.0,0.7828947368421053,"(1303, 8)",Sell,SWKS
210,57.16,2018-05-18,0.7828947368421053,56.6114,2017-11-07,"{'rsi_14': 0.16, 'sod_14': 0.15, 'macd': 0.14, 'volume': 0.13, 'macdh': 0.12, 'obv_2': 0.1, 'wr_14': 0.1, 'roc_2': 0.09}",0.7828947368421053,-1.0,0.7828947368421053,"(1303, 8)",Sell,SBUX
211,22.19,2018-05-18,0.7960526315789473,28.5245,2017-11-07,"{'volume': 0.17, 'macd': 0.14, 'macdh': 0.14, 'obv_2': 0.12, 'rsi_14': 0.12, 'sod_14': 0.12, 'roc_2': 0.09, 'wr_14': 0.09}",0.7960526315789473,-1.0,0.7960526315789473,"(1303, 8)",Sell,SYMC
212,89.25,2018-05-18,0.7532894736842105,86.91,2017-11-07,"{'volume': 0.15, 'sod_14': 0.15, 'macd': 0.14, 'macdh': 0.14, 'rsi_14': 0.13, 'wr_14': 0.11, 'obv_2': 0.1, 'roc_2': 0.09}",0.7532894736842105,-1.0,0.7532894736842105,"(1303, 8)",Sell,SNPS
213,56.93,2018-05-18,0.7373737373737373,55.36,2017-11-07,"{'rsi_14': 0.15, 'macd': 0.14, 'macdh': 0.14, 'volume': 0.14, 'sod_14': 0.14, 'obv_2': 0.1, 'wr_14': 0.1, 'roc_2': 0.09}",0.7373737373737373,1.0,0.7373737373737373,"(1273, 8)",Buy,TMUS
214,115.81,2018-05-18,0.6447368421052632,106.39,2017-11-07,"{'macd': 0.15, 'macdh': 0.14, 'rsi_14': 0.13, 'volume': 0.13, 'sod_14': 0.13, 'obv_2': 0.11, 'roc_2': 0.11, 'wr_14': 0.11}",0.6447368421052632,-2.0,0.6447368421052632,"(1303, 8)",Sell Strong,TTWO
215,276.82,2018-05-18,0.7861842105263158,306.05,2017-11-07,"{'rsi_14': 0.15, 'macd': 0.14, 'sod_14': 0.14, 'macdh': 0.13, 'volume': 0.13, 'obv_2': 0.11, 'wr_14': 0.11, 'roc_2': 0.09}",0.7861842105263158,-1.0,0.7861842105263158,"(1303, 8)",Sell,TSLA
216,110.54,2018-05-18,0.680921052631579,97.8584,2017-11-07,"{'macd': 0.14, 'macdh': 0.14, 'sod_14': 0.14, 'rsi_14': 0.13, 'volume': 0.12, 'wr_14': 0.12, 'obv_2': 0.11, 'roc_2': 0.1}",0.680921052631579,1.0,0.680921052631579,"(1303, 8)",Buy,TXN
217,56.79,2018-05-18,0.7875,76.8412,2017-11-07,"{'volume': 0.17, 'macd': 0.14, 'sod_14': 0.14, 'macdh': 0.13, 'rsi_14': 0.13, 'wr_14': 0.11, 'obv_2': 0.1, 'roc_2': 0.08}",0.7875,-2.0,0.7875,"(725, 8)",Sell Strong,KHC
218,37.27,2018-05-18,0.7916666666666666,26.9102,2017-11-07,"{'macd': 0.15, 'sod_14': 0.15, 'volume': 0.14, 'macdh': 0.13, 'rsi_14': 0.12, 'obv_2': 0.11, 'wr_14': 0.11, 'roc_2': 0.09}",0.7916666666666666,2.0,0.7916666666666666,"(1239, 8)",Buy Strong,FOX
219,37.66,2018-05-18,0.7881944444444444,27.6185,2017-11-07,"{'macd': 0.15, 'volume': 0.14, 'sod_14': 0.14, 'macdh': 0.13, 'rsi_14': 0.13, 'wr_14': 0.11, 'obv_2': 0.1, 'roc_2': 0.09}",0.7881944444444444,2.0,0.7881944444444444,"(1239, 8)",Buy Strong,FOXA
220,255.59,2018-05-18,0.7730263157894737,198.01,2017-11-07,"{'macd': 0.15, 'volume': 0.15, 'macdh': 0.13, 'rsi_14': 0.13, 'sod_14': 0.13, 'obv_2': 0.11, 'wr_14': 0.11, 'roc_2': 0.09}",0.7730263157894737,1.0,0.7730263157894737,"(1303, 8)",Buy,ULTA
221,106.31,2018-05-18,0.7335526315789473,92.29,2017-11-07,"{'macd': 0.16, 'macdh': 0.14, 'sod_14': 0.14, 'rsi_14': 0.13, 'volume': 0.12, 'wr_14': 0.12, 'obv_2': 0.11, 'roc_2': 0.09}",0.7335526315789473,2.0,0.7335526315789473,"(1303, 8)",Buy Strong,VRSK
222,157.24,2018-05-18,0.7467105263157895,151.31,2017-11-07,"{'macd': 0.14, 'macdh': 0.14, 'sod_14': 0.14, 'rsi_14': 0.13, 'volume': 0.13, 'wr_14': 0.11, 'obv_2': 0.1, 'roc_2': 0.1}",0.7467105263157895,1.0,0.7467105263157895,"(1303, 8)",Buy,VRTX
223,26.41,2018-05-18,0.7664473684210527,28.3925,2017-11-07,"{'macd': 0.17, 'macdh': 0.14, 'volume': 0.14, 'sod_14': 0.14, 'rsi_14': 0.13, 'obv_2': 0.1, 'wr_14': 0.1, 'roc_2': 0.08}",0.7664473684210527,-1.0,0.7664473684210527,"(1303, 8)",Sell,VOD
224,64.34,2018-05-18,0.7203947368421053,67.1338,2017-11-07,"{'macd': 0.14, 'rsi_14': 0.14, 'volume': 0.14, 'sod_14': 0.14, 'macdh': 0.12, 'obv_2': 0.11, 'wr_14': 0.11, 'roc_2': 0.1}",0.7203947368421053,-1.0,0.7203947368421053,"(1303, 8)",Sell,WBA
225,84.75,2018-05-18,0.8322368421052632,85.5583,2017-11-07,"{'macd': 0.16, 'sod_14': 0.16, 'volume': 0.15, 'macdh': 0.13, 'rsi_14': 0.13, 'obv_2': 0.11, 'roc_2': 0.09, 'wr_14': 0.09}",0.8322368421052632,2.0,0.8322368421052632,"(1303, 8)",Buy Strong,WDC
226,134.48,2018-05-18,0.7697368421052632,108.53,2017-11-07,"{'volume': 0.15, 'macd': 0.14, 'rsi_14': 0.14, 'sod_14': 0.14, 'macdh': 0.13, 'obv_2': 0.11, 'wr_14': 0.11, 'roc_2': 0.08}",0.7697368421052632,2.0,0.7697368421052632,"(1303, 8)",Buy Strong,WDAY
227,189.03,2018-05-18,0.8486842105263158,151.2339,2017-11-07,"{'macd': 0.18, 'rsi_14': 0.15, 'volume': 0.14, 'macdh': 0.13, 'sod_14': 0.12, 'obv_2': 0.11, 'wr_14': 0.1, 'roc_2': 0.08}",0.8486842105263158,1.0,0.8486842105263158,"(1303, 8)",Buy,WYNN
228,71.23,2018-05-18,0.7730263157894737,73.168,2017-11-07,"{'sod_14': 0.15, 'macd': 0.14, 'rsi_14': 0.14, 'macdh': 0.13, 'volume': 0.13, 'wr_14': 0.12, 'obv_2': 0.1, 'roc_2': 0.09}",0.7730263157894737,-1.0,0.7730263157894737,"(1303, 8)",Sell,XLNX
229,18.89,2018-05-18,0.756578947368421,18.8631,2017-11-07,"{'macd': 0.17, 'macdh': 0.14, 'volume': 0.13, 'sod_14': 0.13, 'roc_2': 0.11, 'rsi_14': 0.11, 'wr_14': 0.11, 'obv_2': 0.1}",0.756578947368421,-1.0,0.756578947368421,"(1304, 8)",Sell,AGNC
230,121.37,2018-05-18,0.6973684210526315,118.6349,2017-11-07,"{'macd': 0.14, 'macdh': 0.13, 'rsi_14': 0.13, 'volume': 0.13, 'sod_14': 0.13, 'wr_14': 0.12, 'roc_2': 0.11, 'obv_2': 0.1}",0.6973684210526315,-1.0,0.6973684210526315,"(1304, 8)",Sell,ANAT
231,13.76,2018-05-18,0.8552631578947368,11.6905,2017-11-07,"{'macd': 0.15, 'volume': 0.15, 'sod_14': 0.15, 'rsi_14': 0.13, 'wr_14': 0.12, 'macdh': 0.11, 'obv_2': 0.1, 'roc_2': 0.1}",0.8552631578947368,1.0,0.8552631578947368,"(1304, 8)",Buy,AFSI
232,78.67,2018-05-18,0.7697368421052632,95.6,2017-11-07,"{'macd': 0.15, 'rsi_14': 0.15, 'volume': 0.14, 'macdh': 0.13, 'sod_14': 0.13, 'obv_2': 0.11, 'wr_14': 0.11, 'roc_2': 0.09}",0.7697368421052632,-2.0,0.7697368421052632,"(1304, 8)",Sell Strong,ACGL
233,48.48,2018-05-18,0.8157894736842105,44.5636,2017-11-07,"{'volume': 0.18, 'macd': 0.15, 'macdh': 0.13, 'sod_14': 0.13, 'rsi_14': 0.12, 'obv_2': 0.11, 'roc_2': 0.09, 'wr_14': 0.09}",0.8157894736842105,1.0,0.8157894736842105,"(1303, 8)",Buy,OZRK
234,58.11,2018-05-18,0.7368421052631579,55.5116,2017-11-07,"{'macd': 0.16, 'sod_14': 0.15, 'volume': 0.14, 'rsi_14': 0.13, 'macdh': 0.12, 'obv_2': 0.11, 'wr_14': 0.1, 'roc_2': 0.09}",0.7368421052631579,-1.0,0.7368421052631579,"(1304, 8)",Sell,BANR
235,12.24,2018-05-18,0.7072368421052632,14.8638,2017-11-07,"{'macd': 0.16, 'sod_14': 0.14, 'macdh': 0.13, 'rsi_14': 0.13, 'volume': 0.13, 'obv_2': 0.1, 'roc_2': 0.1, 'wr_14': 0.1}",0.7072368421052632,-2.0,0.7072368421052632,"(1304, 8)",Sell Strong,BGCP
236,41.69,2018-05-18,0.8519736842105263,25.27,2017-11-07,"{'volume': 0.16, 'macd': 0.15, 'sod_14': 0.15, 'macdh': 0.14, 'rsi_14': 0.13, 'obv_2': 0.1, 'wr_14': 0.1, 'roc_2': 0.08}",0.8519736842105263,2.0,0.8519736842105263,"(1304, 8)",Buy Strong,BOFI
237,104.13,2018-05-18,0.819078947368421,83.32,2017-11-07,"{'volume': 0.18, 'macd': 0.14, 'macdh': 0.14, 'rsi_14': 0.12, 'sod_14': 0.12, 'obv_2': 0.11, 'wr_14': 0.11, 'roc_2': 0.09}",0.819078947368421,2.0,0.819078947368421,"(1304, 8)",Buy Strong,BOKF
238,47.18,2018-05-18,0.78125,56.95,2017-11-07,"{'macd': 0.19, 'volume': 0.19, 'macdh': 0.14, 'obv_2': 0.12, 'roc_2': 0.11, 'sod_14': 0.1, 'wr_14': 0.09, 'rsi_14': 0.06}",0.78125,1.0,0.78125,"(213, 8)",Buy,BHF
239,13.1,2018-05-18,0.7598684210526315,13.2334,2017-11-07,"{'macd': 0.16, 'macdh': 0.15, 'sod_14': 0.14, 'rsi_14': 0.13, 'volume': 0.13, 'obv_2': 0.1, 'roc_2': 0.1, 'wr_14': 0.1}",0.7598684210526315,-2.0,0.7598684210526315,"(1303, 8)",Sell Strong,CFFN
240,42.04,2018-05-18,0.6644736842105263,39.7966,2017-11-07,"{'macd': 0.14, 'volume': 0.14, 'macdh': 0.13, 'sod_14': 0.13, 'rsi_14': 0.12, 'obv_2': 0.11, 'wr_14': 0.11, 'roc_2': 0.1}",0.6644736842105263,1.0,0.6644736842105263,"(1303, 8)",Buy,CATY
241,106.56,2018-05-18,0.7598684210526315,112.894,2017-11-07,"{'macd': 0.16, 'volume': 0.15, 'rsi_14': 0.14, 'macdh': 0.13, 'sod_14': 0.13, 'obv_2': 0.11, 'roc_2': 0.09, 'wr_14': 0.09}",0.7598684210526315,-1.0,0.7598684210526315,"(1303, 8)",Sell,CBOE
242,55.96,2018-05-18,0.7861842105263158,51.2364,2017-11-07,"{'volume': 0.16, 'macd': 0.14, 'macdh': 0.14, 'sod_14': 0.14, 'obv_2': 0.11, 'rsi_14': 0.11, 'roc_2': 0.1, 'wr_14': 0.1}",0.7861842105263158,2.0,0.7861842105263158,"(1303, 8)",Buy Strong,CHFC
243,15.05,2018-05-18,0.7966804979253111,16.705,2017-11-07,"{'macd': 0.15, 'sod_14': 0.15, 'volume': 0.14, 'macdh': 0.13, 'rsi_14': 0.13, 'obv_2': 0.11, 'wr_14': 0.11, 'roc_2': 0.1}",0.7966804979253111,-1.0,0.7966804979253111,"(1051, 8)",Sell,CMCT
244,70.73,2018-05-18,0.7532894736842105,72.3815,2017-11-07,"{'macd': 0.15, 'macdh': 0.14, 'rsi_14': 0.14, 'sod_14': 0.13, 'volume': 0.12, 'obv_2': 0.11, 'roc_2': 0.11, 'wr_14': 0.11}",0.7532894736842105,-1.0,0.7532894736842105,"(1303, 8)",Sell,CINF
245,159.78,2018-05-18,0.6842105263157895,136.387,2017-11-07,"{'macd': 0.15, 'macdh': 0.14, 'rsi_14': 0.13, 'volume': 0.13, 'sod_14': 0.13, 'obv_2': 0.12, 'wr_14': 0.11, 'roc_2': 0.1}",0.6842105263157895,2.0,0.6842105263157895,"(1303, 8)",Buy Strong,CME
246,76.4,2018-05-18,0.7828947368421053,59.3004,2017-11-07,"{'macd': 0.16, 'macdh': 0.14, 'rsi_14': 0.13, 'volume': 0.13, 'sod_14': 0.13, 'obv_2': 0.1, 'wr_14': 0.1, 'roc_2': 0.09}",0.7828947368421053,1.0,0.7828947368421053,"(1303, 8)",Buy,CIGI
247,42.68,2018-05-18,0.7302631578947368,42.9406,2017-11-07,"{'macd': 0.16, 'macdh': 0.16, 'sod_14': 0.14, 'rsi_14': 0.12, 'volume': 0.11, 'wr_14': 0.11, 'obv_2': 0.1, 'roc_2': 0.1}",0.7302631578947368,-1.0,0.7302631578947368,"(1303, 8)",Sell,COLB
248,64.59,2018-05-18,0.7302631578947368,53.2214,2017-11-07,"{'macd': 0.15, 'sod_14': 0.14, 'macdh': 0.13, 'rsi_14': 0.13, 'obv_2': 0.12, 'volume': 0.12, 'wr_14': 0.11, 'roc_2': 0.09}",0.7302631578947368,2.0,0.7302631578947368,"(1303, 8)",Buy Strong,CBSH
249,352.06,2018-05-18,0.8092105263157895,284.15,2017-11-07,"{'volume': 0.16, 'macdh': 0.14, 'sod_14': 0.14, 'macd': 0.13, 'obv_2': 0.11, 'rsi_14': 0.11, 'wr_14': 0.11, 'roc_2': 0.1}",0.8092105263157895,1.0,0.8092105263157895,"(1303, 8)",Buy,CACC
250,23.14,2018-05-18,0.6875,22.8628,2017-11-07,"{'macd': 0.16, 'macdh': 0.14, 'rsi_14': 0.13, 'volume': 0.13, 'sod_14': 0.12, 'roc_2': 0.11, 'wr_14': 0.11, 'obv_2': 0.1}",0.6875,1.0,0.6875,"(1303, 8)",Buy,CVBF
251,52.14,2018-05-18,0.7664473684210527,61.9603,2017-11-07,"{'volume': 0.16, 'macd': 0.14, 'rsi_14': 0.14, 'macdh': 0.13, 'sod_14': 0.12, 'obv_2': 0.11, 'wr_14': 0.1, 'roc_2': 0.09}",0.7664473684210527,-2.0,0.7664473684210527,"(1303, 8)",Sell Strong,CONE
252,64.66,2018-05-18,0.7039473684210527,43.62,2017-11-07,"{'macd': 0.15, 'rsi_14': 0.14, 'macdh': 0.13, 'volume': 0.13, 'sod_14': 0.13, 'obv_2': 0.11, 'wr_14': 0.11, 'roc_2': 0.09}",0.7039473684210527,2.0,0.7039473684210527,"(1303, 8)",Buy Strong,ETFC
253,70.48,2018-05-18,0.7401315789473685,57.4677,2017-11-07,"{'macd': 0.16, 'sod_14': 0.14, 'macdh': 0.13, 'rsi_14': 0.13, 'volume': 0.13, 'obv_2': 0.1, 'roc_2': 0.1, 'wr_14': 0.1}",0.7401315789473685,1.0,0.7401315789473685,"(1303, 8)",Buy,EWBC
254,212.2,2018-05-18,0.7006578947368421,229.35,2017-11-07,"{'macd': 0.17, 'sod_14': 0.14, 'macdh': 0.13, 'rsi_14': 0.13, 'volume': 0.12, 'wr_14': 0.11, 'obv_2': 0.1, 'roc_2': 0.1}",0.7006578947368421,-2.0,0.7006578947368421,"(1303, 8)",Sell Strong,ESGR
255,385.86,2018-05-18,0.7368421052631579,483.2058,2017-11-07,"{'volume': 0.15, 'sod_14': 0.15, 'macd': 0.14, 'rsi_14': 0.14, 'macdh': 0.12, 'wr_14': 0.11, 'obv_2': 0.1, 'roc_2': 0.1}",0.7368421052631579,-2.0,0.7368421052631579,"(1303, 8)",Sell Strong,EQIX
256,111.75,2018-05-18,0.7467105263157895,121.5894,2017-11-07,"{'macd': 0.17, 'volume': 0.14, 'macdh': 0.13, 'sod_14': 0.13, 'rsi_14': 0.12, 'obv_2': 0.11, 'wr_14': 0.11, 'roc_2': 0.09}",0.7467105263157895,-1.0,0.7467105263157895,"(1303, 8)",Sell,ERIE
257,33.56,2018-05-18,0.7269736842105263,28.3015,2017-11-07,"{'macd': 0.15, 'sod_14': 0.14, 'macdh': 0.13, 'rsi_14': 0.13, 'volume': 0.13, 'wr_14': 0.12, 'obv_2': 0.1, 'roc_2': 0.1}",0.7269736842105263,2.0,0.7269736842105263,"(1303, 8)",Buy Strong,FITB
258,44.6,2018-05-18,0.805921052631579,27.7329,2017-11-07,"{'macd': 0.15, 'volume': 0.15, 'sod_14': 0.15, 'rsi_14': 0.14, 'macdh': 0.12, 'wr_14': 0.11, 'obv_2': 0.1, 'roc_2': 0.09}",0.805921052631579,2.0,0.805921052631579,"(1303, 8)",Buy Strong,FNGN
259,449.95,2018-05-18,0.6611842105263158,395.8496,2017-11-07,"{'sod_14': 0.17, 'macdh': 0.14, 'macd': 0.13, 'volume': 0.13, 'obv_2': 0.12, 'rsi_14': 0.12, 'wr_14': 0.11, 'roc_2': 0.09}",0.6611842105263158,2.0,0.6611842105263158,"(1303, 8)",Buy Strong,FCNCA
260,31.65,2018-05-18,0.7072368421052632,26.0682,2017-11-07,"{'macd': 0.15, 'macdh': 0.14, 'sod_14': 0.14, 'rsi_14': 0.13, 'volume': 0.13, 'obv_2': 0.11, 'wr_14': 0.11, 'roc_2': 0.09}",0.7072368421052632,1.0,0.7072368421052632,"(1303, 8)",Buy,FFBC
261,52.6,2018-05-18,0.7269736842105263,44.0429,2017-11-07,"{'macd': 0.14, 'sod_14': 0.14, 'macdh': 0.13, 'rsi_14': 0.13, 'volume': 0.13, 'obv_2': 0.12, 'wr_14': 0.11, 'roc_2': 0.09}",0.7269736842105263,1.0,0.7269736842105263,"(1303, 8)",Buy,FFIN
262,28.32,2018-05-18,0.8131868131868132,27.6313,2017-11-07,"{'macd': 0.15, 'macdh': 0.15, 'volume': 0.15, 'rsi_14': 0.13, 'obv_2': 0.11, 'wr_14': 0.11, 'roc_2': 0.1, 'sod_14': 0.1}",0.8131868131868132,1.0,0.8131868131868132,"(451, 8)",Buy,FHB
263,25.38,2018-05-18,0.6875,22.6669,2017-11-07,"{'volume': 0.15, 'macd': 0.14, 'rsi_14': 0.14, 'macdh': 0.13, 'sod_14': 0.13, 'roc_2': 0.11, 'wr_14': 0.11, 'obv_2': 0.1}",0.6875,2.0,0.6875,"(1303, 8)",Buy Strong,FMBI
264,70.71,2018-05-18,0.7272727272727273,67.68,2017-11-07,"{'macd': 0.15, 'rsi_14': 0.14, 'volume': 0.13, 'macdh': 0.12, 'wr_14': 0.12, 'sod_14': 0.12, 'obv_2': 0.11, 'roc_2': 0.09}",0.7272727272727273,-2.0,0.7272727272727273,"(748, 8)",Sell Strong,FSV
265,17.3,2018-05-18,0.7203947368421053,17.6421,2017-11-07,"{'macd': 0.15, 'macdh': 0.15, 'sod_14': 0.13, 'rsi_14': 0.12, 'volume': 0.12, 'obv_2': 0.11, 'roc_2': 0.11, 'wr_14': 0.11}",0.7203947368421053,2.0,0.7203947368421053,"(1303, 8)",Buy Strong,FULT
266,34.58,2018-05-18,0.7967479674796748,35.6165,2017-11-07,"{'macd': 0.17, 'macdh': 0.15, 'volume': 0.15, 'rsi_14': 0.13, 'sod_14': 0.13, 'obv_2': 0.1, 'roc_2': 0.09, 'wr_14': 0.09}",0.7967479674796748,-1.0,0.7967479674796748,"(1072, 8)",Sell,GLPI
267,39.37,2018-05-18,0.7467105263157895,36.3891,2017-11-07,"{'sod_14': 0.16, 'macdh': 0.14, 'macd': 0.13, 'rsi_14': 0.13, 'volume': 0.13, 'wr_14': 0.11, 'obv_2': 0.1, 'roc_2': 0.1}",0.7467105263157895,1.0,0.7467105263157895,"(1303, 8)",Buy,GBCI
268,51.8,2018-05-18,0.7664473684210527,46.8606,2017-11-07,"{'macd': 0.15, 'macdh': 0.15, 'sod_14': 0.14, 'volume': 0.13, 'rsi_14': 0.12, 'wr_14': 0.11, 'obv_2': 0.1, 'roc_2': 0.09}",0.7664473684210527,2.0,0.7664473684210527,"(1303, 8)",Buy Strong,HBHC
269,73.72,2018-05-18,0.7706422018348624,49.31,2017-11-07,"{'sod_14': 0.15, 'volume': 0.14, 'macd': 0.13, 'macdh': 0.13, 'obv_2': 0.12, 'rsi_14': 0.12, 'wr_14': 0.1, 'roc_2': 0.09}",0.7706422018348624,1.0,0.7706422018348624,"(958, 8)",Buy,HQY
270,23.44,2018-05-18,0.7302631578947368,21.4978,2017-11-07,"{'volume': 0.16, 'sod_14': 0.14, 'macdh': 0.13, 'rsi_14': 0.13, 'macd': 0.12, 'wr_14': 0.12, 'obv_2': 0.11, 'roc_2': 0.08}",0.7302631578947368,1.0,0.7302631578947368,"(1303, 8)",Buy,HOMB
271,15.12,2018-05-18,0.7105263157894737,13.2067,2017-11-07,"{'sod_14': 0.16, 'macd': 0.14, 'macdh': 0.13, 'rsi_14': 0.13, 'volume': 0.12, 'obv_2': 0.11, 'wr_14': 0.11, 'roc_2': 0.1}",0.7105263157894737,2.0,0.7105263157894737,"(1303, 8)",Buy Strong,HBAN
272,79.45,2018-05-18,0.7532894736842105,71.6586,2017-11-07,"{'volume': 0.17, 'macd': 0.14, 'macdh': 0.13, 'sod_14': 0.13, 'rsi_14': 0.12, 'obv_2': 0.11, 'wr_14': 0.1, 'roc_2': 0.09}",0.7532894736842105,2.0,0.7532894736842105,"(1303, 8)",Buy Strong,IBKC
273,51.43,2018-05-18,0.7866666666666666,43.43,2017-11-07,"{'volume': 0.16, 'macd': 0.14, 'macdh': 0.13, 'rsi_14': 0.13, 'sod_14': 0.12, 'obv_2': 0.11, 'wr_14': 0.11, 'roc_2': 0.1}",0.7866666666666666,1.0,0.7866666666666666,"(987, 8)",Buy,INFO
274,74.85,2018-05-18,0.6578947368421053,69.0447,2017-11-07,"{'macd': 0.15, 'macdh': 0.14, 'volume': 0.14, 'sod_14': 0.14, 'rsi_14': 0.13, 'obv_2': 0.11, 'wr_14': 0.1, 'roc_2': 0.09}",0.6578947368421053,1.0,0.6578947368421053,"(1303, 8)",Buy,INDB
275,77.6,2018-05-18,0.7796052631578947,53.9183,2017-11-07,"{'rsi_14': 0.18, 'macd': 0.17, 'macdh': 0.14, 'volume': 0.13, 'sod_14': 0.12, 'obv_2': 0.09, 'wr_14': 0.09, 'roc_2': 0.08}",0.7796052631578947,2.0,0.7796052631578947,"(1303, 8)",Buy Strong,IBKR
276,42.8,2018-05-18,0.7171052631578947,39.45,2017-11-07,"{'volume': 0.15, 'macd': 0.14, 'macdh': 0.13, 'rsi_14': 0.13, 'sod_14': 0.13, 'obv_2': 0.11, 'roc_2': 0.1, 'wr_14': 0.1}",0.7171052631578947,1.0,0.7171052631578947,"(1303, 8)",Buy,IBOC
277,13.54,2018-05-18,0.7368421052631579,13.2697,2017-11-07,"{'volume': 0.18, 'macd': 0.13, 'macdh': 0.13, 'rsi_14': 0.13, 'sod_14': 0.13, 'obv_2': 0.11, 'wr_14': 0.09, 'roc_2': 0.08}",0.7368421052631579,1.0,0.7368421052631579,"(1303, 8)",Buy,ISBC
278,68.38,2018-05-18,0.7664473684210527,75.3468,2017-11-07,"{'volume': 0.18, 'macd': 0.16, 'sod_14': 0.13, 'macdh': 0.12, 'obv_2': 0.12, 'rsi_14': 0.12, 'wr_14': 0.09, 'roc_2': 0.08}",0.7664473684210527,-2.0,0.7664473684210527,"(1303, 8)",Sell Strong,LAMR
279,43.51,2018-05-18,0.8486842105263158,37.7154,2017-11-07,"{'macd': 0.15, 'macdh': 0.14, 'rsi_14': 0.14, 'sod_14': 0.14, 'volume': 0.13, 'obv_2': 0.11, 'wr_14': 0.11, 'roc_2': 0.09}",0.8486842105263158,1.0,0.8486842105263158,"(1303, 8)",Buy,LTXB
280,70.95,2018-05-18,0.8059701492537313,89.51,2017-11-07,"{'macd': 0.17, 'macdh': 0.14, 'volume': 0.14, 'rsi_14': 0.13, 'sod_14': 0.12, 'obv_2': 0.11, 'wr_14': 0.11, 'roc_2': 0.08}",0.8059701492537313,-2.0,0.8059701492537313,"(891, 8)",Sell Strong,LBRDK
281,70.47,2018-05-18,0.7894736842105263,48.8983,2017-11-07,"{'sod_14': 0.15, 'macd': 0.14, 'rsi_14': 0.14, 'macdh': 0.13, 'volume': 0.13, 'obv_2': 0.11, 'roc_2': 0.1, 'wr_14': 0.1}",0.7894736842105263,2.0,0.7894736842105263,"(1303, 8)",Buy Strong,LPLA
282,204.72,2018-05-18,0.7730263157894737,177.6196,2017-11-07,"{'macd': 0.17, 'macdh': 0.15, 'rsi_14': 0.14, 'volume': 0.13, 'sod_14': 0.12, 'wr_14': 0.11, 'obv_2': 0.1, 'roc_2': 0.09}",0.7730263157894737,2.0,0.7730263157894737,"(1303, 8)",Buy Strong,MKTX
283,43.65,2018-05-18,0.7171052631578947,44.1163,2017-11-07,"{'macd': 0.14, 'volume': 0.14, 'macdh': 0.13, 'rsi_14': 0.13, 'sod_14': 0.13, 'obv_2': 0.12, 'wr_14': 0.11, 'roc_2': 0.1}",0.7171052631578947,-1.0,0.7171052631578947,"(1303, 8)",Sell,MBFI
284,90.07,2018-05-18,0.6710526315789473,71.3473,2017-11-07,"{'rsi_14': 0.15, 'macd': 0.13, 'volume': 0.13, 'sod_14': 0.13, 'macdh': 0.12, 'obv_2': 0.12, 'wr_14': 0.11, 'roc_2': 0.1}",0.6710526315789473,2.0,0.6710526315789473,"(1303, 8)",Buy Strong,NDAQ
285,26.45,2018-05-18,0.8008130081300813,20.5985,2017-11-07,"{'volume': 0.16, 'macd': 0.14, 'sod_14': 0.14, 'rsi_14': 0.13, 'macdh': 0.12, 'wr_14': 0.11, 'obv_2': 0.1, 'roc_2': 0.1}",0.8008130081300813,2.0,0.8008130081300813,"(1070, 8)",Buy Strong,NGHC
286,14.07,2018-05-18,0.8220338983050848,11.7918,2017-11-07,"{'macd': 0.16, 'macdh': 0.14, 'rsi_14': 0.14, 'volume': 0.13, 'sod_14': 0.13, 'obv_2': 0.11, 'roc_2': 0.11, 'wr_14': 0.1}",0.8220338983050848,2.0,0.8220338983050848,"(1030, 8)",Buy Strong,NAVI
287,38.1,2018-05-18,0.7039473684210527,36.2061,2017-11-07,"{'macd': 0.17, 'volume': 0.14, 'macdh': 0.13, 'rsi_14': 0.13, 'sod_14': 0.13, 'obv_2': 0.11, 'wr_14': 0.11, 'roc_2': 0.09}",0.7039473684210527,-1.0,0.7039473684210527,"(1303, 8)",Sell,NBTB
288,107.82,2018-05-18,0.7072368421052632,91.6558,2017-11-07,"{'macd': 0.15, 'rsi_14': 0.14, 'sod_14': 0.14, 'macdh': 0.13, 'volume': 0.12, 'wr_14': 0.12, 'obv_2': 0.11, 'roc_2': 0.1}",0.7072368421052632,2.0,0.7072368421052632,"(1303, 8)",Buy Strong,NTRS
289,16.95,2018-05-18,0.7368421052631579,15.8104,2017-11-07,"{'macd': 0.15, 'macdh': 0.15, 'sod_14': 0.14, 'rsi_14': 0.12, 'volume': 0.12, 'wr_14': 0.11, 'obv_2': 0.1, 'roc_2': 0.1}",0.7368421052631579,1.0,0.7368421052631579,"(1303, 8)",Buy,NWBI
290,17.85,2018-05-18,0.7302631578947368,17.2465,2017-11-07,"{'macd': 0.14, 'volume': 0.14, 'rsi_14': 0.13, 'sod_14': 0.13, 'macdh': 0.12, 'obv_2': 0.12, 'wr_14': 0.11, 'roc_2': 0.1}",0.7302631578947368,1.0,0.7302631578947368,"(1303, 8)",Buy,ONB
291,53.87,2018-05-18,0.7631578947368421,44.541,2017-11-07,"{'volume': 0.19, 'macd': 0.13, 'macdh': 0.13, 'sod_14': 0.13, 'rsi_14': 0.12, 'obv_2': 0.11, 'wr_14': 0.1, 'roc_2': 0.09}",0.7631578947368421,2.0,0.7631578947368421,"(1303, 8)",Buy Strong,PACW
292,18.63,2018-05-18,0.7006578947368421,17.8916,2017-11-07,"{'macd': 0.14, 'macdh': 0.14, 'sod_14': 0.14, 'rsi_14': 0.12, 'volume': 0.12, 'obv_2': 0.11, 'wr_14': 0.11, 'roc_2': 0.1}",0.7006578947368421,2.0,0.7006578947368421,"(1303, 8)",Buy Strong,PBCT
293,66.55,2018-05-18,0.7105263157894737,64.5569,2017-11-07,"{'volume': 0.16, 'macd': 0.15, 'macdh': 0.14, 'sod_14': 0.13, 'rsi_14': 0.12, 'obv_2': 0.11, 'wr_14': 0.1, 'roc_2': 0.09}",0.7105263157894737,-1.0,0.7105263157894737,"(1303, 8)",Sell,PNFP
294,46.77,2018-05-18,0.7598684210526315,32.612,2017-11-07,"{'sod_14': 0.15, 'macd': 0.14, 'volume': 0.14, 'macdh': 0.13, 'rsi_14': 0.12, 'wr_14': 0.12, 'obv_2': 0.11, 'roc_2': 0.1}",0.7598684210526315,2.0,0.7598684210526315,"(1304, 8)",Buy Strong,BPOP
295,48.3,2018-05-18,0.7763157894736842,51.091,2017-11-07,"{'macdh': 0.15, 'macd': 0.14, 'sod_14': 0.14, 'rsi_14': 0.13, 'volume': 0.13, 'obv_2': 0.12, 'wr_14': 0.1, 'roc_2': 0.09}",0.7763157894736842,1.0,0.7763157894736842,"(1303, 8)",Buy,PCH
296,39.9,2018-05-18,0.7697368421052632,27.725,2017-11-07,"{'macd': 0.15, 'volume': 0.15, 'rsi_14': 0.14, 'macdh': 0.13, 'sod_14': 0.13, 'obv_2': 0.11, 'wr_14': 0.11, 'roc_2': 0.09}",0.7697368421052632,2.0,0.7697368421052632,"(1303, 8)",Buy Strong,PRAA
297,58.8,2018-05-18,0.6743421052631579,68.0596,2017-11-07,"{'macd': 0.14, 'volume': 0.14, 'sod_14': 0.14, 'macdh': 0.12, 'obv_2': 0.12, 'rsi_14': 0.12, 'wr_14': 0.12, 'roc_2': 0.09}",0.6743421052631579,-2.0,0.6743421052631579,"(1303, 8)",Sell Strong,PFG
298,47.1,2018-05-18,0.7236842105263158,40.1089,2017-11-07,"{'volume': 0.15, 'macd': 0.14, 'sod_14': 0.14, 'obv_2': 0.13, 'rsi_14': 0.13, 'macdh': 0.12, 'roc_2': 0.1, 'wr_14': 0.1}",0.7236842105263158,1.0,0.7236842105263158,"(1303, 8)",Buy,RNST
299,17.16,2018-05-18,0.6842105263157895,18.3873,2017-11-07,"{'volume': 0.17, 'macd': 0.13, 'obv_2': 0.13, 'rsi_14': 0.13, 'sod_14': 0.13, 'macdh': 0.12, 'roc_2': 0.1, 'wr_14': 0.1}",0.6842105263157895,-2.0,0.6842105263157895,"(1303, 8)",Sell Strong,ROIC
300,19.13,2018-05-18,0.7302631578947368,18.3432,2017-11-07,"{'volume': 0.16, 'macd': 0.14, 'rsi_14': 0.14, 'macdh': 0.12, 'obv_2': 0.12, 'sod_14': 0.12, 'wr_14': 0.1, 'roc_2': 0.09}",0.7302631578947368,-1.0,0.7302631578947368,"(1303, 8)",Sell,SBRA
301,157.69,2018-05-18,0.7664473684210527,165.65,2017-11-07,"{'macd': 0.16, 'sod_14': 0.15, 'rsi_14': 0.14, 'volume': 0.13, 'macdh': 0.12, 'obv_2': 0.11, 'wr_14': 0.1, 'roc_2': 0.09}",0.7664473684210527,-1.0,0.7664473684210527,"(1303, 8)",Sell,SBAC
302,65.15,2018-05-18,0.7335526315789473,64.8587,2017-11-07,"{'macd': 0.15, 'macdh': 0.14, 'volume': 0.14, 'sod_14': 0.13, 'rsi_14': 0.12, 'obv_2': 0.11, 'wr_14': 0.11, 'roc_2': 0.08}",0.7335526315789473,2.0,0.7335526315789473,"(1303, 8)",Buy Strong,SEIC
303,56.1,2018-05-18,0.7236842105263158,58.0373,2017-11-07,"{'macd': 0.15, 'rsi_14': 0.14, 'sod_14': 0.14, 'macdh': 0.13, 'volume': 0.12, 'wr_14': 0.11, 'obv_2': 0.1, 'roc_2': 0.1}",0.7236842105263158,-1.0,0.7236842105263158,"(1303, 8)",Sell,SIGI
304,43.18,2018-05-18,0.7835497835497836,39.5934,2017-11-07,"{'macd': 0.17, 'volume': 0.15, 'macdh': 0.13, 'rsi_14': 0.12, 'sod_14': 0.12, 'obv_2': 0.11, 'roc_2': 0.1, 'wr_14': 0.1}",0.7835497835497836,1.0,0.7835497835497836,"(1012, 8)",Buy,SFBS
305,129.31,2018-05-18,0.819078947368421,126.8,2017-11-07,"{'volume': 0.17, 'macd': 0.14, 'macdh': 0.13, 'rsi_14': 0.13, 'sod_14': 0.13, 'obv_2': 0.1, 'wr_14': 0.1, 'roc_2': 0.09}",0.819078947368421,2.0,0.819078947368421,"(1303, 8)",Buy Strong,SBNY
306,31.1,2018-05-18,0.7401315789473685,27.9111,2017-11-07,"{'volume': 0.17, 'macd': 0.15, 'sod_14': 0.15, 'macdh': 0.12, 'obv_2': 0.12, 'rsi_14': 0.1, 'wr_14': 0.1, 'roc_2': 0.09}",0.7401315789473685,1.0,0.7401315789473685,"(1303, 8)",Buy,SFNC
307,11.49,2018-05-18,0.7861842105263158,10.2,2017-11-07,"{'macd': 0.15, 'rsi_14': 0.15, 'sod_14': 0.15, 'macdh': 0.13, 'volume': 0.13, 'wr_14': 0.11, 'obv_2': 0.09, 'roc_2': 0.09}",0.7861842105263158,2.0,0.7861842105263158,"(1303, 8)",Buy Strong,SLM
308,88.7,2018-05-18,0.7203947368421053,86.8396,2017-11-07,"{'volume': 0.15, 'macd': 0.14, 'rsi_14': 0.14, 'macdh': 0.13, 'sod_14': 0.13, 'obv_2': 0.11, 'wr_14': 0.1, 'roc_2': 0.09}",0.7203947368421053,-1.0,0.7203947368421053,"(1303, 8)",Sell,SSB
309,321.78,2018-05-18,0.7697368421052632,215.06,2017-11-07,"{'macd': 0.15, 'sod_14': 0.15, 'volume': 0.14, 'macdh': 0.13, 'rsi_14': 0.12, 'obv_2': 0.11, 'wr_14': 0.11, 'roc_2': 0.09}",0.7697368421052632,1.0,0.7697368421052632,"(1303, 8)",Buy,SIVB
310,120.59,2018-05-18,0.7302631578947368,92.6814,2017-11-07,"{'macd': 0.15, 'rsi_14': 0.14, 'sod_14': 0.14, 'macdh': 0.13, 'volume': 0.13, 'wr_14': 0.11, 'obv_2': 0.1, 'roc_2': 0.09}",0.7302631578947368,2.0,0.7302631578947368,"(1303, 8)",Buy Strong,TROW
311,60.69,2018-05-18,0.7532894736842105,48.3091,2017-11-07,"{'macd': 0.16, 'macdh': 0.14, 'sod_14': 0.14, 'rsi_14': 0.13, 'volume': 0.12, 'wr_14': 0.11, 'obv_2': 0.1, 'roc_2': 0.09}",0.7532894736842105,2.0,0.7532894736842105,"(1304, 8)",Buy Strong,AMTD
312,99.1,2018-05-18,0.7993421052631579,82.15,2017-11-07,"{'macdh': 0.15, 'macd': 0.14, 'volume': 0.14, 'sod_14': 0.14, 'rsi_14': 0.12, 'wr_14': 0.11, 'obv_2': 0.1, 'roc_2': 0.09}",0.7993421052631579,1.0,0.7993421052631579,"(1303, 8)",Buy,TCBI
313,15.24,2018-05-18,0.7993421052631579,14.8753,2017-11-07,"{'volume': 0.15, 'sod_14': 0.15, 'macd': 0.14, 'macdh': 0.13, 'rsi_14': 0.12, 'obv_2': 0.11, 'roc_2': 0.1, 'wr_14': 0.1}",0.7993421052631579,1.0,0.7993421052631579,"(1303, 8)",Buy,TFSL
314,58.75,2018-05-18,0.7039473684210527,51.1731,2017-11-07,"{'macd': 0.15, 'rsi_14': 0.14, 'macdh': 0.13, 'volume': 0.13, 'wr_14': 0.13, 'sod_14': 0.12, 'obv_2': 0.1, 'roc_2': 0.1}",0.7039473684210527,2.0,0.7039473684210527,"(1303, 8)",Buy Strong,NAVG
315,32.4,2018-05-18,0.7236842105263158,31.6494,2017-11-07,"{'sod_14': 0.15, 'macdh': 0.14, 'macd': 0.13, 'volume': 0.13, 'roc_2': 0.12, 'rsi_14': 0.12, 'obv_2': 0.11, 'wr_14': 0.11}",0.7236842105263158,1.0,0.7236842105263158,"(1303, 8)",Buy,TRMK
316,78.66,2018-05-18,0.7171052631578947,70.3911,2017-11-07,"{'macd': 0.15, 'sod_14': 0.14, 'macdh': 0.13, 'volume': 0.13, 'obv_2': 0.12, 'rsi_14': 0.12, 'wr_14': 0.11, 'roc_2': 0.1}",0.7171052631578947,1.0,0.7171052631578947,"(1303, 8)",Buy,UMBF
317,23.65,2018-05-18,0.7302631578947368,19.928,2017-11-07,"{'volume': 0.16, 'sod_14': 0.15, 'macd': 0.13, 'rsi_14': 0.13, 'macdh': 0.11, 'obv_2': 0.11, 'wr_14': 0.11, 'roc_2': 0.09}",0.7302631578947368,1.0,0.7302631578947368,"(1303, 8)",Buy,UMPQ
318,35.9,2018-05-18,0.743421052631579,34.1118,2017-11-07,"{'macd': 0.16, 'volume': 0.15, 'macdh': 0.14, 'sod_14': 0.14, 'rsi_14': 0.12, 'obv_2': 0.1, 'wr_14': 0.1, 'roc_2': 0.09}",0.743421052631579,1.0,0.743421052631579,"(1303, 8)",Buy,UBSI
319,33.16,2018-05-18,0.75,26.1798,2017-11-07,"{'volume': 0.16, 'macdh': 0.14, 'sod_14': 0.14, 'rsi_14': 0.13, 'macd': 0.12, 'obv_2': 0.11, 'wr_14': 0.11, 'roc_2': 0.09}",0.75,2.0,0.75,"(1303, 8)",Buy Strong,UCBI
320,20.04,2018-05-18,0.838150289017341,15.9953,2017-11-07,"{'volume': 0.18, 'macd': 0.16, 'sod_14': 0.13, 'macdh': 0.11, 'obv_2': 0.11, 'rsi_14': 0.11, 'wr_14': 0.1, 'roc_2': 0.09}",0.838150289017341,1.0,0.838150289017341,"(778, 8)",Buy,UNIT
321,32.2,2018-05-18,0.7236842105263158,33.3889,2017-11-07,"{'macd': 0.15, 'sod_14': 0.15, 'macdh': 0.14, 'rsi_14': 0.13, 'volume': 0.13, 'wr_14': 0.12, 'obv_2': 0.1, 'roc_2': 0.09}",0.7236842105263158,1.0,0.7236842105263158,"(1303, 8)",Buy,WAFD
322,57.27,2018-05-18,0.6875,54.4542,2017-11-07,"{'macd': 0.15, 'volume': 0.15, 'macdh': 0.14, 'sod_14': 0.14, 'rsi_14': 0.12, 'obv_2': 0.11, 'roc_2': 0.1, 'wr_14': 0.1}",0.6875,2.0,0.6875,"(1303, 8)",Buy Strong,WABC
323,154.31,2018-05-18,0.71875,161.0352,2017-11-07,"{'macd': 0.15, 'volume': 0.15, 'macdh': 0.14, 'rsi_14': 0.13, 'obv_2': 0.12, 'sod_14': 0.12, 'wr_14': 0.1, 'roc_2': 0.09}",0.71875,-1.0,0.71875,"(598, 8)",Sell,WLTW
324,94.05,2018-05-18,0.7105263157894737,77.9605,2017-11-07,"{'macd': 0.15, 'sod_14': 0.15, 'rsi_14': 0.14, 'macdh': 0.13, 'volume': 0.12, 'obv_2': 0.11, 'roc_2': 0.1, 'wr_14': 0.1}",0.7105263157894737,2.0,0.7105263157894737,"(1303, 8)",Buy Strong,WTFC
325,11.59,2018-05-18,0.7532894736842105,12.1842,2017-11-07,"{'macd': 0.16, 'macdh': 0.15, 'volume': 0.15, 'rsi_14': 0.14, 'sod_14': 0.12, 'obv_2': 0.11, 'wr_14': 0.1, 'roc_2': 0.08}",0.7532894736842105,-2.0,0.7532894736842105,"(1303, 8)",Sell Strong,WETF
326,51.66,2018-05-18,0.8125,40.22,2017-11-07,"{'macd': 0.17, 'macdh': 0.15, 'volume': 0.15, 'rsi_14': 0.13, 'sod_14': 0.12, 'wr_14': 0.11, 'obv_2': 0.1, 'roc_2': 0.08}",0.8125,2.0,0.8125,"(1303, 8)",Buy Strong,ZG
327,57.77,2018-05-18,0.7598684210526315,44.5498,2017-11-07,"{'macdh': 0.15, 'sod_14': 0.15, 'macd': 0.14, 'rsi_14': 0.13, 'volume': 0.13, 'wr_14': 0.11, 'obv_2': 0.1, 'roc_2': 0.09}",0.7598684210526315,2.0,0.7598684210526315,"(1303, 8)",Buy Strong,ZION
