,(-1) close,(-1) date,accuracy,close,date,features,precision,prediction,recall,shape,signal,symbol
0,188.58,2018-05-25,0.8360128617363344,170.6442,2017-11-14,"{'macd': 0.14, 'volume': 0.14, 'macdh': 0.13, 'rsi_14': 0.13, 'sod_14': 0.13, 'obv_2': 0.12, 'wr_14': 0.11, 'roc_2': 0.1}",0.8360128617363344,2.0,0.8360128617363344,"(1309, 8)",Buy Strong,AAPL
1,1075.66,2018-05-25,0.8048780487804879,1026.0,2017-11-14,"{'macd': 0.16, 'rsi_14': 0.14, 'macdh': 0.13, 'sod_14': 0.13, 'volume': 0.12, 'obv_2': 0.11, 'roc_2': 0.11, 'wr_14': 0.11}",0.8048780487804879,1.0,0.8048780487804879,"(1050, 8)",Buy,GOOG
2,163.21,2018-05-25,0.8778135048231511,166.0631,2017-11-14,"{'macd': 0.15, 'macdh': 0.15, 'rsi_14': 0.13, 'volume': 0.13, 'sod_14': 0.12, 'obv_2': 0.11, 'roc_2': 0.1, 'wr_14': 0.1}",0.8778135048231511,2.0,0.8778135048231511,"(1308, 8)",Buy Strong,MCD
3,98.36,2018-05-25,0.7198697068403909,83.239,2017-11-14,"{'volume': 0.16, 'macd': 0.13, 'rsi_14': 0.13, 'sod_14': 0.13, 'macdh': 0.12, 'obv_2': 0.12, 'wr_14': 0.11, 'roc_2': 0.1}",0.7198697068403909,1.0,0.7198697068403909,"(1292, 8)",Buy,MSFT
