,(-1) close,(-1) date,accuracy,close,date,features,precision,prediction,recall,shape,signal,symbol
0,188.36,2018-05-23,0.81,173.9607,2017-11-10,"{'volume': 0.16, 'macd': 0.15, 'macdh': 0.14, 'rsi_14': 0.13, 'sod_14': 0.12, 'obv_2': 0.11, 'wr_14': 0.11, 'roc_2': 0.08}",0.81,-2.0,0.81,"(1307, 8)",Sell Strong,AAPL
1,1079.69,2018-05-23,0.7063829787234043,1028.07,2017-11-10,"{'macd': 0.16, 'macdh': 0.14, 'rsi_14': 0.14, 'volume': 0.13, 'sod_14': 0.13, 'wr_14': 0.11, 'obv_2': 0.1, 'roc_2': 0.09}",0.7063829787234043,-2.0,0.7063829787234043,"(1048, 8)",Sell Strong,GOOG
2,161.62,2018-05-23,0.7525083612040134,163.5738,2017-11-10,"{'macd': 0.16, 'rsi_14': 0.14, 'volume': 0.14, 'sod_14': 0.14, 'macdh': 0.13, 'obv_2': 0.1, 'wr_14': 0.1, 'roc_2': 0.08}",0.7525083612040134,-2.0,0.7525083612040134,"(1306, 8)",Sell Strong,MCD
3,98.66,2018-05-23,0.6644067796610169,83.0608,2017-11-10,"{'obv_2': 0.14, 'rsi_14': 0.14, 'volume': 0.14, 'macd': 0.13, 'sod_14': 0.13, 'macdh': 0.12, 'wr_14': 0.11, 'roc_2': 0.1}",0.6644067796610169,1.0,0.6644067796610169,"(1290, 8)",Buy,MSFT
