,accuracy,close,date,features,precision,prediction,recall,shape,signal,symbol
0,0.8389261744966443,69.45,2018-05-11,"{'sod_14': 0.17, 'macd': 0.13, 'rsi_14': 0.13, 'wr_14': 0.13, 'macdh': 0.12, 'volume': 0.12, 'obv_2': 0.11, 'roc_2': 0.1}",0.8389261744966443,1.0,0.8389261744966443,"(1299, 8)",Buy,A
1,0.9429530201342282,188.59,2018-05-11,"{'volume': 0.21, 'macd': 0.14, 'macdh': 0.13, 'obv_2': 0.12, 'rsi_14': 0.11, 'wr_14': 0.1, 'sod_14': 0.1, 'roc_2': 0.07}",0.9429530201342282,1.0,0.9429530201342282,"(1299, 8)",Buy,AAPL
2,0.8624161073825504,30.92,2018-05-11,"{'sod_14': 0.16, 'macd': 0.15, 'rsi_14': 0.14, 'macdh': 0.13, 'volume': 0.13, 'obv_2': 0.1, 'wr_14': 0.1, 'roc_2': 0.08}",0.8624161073825504,1.0,0.8624161073825504,"(1299, 8)",Buy,BAC
3,0.9,28.08,2018-05-11,"{'macd': 0.21, 'rsi_14': 0.14, 'volume': 0.12, 'wr_14': 0.12, 'sod_14': 0.12, 'macdh': 0.11, 'obv_2': 0.09, 'roc_2': 0.09}",0.9,-1.0,0.9,"(790, 8)",Sell,CLLS
4,0.8754208754208754,45.93,2018-05-11,"{'sod_14': 0.16, 'macd': 0.14, 'rsi_14': 0.14, 'volume': 0.14, 'macdh': 0.13, 'obv_2': 0.11, 'wr_14': 0.11, 'roc_2': 0.08}",0.8754208754208754,1.0,0.8754208754208754,"(1298, 8)",Buy,CSCO
5,0.8956228956228957,147.32,2018-05-11,"{'macd': 0.15, 'rsi_14': 0.15, 'sod_14': 0.15, 'volume': 0.14, 'macdh': 0.1, 'obv_2': 0.1, 'roc_2': 0.1, 'wr_14': 0.1}",0.8956228956228957,-1.0,0.8956228956228957,"(1298, 8)",Sell,DE
6,0.9568965517241379,35.18,2018-05-11,"{'volume': 0.3, 'macd': 0.16, 'macdh': 0.14, 'rsi_14': 0.14, 'obv_2': 0.11, 'sod_14': 0.06, 'wr_14': 0.05, 'roc_2': 0.04}",0.9568965517241379,1.0,0.9568965517241379,"(573, 8)",Buy,EDIT
7,0.9419795221843004,186.99,2018-05-11,"{'volume': 0.22, 'macd': 0.14, 'macdh': 0.14, 'obv_2': 0.11, 'rsi_14': 0.11, 'sod_14': 0.11, 'wr_14': 0.1, 'roc_2': 0.07}",0.9419795221843004,1.0,0.9419795221843004,"(1282, 8)",Buy,FB
8,0.9626865671641791,22.71,2018-05-11,"{'volume': 0.24, 'obv_2': 0.23, 'rsi_14': 0.14, 'sod_14': 0.13, 'macd': 0.1, 'macdh': 0.06, 'roc_2': 0.06, 'wr_14': 0.05}",0.9626865671641791,1.0,0.9626865671641791,"(646, 8)",Buy,HPQ
9,0.8653198653198653,144.14,2018-05-11,"{'volume': 0.15, 'macd': 0.14, 'macdh': 0.14, 'rsi_14': 0.13, 'obv_2': 0.12, 'sod_14': 0.12, 'wr_14': 0.11, 'roc_2': 0.1}",0.8653198653198653,1.0,0.8653198653198653,"(1298, 8)",Buy,IBM
10,0.9023569023569024,54.67,2018-05-11,"{'macd': 0.17, 'macdh': 0.15, 'rsi_14': 0.14, 'sod_14': 0.13, 'volume': 0.12, 'wr_14': 0.11, 'obv_2': 0.1, 'roc_2': 0.08}",0.9023569023569024,-1.0,0.9023569023569024,"(1298, 8)",Sell,INTC
11,0.9730639730639731,324.04,2018-05-11,"{'obv_2': 0.19, 'rsi_14': 0.16, 'volume': 0.16, 'macd': 0.13, 'sod_14': 0.13, 'macdh': 0.09, 'roc_2': 0.08, 'wr_14': 0.07}",0.9730639730639731,1.0,0.9730639730639731,"(1298, 8)",Buy,LMT
12,0.8821548821548821,165.39,2018-05-11,"{'rsi_14': 0.15, 'volume': 0.15, 'macd': 0.14, 'sod_14': 0.14, 'macdh': 0.13, 'obv_2': 0.1, 'wr_14': 0.1, 'roc_2': 0.09}",0.8821548821548821,1.0,0.8821548821548821,"(1298, 8)",Buy,MCD
13,0.8855218855218855,59.69,2018-05-11,"{'volume': 0.16, 'sod_14': 0.15, 'macdh': 0.14, 'rsi_14': 0.12, 'macd': 0.11, 'wr_14': 0.11, 'obv_2': 0.1, 'roc_2': 0.1}",0.8855218855218855,1.0,0.8855218855218855,"(1298, 8)",Buy,MRK
14,0.936026936026936,51.82,2018-05-11,"{'macd': 0.24, 'rsi_14': 0.2, 'volume': 0.16, 'macdh': 0.1, 'obv_2': 0.09, 'wr_14': 0.09, 'sod_14': 0.07, 'roc_2': 0.05}",0.936026936026936,-1.0,0.936026936026936,"(1298, 8)",Sell,MU
15,0.9259259259259259,326.46,2018-05-11,"{'volume': 0.18, 'obv_2': 0.14, 'macdh': 0.13, 'sod_14': 0.13, 'macd': 0.12, 'rsi_14': 0.12, 'wr_14': 0.11, 'roc_2': 0.07}",0.9259259259259259,1.0,0.9259259259259259,"(1298, 8)",Buy,NFLX
16,0.9831649831649831,325.3,2018-05-11,"{'macd': 0.22, 'macdh': 0.15, 'obv_2': 0.14, 'wr_14': 0.12, 'rsi_14': 0.11, 'sod_14': 0.1, 'roc_2': 0.08, 'volume': 0.08}",0.9831649831649831,1.0,0.9831649831649831,"(1298, 8)",Buy,NOC
17,0.91,23.74,2018-05-11,"{'sod_14': 0.18, 'macdh': 0.16, 'volume': 0.14, 'macd': 0.13, 'obv_2': 0.12, 'wr_14': 0.1, 'rsi_14': 0.09, 'roc_2': 0.07}",0.91,-1.0,0.91,"(508, 8)",Sell,NTLA
18,0.9595959595959596,254.53,2018-05-11,"{'macd': 0.16, 'volume': 0.15, 'sod_14': 0.15, 'macdh': 0.13, 'roc_2': 0.11, 'wr_14': 0.11, 'obv_2': 0.1, 'rsi_14': 0.09}",0.9595959595959596,1.0,0.9595959595959596,"(1298, 8)",Buy,NVDA
19,0.9281045751633987,79.2,2018-05-11,"{'sod_14': 0.23, 'rsi_14': 0.15, 'macd': 0.13, 'obv_2': 0.12, 'volume': 0.11, 'macdh': 0.09, 'roc_2': 0.09, 'wr_14': 0.08}",0.9281045751633987,1.0,0.9281045751633987,"(720, 8)",Buy,PYPL
20,0.8518518518518519,306.94,2018-05-11,"{'macd': 0.21, 'macdh': 0.17, 'rsi_14': 0.12, 'sod_14': 0.12, 'obv_2': 0.1, 'volume': 0.1, 'wr_14': 0.1, 'roc_2': 0.09}",0.8518518518518519,-1.0,0.8518518518518519,"(1298, 8)",Sell,REGN
21,0.8922558922558923,15.35,2018-05-11,"{'volume': 0.16, 'sod_14': 0.15, 'macd': 0.14, 'macdh': 0.14, 'rsi_14': 0.13, 'obv_2': 0.1, 'wr_14': 0.1, 'roc_2': 0.07}",0.8922558922558923,-1.0,0.8922558922558923,"(1298, 8)",Sell,SGMO
22,0.8484848484848485,301.06,2018-05-11,"{'volume': 0.18, 'sod_14': 0.15, 'macd': 0.12, 'rsi_14': 0.12, 'macdh': 0.11, 'obv_2': 0.11, 'roc_2': 0.1, 'wr_14': 0.1}",0.8484848484848485,1.0,0.8484848484848485,"(1298, 8)",Buy,TSLA
