,accuracy,close,date,features,precision,prediction,recall,shape,signal,symbol
0,0.7333333333333333,186.31,2018-05-18,"{'macd': 0.15, 'rsi_14': 0.14, 'volume': 0.14, 'macdh': 0.13, 'sod_14': 0.12, 'obv_2': 0.11, 'roc_2': 0.11, 'wr_14': 0.11}",0.7333333333333333,-1.0,0.7333333333333333,"(1304, 8)",Sell,AAPL
1,0.7492063492063492,100.99,2018-05-18,"{'macd': 0.15, 'rsi_14': 0.14, 'macdh': 0.13, 'volume': 0.13, 'sod_14': 0.13, 'obv_2': 0.11, 'roc_2': 0.1, 'wr_14': 0.1}",0.7492063492063492,1.0,0.7492063492063492,"(1304, 8)",Buy,AXP
2,0.8063492063492064,351.23,2018-05-18,"{'macd': 0.15, 'volume': 0.15, 'sod_14': 0.14, 'macdh': 0.13, 'rsi_14': 0.13, 'obv_2': 0.1, 'wr_14': 0.1, 'roc_2': 0.09}",0.8063492063492064,-2.0,0.8063492063492064,"(1304, 8)",Strong Sell,BA
3,0.7523809523809524,155.71,2018-05-18,"{'macd': 0.15, 'sod_14': 0.15, 'volume': 0.14, 'rsi_14': 0.13, 'macdh': 0.12, 'wr_14': 0.11, 'obv_2': 0.1, 'roc_2': 0.1}",0.7523809523809524,-2.0,0.7523809523809524,"(1303, 8)",Strong Sell,CAT
4,0.7841269841269841,43.21,2018-05-18,"{'volume': 0.15, 'rsi_14': 0.14, 'sod_14': 0.14, 'macd': 0.13, 'macdh': 0.12, 'obv_2': 0.11, 'roc_2': 0.1, 'wr_14': 0.1}",0.7841269841269841,1.0,0.7841269841269841,"(1303, 8)",Buy,CSCO
5,0.7873015873015873,127.86,2018-05-18,"{'macd': 0.15, 'sod_14': 0.15, 'macdh': 0.13, 'rsi_14': 0.13, 'volume': 0.13, 'obv_2': 0.11, 'wr_14': 0.11, 'roc_2': 0.09}",0.7873015873015873,-2.0,0.7873015873015873,"(1303, 8)",Strong Sell,CVX
6,0.7396825396825397,103.93,2018-05-18,"{'macd': 0.16, 'macdh': 0.14, 'rsi_14': 0.14, 'sod_14': 0.13, 'volume': 0.12, 'wr_14': 0.11, 'obv_2': 0.1, 'roc_2': 0.09}",0.7396825396825397,2.0,0.7396825396825397,"(1303, 8)",Strong Buy,DIS
7,0.7333333333333333,14.97,2018-05-18,"{'macd': 0.16, 'volume': 0.15, 'macdh': 0.13, 'rsi_14': 0.13, 'sod_14': 0.13, 'obv_2': 0.11, 'wr_14': 0.1, 'roc_2': 0.09}",0.7333333333333333,-1.0,0.7333333333333333,"(1303, 8)",Sell,GE
8,0.6857142857142857,237.0,2018-05-18,"{'macd': 0.15, 'macdh': 0.14, 'sod_14': 0.14, 'rsi_14': 0.13, 'volume': 0.12, 'obv_2': 0.11, 'wr_14': 0.11, 'roc_2': 0.1}",0.6857142857142857,-1.0,0.6857142857142857,"(1303, 8)",Sell,GS
9,0.7682539682539683,187.42,2018-05-18,"{'macd': 0.16, 'macdh': 0.14, 'rsi_14': 0.13, 'sod_14': 0.13, 'volume': 0.12, 'obv_2': 0.11, 'wr_14': 0.11, 'roc_2': 0.1}",0.7682539682539683,-2.0,0.7682539682539683,"(1303, 8)",Strong Sell,HD
10,0.7206349206349206,144.08,2018-05-18,"{'macd': 0.15, 'macdh': 0.13, 'rsi_14': 0.13, 'volume': 0.13, 'sod_14': 0.13, 'obv_2': 0.11, 'wr_14': 0.11, 'roc_2': 0.1}",0.7206349206349206,-2.0,0.7206349206349206,"(1303, 8)",Strong Sell,IBM
11,0.7682539682539683,53.5,2018-05-18,"{'macd': 0.15, 'macdh': 0.15, 'sod_14': 0.14, 'rsi_14': 0.13, 'volume': 0.12, 'obv_2': 0.11, 'wr_14': 0.11, 'roc_2': 0.1}",0.7682539682539683,2.0,0.7682539682539683,"(1303, 8)",Strong Buy,INTC
12,0.7174603174603175,124.24,2018-05-18,"{'sod_14': 0.15, 'macd': 0.14, 'macdh': 0.13, 'rsi_14': 0.13, 'volume': 0.13, 'wr_14': 0.12, 'obv_2': 0.11, 'roc_2': 0.1}",0.7174603174603175,-2.0,0.7174603174603175,"(1303, 8)",Strong Sell,JNJ
13,0.7174603174603175,111.13,2018-05-18,"{'macd': 0.15, 'rsi_14': 0.13, 'volume': 0.13, 'sod_14': 0.13, 'macdh': 0.12, 'obv_2': 0.12, 'wr_14': 0.12, 'roc_2': 0.1}",0.7174603174603175,1.0,0.7174603174603175,"(1303, 8)",Buy,JPM
14,0.6793650793650794,42.18,2018-05-18,"{'volume': 0.15, 'macd': 0.14, 'sod_14': 0.14, 'rsi_14': 0.13, 'macdh': 0.12, 'obv_2': 0.11, 'roc_2': 0.11, 'wr_14': 0.11}",0.6793650793650794,2.0,0.6793650793650794,"(1303, 8)",Strong Buy,KO
15,0.7365079365079366,160.98,2018-05-18,"{'macd': 0.15, 'volume': 0.14, 'sod_14': 0.14, 'macdh': 0.13, 'rsi_14': 0.13, 'obv_2': 0.11, 'wr_14': 0.11, 'roc_2': 0.1}",0.7365079365079366,1.0,0.7365079365079366,"(1303, 8)",Buy,MCD
16,0.7682539682539683,198.96,2018-05-18,"{'macd': 0.16, 'volume': 0.15, 'rsi_14': 0.14, 'macdh': 0.13, 'sod_14': 0.12, 'obv_2': 0.11, 'roc_2': 0.1, 'wr_14': 0.1}",0.7682539682539683,2.0,0.7682539682539683,"(1303, 8)",Strong Buy,MMM
17,0.6190476190476191,59.14,2018-05-18,"{'sod_14': 0.15, 'macd': 0.13, 'macdh': 0.13, 'rsi_14': 0.12, 'volume': 0.12, 'wr_14': 0.12, 'obv_2': 0.11, 'roc_2': 0.1}",0.6190476190476191,-1.0,0.6190476190476191,"(1303, 8)",Sell,MRK
18,0.6945337620578779,96.36,2018-05-18,"{'macd': 0.16, 'volume': 0.14, 'sod_14': 0.14, 'macdh': 0.13, 'rsi_14': 0.13, 'obv_2': 0.11, 'roc_2': 0.1, 'wr_14': 0.1}",0.6945337620578779,-1.0,0.6945337620578779,"(1287, 8)",Sell,MSFT
19,0.7714285714285715,71.32,2018-05-18,"{'macdh': 0.15, 'macd': 0.14, 'rsi_14': 0.14, 'volume': 0.14, 'sod_14': 0.14, 'obv_2': 0.1, 'roc_2': 0.1, 'wr_14': 0.1}",0.7714285714285715,-1.0,0.7714285714285715,"(1303, 8)",Sell,NKE
20,0.707936507936508,35.64,2018-05-18,"{'rsi_14': 0.14, 'volume': 0.14, 'sod_14': 0.14, 'macd': 0.13, 'macdh': 0.12, 'obv_2': 0.12, 'wr_14': 0.11, 'roc_2': 0.1}",0.707936507936508,2.0,0.707936507936508,"(1303, 8)",Strong Buy,PFE
21,0.7936507936507936,73.45,2018-05-18,"{'macd': 0.15, 'macdh': 0.14, 'sod_14': 0.14, 'rsi_14': 0.13, 'volume': 0.13, 'obv_2': 0.11, 'wr_14': 0.11, 'roc_2': 0.1}",0.7936507936507936,-2.0,0.7936507936507936,"(1303, 8)",Strong Sell,PG
22,0.7396825396825397,129.85,2018-05-18,"{'macd': 0.17, 'rsi_14': 0.14, 'macdh': 0.13, 'volume': 0.13, 'sod_14': 0.12, 'obv_2': 0.11, 'wr_14': 0.11, 'roc_2': 0.09}",0.7396825396825397,2.0,0.7396825396825397,"(1303, 8)",Strong Buy,TRV
23,0.7142857142857143,244.64,2018-05-18,"{'macd': 0.14, 'volume': 0.14, 'sod_14': 0.14, 'macdh': 0.13, 'rsi_14': 0.13, 'obv_2': 0.12, 'roc_2': 0.1, 'wr_14': 0.1}",0.7142857142857143,1.0,0.7142857142857143,"(1303, 8)",Buy,UNH
24,0.7015873015873015,125.19,2018-05-18,"{'macd': 0.15, 'sod_14': 0.14, 'macdh': 0.13, 'rsi_14': 0.13, 'volume': 0.13, 'obv_2': 0.11, 'roc_2': 0.11, 'wr_14': 0.11}",0.7015873015873015,1.0,0.7015873015873015,"(1303, 8)",Buy,UTX
25,0.6984126984126984,129.93,2018-05-18,"{'macd': 0.15, 'sod_14': 0.15, 'rsi_14': 0.14, 'macdh': 0.12, 'volume': 0.12, 'obv_2': 0.11, 'roc_2': 0.1, 'wr_14': 0.1}",0.6984126984126984,-2.0,0.6984126984126984,"(1303, 8)",Strong Sell,V
26,0.7015873015873015,47.74,2018-05-18,"{'macd': 0.15, 'sod_14': 0.15, 'rsi_14': 0.14, 'macdh': 0.13, 'volume': 0.13, 'wr_14': 0.11, 'obv_2': 0.1, 'roc_2': 0.09}",0.7015873015873015,-2.0,0.7015873015873015,"(1303, 8)",Strong Sell,VZ
27,0.8222222222222222,83.64,2018-05-18,"{'macd': 0.15, 'macdh': 0.14, 'rsi_14': 0.14, 'sod_14': 0.14, 'volume': 0.12, 'wr_14': 0.11, 'obv_2': 0.1, 'roc_2': 0.09}",0.8222222222222222,-2.0,0.8222222222222222,"(1303, 8)",Strong Sell,WMT
28,0.726984126984127,81.3,2018-05-18,"{'macd': 0.15, 'sod_14': 0.14, 'macdh': 0.13, 'rsi_14': 0.13, 'volume': 0.13, 'obv_2': 0.12, 'wr_14': 0.12, 'roc_2': 0.1}",0.726984126984127,1.0,0.726984126984127,"(1303, 8)",Buy,XOM
29,0.7492063492063492,4.14,2018-05-18,"{'volume': 0.14, 'macd': 0.13, 'macdh': 0.13, 'rsi_14': 0.13, 'sod_14': 0.13, 'obv_2': 0.11, 'roc_2': 0.11, 'wr_14': 0.11}",0.7492063492063492,1.0,0.7492063492063492,"(1303, 8)",Buy,III
30,0.6952380952380952,45.02,2018-05-18,"{'macd': 0.15, 'sod_14': 0.14, 'macdh': 0.13, 'rsi_14': 0.13, 'volume': 0.12, 'obv_2': 0.11, 'wr_14': 0.11, 'roc_2': 0.1}",0.6952380952380952,-2.0,0.6952380952380952,"(1304, 8)",Strong Sell,ADM
31,0.7619047619047619,43.38,2018-05-18,"{'macd': 0.15, 'sod_14': 0.14, 'rsi_14': 0.13, 'volume': 0.13, 'macdh': 0.12, 'obv_2': 0.12, 'wr_14': 0.11, 'roc_2': 0.1}",0.7619047619047619,-1.0,0.7619047619047619,"(1304, 8)",Sell,AAL
32,0.819047619047619,6.87,2018-05-18,"{'macd': 0.16, 'macdh': 0.14, 'rsi_14': 0.13, 'sod_14': 0.13, 'volume': 0.12, 'wr_14': 0.11, 'obv_2': 0.1, 'roc_2': 0.1}",0.819047619047619,-2.0,0.819047619047619,"(1304, 8)",Strong Sell,AHT
33,0.7459807073954984,36.33,2018-05-18,"{'macd': 0.15, 'rsi_14': 0.14, 'sod_14': 0.14, 'macdh': 0.13, 'volume': 0.12, 'wr_14': 0.12, 'obv_2': 0.1, 'roc_2': 0.1}",0.7459807073954984,-2.0,0.7459807073954984,"(1287, 8)",Strong Sell,AZN
34,0.8063492063492064,351.23,2018-05-18,"{'macd': 0.15, 'volume': 0.15, 'sod_14': 0.14, 'macdh': 0.13, 'rsi_14': 0.13, 'obv_2': 0.1, 'wr_14': 0.1, 'roc_2': 0.09}",0.8063492063492064,-2.0,0.8063492063492064,"(1304, 8)",Strong Sell,BA
35,0.8095238095238095,47.38,2018-05-18,"{'macd': 0.14, 'volume': 0.14, 'sod_14': 0.14, 'macdh': 0.13, 'rsi_14': 0.13, 'obv_2': 0.12, 'wr_14': 0.11, 'roc_2': 0.1}",0.8095238095238095,-1.0,0.8095238095238095,"(1304, 8)",Sell,BP
36,0.7523809523809524,64.84,2018-05-18,"{'macdh': 0.14, 'sod_14': 0.14, 'macd': 0.13, 'rsi_14': 0.13, 'volume': 0.13, 'wr_14': 0.13, 'obv_2': 0.11, 'roc_2': 0.1}",0.7523809523809524,-2.0,0.7523809523809524,"(1303, 8)",Strong Sell,CCL
37,0.7714285714285715,49.27,2018-05-18,"{'macd': 0.14, 'volume': 0.14, 'sod_14': 0.14, 'macdh': 0.13, 'rsi_14': 0.13, 'obv_2': 0.11, 'wr_14': 0.11, 'roc_2': 0.1}",0.7714285714285715,2.0,0.7714285714285715,"(1303, 8)",Strong Buy,CNA
38,0.819047619047619,8.49,2018-05-18,"{'volume': 0.18, 'macd': 0.13, 'obv_2': 0.13, 'sod_14': 0.13, 'rsi_14': 0.12, 'macdh': 0.11, 'wr_14': 0.1, 'roc_2': 0.09}",0.819047619047619,-2.0,0.819047619047619,"(1302, 8)",Strong Sell,CPG
39,0.6984126984126984,37.73,2018-05-18,"{'volume': 0.15, 'sod_14': 0.15, 'macd': 0.14, 'macdh': 0.12, 'obv_2': 0.12, 'rsi_14': 0.12, 'roc_2': 0.1, 'wr_14': 0.1}",0.6984126984126984,-1.0,0.6984126984126984,"(1303, 8)",Sell,CRH
40,0.7475409836065574,131.37,2018-05-18,"{'macd': 0.15, 'volume': 0.15, 'sod_14': 0.15, 'rsi_14': 0.13, 'macdh': 0.12, 'obv_2': 0.11, 'roc_2': 0.1, 'wr_14': 0.1}",0.7475409836065574,1.0,0.7475409836065574,"(1264, 8)",Buy,EZJ
41,0.7365079365079366,108.25,2018-05-18,"{'macd': 0.14, 'macdh': 0.14, 'rsi_14': 0.14, 'sod_14': 0.13, 'volume': 0.12, 'obv_2': 0.11, 'roc_2': 0.11, 'wr_14': 0.11}",0.7365079365079366,2.0,0.7365079365079366,"(1303, 8)",Strong Buy,EVR
42,0.6984126984126984,40.03,2018-05-18,"{'macd': 0.14, 'sod_14': 0.14, 'macdh': 0.13, 'rsi_14': 0.13, 'volume': 0.12, 'wr_14': 0.12, 'obv_2': 0.11, 'roc_2': 0.11}",0.6984126984126984,-2.0,0.6984126984126984,"(1303, 8)",Strong Sell,GSK
43,0.6761904761904762,3.96,2018-05-18,"{'volume': 0.16, 'macd': 0.14, 'rsi_14': 0.13, 'macdh': 0.12, 'obv_2': 0.12, 'sod_14': 0.12, 'roc_2': 0.1, 'wr_14': 0.1}",0.6761904761904762,-2.0,0.6761904761904762,"(1303, 8)",Strong Sell,HL
44,0.7841269841269841,12.25,2018-05-18,"{'macd': 0.14, 'rsi_14': 0.14, 'sod_14': 0.14, 'obv_2': 0.13, 'volume': 0.13, 'macdh': 0.11, 'wr_14': 0.11, 'roc_2': 0.1}",0.7841269841269841,-2.0,0.7841269841269841,"(1303, 8)",Strong Sell,INF
45,0.7523809523809524,65.23,2018-05-18,"{'macd': 0.16, 'sod_14': 0.15, 'rsi_14': 0.14, 'macdh': 0.12, 'volume': 0.12, 'obv_2': 0.1, 'roc_2': 0.1, 'wr_14': 0.1}",0.7523809523809524,-2.0,0.7523809523809524,"(1303, 8)",Strong Sell,IHG
46,0.7015873015873015,6.01,2018-05-18,"{'macd': 0.16, 'macdh': 0.13, 'rsi_14': 0.13, 'volume': 0.13, 'sod_14': 0.13, 'obv_2': 0.11, 'roc_2': 0.11, 'wr_14': 0.11}",0.7015873015873015,-1.0,0.7015873015873015,"(1303, 8)",Sell,IAG
47,0.7047619047619048,3.6,2018-05-18,"{'macd': 0.14, 'macdh': 0.14, 'sod_14': 0.14, 'rsi_14': 0.13, 'volume': 0.13, 'obv_2': 0.11, 'wr_14': 0.11, 'roc_2': 0.1}",0.7047619047619048,2.0,0.7047619047619048,"(1303, 8)",Strong Buy,JE
48,0.780952380952381,12.72,2018-05-18,"{'macd': 0.15, 'macdh': 0.13, 'obv_2': 0.13, 'rsi_14': 0.13, 'volume': 0.13, 'sod_14': 0.12, 'roc_2': 0.1, 'wr_14': 0.1}",0.780952380952381,-1.0,0.780952380952381,"(1303, 8)",Sell,LAND
49,0.7873015873015873,30.55,2018-05-18,"{'sod_14': 0.15, 'macd': 0.14, 'macdh': 0.14, 'volume': 0.14, 'rsi_14': 0.13, 'obv_2': 0.11, 'wr_14': 0.11, 'roc_2': 0.09}",0.7873015873015873,-2.0,0.7873015873015873,"(1303, 8)",Strong Sell,MDC
50,0.726984126984127,21.41,2018-05-18,"{'volume': 0.19, 'obv_2': 0.14, 'sod_14': 0.13, 'macd': 0.12, 'macdh': 0.12, 'rsi_14': 0.11, 'wr_14': 0.1, 'roc_2': 0.09}",0.726984126984127,-2.0,0.726984126984127,"(1303, 8)",Strong Sell,MRO
51,0.7401315789473685,26.4806,2018-05-18,"{'macd': 0.16, 'volume': 0.14, 'macdh': 0.13, 'rsi_14': 0.13, 'sod_14': 0.13, 'obv_2': 0.1, 'roc_2': 0.1, 'wr_14': 0.1}",0.7401315789473685,-2.0,0.7401315789473685,"(1258, 8)",Strong Sell,MCRO
52,0.7619047619047619,4.83,2018-05-18,"{'macd': 0.15, 'sod_14': 0.15, 'volume': 0.14, 'macdh': 0.13, 'rsi_14': 0.12, 'wr_14': 0.12, 'obv_2': 0.11, 'roc_2': 0.09}",0.7619047619047619,-2.0,0.7619047619047619,"(1303, 8)",Strong Sell,NG
53,0.6984126984126984,102.43,2018-05-18,"{'sod_14': 0.15, 'macd': 0.14, 'macdh': 0.14, 'rsi_14': 0.13, 'volume': 0.13, 'wr_14': 0.11, 'obv_2': 0.1, 'roc_2': 0.1}",0.6984126984126984,-2.0,0.6984126984126984,"(1303, 8)",Strong Sell,PRU
54,0.6952380952380952,58.41,2018-05-18,"{'macd': 0.15, 'sod_14': 0.14, 'macdh': 0.13, 'rsi_14': 0.13, 'volume': 0.13, 'wr_14': 0.12, 'obv_2': 0.11, 'roc_2': 0.1}",0.6952380952380952,1.0,0.6952380952380952,"(1303, 8)",Buy,RIO
55,0.7142857142857143,7.92,2018-05-18,"{'macdh': 0.14, 'volume': 0.14, 'macd': 0.13, 'sod_14': 0.13, 'obv_2': 0.12, 'rsi_14': 0.12, 'wr_14': 0.11, 'roc_2': 0.1}",0.7142857142857143,1.0,0.7142857142857143,"(1303, 8)",Buy,RBS
56,0.7714285714285715,1.38,2018-05-18,"{'sod_14': 0.16, 'macd': 0.14, 'macdh': 0.13, 'volume': 0.13, 'rsi_14': 0.12, 'obv_2': 0.11, 'wr_14': 0.11, 'roc_2': 0.1}",0.7714285714285715,2.0,0.7714285714285715,"(1303, 8)",Strong Buy,SDR
57,0.7549668874172185,9.125,2018-05-18,"{'macd': 0.15, 'rsi_14': 0.14, 'sod_14': 0.14, 'volume': 0.13, 'macdh': 0.12, 'wr_14': 0.11, 'obv_2': 0.1, 'roc_2': 0.1}",0.7549668874172185,-1.0,0.7549668874172185,"(1250, 8)",Sell,SVT
58,0.7841269841269841,29.62,2018-05-18,"{'macd': 0.15, 'sod_14': 0.15, 'macdh': 0.13, 'rsi_14': 0.13, 'volume': 0.13, 'wr_14': 0.12, 'roc_2': 0.11, 'obv_2': 0.1}",0.7841269841269841,1.0,0.7841269841269841,"(1303, 8)",Buy,SKY
59,0.7936507936507936,3.96,2018-05-18,"{'volume': 0.17, 'macd': 0.16, 'macdh': 0.13, 'rsi_14': 0.13, 'sod_14': 0.12, 'obv_2': 0.11, 'wr_14': 0.1, 'roc_2': 0.09}",0.7936507936507936,1.0,0.7936507936507936,"(1303, 8)",Buy,SN
60,0.7824675324675324,45.3,2018-05-18,"{'volume': 0.15, 'macd': 0.14, 'sod_14': 0.14, 'macdh': 0.13, 'rsi_14': 0.12, 'obv_2': 0.11, 'wr_14': 0.11, 'roc_2': 0.09}",0.7824675324675324,-1.0,0.7824675324675324,"(1273, 8)",Sell,SMIN
61,0.726984126984127,72.82,2018-05-18,"{'macd': 0.15, 'rsi_14': 0.15, 'macdh': 0.13, 'volume': 0.13, 'obv_2': 0.12, 'sod_14': 0.12, 'wr_14': 0.11, 'roc_2': 0.1}",0.726984126984127,-1.0,0.726984126984127,"(1303, 8)",Sell,TSCO
62,0.7619047619047619,26.41,2018-05-18,"{'macd': 0.15, 'sod_14': 0.14, 'macdh': 0.13, 'volume': 0.13, 'rsi_14': 0.12, 'wr_14': 0.12, 'obv_2': 0.11, 'roc_2': 0.09}",0.7619047619047619,1.0,0.7619047619047619,"(1303, 8)",Buy,VOD
63,0.7428571428571429,89.19,2018-05-18,"{'macd': 0.15, 'macdh': 0.14, 'volume': 0.14, 'rsi_14': 0.13, 'sod_14': 0.12, 'wr_14': 0.11, 'obv_2': 0.1, 'roc_2': 0.1}",0.7428571428571429,1.0,0.7428571428571429,"(1303, 8)",Buy,WPP
64,0.7301587301587301,46.74,2018-05-18,"{'volume': 0.15, 'macd': 0.13, 'obv_2': 0.13, 'sod_14': 0.13, 'macdh': 0.12, 'rsi_14': 0.12, 'wr_14': 0.11, 'roc_2': 0.1}",0.7301587301587301,-1.0,0.7301587301587301,"(1303, 8)",Sell,ALFA
65,0.7816901408450704,51.47,2018-05-18,"{'macd': 0.15, 'rsi_14': 0.14, 'volume': 0.14, 'macdh': 0.13, 'obv_2': 0.13, 'wr_14': 0.11, 'sod_14': 0.11, 'roc_2': 0.09}",0.7816901408450704,-2.0,0.7816901408450704,"(609, 8)",Strong Sell,AGR
66,0.8063492063492064,3.74,2018-05-18,"{'macd': 0.16, 'macdh': 0.14, 'rsi_14': 0.14, 'sod_14': 0.14, 'volume': 0.13, 'wr_14': 0.11, 'obv_2': 0.09, 'roc_2': 0.08}",0.8063492063492064,2.0,0.8063492063492064,"(1304, 8)",Strong Buy,AUTO
67,0.6793650793650794,36.15,2018-05-18,"{'volume': 0.14, 'macd': 0.13, 'macdh': 0.13, 'sod_14': 0.13, 'obv_2': 0.12, 'rsi_14': 0.12, 'wr_14': 0.12, 'roc_2': 0.11}",0.6793650793650794,1.0,0.6793650793650794,"(1304, 8)",Buy,BME
68,0.7206349206349206,29.4,2018-05-18,"{'macdh': 0.14, 'volume': 0.14, 'macd': 0.13, 'rsi_14': 0.13, 'sod_14': 0.13, 'obv_2': 0.12, 'wr_14': 0.12, 'roc_2': 0.09}",0.7206349206349206,-2.0,0.7206349206349206,"(1304, 8)",Strong Sell,BAB
69,0.7142857142857143,78.25,2018-05-18,"{'macdh': 0.15, 'macd': 0.14, 'sod_14': 0.14, 'rsi_14': 0.13, 'wr_14': 0.12, 'obv_2': 0.11, 'volume': 0.11, 'roc_2': 0.09}",0.7142857142857143,1.0,0.7142857142857143,"(1304, 8)",Buy,BBY
70,0.7523809523809524,2.69,2018-05-18,"{'macd': 0.14, 'macdh': 0.14, 'volume': 0.14, 'rsi_14': 0.13, 'sod_14': 0.13, 'obv_2': 0.11, 'roc_2': 0.11, 'wr_14': 0.11}",0.7523809523809524,1.0,0.7523809523809524,"(1304, 8)",Buy,BTG
71,0.7083333333333334,27.6225,2018-05-18,"{'macd': 0.15, 'sod_14': 0.15, 'macdh': 0.13, 'volume': 0.13, 'rsi_14': 0.12, 'obv_2': 0.11, 'roc_2': 0.11, 'wr_14': 0.11}",0.7083333333333334,-1.0,0.7083333333333334,"(1290, 8)",Sell,CPI
72,0.7491749174917491,20.64,2018-05-18,"{'volume': 0.16, 'macd': 0.15, 'rsi_14': 0.13, 'sod_14': 0.13, 'macdh': 0.12, 'obv_2': 0.11, 'wr_14': 0.11, 'roc_2': 0.09}",0.7491749174917491,-2.0,0.7491749174917491,"(1256, 8)",Strong Sell,CTY
73,0.6743421052631579,47.31,2018-03-19,"{'macd': 0.15, 'macdh': 0.13, 'rsi_14': 0.13, 'volume': 0.13, 'sod_14': 0.13, 'obv_2': 0.12, 'wr_14': 0.12, 'roc_2': 0.1}",0.6743421052631579,-2.0,0.6743421052631579,"(1260, 8)",Strong Sell,CBG
74,0.6984126984126984,17.51,2018-05-18,"{'macd': 0.15, 'macdh': 0.13, 'sod_14': 0.13, 'rsi_14': 0.12, 'volume': 0.12, 'wr_14': 0.12, 'obv_2': 0.11, 'roc_2': 0.1}",0.6984126984126984,-1.0,0.6984126984126984,"(1303, 8)",Sell,CLI
75,0.7401315789473685,21.5,2018-03-08,"{'volume': 0.15, 'sod_14': 0.15, 'macdh': 0.14, 'macd': 0.12, 'rsi_14': 0.12, 'obv_2': 0.11, 'roc_2': 0.11, 'wr_14': 0.1}",0.7401315789473685,-1.0,0.7401315789473685,"(1258, 8)",Sell,CCC
76,0.7047619047619048,10.89,2018-05-18,"{'volume': 0.15, 'rsi_14': 0.14, 'macd': 0.13, 'macdh': 0.13, 'sod_14': 0.13, 'obv_2': 0.12, 'wr_14': 0.12, 'roc_2': 0.09}",0.7047619047619048,1.0,0.7047619047619048,"(1303, 8)",Buy,GLO
77,0.7396825396825397,90.08,2018-05-18,"{'macd': 0.15, 'rsi_14': 0.15, 'volume': 0.13, 'sod_14': 0.13, 'obv_2': 0.12, 'macdh': 0.11, 'roc_2': 0.1, 'wr_14': 0.1}",0.7396825396825397,1.0,0.7396825396825397,"(1303, 8)",Buy,DLN
78,0.7238095238095238,25.97,2018-05-18,"{'volume': 0.15, 'macd': 0.14, 'macdh': 0.13, 'rsi_14': 0.13, 'obv_2': 0.12, 'sod_14': 0.12, 'wr_14': 0.11, 'roc_2': 0.1}",0.7238095238095238,1.0,0.7238095238095238,"(1303, 8)",Buy,ETO
79,0.7065217391304348,35.54,2018-05-18,"{'macd': 0.16, 'rsi_14': 0.15, 'sod_14': 0.13, 'macdh': 0.12, 'volume': 0.11, 'wr_14': 0.11, 'obv_2': 0.1, 'roc_2': 0.1}",0.7065217391304348,-2.0,0.7065217391304348,"(1145, 8)",Strong Sell,ESNT
80,0.7241379310344828,22.04,2018-05-18,"{'macd': 0.18, 'macdh': 0.18, 'volume': 0.15, 'rsi_14': 0.12, 'obv_2': 0.11, 'roc_2': 0.09, 'sod_14': 0.09, 'wr_14': 0.08}",0.7241379310344828,-1.0,0.7241379310344828,"(273, 8)",Sell,ERM
81,0.74,22.06,2018-05-18,"{'volume': 0.16, 'macd': 0.15, 'sod_14': 0.14, 'macdh': 0.12, 'obv_2': 0.12, 'rsi_14': 0.12, 'roc_2': 0.1, 'wr_14': 0.1}",0.74,1.0,0.74,"(643, 8)",Buy,FCPT
82,0.7142857142857143,50.03,2018-05-18,"{'macd': 0.14, 'rsi_14': 0.13, 'volume': 0.13, 'sod_14': 0.13, 'macdh': 0.12, 'obv_2': 0.12, 'wr_14': 0.12, 'roc_2': 0.11}",0.7142857142857143,-2.0,0.7142857142857143,"(1303, 8)",Strong Sell,FDM
83,0.7619047619047619,3.73,2018-05-18,"{'macd': 0.15, 'macdh': 0.15, 'rsi_14': 0.14, 'volume': 0.13, 'wr_14': 0.12, 'sod_14': 0.12, 'obv_2': 0.11, 'roc_2': 0.1}",0.7619047619047619,1.0,0.7619047619047619,"(1303, 8)",Buy,FGP
84,0.6444444444444445,31.25,2018-05-18,"{'macd': 0.14, 'volume': 0.14, 'sod_14': 0.14, 'rsi_14': 0.13, 'wr_14': 0.13, 'macdh': 0.12, 'obv_2': 0.1, 'roc_2': 0.09}",0.6444444444444445,2.0,0.6444444444444445,"(584, 8)",Strong Buy,GCP
85,0.780952380952381,0.7047,2018-05-18,"{'rsi_14': 0.15, 'macd': 0.14, 'sod_14': 0.14, 'macdh': 0.13, 'volume': 0.13, 'wr_14': 0.11, 'obv_2': 0.1, 'roc_2': 0.1}",0.780952380952381,-2.0,0.780952380952381,"(1303, 8)",Strong Sell,GSS
86,0.7206349206349206,10.65,2018-05-18,"{'macd': 0.15, 'rsi_14': 0.14, 'macdh': 0.13, 'volume': 0.13, 'sod_14': 0.13, 'obv_2': 0.11, 'wr_14': 0.11, 'roc_2': 0.1}",0.7206349206349206,-1.0,0.7206349206349206,"(1303, 8)",Sell,GPOR
87,0.7333333333333333,42.7053,2018-05-18,"{'macd': 0.15, 'sod_14': 0.14, 'rsi_14': 0.13, 'volume': 0.13, 'macdh': 0.12, 'obv_2': 0.12, 'roc_2': 0.11, 'wr_14': 0.11}",0.7333333333333333,2.0,0.7333333333333333,"(1303, 8)",Strong Buy,GRI
88,0.7555555555555555,3.4,2018-05-18,"{'macd': 0.14, 'macdh': 0.14, 'rsi_14': 0.14, 'volume': 0.14, 'sod_14': 0.14, 'obv_2': 0.11, 'wr_14': 0.1, 'roc_2': 0.09}",0.7555555555555555,2.0,0.7555555555555555,"(1303, 8)",Strong Buy,GNC
89,0.8403755868544601,17.71,2018-05-18,"{'volume': 0.18, 'macd': 0.16, 'sod_14': 0.15, 'rsi_14': 0.13, 'macdh': 0.11, 'obv_2': 0.09, 'wr_14': 0.09, 'roc_2': 0.08}",0.8403755868544601,1.0,0.8403755868544601,"(896, 8)",Buy,GNK
90,0.6984126984126984,88.71,2018-05-18,"{'macd': 0.14, 'macdh': 0.14, 'sod_14': 0.14, 'volume': 0.13, 'obv_2': 0.12, 'rsi_14': 0.12, 'wr_14': 0.11, 'roc_2': 0.1}",0.6984126984126984,-1.0,0.6984126984126984,"(1303, 8)",Sell,HAS
91,0.7301587301587301,58.74,2018-05-18,"{'macd': 0.15, 'rsi_14': 0.15, 'macdh': 0.14, 'volume': 0.13, 'sod_14': 0.13, 'wr_14': 0.11, 'obv_2': 0.1, 'roc_2': 0.1}",0.7301587301587301,-2.0,0.7301587301587301,"(1303, 8)",Strong Sell,HRI
92,0.7301587301587301,1.44,2018-05-18,"{'macd': 0.18, 'sod_14': 0.16, 'macdh': 0.14, 'rsi_14': 0.12, 'volume': 0.12, 'wr_14': 0.11, 'obv_2': 0.09, 'roc_2': 0.09}",0.7301587301587301,2.0,0.7301587301587301,"(1303, 8)",Strong Buy,IMI
93,0.6730158730158731,190.54,2018-05-18,"{'macd': 0.17, 'macdh': 0.13, 'rsi_14': 0.13, 'volume': 0.13, 'sod_14': 0.13, 'obv_2': 0.11, 'wr_14': 0.11, 'roc_2': 0.1}",0.6730158730158731,-2.0,0.6730158730158731,"(1303, 8)",Strong Sell,INTU
94,0.7733812949640287,28.85,2018-05-18,"{'volume': 0.15, 'macd': 0.14, 'macdh': 0.13, 'obv_2': 0.13, 'sod_14': 0.13, 'rsi_14': 0.12, 'wr_14': 0.11, 'roc_2': 0.1}",0.7733812949640287,-2.0,0.7733812949640287,"(1156, 8)",Strong Sell,IPO
95,0.8547717842323651,35.71,2018-05-18,"{'macd': 0.16, 'rsi_14': 0.15, 'macdh': 0.14, 'volume': 0.13, 'sod_14': 0.12, 'wr_14': 0.11, 'obv_2': 0.1, 'roc_2': 0.1}",0.8547717842323651,2.0,0.8547717842323651,"(1006, 8)",Strong Buy,JD
96,0.7111111111111111,30.68,2018-05-18,"{'macd': 0.15, 'rsi_14': 0.13, 'macdh': 0.12, 'obv_2': 0.12, 'roc_2': 0.12, 'volume': 0.12, 'wr_14': 0.12, 'sod_14': 0.12}",0.7111111111111111,-2.0,0.7111111111111111,"(1303, 8)",Strong Sell,KIE
97,0.6825396825396826,32.3,2018-05-18,"{'macd': 0.15, 'macdh': 0.14, 'sod_14': 0.14, 'volume': 0.13, 'rsi_14': 0.12, 'obv_2': 0.11, 'wr_14': 0.11, 'roc_2': 0.1}",0.6825396825396826,-2.0,0.6825396825396826,"(1303, 8)",Strong Sell,MCS
98,0.7523809523809524,20.81,2018-05-18,"{'rsi_14': 0.14, 'macd': 0.13, 'macdh': 0.13, 'volume': 0.13, 'sod_14': 0.13, 'obv_2': 0.12, 'roc_2': 0.11, 'wr_14': 0.11}",0.7523809523809524,-1.0,0.7523809523809524,"(1303, 8)",Sell,MRC
99,0.7077922077922078,12.68,2018-05-18,"{'macd': 0.15, 'sod_14': 0.15, 'macdh': 0.14, 'rsi_14': 0.13, 'volume': 0.12, 'wr_14': 0.12, 'obv_2': 0.1, 'roc_2': 0.1}",0.7077922077922078,2.0,0.7077922077922078,"(1274, 8)",Strong Buy,MAB
100,0.6984126984126984,12.4,2018-05-18,"{'macd': 0.15, 'macdh': 0.13, 'rsi_14': 0.13, 'volume': 0.13, 'sod_14': 0.13, 'wr_14': 0.12, 'obv_2': 0.11, 'roc_2': 0.1}",0.6984126984126984,-1.0,0.6984126984126984,"(1303, 8)",Sell,MYI
101,0.6666666666666666,41.12,2018-05-18,"{'macd': 0.15, 'volume': 0.15, 'macdh': 0.13, 'obv_2': 0.12, 'rsi_14': 0.12, 'sod_14': 0.12, 'wr_14': 0.11, 'roc_2': 0.1}",0.6666666666666666,2.0,0.6666666666666666,"(1265, 8)",Strong Buy,OSB
102,0.7523809523809524,24.26,2018-05-18,"{'sod_14': 0.15, 'macd': 0.14, 'volume': 0.14, 'rsi_14': 0.13, 'macdh': 0.12, 'obv_2': 0.11, 'wr_14': 0.11, 'roc_2': 0.1}",0.7523809523809524,2.0,0.7523809523809524,"(1303, 8)",Strong Buy,PIN
103,0.6793650793650794,48.0,2018-05-18,"{'macd': 0.14, 'macdh': 0.13, 'volume': 0.13, 'sod_14': 0.13, 'obv_2': 0.12, 'rsi_14': 0.12, 'roc_2': 0.11, 'wr_14': 0.11}",0.6793650793650794,1.0,0.6793650793650794,"(1303, 8)",Buy,PAG
104,0.7174603174603175,35.85,2018-05-18,"{'sod_14': 0.16, 'macd': 0.15, 'macdh': 0.14, 'rsi_14': 0.12, 'wr_14': 0.12, 'volume': 0.11, 'obv_2': 0.1, 'roc_2': 0.09}",0.7174603174603175,2.0,0.7174603174603175,"(1303, 8)",Strong Buy,PETS
105,0.6698412698412698,58.8,2018-05-18,"{'sod_14': 0.15, 'macd': 0.14, 'macdh': 0.13, 'volume': 0.13, 'rsi_14': 0.12, 'wr_14': 0.12, 'obv_2': 0.11, 'roc_2': 0.1}",0.6698412698412698,-1.0,0.6698412698412698,"(1303, 8)",Sell,PFG
106,0.7714285714285715,10.01,2018-05-18,"{'macd': 0.15, 'sod_14': 0.15, 'macdh': 0.14, 'rsi_14': 0.13, 'volume': 0.12, 'wr_14': 0.11, 'obv_2': 0.1, 'roc_2': 0.09}",0.7714285714285715,1.0,0.7714285714285715,"(1303, 8)",Buy,PZC
107,0.7174603174603175,15.45,2018-05-18,"{'macd': 0.15, 'sod_14': 0.15, 'macdh': 0.14, 'rsi_14': 0.13, 'volume': 0.12, 'obv_2': 0.11, 'wr_14': 0.11, 'roc_2': 0.1}",0.7174603174603175,1.0,0.7174603174603175,"(1303, 8)",Buy,RDI
108,0.7021276595744681,18.36,2018-05-18,"{'macd': 0.16, 'rsi_14': 0.14, 'sod_14': 0.14, 'macdh': 0.13, 'volume': 0.13, 'wr_14': 0.11, 'obv_2': 0.09, 'roc_2': 0.09}",0.7021276595744681,-1.0,0.7021276595744681,"(229, 8)",Sell,SAFE
109,0.7523809523809524,35.85,2018-05-18,"{'sod_14': 0.15, 'macd': 0.14, 'volume': 0.14, 'rsi_14': 0.13, 'macdh': 0.12, 'obv_2': 0.11, 'wr_14': 0.11, 'roc_2': 0.1}",0.7523809523809524,1.0,0.7523809523809524,"(1303, 8)",Buy,SNN
110,0.7476038338658147,28.18,2018-05-18,"{'sod_14': 0.15, 'macd': 0.14, 'macdh': 0.13, 'rsi_14': 0.13, 'volume': 0.12, 'wr_14': 0.12, 'obv_2': 0.11, 'roc_2': 0.1}",0.7476038338658147,-2.0,0.7476038338658147,"(1295, 8)",Strong Sell,SDP
111,0.767515923566879,18.69,2018-05-18,"{'macd': 0.15, 'sod_14': 0.15, 'volume': 0.14, 'macdh': 0.13, 'rsi_14': 0.13, 'obv_2': 0.11, 'wr_14': 0.11, 'roc_2': 0.09}",0.767515923566879,2.0,0.767515923566879,"(1300, 8)",Strong Buy,SCIN
112,0.7336448598130841,7.47,2018-05-18,"{'sod_14': 0.15, 'rsi_14': 0.14, 'macd': 0.13, 'volume': 0.13, 'macdh': 0.12, 'obv_2': 0.11, 'roc_2': 0.11, 'wr_14': 0.11}",0.7336448598130841,1.0,0.7336448598130841,"(897, 8)",Buy,SNR
113,0.7619047619047619,69.39,2018-05-18,"{'volume': 0.15, 'sod_14': 0.15, 'macd': 0.14, 'macdh': 0.14, 'rsi_14': 0.12, 'obv_2': 0.11, 'wr_14': 0.11, 'roc_2': 0.08}",0.7619047619047619,-1.0,0.7619047619047619,"(1303, 8)",Sell,SHI
114,0.7794117647058824,0.3803,2018-05-18,"{'macd': 0.15, 'sod_14': 0.14, 'rsi_14': 0.13, 'volume': 0.13, 'macdh': 0.12, 'obv_2': 0.12, 'roc_2': 0.1, 'wr_14': 0.1}",0.7794117647058824,2.0,0.7794117647058824,"(585, 8)",Strong Buy,SPI
115,0.7523809523809524,44.01,2018-05-18,"{'macd': 0.16, 'macdh': 0.13, 'rsi_14': 0.13, 'volume': 0.13, 'sod_14': 0.13, 'obv_2': 0.12, 'wr_14': 0.1, 'roc_2': 0.09}",0.7523809523809524,-1.0,0.7523809523809524,"(1303, 8)",Sell,SMP
116,0.7229299363057324,23.2,2018-05-18,"{'volume': 0.15, 'macd': 0.14, 'macdh': 0.14, 'sod_14': 0.13, 'rsi_14': 0.12, 'obv_2': 0.11, 'wr_14': 0.11, 'roc_2': 0.1}",0.7229299363057324,2.0,0.7229299363057324,"(1298, 8)",Strong Buy,SGC
117,0.7206349206349206,1.9,2018-05-18,"{'sod_14': 0.15, 'volume': 0.14, 'macd': 0.13, 'macdh': 0.13, 'rsi_14': 0.12, 'obv_2': 0.11, 'wr_14': 0.11, 'roc_2': 0.1}",0.7206349206349206,-2.0,0.7206349206349206,"(1303, 8)",Strong Sell,SYNC
118,0.7555555555555555,30.3,2018-05-18,"{'macd': 0.14, 'macdh': 0.14, 'volume': 0.14, 'rsi_14': 0.13, 'sod_14': 0.13, 'obv_2': 0.12, 'roc_2': 0.1, 'wr_14': 0.1}",0.7555555555555555,2.0,0.7555555555555555,"(1303, 8)",Strong Buy,SYNT
119,0.6557377049180327,43.47,2018-05-18,"{'volume': 0.17, 'macd': 0.13, 'macdh': 0.13, 'obv_2': 0.13, 'rsi_14': 0.12, 'sod_14': 0.12, 'roc_2': 0.1, 'wr_14': 0.1}",0.6557377049180327,-1.0,0.6557377049180327,"(1264, 8)",Sell,TEP
120,0.7841269841269841,11.33,2018-05-18,"{'macd': 0.15, 'macdh': 0.15, 'sod_14': 0.14, 'rsi_14': 0.13, 'volume': 0.13, 'obv_2': 0.11, 'wr_14': 0.1, 'roc_2': 0.09}",0.7841269841269841,-1.0,0.7841269841269841,"(1303, 8)",Sell,TCAP
121,0.7714285714285715,2.7,2018-05-18,"{'macd': 0.14, 'rsi_14': 0.14, 'volume': 0.14, 'macdh': 0.13, 'sod_14': 0.13, 'wr_14': 0.11, 'obv_2': 0.1, 'roc_2': 0.1}",0.7714285714285715,-2.0,0.7714285714285715,"(1304, 8)",Strong Sell,BBOX
122,0.7710280373831776,17.7858,2018-05-18,"{'sod_14': 0.16, 'volume': 0.15, 'macd': 0.13, 'macdh': 0.12, 'rsi_14': 0.12, 'obv_2': 0.11, 'roc_2': 0.1, 'wr_14': 0.1}",0.7710280373831776,-2.0,0.7710280373831776,"(900, 8)",Strong Sell,UBM
123,0.7814569536423841,16.52,2018-05-18,"{'macd': 0.16, 'volume': 0.15, 'rsi_14': 0.14, 'sod_14': 0.14, 'macdh': 0.11, 'obv_2': 0.11, 'wr_14': 0.11, 'roc_2': 0.08}",0.7814569536423841,-2.0,0.7814569536423841,"(1250, 8)",Strong Sell,ULE
124,0.746031746031746,28.15,2018-05-18,"{'macd': 0.14, 'volume': 0.14, 'sod_14': 0.14, 'rsi_14': 0.13, 'macdh': 0.12, 'obv_2': 0.11, 'wr_14': 0.11, 'roc_2': 0.1}",0.746031746031746,2.0,0.746031746031746,"(1303, 8)",Strong Buy,UTG
125,0.8627450980392157,0.155,2018-03-26,"{'macdh': 0.16, 'macd': 0.15, 'sod_14': 0.14, 'rsi_14': 0.13, 'volume': 0.13, 'obv_2': 0.11, 'wr_14': 0.1, 'roc_2': 0.08}",0.8627450980392157,-1.0,0.8627450980392157,"(1265, 8)",Sell,WG
126,0.7365079365079366,71.99,2018-05-18,"{'macd': 0.14, 'macdh': 0.14, 'rsi_14': 0.13, 'volume': 0.13, 'sod_14': 0.13, 'obv_2': 0.12, 'wr_14': 0.12, 'roc_2': 0.09}",0.7365079365079366,-1.0,0.7365079365079366,"(1304, 8)",Sell,ATVI
127,0.7301587301587301,238.09,2018-05-18,"{'macd': 0.17, 'macdh': 0.13, 'rsi_14': 0.13, 'volume': 0.13, 'sod_14': 0.13, 'wr_14': 0.12, 'obv_2': 0.1, 'roc_2': 0.09}",0.7301587301587301,1.0,0.7301587301587301,"(1304, 8)",Buy,ADBE
128,0.7238095238095238,121.07,2018-05-18,"{'macd': 0.16, 'volume': 0.15, 'sod_14': 0.13, 'macdh': 0.12, 'obv_2': 0.12, 'rsi_14': 0.12, 'roc_2': 0.1, 'wr_14': 0.1}",0.7238095238095238,-1.0,0.7238095238095238,"(1304, 8)",Sell,ALXN
129,0.765079365079365,298.0,2018-05-18,"{'macd': 0.15, 'rsi_14': 0.15, 'macdh': 0.14, 'sod_14': 0.14, 'wr_14': 0.12, 'obv_2': 0.11, 'volume': 0.11, 'roc_2': 0.09}",0.765079365079365,-2.0,0.765079365079365,"(1304, 8)",Strong Sell,ALGN
130,0.7250996015936255,1066.36,2018-05-18,"{'macd': 0.15, 'rsi_14': 0.14, 'macdh': 0.13, 'volume': 0.13, 'sod_14': 0.13, 'wr_14': 0.12, 'obv_2': 0.1, 'roc_2': 0.1}",0.7250996015936255,1.0,0.7250996015936255,"(1045, 8)",Buy,GOOG
131,0.7523809523809524,1069.64,2018-05-18,"{'macd': 0.15, 'macdh': 0.14, 'volume': 0.14, 'rsi_14': 0.13, 'sod_14': 0.13, 'obv_2': 0.11, 'wr_14': 0.11, 'roc_2': 0.09}",0.7523809523809524,-2.0,0.7523809523809524,"(1303, 8)",Strong Sell,GOOGL
132,0.7746031746031746,1574.37,2018-05-18,"{'macd': 0.15, 'rsi_14': 0.15, 'macdh': 0.14, 'sod_14': 0.14, 'volume': 0.12, 'obv_2': 0.11, 'wr_14': 0.1, 'roc_2': 0.09}",0.7746031746031746,1.0,0.7746031746031746,"(1304, 8)",Buy,AMZN
133,0.7619047619047619,43.38,2018-05-18,"{'macd': 0.15, 'sod_14': 0.14, 'rsi_14': 0.13, 'volume': 0.13, 'macdh': 0.12, 'obv_2': 0.12, 'wr_14': 0.11, 'roc_2': 0.1}",0.7619047619047619,-1.0,0.7619047619047619,"(1304, 8)",Sell,AAL
134,0.7206349206349206,176.3,2018-05-18,"{'macd': 0.17, 'rsi_14': 0.15, 'sod_14': 0.14, 'macdh': 0.12, 'volume': 0.12, 'obv_2': 0.11, 'wr_14': 0.11, 'roc_2': 0.1}",0.7206349206349206,1.0,0.7206349206349206,"(1304, 8)",Buy,AMGN
135,0.6952380952380952,94.88,2018-05-18,"{'macd': 0.14, 'volume': 0.14, 'rsi_14': 0.13, 'sod_14': 0.13, 'macdh': 0.12, 'wr_14': 0.12, 'obv_2': 0.11, 'roc_2': 0.1}",0.6952380952380952,1.0,0.6952380952380952,"(1304, 8)",Buy,ADI
136,0.7333333333333333,186.31,2018-05-18,"{'macd': 0.15, 'rsi_14': 0.14, 'volume': 0.14, 'macdh': 0.13, 'sod_14': 0.12, 'obv_2': 0.11, 'roc_2': 0.11, 'wr_14': 0.11}",0.7333333333333333,-1.0,0.7333333333333333,"(1304, 8)",Sell,AAPL
137,0.7428571428571429,49.51,2018-05-18,"{'macd': 0.16, 'rsi_14': 0.14, 'macdh': 0.13, 'volume': 0.13, 'obv_2': 0.12, 'sod_14': 0.12, 'wr_14': 0.11, 'roc_2': 0.1}",0.7428571428571429,2.0,0.7428571428571429,"(1304, 8)",Strong Buy,AMAT
138,0.7301587301587301,197.34,2018-05-18,"{'sod_14': 0.15, 'macd': 0.13, 'macdh': 0.13, 'rsi_14': 0.13, 'obv_2': 0.12, 'volume': 0.12, 'wr_14': 0.12, 'roc_2': 0.11}",0.7301587301587301,2.0,0.7301587301587301,"(1304, 8)",Strong Buy,ASML
139,0.7301587301587301,138.85,2018-05-18,"{'macd': 0.15, 'sod_14': 0.14, 'macdh': 0.13, 'volume': 0.13, 'rsi_14': 0.12, 'obv_2': 0.11, 'wr_14': 0.11, 'roc_2': 0.1}",0.7301587301587301,-1.0,0.7301587301587301,"(1304, 8)",Sell,ADSK
140,0.746031746031746,128.91,2018-05-18,"{'macd': 0.16, 'rsi_14': 0.13, 'volume': 0.13, 'sod_14': 0.13, 'macdh': 0.12, 'obv_2': 0.11, 'wr_14': 0.11, 'roc_2': 0.1}",0.746031746031746,-1.0,0.746031746031746,"(1304, 8)",Sell,ADP
141,0.707936507936508,253.01,2018-05-18,"{'sod_14': 0.15, 'macd': 0.14, 'rsi_14': 0.14, 'macdh': 0.13, 'volume': 0.12, 'obv_2': 0.11, 'roc_2': 0.1, 'wr_14': 0.1}",0.707936507936508,-2.0,0.707936507936508,"(1304, 8)",Strong Sell,BIDU
142,0.6888888888888889,280.4,2018-05-18,"{'macd': 0.15, 'sod_14': 0.14, 'macdh': 0.13, 'rsi_14': 0.13, 'volume': 0.12, 'wr_14': 0.12, 'roc_2': 0.11, 'obv_2': 0.1}",0.6888888888888889,-2.0,0.6888888888888889,"(1304, 8)",Strong Sell,BIIB
143,0.7047619047619048,88.88,2018-05-18,"{'macd': 0.15, 'macdh': 0.14, 'volume': 0.14, 'sod_14': 0.14, 'rsi_14': 0.13, 'wr_14': 0.11, 'obv_2': 0.1, 'roc_2': 0.1}",0.7047619047619048,1.0,0.7047619047619048,"(1303, 8)",Buy,BMRN
144,0.7904761904761904,2066.34,2018-05-18,"{'macd': 0.14, 'macdh': 0.14, 'rsi_14': 0.14, 'volume': 0.13, 'sod_14': 0.13, 'obv_2': 0.11, 'wr_14': 0.11, 'roc_2': 0.1}",0.7904761904761904,-1.0,0.7904761904761904,"(1304, 8)",Sell,BKNG
145,0.746031746031746,235.99,2018-05-18,"{'macd': 0.15, 'macdh': 0.15, 'volume': 0.14, 'sod_14': 0.13, 'obv_2': 0.12, 'rsi_14': 0.12, 'roc_2': 0.1, 'wr_14': 0.1}",0.746031746031746,-2.0,0.746031746031746,"(1304, 8)",Strong Sell,AVGO
146,0.6698412698412698,35.17,2018-05-18,"{'sod_14': 0.15, 'macdh': 0.14, 'volume': 0.14, 'macd': 0.13, 'rsi_14': 0.12, 'obv_2': 0.11, 'wr_14': 0.11, 'roc_2': 0.1}",0.6698412698412698,1.0,0.6698412698412698,"(1303, 8)",Buy,CA
147,0.7142857142857143,41.8,2018-05-18,"{'sod_14': 0.15, 'volume': 0.14, 'macd': 0.13, 'macdh': 0.13, 'rsi_14': 0.12, 'obv_2': 0.11, 'roc_2': 0.11, 'wr_14': 0.11}",0.7142857142857143,2.0,0.7142857142857143,"(1303, 8)",Strong Buy,CDNS
148,0.7142857142857143,78.37,2018-05-18,"{'macd': 0.15, 'macdh': 0.15, 'sod_14': 0.14, 'volume': 0.13, 'rsi_14': 0.12, 'obv_2': 0.11, 'wr_14': 0.11, 'roc_2': 0.1}",0.7142857142857143,-1.0,0.7142857142857143,"(1303, 8)",Sell,CELG
149,0.7333333333333333,61.34,2018-05-18,"{'macd': 0.16, 'macdh': 0.14, 'sod_14': 0.14, 'volume': 0.13, 'rsi_14': 0.12, 'obv_2': 0.11, 'wr_14': 0.11, 'roc_2': 0.09}",0.7333333333333333,-1.0,0.7333333333333333,"(1303, 8)",Sell,CERN
150,0.746031746031746,270.17,2018-05-18,"{'macd': 0.16, 'macdh': 0.15, 'rsi_14': 0.14, 'sod_14': 0.13, 'volume': 0.12, 'obv_2': 0.11, 'roc_2': 0.1, 'wr_14': 0.1}",0.746031746031746,1.0,0.746031746031746,"(1303, 8)",Buy,CHTR
151,0.6793650793650794,95.68,2018-05-18,"{'macd': 0.13, 'macdh': 0.13, 'rsi_14': 0.13, 'volume': 0.13, 'wr_14': 0.13, 'sod_14': 0.13, 'obv_2': 0.11, 'roc_2': 0.11}",0.6793650793650794,-1.0,0.6793650793650794,"(1303, 8)",Sell,CHKP
152,0.6634920634920635,182.85,2018-05-18,"{'macd': 0.15, 'macdh': 0.14, 'rsi_14': 0.14, 'sod_14': 0.13, 'obv_2': 0.11, 'roc_2': 0.11, 'volume': 0.11, 'wr_14': 0.11}",0.6634920634920635,-1.0,0.6634920634920635,"(1303, 8)",Sell,CTAS
153,0.7841269841269841,43.21,2018-05-18,"{'volume': 0.15, 'rsi_14': 0.14, 'sod_14': 0.14, 'macd': 0.13, 'macdh': 0.12, 'obv_2': 0.11, 'roc_2': 0.1, 'wr_14': 0.1}",0.7841269841269841,1.0,0.7841269841269841,"(1303, 8)",Buy,CSCO
154,0.7777777777777778,105.34,2018-05-18,"{'macd': 0.14, 'sod_14': 0.14, 'macdh': 0.13, 'rsi_14': 0.13, 'volume': 0.13, 'obv_2': 0.11, 'wr_14': 0.11, 'roc_2': 0.1}",0.7777777777777778,-2.0,0.7777777777777778,"(1303, 8)",Strong Sell,CTXS
155,0.7492063492063492,76.04,2018-05-18,"{'macdh': 0.15, 'volume': 0.15, 'sod_14': 0.14, 'macd': 0.13, 'rsi_14': 0.13, 'wr_14': 0.11, 'obv_2': 0.1, 'roc_2': 0.09}",0.7492063492063492,-2.0,0.7492063492063492,"(1303, 8)",Strong Sell,CTSH
156,0.7682539682539683,32.72,2018-05-18,"{'macd': 0.15, 'macdh': 0.14, 'volume': 0.14, 'rsi_14': 0.13, 'sod_14': 0.13, 'obv_2': 0.11, 'wr_14': 0.11, 'roc_2': 0.1}",0.7682539682539683,1.0,0.7682539682539683,"(1303, 8)",Buy,CMCSA
157,0.7333333333333333,198.96,2018-05-18,"{'macd': 0.17, 'macdh': 0.14, 'rsi_14': 0.13, 'sod_14': 0.13, 'volume': 0.12, 'obv_2': 0.11, 'wr_14': 0.11, 'roc_2': 0.1}",0.7333333333333333,-2.0,0.7333333333333333,"(1303, 8)",Strong Sell,COST
158,0.6793650793650794,63.76,2018-05-18,"{'sod_14': 0.15, 'macd': 0.14, 'macdh': 0.14, 'rsi_14': 0.14, 'volume': 0.12, 'obv_2': 0.11, 'wr_14': 0.11, 'roc_2': 0.1}",0.6793650793650794,-2.0,0.6793650793650794,"(1303, 8)",Strong Sell,CSX
159,0.780952380952381,43.09,2018-05-18,"{'macd': 0.14, 'macdh': 0.14, 'rsi_14': 0.14, 'sod_14': 0.14, 'volume': 0.13, 'wr_14': 0.11, 'obv_2': 0.1, 'roc_2': 0.1}",0.780952380952381,1.0,0.780952380952381,"(1303, 8)",Buy,CTRP
160,0.7682539682539683,47.5,2018-05-18,"{'macd': 0.15, 'volume': 0.15, 'sod_14': 0.14, 'rsi_14': 0.13, 'macdh': 0.12, 'wr_14': 0.12, 'obv_2': 0.11, 'roc_2': 0.09}",0.7682539682539683,-2.0,0.7682539682539683,"(1303, 8)",Strong Sell,XRAY
161,0.7587301587301587,32.35,2018-05-18,"{'volume': 0.15, 'macd': 0.13, 'macdh': 0.13, 'rsi_14': 0.13, 'sod_14': 0.13, 'obv_2': 0.11, 'wr_14': 0.11, 'roc_2': 0.1}",0.7587301587301587,1.0,0.7587301587301587,"(1303, 8)",Buy,DISH
162,0.8222222222222222,93.1,2018-05-18,"{'macd': 0.15, 'sod_14': 0.15, 'macdh': 0.14, 'rsi_14': 0.13, 'volume': 0.13, 'obv_2': 0.11, 'wr_14': 0.1, 'roc_2': 0.09}",0.8222222222222222,-1.0,0.8222222222222222,"(1303, 8)",Sell,DLTR
163,0.7015873015873015,38.32,2018-05-18,"{'macd': 0.15, 'rsi_14': 0.14, 'sod_14': 0.14, 'macdh': 0.13, 'obv_2': 0.11, 'volume': 0.11, 'wr_14': 0.11, 'roc_2': 0.1}",0.7015873015873015,2.0,0.7015873015873015,"(1303, 8)",Strong Buy,EBAY
164,0.8,132.0,2018-05-18,"{'macd': 0.17, 'macdh': 0.15, 'rsi_14': 0.13, 'sod_14': 0.13, 'volume': 0.12, 'obv_2': 0.1, 'wr_14': 0.1, 'roc_2': 0.09}",0.8,-1.0,0.8,"(1303, 8)",Sell,EA
165,0.6698412698412698,115.07,2018-05-18,"{'macdh': 0.15, 'macd': 0.14, 'rsi_14': 0.13, 'volume': 0.13, 'sod_14': 0.13, 'wr_14': 0.12, 'obv_2': 0.11, 'roc_2': 0.09}",0.6698412698412698,-2.0,0.6698412698412698,"(1303, 8)",Strong Sell,EXPE
166,0.6761904761904762,75.65,2018-05-18,"{'macd': 0.15, 'macdh': 0.14, 'rsi_14': 0.13, 'volume': 0.13, 'sod_14': 0.13, 'obv_2': 0.11, 'wr_14': 0.11, 'roc_2': 0.1}",0.6761904761904762,-1.0,0.6761904761904762,"(1303, 8)",Sell,ESRX
167,0.7041800643086816,182.68,2018-05-18,"{'macd': 0.16, 'volume': 0.15, 'rsi_14': 0.14, 'sod_14': 0.13, 'macdh': 0.12, 'obv_2': 0.1, 'wr_14': 0.1, 'roc_2': 0.09}",0.7041800643086816,-1.0,0.7041800643086816,"(1287, 8)",Sell,FB
168,0.6730158730158731,52.76,2018-05-18,"{'macd': 0.14, 'volume': 0.14, 'macdh': 0.13, 'rsi_14': 0.13, 'sod_14': 0.13, 'obv_2': 0.11, 'roc_2': 0.11, 'wr_14': 0.11}",0.6730158730158731,1.0,0.6730158730158731,"(1303, 8)",Buy,FAST
169,0.6603174603174603,72.98,2018-05-18,"{'macd': 0.15, 'macdh': 0.14, 'rsi_14': 0.13, 'sod_14': 0.13, 'volume': 0.12, 'wr_14': 0.12, 'obv_2': 0.11, 'roc_2': 0.11}",0.6603174603174603,1.0,0.6603174603174603,"(1303, 8)",Buy,FISV
170,0.765079365079365,68.02,2018-05-18,"{'macd': 0.15, 'macdh': 0.14, 'volume': 0.14, 'rsi_14': 0.13, 'obv_2': 0.12, 'sod_14': 0.12, 'wr_14': 0.11, 'roc_2': 0.1}",0.765079365079365,2.0,0.765079365079365,"(1303, 8)",Strong Buy,GILD
171,0.6984126984126984,88.71,2018-05-18,"{'macd': 0.14, 'macdh': 0.14, 'sod_14': 0.14, 'volume': 0.13, 'obv_2': 0.12, 'rsi_14': 0.12, 'wr_14': 0.11, 'roc_2': 0.1}",0.6984126984126984,-1.0,0.6984126984126984,"(1303, 8)",Sell,HAS
172,0.707936507936508,71.94,2018-05-18,"{'macd': 0.16, 'macdh': 0.13, 'volume': 0.13, 'obv_2': 0.12, 'rsi_14': 0.12, 'sod_14': 0.12, 'wr_14': 0.11, 'roc_2': 0.1}",0.707936507936508,-2.0,0.707936507936508,"(1303, 8)",Strong Sell,HSIC
173,0.7238095238095238,38.82,2018-05-18,"{'sod_14': 0.16, 'volume': 0.14, 'macdh': 0.13, 'rsi_14': 0.13, 'macd': 0.12, 'obv_2': 0.12, 'wr_14': 0.11, 'roc_2': 0.09}",0.7238095238095238,2.0,0.7238095238095238,"(1303, 8)",Strong Buy,HOLX
174,0.7968253968253968,200.76,2018-05-18,"{'sod_14': 0.15, 'macd': 0.14, 'macdh': 0.13, 'rsi_14': 0.13, 'volume': 0.13, 'obv_2': 0.11, 'wr_14': 0.11, 'roc_2': 0.09}",0.7968253968253968,1.0,0.7968253968253968,"(1303, 8)",Buy,IDXX
175,0.765079365079365,269.67,2018-05-18,"{'macd': 0.17, 'rsi_14': 0.15, 'sod_14': 0.14, 'macdh': 0.13, 'volume': 0.13, 'obv_2': 0.1, 'wr_14': 0.1, 'roc_2': 0.09}",0.765079365079365,-1.0,0.765079365079365,"(1303, 8)",Sell,ILMN
176,0.7238095238095238,67.83,2018-05-18,"{'macd': 0.16, 'volume': 0.15, 'macdh': 0.13, 'rsi_14': 0.13, 'sod_14': 0.13, 'obv_2': 0.1, 'roc_2': 0.1, 'wr_14': 0.1}",0.7238095238095238,-1.0,0.7238095238095238,"(1303, 8)",Sell,INCY
177,0.7682539682539683,53.5,2018-05-18,"{'macd': 0.15, 'macdh': 0.15, 'sod_14': 0.14, 'rsi_14': 0.13, 'volume': 0.12, 'obv_2': 0.11, 'wr_14': 0.11, 'roc_2': 0.1}",0.7682539682539683,2.0,0.7682539682539683,"(1303, 8)",Strong Buy,INTC
178,0.6730158730158731,190.54,2018-05-18,"{'macd': 0.17, 'macdh': 0.13, 'rsi_14': 0.13, 'volume': 0.13, 'sod_14': 0.13, 'obv_2': 0.11, 'wr_14': 0.11, 'roc_2': 0.1}",0.6730158730158731,-2.0,0.6730158730158731,"(1303, 8)",Strong Sell,INTU
179,0.7365079365079366,458.79,2018-05-18,"{'rsi_14': 0.15, 'macd': 0.14, 'macdh': 0.13, 'volume': 0.13, 'sod_14': 0.13, 'obv_2': 0.11, 'wr_14': 0.11, 'roc_2': 0.09}",0.7365079365079366,2.0,0.7365079365079366,"(1303, 8)",Strong Buy,ISRG
180,0.6952380952380952,126.86,2018-05-18,"{'macd': 0.14, 'sod_14': 0.14, 'macdh': 0.13, 'rsi_14': 0.13, 'volume': 0.13, 'obv_2': 0.11, 'wr_14': 0.11, 'roc_2': 0.1}",0.6952380952380952,2.0,0.6952380952380952,"(1303, 8)",Strong Buy,JBHT
181,0.8547717842323651,35.71,2018-05-18,"{'macd': 0.16, 'rsi_14': 0.15, 'macdh': 0.14, 'volume': 0.13, 'sod_14': 0.12, 'wr_14': 0.11, 'obv_2': 0.1, 'roc_2': 0.1}",0.8547717842323651,2.0,0.8547717842323651,"(1006, 8)",Strong Buy,JD
182,0.7396825396825397,109.39,2018-05-18,"{'macd': 0.15, 'macdh': 0.13, 'rsi_14': 0.13, 'volume': 0.13, 'sod_14': 0.13, 'obv_2': 0.11, 'roc_2': 0.11, 'wr_14': 0.11}",0.7396825396825397,1.0,0.7396825396825397,"(1303, 8)",Buy,KLAC
183,0.6666666666666666,195.49,2018-05-18,"{'macd': 0.15, 'rsi_14': 0.13, 'volume': 0.13, 'sod_14': 0.13, 'macdh': 0.12, 'obv_2': 0.12, 'wr_14': 0.11, 'roc_2': 0.09}",0.6666666666666666,-1.0,0.6666666666666666,"(1303, 8)",Sell,LRCX
184,0.7333333333333333,29.22,2018-05-18,"{'sod_14': 0.15, 'macd': 0.14, 'macdh': 0.13, 'rsi_14': 0.13, 'volume': 0.12, 'wr_14': 0.11, 'obv_2': 0.1, 'roc_2': 0.1}",0.7333333333333333,-2.0,0.7333333333333333,"(1303, 8)",Strong Sell,LBTYA
185,0.8,28.46,2018-05-18,"{'macd': 0.14, 'volume': 0.14, 'sod_14': 0.14, 'macdh': 0.13, 'rsi_14': 0.13, 'wr_14': 0.12, 'obv_2': 0.11, 'roc_2': 0.09}",0.8,-2.0,0.8,"(1303, 8)",Strong Sell,LBTYK
186,0.7333333333333333,138.52,2018-05-18,"{'macd': 0.15, 'rsi_14': 0.14, 'sod_14': 0.14, 'macdh': 0.13, 'volume': 0.13, 'obv_2': 0.11, 'wr_14': 0.11, 'roc_2': 0.09}",0.7333333333333333,-2.0,0.7333333333333333,"(1303, 8)",Strong Sell,MAR
187,0.8031746031746032,57.93,2018-05-18,"{'macd': 0.15, 'sod_14': 0.15, 'macdh': 0.13, 'rsi_14': 0.13, 'volume': 0.13, 'obv_2': 0.11, 'wr_14': 0.11, 'roc_2': 0.09}",0.8031746031746032,1.0,0.8031746031746032,"(1303, 8)",Buy,MXIM
188,0.7682539682539683,295.37,2018-05-18,"{'macd': 0.14, 'macdh': 0.14, 'rsi_14': 0.14, 'sod_14': 0.14, 'volume': 0.12, 'obv_2': 0.11, 'wr_14': 0.11, 'roc_2': 0.09}",0.7682539682539683,-2.0,0.7682539682539683,"(1303, 8)",Strong Sell,MELI
189,0.7047619047619048,92.8,2018-05-18,"{'sod_14': 0.15, 'macd': 0.14, 'macdh': 0.13, 'rsi_14': 0.13, 'volume': 0.13, 'obv_2': 0.11, 'roc_2': 0.11, 'wr_14': 0.11}",0.7047619047619048,-1.0,0.7047619047619048,"(1303, 8)",Sell,MCHP
190,0.7428571428571429,53.39,2018-05-18,"{'macd': 0.16, 'volume': 0.15, 'macdh': 0.14, 'rsi_14': 0.14, 'sod_14': 0.12, 'obv_2': 0.1, 'wr_14': 0.1, 'roc_2': 0.09}",0.7428571428571429,-1.0,0.7428571428571429,"(1303, 8)",Sell,MU
191,0.6945337620578779,96.36,2018-05-18,"{'macd': 0.16, 'volume': 0.14, 'sod_14': 0.14, 'macdh': 0.13, 'rsi_14': 0.13, 'obv_2': 0.11, 'roc_2': 0.1, 'wr_14': 0.1}",0.6945337620578779,-1.0,0.6945337620578779,"(1287, 8)",Sell,MSFT
192,0.7492063492063492,39.65,2018-05-18,"{'macd': 0.14, 'sod_14': 0.14, 'macdh': 0.13, 'rsi_14': 0.13, 'volume': 0.13, 'obv_2': 0.12, 'wr_14': 0.11, 'roc_2': 0.1}",0.7492063492063492,1.0,0.7492063492063492,"(1303, 8)",Buy,MDLZ
193,0.7428571428571429,49.47,2018-05-18,"{'macd': 0.14, 'macdh': 0.14, 'volume': 0.14, 'rsi_14': 0.13, 'sod_14': 0.13, 'obv_2': 0.11, 'wr_14': 0.11, 'roc_2': 0.09}",0.7428571428571429,-1.0,0.7428571428571429,"(1303, 8)",Sell,MNST
194,0.7333333333333333,39.66,2018-05-18,"{'macd': 0.17, 'macdh': 0.14, 'rsi_14': 0.13, 'sod_14': 0.13, 'volume': 0.12, 'obv_2': 0.11, 'wr_14': 0.11, 'roc_2': 0.09}",0.7333333333333333,-1.0,0.7333333333333333,"(1303, 8)",Sell,MYL
195,0.7936507936507936,246.33,2018-05-18,"{'macd': 0.18, 'macdh': 0.14, 'rsi_14': 0.13, 'volume': 0.13, 'sod_14': 0.13, 'wr_14': 0.11, 'obv_2': 0.1, 'roc_2': 0.08}",0.7936507936507936,2.0,0.7936507936507936,"(1303, 8)",Strong Buy,NTES
196,0.7333333333333333,324.18,2018-05-18,"{'macdh': 0.14, 'rsi_14': 0.14, 'volume': 0.14, 'sod_14': 0.14, 'macd': 0.13, 'obv_2': 0.11, 'wr_14': 0.11, 'roc_2': 0.09}",0.7333333333333333,-1.0,0.7333333333333333,"(1303, 8)",Sell,NFLX
197,0.7682539682539683,245.94,2018-05-18,"{'macd': 0.18, 'rsi_14': 0.14, 'volume': 0.13, 'macdh': 0.12, 'sod_14': 0.12, 'obv_2': 0.11, 'wr_14': 0.1, 'roc_2': 0.09}",0.7682539682539683,1.0,0.7682539682539683,"(1303, 8)",Buy,NVDA
198,0.7428571428571429,272.09,2018-05-18,"{'macd': 0.16, 'macdh': 0.14, 'rsi_14': 0.13, 'volume': 0.13, 'sod_14': 0.12, 'obv_2': 0.11, 'wr_14': 0.11, 'roc_2': 0.1}",0.7428571428571429,-2.0,0.7428571428571429,"(1303, 8)",Strong Sell,ORLY
199,0.7555555555555555,65.01,2018-05-18,"{'macd': 0.16, 'sod_14': 0.14, 'rsi_14': 0.13, 'macdh': 0.12, 'volume': 0.12, 'obv_2': 0.11, 'wr_14': 0.11, 'roc_2': 0.1}",0.7555555555555555,1.0,0.7555555555555555,"(1303, 8)",Buy,PCAR
200,0.6888888888888889,64.82,2018-05-18,"{'macd': 0.16, 'macdh': 0.13, 'rsi_14': 0.13, 'sod_14': 0.13, 'volume': 0.12, 'obv_2': 0.11, 'wr_14': 0.11, 'roc_2': 0.1}",0.6888888888888889,-1.0,0.6888888888888889,"(1303, 8)",Sell,PAYX
201,0.7076023391812866,80.79,2018-05-18,"{'rsi_14': 0.15, 'sod_14': 0.14, 'macd': 0.13, 'volume': 0.13, 'macdh': 0.12, 'obv_2': 0.12, 'wr_14': 0.11, 'roc_2': 0.09}",0.7076023391812866,-2.0,0.7076023391812866,"(725, 8)",Strong Sell,PYPL
202,0.7301587301587301,57.51,2018-05-18,"{'macd': 0.14, 'macdh': 0.14, 'sod_14': 0.14, 'rsi_14': 0.13, 'volume': 0.12, 'obv_2': 0.11, 'wr_14': 0.11, 'roc_2': 0.1}",0.7301587301587301,-2.0,0.7301587301587301,"(1303, 8)",Strong Sell,QCOM
203,0.7142857142857143,22.6,2018-05-18,"{'macdh': 0.15, 'volume': 0.14, 'macd': 0.13, 'sod_14': 0.13, 'rsi_14': 0.12, 'wr_14': 0.12, 'obv_2': 0.11, 'roc_2': 0.1}",0.7142857142857143,-2.0,0.7142857142857143,"(1303, 8)",Strong Sell,QRTEA
204,0.707936507936508,301.81,2018-05-18,"{'macd': 0.15, 'macdh': 0.15, 'rsi_14': 0.13, 'sod_14': 0.13, 'volume': 0.12, 'wr_14': 0.11, 'obv_2': 0.1, 'roc_2': 0.1}",0.707936507936508,1.0,0.707936507936508,"(1303, 8)",Buy,REGN
205,0.7904761904761904,82.47,2018-05-18,"{'sod_14': 0.15, 'macd': 0.14, 'macdh': 0.14, 'rsi_14': 0.14, 'volume': 0.13, 'wr_14': 0.12, 'obv_2': 0.1, 'roc_2': 0.08}",0.7904761904761904,1.0,0.7904761904761904,"(1303, 8)",Buy,ROST
206,0.7587301587301587,56.31,2018-05-18,"{'sod_14': 0.15, 'volume': 0.14, 'macd': 0.13, 'macdh': 0.13, 'rsi_14': 0.13, 'obv_2': 0.11, 'wr_14': 0.11, 'roc_2': 0.1}",0.7587301587301587,-1.0,0.7587301587301587,"(1303, 8)",Sell,STX
207,0.7746031746031746,169.61,2018-05-18,"{'volume': 0.16, 'macd': 0.14, 'sod_14': 0.14, 'macdh': 0.12, 'rsi_14': 0.12, 'obv_2': 0.11, 'wr_14': 0.11, 'roc_2': 0.09}",0.7746031746031746,-1.0,0.7746031746031746,"(1303, 8)",Sell,SHPG
208,0.6984126984126984,6.97,2018-05-18,"{'macd': 0.15, 'volume': 0.14, 'sod_14': 0.14, 'macdh': 0.13, 'obv_2': 0.12, 'rsi_14': 0.12, 'wr_14': 0.11, 'roc_2': 0.09}",0.6984126984126984,1.0,0.6984126984126984,"(1303, 8)",Buy,SIRI
209,0.780952380952381,98.49,2018-05-18,"{'macd': 0.14, 'macdh': 0.14, 'sod_14': 0.14, 'rsi_14': 0.13, 'volume': 0.13, 'wr_14': 0.11, 'obv_2': 0.1, 'roc_2': 0.09}",0.780952380952381,-2.0,0.780952380952381,"(1303, 8)",Strong Sell,SWKS
210,0.7142857142857143,57.16,2018-05-18,"{'macd': 0.14, 'macdh': 0.14, 'sod_14': 0.14, 'rsi_14': 0.13, 'volume': 0.13, 'obv_2': 0.11, 'wr_14': 0.11, 'roc_2': 0.09}",0.7142857142857143,-2.0,0.7142857142857143,"(1303, 8)",Strong Sell,SBUX
211,0.7936507936507936,22.19,2018-05-18,"{'volume': 0.15, 'macd': 0.14, 'macdh': 0.13, 'sod_14': 0.13, 'obv_2': 0.12, 'rsi_14': 0.12, 'roc_2': 0.11, 'wr_14': 0.1}",0.7936507936507936,1.0,0.7936507936507936,"(1303, 8)",Buy,SYMC
212,0.7396825396825397,89.25,2018-05-18,"{'sod_14': 0.15, 'macd': 0.14, 'macdh': 0.14, 'volume': 0.13, 'rsi_14': 0.12, 'obv_2': 0.11, 'wr_14': 0.11, 'roc_2': 0.1}",0.7396825396825397,1.0,0.7396825396825397,"(1303, 8)",Buy,SNPS
213,0.6688311688311688,56.93,2018-05-18,"{'macdh': 0.16, 'rsi_14': 0.14, 'macd': 0.13, 'sod_14': 0.13, 'volume': 0.12, 'wr_14': 0.11, 'obv_2': 0.1, 'roc_2': 0.1}",0.6688311688311688,1.0,0.6688311688311688,"(1273, 8)",Buy,TMUS
214,0.7015873015873015,115.81,2018-05-18,"{'macd': 0.15, 'macdh': 0.15, 'sod_14': 0.14, 'rsi_14': 0.13, 'volume': 0.12, 'obv_2': 0.11, 'wr_14': 0.11, 'roc_2': 0.09}",0.7015873015873015,2.0,0.7015873015873015,"(1303, 8)",Strong Buy,TTWO
215,0.726984126984127,276.82,2018-05-18,"{'rsi_14': 0.15, 'volume': 0.14, 'sod_14': 0.14, 'macd': 0.13, 'macdh': 0.12, 'obv_2': 0.12, 'roc_2': 0.1, 'wr_14': 0.1}",0.726984126984127,-1.0,0.726984126984127,"(1303, 8)",Sell,TSLA
216,0.7396825396825397,110.54,2018-05-18,"{'macd': 0.15, 'rsi_14': 0.14, 'volume': 0.14, 'macdh': 0.13, 'sod_14': 0.13, 'obv_2': 0.11, 'wr_14': 0.11, 'roc_2': 0.09}",0.7396825396825397,1.0,0.7396825396825397,"(1303, 8)",Buy,TXN
217,0.7368421052631579,56.79,2018-05-18,"{'volume': 0.15, 'sod_14': 0.15, 'macd': 0.14, 'rsi_14': 0.13, 'macdh': 0.12, 'obv_2': 0.11, 'wr_14': 0.11, 'roc_2': 0.09}",0.7368421052631579,-2.0,0.7368421052631579,"(725, 8)",Strong Sell,KHC
218,0.7290969899665551,37.27,2018-05-18,"{'macd': 0.14, 'volume': 0.14, 'sod_14': 0.14, 'macdh': 0.13, 'rsi_14': 0.13, 'wr_14': 0.11, 'obv_2': 0.1, 'roc_2': 0.1}",0.7290969899665551,-2.0,0.7290969899665551,"(1239, 8)",Strong Sell,FOX
219,0.705685618729097,37.66,2018-05-18,"{'macd': 0.15, 'sod_14': 0.15, 'rsi_14': 0.14, 'macdh': 0.13, 'volume': 0.13, 'obv_2': 0.11, 'wr_14': 0.11, 'roc_2': 0.1}",0.705685618729097,1.0,0.705685618729097,"(1239, 8)",Buy,FOXA
220,0.765079365079365,255.59,2018-05-18,"{'macd': 0.21, 'macdh': 0.14, 'rsi_14': 0.13, 'volume': 0.13, 'sod_14': 0.12, 'wr_14': 0.1, 'obv_2': 0.09, 'roc_2': 0.09}",0.765079365079365,2.0,0.765079365079365,"(1303, 8)",Strong Buy,ULTA
221,0.692063492063492,106.31,2018-05-18,"{'sod_14': 0.15, 'macd': 0.13, 'macdh': 0.13, 'rsi_14': 0.13, 'volume': 0.12, 'wr_14': 0.12, 'obv_2': 0.11, 'roc_2': 0.1}",0.692063492063492,2.0,0.692063492063492,"(1303, 8)",Strong Buy,VRSK
222,0.6857142857142857,157.24,2018-05-18,"{'macd': 0.14, 'macdh': 0.14, 'rsi_14': 0.13, 'sod_14': 0.13, 'volume': 0.12, 'obv_2': 0.11, 'roc_2': 0.11, 'wr_14': 0.11}",0.6857142857142857,2.0,0.6857142857142857,"(1303, 8)",Strong Buy,VRTX
223,0.7619047619047619,26.41,2018-05-18,"{'macd': 0.15, 'sod_14': 0.14, 'macdh': 0.13, 'volume': 0.13, 'rsi_14': 0.12, 'wr_14': 0.12, 'obv_2': 0.11, 'roc_2': 0.09}",0.7619047619047619,1.0,0.7619047619047619,"(1303, 8)",Buy,VOD
224,0.6952380952380952,64.34,2018-05-18,"{'volume': 0.15, 'sod_14': 0.14, 'macd': 0.13, 'rsi_14': 0.13, 'macdh': 0.12, 'obv_2': 0.12, 'wr_14': 0.11, 'roc_2': 0.1}",0.6952380952380952,-2.0,0.6952380952380952,"(1303, 8)",Strong Sell,WBA
225,0.7428571428571429,84.75,2018-05-18,"{'macd': 0.14, 'macdh': 0.14, 'volume': 0.14, 'sod_14': 0.14, 'rsi_14': 0.13, 'obv_2': 0.11, 'wr_14': 0.1, 'roc_2': 0.09}",0.7428571428571429,-2.0,0.7428571428571429,"(1303, 8)",Strong Sell,WDC
226,0.7142857142857143,134.48,2018-05-18,"{'sod_14': 0.15, 'macd': 0.14, 'macdh': 0.13, 'volume': 0.13, 'obv_2': 0.12, 'rsi_14': 0.12, 'wr_14': 0.11, 'roc_2': 0.09}",0.7142857142857143,2.0,0.7142857142857143,"(1303, 8)",Strong Buy,WDAY
227,0.7396825396825397,189.03,2018-05-18,"{'macd': 0.16, 'macdh': 0.14, 'rsi_14': 0.13, 'volume': 0.13, 'sod_14': 0.13, 'obv_2': 0.11, 'wr_14': 0.11, 'roc_2': 0.1}",0.7396825396825397,2.0,0.7396825396825397,"(1303, 8)",Strong Buy,WYNN
228,0.7587301587301587,71.23,2018-05-18,"{'macd': 0.16, 'macdh': 0.15, 'sod_14': 0.14, 'rsi_14': 0.12, 'volume': 0.12, 'obv_2': 0.1, 'roc_2': 0.1, 'wr_14': 0.1}",0.7587301587301587,1.0,0.7587301587301587,"(1303, 8)",Buy,XLNX
229,0.7555555555555555,18.89,2018-05-18,"{'macd': 0.16, 'macdh': 0.15, 'rsi_14': 0.13, 'volume': 0.13, 'sod_14': 0.13, 'obv_2': 0.11, 'wr_14': 0.11, 'roc_2': 0.09}",0.7555555555555555,-2.0,0.7555555555555555,"(1304, 8)",Strong Sell,AGNC
230,0.7174603174603175,121.37,2018-05-18,"{'macd': 0.16, 'rsi_14': 0.15, 'sod_14': 0.15, 'macdh': 0.12, 'obv_2': 0.12, 'volume': 0.12, 'wr_14': 0.11, 'roc_2': 0.1}",0.7174603174603175,-1.0,0.7174603174603175,"(1304, 8)",Sell,ANAT
231,0.7682539682539683,13.76,2018-05-18,"{'sod_14': 0.16, 'macd': 0.14, 'volume': 0.13, 'macdh': 0.12, 'obv_2': 0.12, 'rsi_14': 0.12, 'wr_14': 0.11, 'roc_2': 0.09}",0.7682539682539683,-2.0,0.7682539682539683,"(1304, 8)",Strong Sell,AFSI
232,0.7206349206349206,78.67,2018-05-18,"{'macd': 0.15, 'macdh': 0.13, 'rsi_14': 0.13, 'volume': 0.13, 'sod_14': 0.13, 'wr_14': 0.12, 'obv_2': 0.1, 'roc_2': 0.1}",0.7206349206349206,-2.0,0.7206349206349206,"(1304, 8)",Strong Sell,ACGL
233,0.7777777777777778,48.48,2018-05-18,"{'volume': 0.16, 'macd': 0.15, 'macdh': 0.13, 'sod_14': 0.13, 'rsi_14': 0.12, 'obv_2': 0.11, 'wr_14': 0.11, 'roc_2': 0.09}",0.7777777777777778,2.0,0.7777777777777778,"(1303, 8)",Strong Buy,OZRK
234,0.707936507936508,58.11,2018-05-18,"{'macd': 0.17, 'volume': 0.14, 'rsi_14': 0.13, 'sod_14': 0.13, 'macdh': 0.12, 'obv_2': 0.12, 'roc_2': 0.1, 'wr_14': 0.1}",0.707936507936508,-2.0,0.707936507936508,"(1304, 8)",Strong Sell,BANR
235,0.6285714285714286,12.24,2018-05-18,"{'macd': 0.14, 'rsi_14': 0.14, 'sod_14': 0.14, 'volume': 0.13, 'wr_14': 0.12, 'macdh': 0.11, 'obv_2': 0.11, 'roc_2': 0.11}",0.6285714285714286,-2.0,0.6285714285714286,"(1304, 8)",Strong Sell,BGCP
236,0.7968253968253968,41.69,2018-05-18,"{'sod_14': 0.15, 'macd': 0.14, 'macdh': 0.14, 'rsi_14': 0.13, 'volume': 0.13, 'obv_2': 0.11, 'wr_14': 0.11, 'roc_2': 0.09}",0.7968253968253968,1.0,0.7968253968253968,"(1304, 8)",Buy,BOFI
237,0.7301587301587301,104.13,2018-05-18,"{'volume': 0.15, 'macdh': 0.14, 'macd': 0.13, 'sod_14': 0.13, 'obv_2': 0.11, 'roc_2': 0.11, 'rsi_14': 0.11, 'wr_14': 0.11}",0.7301587301587301,-2.0,0.7301587301587301,"(1304, 8)",Strong Sell,BOKF
238,0.6976744186046512,47.18,2018-05-18,"{'macdh': 0.17, 'macd': 0.14, 'volume': 0.14, 'obv_2': 0.13, 'sod_14': 0.13, 'roc_2': 0.11, 'rsi_14': 0.1, 'wr_14': 0.09}",0.6976744186046512,-1.0,0.6976744186046512,"(213, 8)",Sell,BHF
239,0.707936507936508,13.1,2018-05-18,"{'macd': 0.16, 'macdh': 0.14, 'volume': 0.14, 'rsi_14': 0.13, 'sod_14': 0.13, 'obv_2': 0.11, 'wr_14': 0.1, 'roc_2': 0.09}",0.707936507936508,2.0,0.707936507936508,"(1303, 8)",Strong Buy,CFFN
240,0.7111111111111111,42.04,2018-05-18,"{'macd': 0.14, 'sod_14': 0.14, 'macdh': 0.13, 'rsi_14': 0.13, 'obv_2': 0.12, 'volume': 0.12, 'wr_14': 0.11, 'roc_2': 0.1}",0.7111111111111111,-2.0,0.7111111111111111,"(1303, 8)",Strong Sell,CATY
241,0.8317460317460318,106.56,2018-05-18,"{'macd': 0.17, 'macdh': 0.15, 'rsi_14': 0.15, 'sod_14': 0.13, 'volume': 0.12, 'obv_2': 0.1, 'wr_14': 0.1, 'roc_2': 0.09}",0.8317460317460318,-1.0,0.8317460317460318,"(1303, 8)",Sell,CBOE
242,0.7428571428571429,55.96,2018-05-18,"{'macd': 0.15, 'macdh': 0.14, 'rsi_14': 0.14, 'volume': 0.14, 'obv_2': 0.12, 'sod_14': 0.12, 'roc_2': 0.1, 'wr_14': 0.1}",0.7428571428571429,2.0,0.7428571428571429,"(1303, 8)",Strong Buy,CHFC
243,0.7619047619047619,15.05,2018-05-18,"{'macdh': 0.16, 'sod_14': 0.15, 'macd': 0.14, 'rsi_14': 0.14, 'volume': 0.13, 'wr_14': 0.1, 'obv_2': 0.09, 'roc_2': 0.09}",0.7619047619047619,1.0,0.7619047619047619,"(1051, 8)",Buy,CMCT
244,0.7428571428571429,70.73,2018-05-18,"{'sod_14': 0.15, 'macd': 0.14, 'macdh': 0.13, 'rsi_14': 0.13, 'volume': 0.12, 'wr_14': 0.12, 'obv_2': 0.11, 'roc_2': 0.11}",0.7428571428571429,2.0,0.7428571428571429,"(1303, 8)",Strong Buy,CINF
245,0.7492063492063492,159.78,2018-05-18,"{'macd': 0.14, 'macdh': 0.14, 'sod_14': 0.14, 'obv_2': 0.12, 'rsi_14': 0.12, 'volume': 0.12, 'wr_14': 0.11, 'roc_2': 0.1}",0.7492063492063492,-1.0,0.7492063492063492,"(1303, 8)",Sell,CME
246,0.7714285714285715,76.4,2018-05-18,"{'macd': 0.15, 'macdh': 0.14, 'rsi_14': 0.14, 'volume': 0.13, 'sod_14': 0.13, 'obv_2': 0.11, 'wr_14': 0.11, 'roc_2': 0.1}",0.7714285714285715,-1.0,0.7714285714285715,"(1303, 8)",Sell,CIGI
247,0.6984126984126984,42.68,2018-05-18,"{'macd': 0.16, 'macdh': 0.14, 'sod_14': 0.14, 'rsi_14': 0.12, 'volume': 0.12, 'roc_2': 0.11, 'wr_14': 0.11, 'obv_2': 0.1}",0.6984126984126984,2.0,0.6984126984126984,"(1303, 8)",Strong Buy,COLB
248,0.7047619047619048,64.59,2018-05-18,"{'macd': 0.14, 'macdh': 0.14, 'sod_14': 0.14, 'rsi_14': 0.13, 'volume': 0.13, 'obv_2': 0.11, 'roc_2': 0.11, 'wr_14': 0.11}",0.7047619047619048,-1.0,0.7047619047619048,"(1303, 8)",Sell,CBSH
249,0.7523809523809524,352.06,2018-05-18,"{'macdh': 0.14, 'volume': 0.14, 'sod_14': 0.14, 'macd': 0.13, 'rsi_14': 0.13, 'obv_2': 0.12, 'roc_2': 0.1, 'wr_14': 0.1}",0.7523809523809524,2.0,0.7523809523809524,"(1303, 8)",Strong Buy,CACC
250,0.7301587301587301,23.14,2018-05-18,"{'macd': 0.16, 'rsi_14': 0.14, 'macdh': 0.13, 'sod_14': 0.13, 'volume': 0.12, 'obv_2': 0.11, 'wr_14': 0.11, 'roc_2': 0.1}",0.7301587301587301,-2.0,0.7301587301587301,"(1303, 8)",Strong Sell,CVBF
251,0.7015873015873015,52.14,2018-05-18,"{'macd': 0.16, 'rsi_14': 0.14, 'volume': 0.14, 'macdh': 0.12, 'obv_2': 0.12, 'sod_14': 0.12, 'wr_14': 0.11, 'roc_2': 0.1}",0.7015873015873015,1.0,0.7015873015873015,"(1303, 8)",Buy,CONE
252,0.6634920634920635,64.66,2018-05-18,"{'macd': 0.15, 'rsi_14': 0.14, 'sod_14': 0.14, 'macdh': 0.13, 'volume': 0.12, 'roc_2': 0.11, 'wr_14': 0.11, 'obv_2': 0.1}",0.6634920634920635,-1.0,0.6634920634920635,"(1303, 8)",Sell,ETFC
253,0.7619047619047619,70.48,2018-05-18,"{'macd': 0.15, 'sod_14': 0.14, 'macdh': 0.13, 'rsi_14': 0.13, 'volume': 0.13, 'roc_2': 0.11, 'wr_14': 0.11, 'obv_2': 0.1}",0.7619047619047619,-2.0,0.7619047619047619,"(1303, 8)",Strong Sell,EWBC
254,0.707936507936508,212.2,2018-05-18,"{'macd': 0.16, 'macdh': 0.14, 'rsi_14': 0.14, 'volume': 0.13, 'sod_14': 0.13, 'obv_2': 0.11, 'roc_2': 0.1, 'wr_14': 0.1}",0.707936507936508,-1.0,0.707936507936508,"(1303, 8)",Sell,ESGR
255,0.7555555555555555,385.86,2018-05-18,"{'macd': 0.15, 'volume': 0.14, 'macdh': 0.13, 'rsi_14': 0.13, 'sod_14': 0.13, 'obv_2': 0.11, 'wr_14': 0.11, 'roc_2': 0.1}",0.7555555555555555,-2.0,0.7555555555555555,"(1303, 8)",Strong Sell,EQIX
256,0.7301587301587301,111.75,2018-05-18,"{'macd': 0.14, 'sod_14': 0.14, 'rsi_14': 0.13, 'volume': 0.13, 'macdh': 0.12, 'obv_2': 0.11, 'roc_2': 0.11, 'wr_14': 0.11}",0.7301587301587301,-1.0,0.7301587301587301,"(1303, 8)",Sell,ERIE
257,0.7428571428571429,33.56,2018-05-18,"{'macd': 0.15, 'sod_14': 0.15, 'macdh': 0.13, 'rsi_14': 0.13, 'wr_14': 0.12, 'obv_2': 0.11, 'volume': 0.11, 'roc_2': 0.1}",0.7428571428571429,1.0,0.7428571428571429,"(1303, 8)",Buy,FITB
258,0.780952380952381,44.6,2018-05-18,"{'macd': 0.15, 'sod_14': 0.15, 'macdh': 0.13, 'rsi_14': 0.13, 'volume': 0.13, 'wr_14': 0.12, 'obv_2': 0.1, 'roc_2': 0.1}",0.780952380952381,2.0,0.780952380952381,"(1303, 8)",Strong Buy,FNGN
259,0.7015873015873015,449.95,2018-05-18,"{'macd': 0.16, 'volume': 0.16, 'rsi_14': 0.13, 'sod_14': 0.13, 'macdh': 0.12, 'obv_2': 0.11, 'wr_14': 0.1, 'roc_2': 0.09}",0.7015873015873015,-2.0,0.7015873015873015,"(1303, 8)",Strong Sell,FCNCA
260,0.653968253968254,31.65,2018-05-18,"{'macd': 0.14, 'rsi_14': 0.14, 'sod_14': 0.14, 'macdh': 0.13, 'volume': 0.13, 'obv_2': 0.12, 'roc_2': 0.11, 'wr_14': 0.11}",0.653968253968254,-1.0,0.653968253968254,"(1303, 8)",Sell,FFBC
261,0.7142857142857143,52.6,2018-05-18,"{'macd': 0.15, 'rsi_14': 0.14, 'sod_14': 0.14, 'volume': 0.13, 'macdh': 0.12, 'obv_2': 0.11, 'wr_14': 0.11, 'roc_2': 0.09}",0.7142857142857143,-2.0,0.7142857142857143,"(1303, 8)",Strong Sell,FFIN
262,0.8235294117647058,28.32,2018-05-18,"{'volume': 0.16, 'macd': 0.14, 'macdh': 0.13, 'rsi_14': 0.13, 'obv_2': 0.12, 'wr_14': 0.12, 'sod_14': 0.11, 'roc_2': 0.1}",0.8235294117647058,-2.0,0.8235294117647058,"(451, 8)",Strong Sell,FHB
263,0.726984126984127,25.38,2018-05-18,"{'volume': 0.15, 'macd': 0.14, 'rsi_14': 0.13, 'sod_14': 0.13, 'macdh': 0.12, 'obv_2': 0.12, 'wr_14': 0.11, 'roc_2': 0.1}",0.726984126984127,-2.0,0.726984126984127,"(1303, 8)",Strong Sell,FMBI
264,0.7386363636363636,70.71,2018-05-18,"{'macd': 0.15, 'sod_14': 0.15, 'rsi_14': 0.14, 'volume': 0.13, 'macdh': 0.12, 'obv_2': 0.11, 'wr_14': 0.11, 'roc_2': 0.09}",0.7386363636363636,-1.0,0.7386363636363636,"(748, 8)",Sell,FSV
265,0.7142857142857143,17.3,2018-05-18,"{'macd': 0.17, 'macdh': 0.13, 'rsi_14': 0.13, 'wr_14': 0.13, 'sod_14': 0.13, 'volume': 0.12, 'obv_2': 0.11, 'roc_2': 0.1}",0.7142857142857143,1.0,0.7142857142857143,"(1303, 8)",Buy,FULT
266,0.77431906614786,34.58,2018-05-18,"{'macd': 0.16, 'rsi_14': 0.14, 'sod_14': 0.14, 'volume': 0.13, 'macdh': 0.12, 'obv_2': 0.12, 'roc_2': 0.1, 'wr_14': 0.1}",0.77431906614786,-1.0,0.77431906614786,"(1072, 8)",Sell,GLPI
267,0.7619047619047619,39.37,2018-05-18,"{'macd': 0.15, 'sod_14': 0.14, 'macdh': 0.13, 'rsi_14': 0.13, 'volume': 0.12, 'obv_2': 0.11, 'roc_2': 0.1, 'wr_14': 0.1}",0.7619047619047619,-2.0,0.7619047619047619,"(1303, 8)",Strong Sell,GBCI
268,0.7015873015873015,51.8,2018-05-18,"{'sod_14': 0.15, 'macd': 0.14, 'macdh': 0.13, 'rsi_14': 0.13, 'volume': 0.12, 'obv_2': 0.11, 'wr_14': 0.11, 'roc_2': 0.1}",0.7015873015873015,1.0,0.7015873015873015,"(1303, 8)",Buy,HBHC
269,0.7248908296943232,73.72,2018-05-18,"{'macd': 0.15, 'sod_14': 0.14, 'macdh': 0.13, 'rsi_14': 0.13, 'volume': 0.13, 'wr_14': 0.12, 'obv_2': 0.1, 'roc_2': 0.1}",0.7248908296943232,-1.0,0.7248908296943232,"(958, 8)",Sell,HQY
270,0.726984126984127,23.44,2018-05-18,"{'volume': 0.15, 'macdh': 0.14, 'macd': 0.13, 'sod_14': 0.13, 'rsi_14': 0.12, 'obv_2': 0.11, 'wr_14': 0.11, 'roc_2': 0.1}",0.726984126984127,1.0,0.726984126984127,"(1303, 8)",Buy,HOMB
271,0.6952380952380952,15.12,2018-05-18,"{'macd': 0.15, 'volume': 0.14, 'macdh': 0.13, 'rsi_14': 0.13, 'obv_2': 0.12, 'sod_14': 0.12, 'roc_2': 0.11, 'wr_14': 0.11}",0.6952380952380952,-1.0,0.6952380952380952,"(1303, 8)",Sell,HBAN
272,0.7619047619047619,79.45,2018-05-18,"{'macdh': 0.14, 'volume': 0.14, 'sod_14': 0.14, 'macd': 0.13, 'rsi_14': 0.12, 'obv_2': 0.11, 'wr_14': 0.11, 'roc_2': 0.1}",0.7619047619047619,-1.0,0.7619047619047619,"(1303, 8)",Sell,IBKC
273,0.7923728813559322,51.43,2018-05-18,"{'macd': 0.19, 'sod_14': 0.14, 'macdh': 0.13, 'rsi_14': 0.13, 'volume': 0.13, 'obv_2': 0.1, 'wr_14': 0.1, 'roc_2': 0.09}",0.7923728813559322,1.0,0.7923728813559322,"(987, 8)",Buy,INFO
274,0.6857142857142857,74.85,2018-05-18,"{'macd': 0.14, 'rsi_14': 0.14, 'sod_14': 0.14, 'macdh': 0.13, 'volume': 0.13, 'wr_14': 0.12, 'obv_2': 0.11, 'roc_2': 0.1}",0.6857142857142857,1.0,0.6857142857142857,"(1303, 8)",Buy,INDB
275,0.8,77.6,2018-05-18,"{'macd': 0.16, 'rsi_14': 0.15, 'macdh': 0.13, 'volume': 0.13, 'sod_14': 0.13, 'wr_14': 0.11, 'obv_2': 0.1, 'roc_2': 0.1}",0.8,1.0,0.8,"(1303, 8)",Buy,IBKR
276,0.7015873015873015,42.8,2018-05-18,"{'macd': 0.15, 'macdh': 0.15, 'rsi_14': 0.13, 'sod_14': 0.13, 'volume': 0.12, 'obv_2': 0.11, 'wr_14': 0.11, 'roc_2': 0.1}",0.7015873015873015,-2.0,0.7015873015873015,"(1303, 8)",Strong Sell,IBOC
277,0.707936507936508,13.54,2018-05-18,"{'volume': 0.16, 'macd': 0.14, 'macdh': 0.13, 'rsi_14': 0.13, 'obv_2': 0.11, 'sod_14': 0.11, 'roc_2': 0.1, 'wr_14': 0.1}",0.707936507936508,-2.0,0.707936507936508,"(1303, 8)",Strong Sell,ISBC
278,0.7365079365079366,68.38,2018-05-18,"{'macd': 0.15, 'sod_14': 0.15, 'volume': 0.14, 'macdh': 0.13, 'rsi_14': 0.13, 'obv_2': 0.11, 'wr_14': 0.1, 'roc_2': 0.09}",0.7365079365079366,2.0,0.7365079365079366,"(1303, 8)",Strong Buy,LAMR
279,0.7492063492063492,43.51,2018-05-18,"{'macd': 0.15, 'macdh': 0.15, 'sod_14': 0.14, 'rsi_14': 0.13, 'volume': 0.12, 'obv_2': 0.11, 'wr_14': 0.11, 'roc_2': 0.1}",0.7492063492063492,2.0,0.7492063492063492,"(1303, 8)",Strong Buy,LTXB
280,0.7971698113207547,70.95,2018-05-18,"{'volume': 0.16, 'macd': 0.14, 'macdh': 0.13, 'rsi_14': 0.13, 'sod_14': 0.13, 'wr_14': 0.11, 'obv_2': 0.1, 'roc_2': 0.09}",0.7971698113207547,2.0,0.7971698113207547,"(891, 8)",Strong Buy,LBRDK
281,0.7492063492063492,70.47,2018-05-18,"{'macd': 0.15, 'sod_14': 0.14, 'rsi_14': 0.13, 'volume': 0.13, 'macdh': 0.12, 'obv_2': 0.11, 'wr_14': 0.11, 'roc_2': 0.1}",0.7492063492063492,-2.0,0.7492063492063492,"(1303, 8)",Strong Sell,LPLA
282,0.7428571428571429,204.72,2018-05-18,"{'macd': 0.15, 'macdh': 0.14, 'rsi_14': 0.14, 'sod_14': 0.13, 'obv_2': 0.12, 'volume': 0.12, 'wr_14': 0.12, 'roc_2': 0.09}",0.7428571428571429,-1.0,0.7428571428571429,"(1303, 8)",Sell,MKTX
283,0.7174603174603175,43.65,2018-05-18,"{'macd': 0.15, 'macdh': 0.13, 'obv_2': 0.13, 'rsi_14': 0.13, 'volume': 0.13, 'sod_14': 0.12, 'wr_14': 0.11, 'roc_2': 0.1}",0.7174603174603175,2.0,0.7174603174603175,"(1303, 8)",Strong Buy,MBFI
284,0.7301587301587301,90.07,2018-05-18,"{'macd': 0.16, 'volume': 0.15, 'macdh': 0.14, 'rsi_14': 0.14, 'sod_14': 0.12, 'obv_2': 0.11, 'wr_14': 0.1, 'roc_2': 0.09}",0.7301587301587301,-2.0,0.7301587301587301,"(1303, 8)",Strong Sell,NDAQ
285,0.7704280155642024,26.45,2018-05-18,"{'macd': 0.16, 'volume': 0.14, 'sod_14': 0.14, 'rsi_14': 0.12, 'macdh': 0.11, 'obv_2': 0.11, 'wr_14': 0.11, 'roc_2': 0.1}",0.7704280155642024,-2.0,0.7704280155642024,"(1070, 8)",Strong Sell,NGHC
286,0.7692307692307693,14.07,2018-05-18,"{'sod_14': 0.16, 'macd': 0.15, 'volume': 0.14, 'macdh': 0.13, 'rsi_14': 0.13, 'obv_2': 0.11, 'wr_14': 0.1, 'roc_2': 0.09}",0.7692307692307693,1.0,0.7692307692307693,"(1030, 8)",Buy,NAVI
287,0.6793650793650794,38.1,2018-05-18,"{'macd': 0.14, 'macdh': 0.13, 'volume': 0.13, 'sod_14': 0.13, 'rsi_14': 0.12, 'wr_14': 0.12, 'obv_2': 0.11, 'roc_2': 0.11}",0.6793650793650794,1.0,0.6793650793650794,"(1303, 8)",Buy,NBTB
288,0.707936507936508,107.82,2018-05-18,"{'macd': 0.15, 'macdh': 0.14, 'rsi_14': 0.13, 'sod_14': 0.13, 'volume': 0.12, 'obv_2': 0.11, 'roc_2': 0.11, 'wr_14': 0.11}",0.707936507936508,2.0,0.707936507936508,"(1303, 8)",Strong Buy,NTRS
289,0.7174603174603175,16.95,2018-05-18,"{'macd': 0.15, 'macdh': 0.14, 'sod_14': 0.14, 'rsi_14': 0.12, 'volume': 0.12, 'obv_2': 0.11, 'roc_2': 0.11, 'wr_14': 0.11}",0.7174603174603175,-1.0,0.7174603174603175,"(1303, 8)",Sell,NWBI
290,0.6952380952380952,17.85,2018-05-18,"{'macd': 0.15, 'rsi_14': 0.13, 'volume': 0.13, 'sod_14': 0.13, 'macdh': 0.12, 'wr_14': 0.12, 'obv_2': 0.11, 'roc_2': 0.11}",0.6952380952380952,-2.0,0.6952380952380952,"(1303, 8)",Strong Sell,ONB
291,0.7428571428571429,53.87,2018-05-18,"{'volume': 0.15, 'macd': 0.14, 'macdh': 0.13, 'rsi_14': 0.13, 'sod_14': 0.13, 'obv_2': 0.12, 'wr_14': 0.11, 'roc_2': 0.1}",0.7428571428571429,-2.0,0.7428571428571429,"(1303, 8)",Strong Sell,PACW
292,0.7047619047619048,18.63,2018-05-18,"{'macd': 0.14, 'sod_14': 0.14, 'macdh': 0.13, 'rsi_14': 0.13, 'volume': 0.13, 'wr_14': 0.12, 'obv_2': 0.11, 'roc_2': 0.1}",0.7047619047619048,-1.0,0.7047619047619048,"(1303, 8)",Sell,PBCT
293,0.7047619047619048,66.55,2018-05-18,"{'volume': 0.14, 'macd': 0.13, 'macdh': 0.13, 'sod_14': 0.13, 'obv_2': 0.12, 'rsi_14': 0.12, 'wr_14': 0.12, 'roc_2': 0.1}",0.7047619047619048,-1.0,0.7047619047619048,"(1303, 8)",Sell,PNFP
294,0.7238095238095238,46.77,2018-05-18,"{'macd': 0.14, 'macdh': 0.14, 'volume': 0.14, 'sod_14': 0.14, 'rsi_14': 0.13, 'obv_2': 0.11, 'wr_14': 0.11, 'roc_2': 0.1}",0.7238095238095238,-2.0,0.7238095238095238,"(1304, 8)",Strong Sell,BPOP
295,0.6603174603174603,48.3,2018-05-18,"{'macdh': 0.14, 'volume': 0.14, 'macd': 0.13, 'rsi_14': 0.13, 'obv_2': 0.12, 'sod_14': 0.12, 'roc_2': 0.11, 'wr_14': 0.11}",0.6603174603174603,1.0,0.6603174603174603,"(1303, 8)",Buy,PCH
296,0.746031746031746,39.9,2018-05-18,"{'macd': 0.14, 'macdh': 0.13, 'rsi_14': 0.13, 'volume': 0.13, 'sod_14': 0.13, 'obv_2': 0.12, 'wr_14': 0.12, 'roc_2': 0.09}",0.746031746031746,1.0,0.746031746031746,"(1303, 8)",Buy,PRAA
297,0.6698412698412698,58.8,2018-05-18,"{'sod_14': 0.15, 'macd': 0.14, 'macdh': 0.13, 'volume': 0.13, 'rsi_14': 0.12, 'wr_14': 0.12, 'obv_2': 0.11, 'roc_2': 0.1}",0.6698412698412698,-1.0,0.6698412698412698,"(1303, 8)",Sell,PFG
298,0.707936507936508,47.1,2018-05-18,"{'macd': 0.14, 'volume': 0.14, 'sod_14': 0.14, 'rsi_14': 0.13, 'macdh': 0.12, 'obv_2': 0.12, 'wr_14': 0.11, 'roc_2': 0.1}",0.707936507936508,-1.0,0.707936507936508,"(1303, 8)",Sell,RNST
299,0.6571428571428571,17.16,2018-05-18,"{'volume': 0.15, 'macd': 0.13, 'macdh': 0.13, 'rsi_14': 0.13, 'sod_14': 0.13, 'obv_2': 0.12, 'wr_14': 0.11, 'roc_2': 0.1}",0.6571428571428571,-1.0,0.6571428571428571,"(1303, 8)",Sell,ROIC
300,0.7047619047619048,19.13,2018-05-18,"{'macd': 0.14, 'volume': 0.14, 'macdh': 0.13, 'rsi_14': 0.13, 'obv_2': 0.12, 'sod_14': 0.12, 'wr_14': 0.11, 'roc_2': 0.1}",0.7047619047619048,-2.0,0.7047619047619048,"(1303, 8)",Strong Sell,SBRA
301,0.746031746031746,157.69,2018-05-18,"{'macd': 0.15, 'sod_14': 0.15, 'volume': 0.13, 'macdh': 0.12, 'rsi_14': 0.12, 'obv_2': 0.11, 'wr_14': 0.11, 'roc_2': 0.1}",0.746031746031746,-2.0,0.746031746031746,"(1303, 8)",Strong Sell,SBAC
302,0.6698412698412698,65.15,2018-05-18,"{'macd': 0.15, 'macdh': 0.14, 'sod_14': 0.14, 'rsi_14': 0.13, 'volume': 0.13, 'obv_2': 0.11, 'wr_14': 0.11, 'roc_2': 0.09}",0.6698412698412698,2.0,0.6698412698412698,"(1303, 8)",Strong Buy,SEIC
303,0.6730158730158731,56.1,2018-05-18,"{'rsi_14': 0.14, 'volume': 0.14, 'sod_14': 0.14, 'macd': 0.13, 'macdh': 0.13, 'obv_2': 0.11, 'roc_2': 0.11, 'wr_14': 0.11}",0.6730158730158731,2.0,0.6730158730158731,"(1303, 8)",Strong Buy,SIGI
304,0.6735537190082644,43.18,2018-05-18,"{'macd': 0.15, 'macdh': 0.14, 'rsi_14': 0.14, 'volume': 0.14, 'sod_14': 0.12, 'obv_2': 0.11, 'roc_2': 0.1, 'wr_14': 0.09}",0.6735537190082644,-2.0,0.6735537190082644,"(1012, 8)",Strong Sell,SFBS
305,0.7904761904761904,129.31,2018-05-18,"{'macd': 0.16, 'macdh': 0.14, 'volume': 0.14, 'sod_14': 0.14, 'rsi_14': 0.13, 'wr_14': 0.11, 'obv_2': 0.1, 'roc_2': 0.09}",0.7904761904761904,-1.0,0.7904761904761904,"(1303, 8)",Sell,SBNY
306,0.7492063492063492,31.1,2018-05-18,"{'macd': 0.15, 'volume': 0.15, 'macdh': 0.13, 'sod_14': 0.13, 'obv_2': 0.12, 'rsi_14': 0.12, 'wr_14': 0.11, 'roc_2': 0.1}",0.7492063492063492,-1.0,0.7492063492063492,"(1303, 8)",Sell,SFNC
307,0.7714285714285715,11.49,2018-05-18,"{'rsi_14': 0.16, 'macd': 0.15, 'macdh': 0.13, 'sod_14': 0.13, 'volume': 0.12, 'wr_14': 0.11, 'obv_2': 0.1, 'roc_2': 0.1}",0.7714285714285715,1.0,0.7714285714285715,"(1303, 8)",Buy,SLM
308,0.7047619047619048,88.7,2018-05-18,"{'macd': 0.15, 'volume': 0.14, 'sod_14': 0.14, 'rsi_14': 0.13, 'macdh': 0.12, 'obv_2': 0.11, 'wr_14': 0.11, 'roc_2': 0.1}",0.7047619047619048,-2.0,0.7047619047619048,"(1303, 8)",Strong Sell,SSB
309,0.7333333333333333,321.78,2018-05-18,"{'macd': 0.14, 'volume': 0.14, 'sod_14': 0.14, 'rsi_14': 0.13, 'macdh': 0.12, 'obv_2': 0.12, 'wr_14': 0.11, 'roc_2': 0.09}",0.7333333333333333,2.0,0.7333333333333333,"(1303, 8)",Strong Buy,SIVB
310,0.7555555555555555,120.59,2018-05-18,"{'sod_14': 0.15, 'rsi_14': 0.14, 'macd': 0.13, 'macdh': 0.13, 'volume': 0.13, 'obv_2': 0.11, 'wr_14': 0.11, 'roc_2': 0.1}",0.7555555555555555,-2.0,0.7555555555555555,"(1303, 8)",Strong Sell,TROW
311,0.6984126984126984,60.69,2018-05-18,"{'macd': 0.14, 'sod_14': 0.14, 'macdh': 0.13, 'rsi_14': 0.13, 'obv_2': 0.12, 'volume': 0.12, 'wr_14': 0.11, 'roc_2': 0.1}",0.6984126984126984,-1.0,0.6984126984126984,"(1304, 8)",Sell,AMTD
312,0.7587301587301587,99.1,2018-05-18,"{'macd': 0.14, 'macdh': 0.14, 'volume': 0.14, 'sod_14': 0.14, 'rsi_14': 0.13, 'obv_2': 0.12, 'wr_14': 0.11, 'roc_2': 0.1}",0.7587301587301587,-1.0,0.7587301587301587,"(1303, 8)",Sell,TCBI
313,0.7333333333333333,15.24,2018-05-18,"{'macd': 0.15, 'volume': 0.15, 'sod_14': 0.15, 'macdh': 0.12, 'obv_2': 0.11, 'rsi_14': 0.11, 'wr_14': 0.11, 'roc_2': 0.1}",0.7333333333333333,-1.0,0.7333333333333333,"(1303, 8)",Sell,TFSL
314,0.6825396825396826,58.75,2018-05-18,"{'macdh': 0.15, 'macd': 0.14, 'sod_14': 0.14, 'rsi_14': 0.13, 'volume': 0.12, 'wr_14': 0.11, 'obv_2': 0.1, 'roc_2': 0.1}",0.6825396825396826,1.0,0.6825396825396826,"(1303, 8)",Buy,NAVG
315,0.6603174603174603,32.4,2018-05-18,"{'sod_14': 0.14, 'macd': 0.13, 'macdh': 0.13, 'volume': 0.13, 'roc_2': 0.12, 'rsi_14': 0.12, 'wr_14': 0.12, 'obv_2': 0.11}",0.6603174603174603,-2.0,0.6603174603174603,"(1303, 8)",Strong Sell,TRMK
316,0.7238095238095238,78.66,2018-05-18,"{'macd': 0.14, 'macdh': 0.13, 'rsi_14': 0.13, 'volume': 0.13, 'sod_14': 0.13, 'obv_2': 0.12, 'wr_14': 0.11, 'roc_2': 0.1}",0.7238095238095238,-1.0,0.7238095238095238,"(1303, 8)",Sell,UMBF
317,0.7365079365079366,23.65,2018-05-18,"{'macd': 0.15, 'macdh': 0.13, 'rsi_14': 0.13, 'volume': 0.13, 'sod_14': 0.13, 'obv_2': 0.11, 'roc_2': 0.11, 'wr_14': 0.11}",0.7365079365079366,-1.0,0.7365079365079366,"(1303, 8)",Sell,UMPQ
318,0.7746031746031746,35.9,2018-05-18,"{'macd': 0.15, 'volume': 0.15, 'sod_14': 0.14, 'macdh': 0.12, 'obv_2': 0.12, 'rsi_14': 0.12, 'wr_14': 0.11, 'roc_2': 0.1}",0.7746031746031746,-2.0,0.7746031746031746,"(1303, 8)",Strong Sell,UBSI
319,0.7015873015873015,33.16,2018-05-18,"{'macd': 0.14, 'macdh': 0.14, 'volume': 0.14, 'rsi_14': 0.13, 'sod_14': 0.13, 'wr_14': 0.11, 'obv_2': 0.1, 'roc_2': 0.1}",0.7015873015873015,-2.0,0.7015873015873015,"(1303, 8)",Strong Sell,UCBI
320,0.7336956521739131,20.04,2018-05-18,"{'macd': 0.16, 'volume': 0.16, 'rsi_14': 0.13, 'macdh': 0.12, 'sod_14': 0.12, 'obv_2': 0.11, 'wr_14': 0.1, 'roc_2': 0.09}",0.7336956521739131,1.0,0.7336956521739131,"(778, 8)",Buy,UNIT
321,0.780952380952381,32.2,2018-05-18,"{'macd': 0.15, 'sod_14': 0.15, 'volume': 0.14, 'macdh': 0.13, 'rsi_14': 0.12, 'obv_2': 0.11, 'wr_14': 0.11, 'roc_2': 0.1}",0.780952380952381,1.0,0.780952380952381,"(1303, 8)",Buy,WAFD
322,0.7333333333333333,57.27,2018-05-18,"{'macd': 0.15, 'macdh': 0.14, 'volume': 0.14, 'rsi_14': 0.13, 'sod_14': 0.12, 'obv_2': 0.11, 'roc_2': 0.11, 'wr_14': 0.11}",0.7333333333333333,1.0,0.7333333333333333,"(1303, 8)",Buy,WABC
323,0.7050359712230215,154.31,2018-05-18,"{'macd': 0.17, 'volume': 0.15, 'macdh': 0.13, 'obv_2': 0.12, 'sod_14': 0.12, 'rsi_14': 0.11, 'roc_2': 0.1, 'wr_14': 0.1}",0.7050359712230215,-1.0,0.7050359712230215,"(598, 8)",Sell,WLTW
324,0.6888888888888889,94.05,2018-05-18,"{'macd': 0.16, 'macdh': 0.13, 'rsi_14': 0.13, 'sod_14': 0.13, 'volume': 0.12, 'obv_2': 0.11, 'roc_2': 0.11, 'wr_14': 0.11}",0.6888888888888889,-2.0,0.6888888888888889,"(1303, 8)",Strong Sell,WTFC
325,0.7142857142857143,11.59,2018-05-18,"{'macd': 0.14, 'macdh': 0.14, 'volume': 0.14, 'sod_14': 0.14, 'rsi_14': 0.13, 'wr_14': 0.11, 'obv_2': 0.1, 'roc_2': 0.1}",0.7142857142857143,1.0,0.7142857142857143,"(1303, 8)",Buy,WETF
326,0.8,51.66,2018-05-18,"{'macd': 0.15, 'volume': 0.15, 'macdh': 0.14, 'rsi_14': 0.13, 'sod_14': 0.13, 'obv_2': 0.11, 'wr_14': 0.1, 'roc_2': 0.09}",0.8,2.0,0.8,"(1303, 8)",Strong Buy,ZG
327,0.7111111111111111,57.77,2018-05-18,"{'macd': 0.14, 'macdh': 0.14, 'volume': 0.14, 'sod_14': 0.14, 'rsi_14': 0.13, 'obv_2': 0.1, 'roc_2': 0.1, 'wr_14': 0.1}",0.7111111111111111,2.0,0.7111111111111111,"(1303, 8)",Strong Buy,ZION
