,accuracy,close,date,features,precision,prediction,recall,shape,signal,symbol
0,0.822742474916388,186.31,2018-05-18,"{'volume': 0.16, 'macd': 0.14, 'macdh': 0.14, 'rsi_14': 0.12, 'sod_14': 0.12, 'obv_2': 0.11, 'wr_14': 0.11, 'roc_2': 0.09}",0.822742474916388,-2.0,0.822742474916388,"(1304, 8)",Strong Sell,AAPL
1,0.8361204013377926,100.99,2018-05-18,"{'macd': 0.17, 'rsi_14': 0.14, 'volume': 0.14, 'macdh': 0.13, 'sod_14': 0.12, 'obv_2': 0.1, 'roc_2': 0.1, 'wr_14': 0.09}",0.8361204013377926,-1.0,0.8361204013377926,"(1304, 8)",Sell,AXP
2,0.8695652173913043,351.23,2018-05-18,"{'macd': 0.17, 'sod_14': 0.16, 'rsi_14': 0.14, 'macdh': 0.13, 'volume': 0.13, 'obv_2': 0.09, 'wr_14': 0.09, 'roc_2': 0.07}",0.8695652173913043,1.0,0.8695652173913043,"(1304, 8)",Buy,BA
3,0.7926421404682275,155.71,2018-05-18,"{'macd': 0.16, 'rsi_14': 0.14, 'volume': 0.14, 'macdh': 0.13, 'sod_14': 0.13, 'obv_2': 0.11, 'wr_14': 0.11, 'roc_2': 0.09}",0.7926421404682275,-2.0,0.7926421404682275,"(1303, 8)",Strong Sell,CAT
4,0.8193979933110368,43.21,2018-05-18,"{'sod_14': 0.15, 'macd': 0.14, 'volume': 0.14, 'macdh': 0.13, 'rsi_14': 0.13, 'obv_2': 0.1, 'wr_14': 0.1, 'roc_2': 0.09}",0.8193979933110368,-1.0,0.8193979933110368,"(1303, 8)",Sell,CSCO
5,0.7692307692307693,127.86,2018-05-18,"{'volume': 0.16, 'sod_14': 0.14, 'macd': 0.13, 'macdh': 0.13, 'rsi_14': 0.13, 'obv_2': 0.12, 'wr_14': 0.11, 'roc_2': 0.09}",0.7692307692307693,-2.0,0.7692307692307693,"(1303, 8)",Strong Sell,CVX
6,0.802675585284281,103.93,2018-05-18,"{'macd': 0.17, 'macdh': 0.15, 'rsi_14': 0.14, 'sod_14': 0.13, 'volume': 0.11, 'wr_14': 0.11, 'obv_2': 0.1, 'roc_2': 0.08}",0.802675585284281,2.0,0.802675585284281,"(1303, 8)",Strong Buy,DIS
7,0.7993311036789298,14.97,2018-05-18,"{'macd': 0.17, 'volume': 0.14, 'rsi_14': 0.13, 'sod_14': 0.13, 'macdh': 0.12, 'obv_2': 0.11, 'roc_2': 0.1, 'wr_14': 0.1}",0.7993311036789298,-1.0,0.7993311036789298,"(1303, 8)",Sell,GE
8,0.7357859531772575,237.0,2018-05-18,"{'rsi_14': 0.15, 'macd': 0.14, 'macdh': 0.14, 'sod_14': 0.14, 'volume': 0.13, 'obv_2': 0.11, 'wr_14': 0.1, 'roc_2': 0.09}",0.7357859531772575,2.0,0.7357859531772575,"(1303, 8)",Strong Buy,GS
9,0.7123745819397993,187.42,2018-05-18,"{'macd': 0.15, 'rsi_14': 0.15, 'volume': 0.14, 'macdh': 0.13, 'sod_14': 0.13, 'obv_2': 0.11, 'wr_14': 0.1, 'roc_2': 0.09}",0.7123745819397993,-2.0,0.7123745819397993,"(1303, 8)",Strong Sell,HD
10,0.7892976588628763,144.08,2018-05-18,"{'macd': 0.14, 'macdh': 0.14, 'rsi_14': 0.14, 'volume': 0.13, 'sod_14': 0.13, 'wr_14': 0.11, 'obv_2': 0.1, 'roc_2': 0.1}",0.7892976588628763,2.0,0.7892976588628763,"(1303, 8)",Strong Buy,IBM
11,0.8060200668896321,53.5,2018-05-18,"{'macd': 0.16, 'macdh': 0.15, 'sod_14': 0.14, 'rsi_14': 0.13, 'volume': 0.13, 'wr_14': 0.11, 'obv_2': 0.1, 'roc_2': 0.09}",0.8060200668896321,-2.0,0.8060200668896321,"(1303, 8)",Strong Sell,INTC
12,0.7792642140468228,124.24,2018-05-18,"{'macd': 0.14, 'macdh': 0.14, 'rsi_14': 0.14, 'sod_14': 0.14, 'volume': 0.12, 'obv_2': 0.11, 'wr_14': 0.11, 'roc_2': 0.1}",0.7792642140468228,-1.0,0.7792642140468228,"(1303, 8)",Sell,JNJ
13,0.6789297658862876,111.13,2018-05-18,"{'sod_14': 0.16, 'macd': 0.15, 'macdh': 0.13, 'rsi_14': 0.13, 'volume': 0.13, 'obv_2': 0.11, 'wr_14': 0.1, 'roc_2': 0.09}",0.6789297658862876,2.0,0.6789297658862876,"(1303, 8)",Strong Buy,JPM
14,0.7324414715719063,42.18,2018-05-18,"{'sod_14': 0.16, 'macd': 0.14, 'rsi_14': 0.14, 'volume': 0.13, 'macdh': 0.12, 'roc_2': 0.11, 'wr_14': 0.11, 'obv_2': 0.1}",0.7324414715719063,-1.0,0.7324414715719063,"(1303, 8)",Sell,KO
15,0.7759197324414716,160.98,2018-05-18,"{'macd': 0.15, 'sod_14': 0.15, 'macdh': 0.14, 'rsi_14': 0.14, 'volume': 0.13, 'obv_2': 0.1, 'wr_14': 0.1, 'roc_2': 0.08}",0.7759197324414716,2.0,0.7759197324414716,"(1303, 8)",Strong Buy,MCD
16,0.7625418060200669,198.96,2018-05-18,"{'macd': 0.16, 'sod_14': 0.14, 'macdh': 0.13, 'rsi_14': 0.13, 'volume': 0.12, 'obv_2': 0.11, 'roc_2': 0.1, 'wr_14': 0.1}",0.7625418060200669,2.0,0.7625418060200669,"(1303, 8)",Strong Buy,MMM
17,0.7157190635451505,59.14,2018-05-18,"{'sod_14': 0.16, 'macdh': 0.14, 'rsi_14': 0.13, 'volume': 0.13, 'macd': 0.12, 'obv_2': 0.11, 'wr_14': 0.11, 'roc_2': 0.1}",0.7157190635451505,1.0,0.7157190635451505,"(1303, 8)",Buy,MRK
18,0.6711864406779661,96.36,2018-05-18,"{'macd': 0.13, 'macdh': 0.13, 'obv_2': 0.13, 'rsi_14': 0.13, 'volume': 0.13, 'sod_14': 0.13, 'wr_14': 0.11, 'roc_2': 0.1}",0.6711864406779661,2.0,0.6711864406779661,"(1287, 8)",Strong Buy,MSFT
19,0.802675585284281,71.32,2018-05-18,"{'macd': 0.14, 'rsi_14': 0.14, 'volume': 0.14, 'sod_14': 0.14, 'macdh': 0.13, 'obv_2': 0.11, 'wr_14': 0.11, 'roc_2': 0.09}",0.802675585284281,-1.0,0.802675585284281,"(1303, 8)",Sell,NKE
20,0.7892976588628763,35.64,2018-05-18,"{'macd': 0.14, 'rsi_14': 0.14, 'volume': 0.14, 'sod_14': 0.14, 'macdh': 0.13, 'obv_2': 0.11, 'wr_14': 0.1, 'roc_2': 0.09}",0.7892976588628763,1.0,0.7892976588628763,"(1303, 8)",Buy,PFE
21,0.7324414715719063,73.45,2018-05-18,"{'macd': 0.16, 'volume': 0.14, 'macdh': 0.13, 'rsi_14': 0.13, 'sod_14': 0.13, 'wr_14': 0.11, 'obv_2': 0.1, 'roc_2': 0.1}",0.7324414715719063,-2.0,0.7324414715719063,"(1303, 8)",Strong Sell,PG
22,0.68561872909699,129.85,2018-05-18,"{'macd': 0.15, 'macdh': 0.14, 'rsi_14': 0.14, 'sod_14': 0.14, 'volume': 0.12, 'wr_14': 0.12, 'obv_2': 0.1, 'roc_2': 0.09}",0.68561872909699,2.0,0.68561872909699,"(1303, 8)",Strong Buy,TRV
23,0.6789297658862876,244.64,2018-05-18,"{'macd': 0.15, 'volume': 0.14, 'sod_14': 0.14, 'macdh': 0.12, 'obv_2': 0.12, 'rsi_14': 0.12, 'wr_14': 0.11, 'roc_2': 0.1}",0.6789297658862876,1.0,0.6789297658862876,"(1303, 8)",Buy,UNH
24,0.725752508361204,125.19,2018-05-18,"{'macd': 0.17, 'sod_14': 0.15, 'rsi_14': 0.14, 'volume': 0.13, 'macdh': 0.12, 'obv_2': 0.11, 'wr_14': 0.1, 'roc_2': 0.09}",0.725752508361204,1.0,0.725752508361204,"(1303, 8)",Buy,UTX
25,0.7324414715719063,129.93,2018-05-18,"{'macd': 0.15, 'macdh': 0.14, 'rsi_14': 0.13, 'volume': 0.13, 'sod_14': 0.13, 'obv_2': 0.11, 'roc_2': 0.11, 'wr_14': 0.11}",0.7324414715719063,-1.0,0.7324414715719063,"(1303, 8)",Sell,V
26,0.7658862876254181,47.74,2018-05-18,"{'macdh': 0.14, 'rsi_14': 0.14, 'volume': 0.14, 'macd': 0.13, 'sod_14': 0.13, 'obv_2': 0.11, 'wr_14': 0.11, 'roc_2': 0.1}",0.7658862876254181,-2.0,0.7658862876254181,"(1303, 8)",Strong Sell,VZ
27,0.7892976588628763,83.64,2018-05-18,"{'macd': 0.14, 'macdh': 0.14, 'volume': 0.14, 'sod_14': 0.14, 'rsi_14': 0.13, 'wr_14': 0.11, 'obv_2': 0.1, 'roc_2': 0.08}",0.7892976588628763,2.0,0.7892976588628763,"(1303, 8)",Strong Buy,WMT
28,0.7558528428093646,81.3,2018-05-18,"{'macd': 0.15, 'volume': 0.15, 'sod_14': 0.14, 'macdh': 0.13, 'rsi_14': 0.13, 'obv_2': 0.11, 'wr_14': 0.1, 'roc_2': 0.09}",0.7558528428093646,2.0,0.7558528428093646,"(1303, 8)",Strong Buy,XOM
29,0.7792642140468228,4.14,2018-05-18,"{'sod_14': 0.16, 'volume': 0.15, 'macd': 0.14, 'rsi_14': 0.13, 'macdh': 0.12, 'obv_2': 0.11, 'wr_14': 0.1, 'roc_2': 0.09}",0.7792642140468228,1.0,0.7792642140468228,"(1303, 8)",Buy,III
30,0.782608695652174,45.02,2018-05-18,"{'volume': 0.15, 'macd': 0.14, 'sod_14': 0.14, 'macdh': 0.13, 'rsi_14': 0.13, 'obv_2': 0.11, 'wr_14': 0.11, 'roc_2': 0.09}",0.782608695652174,1.0,0.782608695652174,"(1304, 8)",Buy,ADM
31,0.7993311036789298,43.38,2018-05-18,"{'macd': 0.16, 'volume': 0.15, 'sod_14': 0.14, 'macdh': 0.13, 'rsi_14': 0.12, 'obv_2': 0.11, 'wr_14': 0.1, 'roc_2': 0.09}",0.7993311036789298,1.0,0.7993311036789298,"(1304, 8)",Buy,AAL
32,0.7993311036789298,6.87,2018-05-18,"{'macd': 0.14, 'volume': 0.14, 'macdh': 0.13, 'rsi_14': 0.13, 'sod_14': 0.13, 'obv_2': 0.11, 'roc_2': 0.11, 'wr_14': 0.11}",0.7993311036789298,-1.0,0.7993311036789298,"(1304, 8)",Sell,AHT
33,0.7661016949152543,36.33,2018-05-18,"{'macd': 0.14, 'rsi_14': 0.14, 'sod_14': 0.14, 'volume': 0.13, 'macdh': 0.12, 'obv_2': 0.12, 'wr_14': 0.11, 'roc_2': 0.1}",0.7661016949152543,-2.0,0.7661016949152543,"(1287, 8)",Strong Sell,AZN
34,0.8695652173913043,351.23,2018-05-18,"{'macd': 0.17, 'sod_14': 0.16, 'rsi_14': 0.14, 'macdh': 0.13, 'volume': 0.13, 'obv_2': 0.09, 'wr_14': 0.09, 'roc_2': 0.07}",0.8695652173913043,1.0,0.8695652173913043,"(1304, 8)",Buy,BA
35,0.725752508361204,47.38,2018-05-18,"{'volume': 0.15, 'macd': 0.14, 'rsi_14': 0.14, 'macdh': 0.13, 'sod_14': 0.13, 'obv_2': 0.12, 'roc_2': 0.1, 'wr_14': 0.1}",0.725752508361204,1.0,0.725752508361204,"(1304, 8)",Buy,BP
36,0.7692307692307693,64.84,2018-05-18,"{'sod_14': 0.17, 'rsi_14': 0.14, 'macd': 0.13, 'macdh': 0.13, 'wr_14': 0.12, 'volume': 0.11, 'obv_2': 0.1, 'roc_2': 0.1}",0.7692307692307693,-2.0,0.7692307692307693,"(1303, 8)",Strong Sell,CCL
37,0.7993311036789298,49.27,2018-05-18,"{'volume': 0.15, 'macd': 0.14, 'macdh': 0.14, 'sod_14': 0.14, 'rsi_14': 0.13, 'obv_2': 0.11, 'wr_14': 0.1, 'roc_2': 0.09}",0.7993311036789298,-1.0,0.7993311036789298,"(1303, 8)",Sell,CNA
38,0.8791946308724832,8.49,2018-05-18,"{'volume': 0.2, 'sod_14': 0.15, 'macd': 0.12, 'macdh': 0.12, 'obv_2': 0.12, 'rsi_14': 0.11, 'roc_2': 0.08, 'wr_14': 0.08}",0.8791946308724832,1.0,0.8791946308724832,"(1302, 8)",Buy,CPG
39,0.822742474916388,37.73,2018-05-18,"{'sod_14': 0.17, 'macd': 0.14, 'volume': 0.14, 'macdh': 0.12, 'obv_2': 0.11, 'rsi_14': 0.11, 'wr_14': 0.11, 'roc_2': 0.1}",0.822742474916388,1.0,0.822742474916388,"(1303, 8)",Buy,CRH
40,0.7681660899653979,131.37,2018-05-18,"{'volume': 0.19, 'sod_14': 0.15, 'obv_2': 0.13, 'macd': 0.12, 'rsi_14': 0.12, 'macdh': 0.11, 'roc_2': 0.1, 'wr_14': 0.09}",0.7681660899653979,2.0,0.7681660899653979,"(1264, 8)",Strong Buy,EZJ
41,0.7224080267558528,108.25,2018-05-18,"{'macd': 0.14, 'macdh': 0.14, 'rsi_14': 0.14, 'sod_14': 0.14, 'volume': 0.13, 'obv_2': 0.11, 'wr_14': 0.11, 'roc_2': 0.09}",0.7224080267558528,-1.0,0.7224080267558528,"(1303, 8)",Sell,EVR
42,0.7525083612040134,40.03,2018-05-18,"{'macd': 0.15, 'rsi_14': 0.14, 'volume': 0.14, 'sod_14': 0.14, 'macdh': 0.12, 'obv_2': 0.11, 'wr_14': 0.11, 'roc_2': 0.09}",0.7525083612040134,-2.0,0.7525083612040134,"(1303, 8)",Strong Sell,GSK
43,0.782608695652174,3.96,2018-05-18,"{'volume': 0.16, 'macd': 0.15, 'sod_14': 0.14, 'macdh': 0.13, 'obv_2': 0.12, 'rsi_14': 0.11, 'wr_14': 0.1, 'roc_2': 0.09}",0.782608695652174,-2.0,0.782608695652174,"(1303, 8)",Strong Sell,HL
44,0.862876254180602,12.25,2018-05-18,"{'rsi_14': 0.16, 'sod_14': 0.15, 'macd': 0.14, 'volume': 0.14, 'macdh': 0.13, 'obv_2': 0.11, 'wr_14': 0.1, 'roc_2': 0.08}",0.862876254180602,-1.0,0.862876254180602,"(1303, 8)",Sell,INF
45,0.7658862876254181,65.23,2018-05-18,"{'macd': 0.17, 'sod_14': 0.15, 'macdh': 0.13, 'rsi_14': 0.13, 'volume': 0.12, 'wr_14': 0.11, 'obv_2': 0.1, 'roc_2': 0.1}",0.7658862876254181,2.0,0.7658862876254181,"(1303, 8)",Strong Buy,IHG
46,0.7391304347826086,6.01,2018-05-18,"{'volume': 0.15, 'macd': 0.14, 'sod_14': 0.13, 'macdh': 0.12, 'obv_2': 0.12, 'rsi_14': 0.12, 'wr_14': 0.11, 'roc_2': 0.1}",0.7391304347826086,2.0,0.7391304347826086,"(1303, 8)",Strong Buy,IAG
47,0.7759197324414716,3.6,2018-05-18,"{'volume': 0.15, 'macd': 0.14, 'rsi_14': 0.14, 'macdh': 0.13, 'sod_14': 0.13, 'obv_2': 0.12, 'wr_14': 0.11, 'roc_2': 0.09}",0.7759197324414716,1.0,0.7759197324414716,"(1303, 8)",Buy,JE
48,0.7792642140468228,12.72,2018-05-18,"{'volume': 0.16, 'macd': 0.15, 'sod_14': 0.14, 'rsi_14': 0.13, 'macdh': 0.12, 'obv_2': 0.11, 'wr_14': 0.1, 'roc_2': 0.09}",0.7792642140468228,-1.0,0.7792642140468228,"(1303, 8)",Sell,LAND
49,0.6956521739130435,30.55,2018-05-18,"{'volume': 0.17, 'sod_14': 0.14, 'macd': 0.12, 'macdh': 0.12, 'obv_2': 0.12, 'rsi_14': 0.12, 'wr_14': 0.11, 'roc_2': 0.1}",0.6956521739130435,-2.0,0.6956521739130435,"(1303, 8)",Strong Sell,MDC
50,0.8060200668896321,21.41,2018-05-18,"{'volume': 0.18, 'macdh': 0.14, 'macd': 0.13, 'obv_2': 0.13, 'sod_14': 0.13, 'rsi_14': 0.12, 'wr_14': 0.1, 'roc_2': 0.08}",0.8060200668896321,-1.0,0.8060200668896321,"(1303, 8)",Sell,MRO
51,0.794425087108014,26.4806,2018-05-18,"{'volume': 0.15, 'macd': 0.14, 'sod_14': 0.14, 'macdh': 0.13, 'rsi_14': 0.12, 'wr_14': 0.12, 'obv_2': 0.1, 'roc_2': 0.08}",0.794425087108014,-1.0,0.794425087108014,"(1258, 8)",Sell,MCRO
52,0.7692307692307693,4.83,2018-05-18,"{'macd': 0.15, 'rsi_14': 0.14, 'volume': 0.13, 'sod_14': 0.13, 'macdh': 0.12, 'obv_2': 0.11, 'wr_14': 0.11, 'roc_2': 0.09}",0.7692307692307693,-2.0,0.7692307692307693,"(1303, 8)",Strong Sell,NG
53,0.7324414715719063,102.43,2018-05-18,"{'sod_14': 0.15, 'macd': 0.14, 'macdh': 0.14, 'volume': 0.14, 'rsi_14': 0.13, 'obv_2': 0.1, 'wr_14': 0.1, 'roc_2': 0.09}",0.7324414715719063,-2.0,0.7324414715719063,"(1303, 8)",Strong Sell,PRU
54,0.7692307692307693,58.41,2018-05-18,"{'macd': 0.16, 'volume': 0.15, 'sod_14': 0.15, 'rsi_14': 0.12, 'macdh': 0.11, 'obv_2': 0.11, 'wr_14': 0.11, 'roc_2': 0.09}",0.7692307692307693,1.0,0.7692307692307693,"(1303, 8)",Buy,RIO
55,0.7759197324414716,7.92,2018-05-18,"{'volume': 0.16, 'macd': 0.15, 'rsi_14': 0.13, 'sod_14': 0.13, 'macdh': 0.12, 'obv_2': 0.12, 'wr_14': 0.1, 'roc_2': 0.09}",0.7759197324414716,1.0,0.7759197324414716,"(1303, 8)",Buy,RBS
56,0.8093645484949833,1.38,2018-05-18,"{'macd': 0.16, 'sod_14': 0.14, 'rsi_14': 0.13, 'volume': 0.13, 'macdh': 0.12, 'wr_14': 0.12, 'obv_2': 0.11, 'roc_2': 0.09}",0.8093645484949833,1.0,0.8093645484949833,"(1303, 8)",Buy,SDR
57,0.7543859649122807,9.125,2018-05-18,"{'volume': 0.15, 'sod_14': 0.15, 'macd': 0.14, 'macdh': 0.13, 'rsi_14': 0.13, 'wr_14': 0.11, 'obv_2': 0.1, 'roc_2': 0.09}",0.7543859649122807,-2.0,0.7543859649122807,"(1250, 8)",Strong Sell,SVT
58,0.8561872909698997,29.62,2018-05-18,"{'sod_14': 0.16, 'macd': 0.14, 'volume': 0.14, 'macdh': 0.13, 'rsi_14': 0.12, 'obv_2': 0.11, 'wr_14': 0.11, 'roc_2': 0.09}",0.8561872909698997,1.0,0.8561872909698997,"(1303, 8)",Buy,SKY
59,0.8461538461538461,3.96,2018-05-18,"{'volume': 0.19, 'macd': 0.18, 'macdh': 0.14, 'rsi_14': 0.13, 'sod_14': 0.11, 'obv_2': 0.09, 'roc_2': 0.08, 'wr_14': 0.08}",0.8461538461538461,-1.0,0.8461538461538461,"(1303, 8)",Sell,SN
60,0.8041237113402062,45.3,2018-05-18,"{'volume': 0.18, 'macd': 0.14, 'sod_14': 0.13, 'macdh': 0.12, 'obv_2': 0.12, 'rsi_14': 0.12, 'wr_14': 0.11, 'roc_2': 0.08}",0.8041237113402062,-1.0,0.8041237113402062,"(1273, 8)",Sell,SMIN
61,0.7658862876254181,72.82,2018-05-18,"{'macd': 0.17, 'macdh': 0.14, 'rsi_14': 0.14, 'sod_14': 0.14, 'volume': 0.13, 'obv_2': 0.1, 'wr_14': 0.1, 'roc_2': 0.08}",0.7658862876254181,-2.0,0.7658862876254181,"(1303, 8)",Strong Sell,TSCO
62,0.8294314381270903,26.41,2018-05-18,"{'macd': 0.17, 'macdh': 0.14, 'rsi_14': 0.14, 'sod_14': 0.14, 'volume': 0.12, 'obv_2': 0.11, 'wr_14': 0.11, 'roc_2': 0.08}",0.8294314381270903,-2.0,0.8294314381270903,"(1303, 8)",Strong Sell,VOD
63,0.7157190635451505,89.19,2018-05-18,"{'volume': 0.16, 'macd': 0.14, 'macdh': 0.14, 'sod_14': 0.13, 'obv_2': 0.11, 'rsi_14': 0.11, 'wr_14': 0.11, 'roc_2': 0.1}",0.7157190635451505,1.0,0.7157190635451505,"(1303, 8)",Buy,WPP
64,0.7591973244147158,46.74,2018-05-18,"{'volume': 0.2, 'obv_2': 0.14, 'macd': 0.13, 'sod_14': 0.13, 'macdh': 0.12, 'rsi_14': 0.1, 'roc_2': 0.09, 'wr_14': 0.09}",0.7591973244147158,2.0,0.7591973244147158,"(1303, 8)",Strong Buy,ALFA
65,0.816,51.47,2018-05-18,"{'volume': 0.17, 'sod_14': 0.15, 'macd': 0.12, 'macdh': 0.12, 'rsi_14': 0.12, 'obv_2': 0.11, 'wr_14': 0.1, 'roc_2': 0.09}",0.816,1.0,0.816,"(609, 8)",Buy,AGR
66,0.7892976588628763,3.74,2018-05-18,"{'volume': 0.16, 'macd': 0.15, 'rsi_14': 0.14, 'sod_14': 0.14, 'macdh': 0.13, 'obv_2': 0.1, 'wr_14': 0.1, 'roc_2': 0.08}",0.7892976588628763,-2.0,0.7892976588628763,"(1304, 8)",Strong Sell,AUTO
67,0.725752508361204,36.15,2018-05-18,"{'volume': 0.16, 'sod_14': 0.16, 'macd': 0.13, 'macdh': 0.13, 'rsi_14': 0.12, 'obv_2': 0.11, 'roc_2': 0.09, 'wr_14': 0.09}",0.725752508361204,1.0,0.725752508361204,"(1304, 8)",Buy,BME
68,0.7892976588628763,29.4,2018-05-18,"{'macd': 0.15, 'rsi_14': 0.14, 'volume': 0.14, 'sod_14': 0.14, 'macdh': 0.12, 'wr_14': 0.11, 'obv_2': 0.1, 'roc_2': 0.09}",0.7892976588628763,-2.0,0.7892976588628763,"(1304, 8)",Strong Sell,BAB
69,0.7357859531772575,78.25,2018-05-18,"{'macd': 0.16, 'rsi_14': 0.14, 'volume': 0.14, 'sod_14': 0.13, 'macdh': 0.12, 'obv_2': 0.11, 'wr_14': 0.1, 'roc_2': 0.09}",0.7357859531772575,-1.0,0.7357859531772575,"(1304, 8)",Sell,BBY
70,0.7391304347826086,2.69,2018-05-18,"{'volume': 0.17, 'sod_14': 0.14, 'macd': 0.13, 'rsi_14': 0.13, 'macdh': 0.12, 'obv_2': 0.11, 'roc_2': 0.1, 'wr_14': 0.1}",0.7391304347826086,2.0,0.7391304347826086,"(1304, 8)",Strong Buy,BTG
71,0.7220338983050848,27.6225,2018-05-18,"{'macd': 0.14, 'macdh': 0.14, 'sod_14': 0.14, 'rsi_14': 0.12, 'volume': 0.12, 'obv_2': 0.11, 'roc_2': 0.11, 'wr_14': 0.11}",0.7220338983050848,-1.0,0.7220338983050848,"(1290, 8)",Sell,CPI
72,0.8745644599303136,20.64,2018-05-18,"{'volume': 0.17, 'macd': 0.15, 'rsi_14': 0.15, 'macdh': 0.12, 'sod_14': 0.11, 'obv_2': 0.1, 'roc_2': 0.09, 'wr_14': 0.09}",0.8745644599303136,-1.0,0.8745644599303136,"(1256, 8)",Sell,CTY
73,0.7465277777777778,47.31,2018-03-19,"{'macd': 0.14, 'volume': 0.14, 'macdh': 0.13, 'sod_14': 0.13, 'obv_2': 0.12, 'rsi_14': 0.12, 'wr_14': 0.12, 'roc_2': 0.09}",0.7465277777777778,-2.0,0.7465277777777778,"(1260, 8)",Strong Sell,CBG
74,0.725752508361204,17.51,2018-05-18,"{'macd': 0.16, 'volume': 0.14, 'sod_14': 0.14, 'macdh': 0.12, 'rsi_14': 0.12, 'obv_2': 0.11, 'roc_2': 0.11, 'wr_14': 0.11}",0.725752508361204,1.0,0.725752508361204,"(1303, 8)",Buy,CLI
75,0.7247386759581882,21.5,2018-03-08,"{'sod_14': 0.16, 'macd': 0.13, 'macdh': 0.13, 'rsi_14': 0.13, 'volume': 0.13, 'obv_2': 0.12, 'wr_14': 0.11, 'roc_2': 0.09}",0.7247386759581882,2.0,0.7247386759581882,"(1258, 8)",Strong Buy,CCC
76,0.7759197324414716,10.89,2018-05-18,"{'macd': 0.15, 'rsi_14': 0.15, 'macdh': 0.13, 'volume': 0.13, 'sod_14': 0.13, 'obv_2': 0.11, 'wr_14': 0.1, 'roc_2': 0.09}",0.7759197324414716,-2.0,0.7759197324414716,"(1303, 8)",Strong Sell,GLO
77,0.7123745819397993,90.08,2018-05-18,"{'macd': 0.15, 'rsi_14': 0.15, 'macdh': 0.13, 'sod_14': 0.13, 'volume': 0.12, 'wr_14': 0.11, 'obv_2': 0.1, 'roc_2': 0.1}",0.7123745819397993,2.0,0.7123745819397993,"(1303, 8)",Strong Buy,DLN
78,0.7491638795986622,25.97,2018-05-18,"{'macd': 0.14, 'rsi_14': 0.14, 'volume': 0.14, 'macdh': 0.13, 'wr_14': 0.12, 'sod_14': 0.12, 'obv_2': 0.11, 'roc_2': 0.1}",0.7491638795986622,-2.0,0.7491638795986622,"(1303, 8)",Strong Sell,ETO
79,0.8146718146718147,35.54,2018-05-18,"{'macd': 0.15, 'rsi_14': 0.14, 'sod_14': 0.14, 'macdh': 0.13, 'volume': 0.13, 'wr_14': 0.12, 'obv_2': 0.11, 'roc_2': 0.09}",0.8146718146718147,1.0,0.8146718146718147,"(1145, 8)",Buy,ESNT
80,0.7804878048780488,22.04,2018-05-18,"{'macdh': 0.17, 'macd': 0.16, 'volume': 0.15, 'sod_14': 0.14, 'obv_2': 0.11, 'rsi_14': 0.11, 'roc_2': 0.08, 'wr_14': 0.08}",0.7804878048780488,-1.0,0.7804878048780488,"(273, 8)",Sell,ERM
81,0.917910447761194,22.06,2018-05-18,"{'volume': 0.22, 'sod_14': 0.14, 'macd': 0.12, 'obv_2': 0.12, 'macdh': 0.11, 'roc_2': 0.1, 'rsi_14': 0.1, 'wr_14': 0.09}",0.917910447761194,-2.0,0.917910447761194,"(643, 8)",Strong Sell,FCPT
82,0.7324414715719063,50.03,2018-05-18,"{'macd': 0.15, 'volume': 0.15, 'rsi_14': 0.14, 'sod_14': 0.13, 'macdh': 0.12, 'obv_2': 0.12, 'wr_14': 0.11, 'roc_2': 0.09}",0.7324414715719063,-2.0,0.7324414715719063,"(1303, 8)",Strong Sell,FDM
83,0.8561872909698997,3.73,2018-05-18,"{'macd': 0.16, 'sod_14': 0.15, 'volume': 0.14, 'macdh': 0.12, 'rsi_14': 0.12, 'obv_2': 0.11, 'wr_14': 0.11, 'roc_2': 0.09}",0.8561872909698997,2.0,0.8561872909698997,"(1303, 8)",Strong Buy,FGP
84,0.8319327731092437,31.25,2018-05-18,"{'rsi_14': 0.16, 'sod_14': 0.16, 'macd': 0.14, 'volume': 0.13, 'macdh': 0.12, 'obv_2': 0.11, 'wr_14': 0.1, 'roc_2': 0.09}",0.8319327731092437,2.0,0.8319327731092437,"(584, 8)",Strong Buy,GCP
85,0.8327759197324415,0.7047,2018-05-18,"{'volume': 0.18, 'sod_14': 0.14, 'macd': 0.13, 'macdh': 0.13, 'rsi_14': 0.13, 'obv_2': 0.1, 'wr_14': 0.1, 'roc_2': 0.09}",0.8327759197324415,-1.0,0.8327759197324415,"(1303, 8)",Sell,GSS
86,0.7725752508361204,10.65,2018-05-18,"{'volume': 0.15, 'sod_14': 0.14, 'macd': 0.13, 'macdh': 0.13, 'obv_2': 0.13, 'rsi_14': 0.12, 'wr_14': 0.11, 'roc_2': 0.1}",0.7725752508361204,-1.0,0.7725752508361204,"(1303, 8)",Sell,GPOR
87,0.7357859531772575,42.7053,2018-05-18,"{'macd': 0.14, 'macdh': 0.13, 'rsi_14': 0.13, 'volume': 0.13, 'obv_2': 0.12, 'sod_14': 0.12, 'wr_14': 0.11, 'roc_2': 0.1}",0.7357859531772575,1.0,0.7357859531772575,"(1303, 8)",Buy,GRI
88,0.8294314381270903,3.4,2018-05-18,"{'rsi_14': 0.15, 'volume': 0.15, 'sod_14': 0.14, 'macd': 0.13, 'macdh': 0.13, 'wr_14': 0.11, 'obv_2': 0.1, 'roc_2': 0.08}",0.8294314381270903,-2.0,0.8294314381270903,"(1303, 8)",Strong Sell,GNC
89,0.868020304568528,17.71,2018-05-18,"{'volume': 0.22, 'macd': 0.19, 'macdh': 0.13, 'rsi_14': 0.11, 'sod_14': 0.11, 'obv_2': 0.09, 'roc_2': 0.08, 'wr_14': 0.07}",0.868020304568528,1.0,0.868020304568528,"(896, 8)",Buy,GNK
90,0.7558528428093646,88.71,2018-05-18,"{'macd': 0.15, 'macdh': 0.14, 'rsi_14': 0.14, 'sod_14': 0.14, 'volume': 0.12, 'obv_2': 0.11, 'roc_2': 0.1, 'wr_14': 0.1}",0.7558528428093646,1.0,0.7558528428093646,"(1303, 8)",Buy,HAS
91,0.782608695652174,58.74,2018-05-18,"{'macd': 0.14, 'macdh': 0.14, 'rsi_14': 0.14, 'volume': 0.14, 'sod_14': 0.14, 'wr_14': 0.11, 'obv_2': 0.1, 'roc_2': 0.1}",0.782608695652174,2.0,0.782608695652174,"(1303, 8)",Strong Buy,HRI
92,0.8193979933110368,1.44,2018-05-18,"{'macd': 0.2, 'macdh': 0.16, 'volume': 0.13, 'sod_14': 0.13, 'rsi_14': 0.12, 'obv_2': 0.09, 'wr_14': 0.09, 'roc_2': 0.07}",0.8193979933110368,-2.0,0.8193979933110368,"(1303, 8)",Strong Sell,IMI
93,0.6822742474916388,190.54,2018-05-18,"{'sod_14': 0.16, 'macd': 0.15, 'macdh': 0.14, 'rsi_14': 0.12, 'volume': 0.12, 'wr_14': 0.11, 'obv_2': 0.1, 'roc_2': 0.1}",0.6822742474916388,-1.0,0.6822742474916388,"(1303, 8)",Sell,INTU
94,0.7633587786259542,28.85,2018-05-18,"{'volume': 0.2, 'obv_2': 0.14, 'macd': 0.12, 'macdh': 0.11, 'rsi_14': 0.11, 'sod_14': 0.11, 'roc_2': 0.1, 'wr_14': 0.1}",0.7633587786259542,2.0,0.7633587786259542,"(1156, 8)",Strong Buy,IPO
95,0.7857142857142857,35.71,2018-05-18,"{'volume': 0.17, 'macd': 0.15, 'macdh': 0.13, 'sod_14': 0.13, 'rsi_14': 0.12, 'obv_2': 0.11, 'wr_14': 0.1, 'roc_2': 0.08}",0.7857142857142857,1.0,0.7857142857142857,"(1006, 8)",Buy,JD
96,0.6421404682274248,30.68,2018-05-18,"{'macd': 0.15, 'macdh': 0.14, 'sod_14': 0.14, 'rsi_14': 0.12, 'volume': 0.12, 'obv_2': 0.11, 'roc_2': 0.11, 'wr_14': 0.11}",0.6421404682274248,1.0,0.6421404682274248,"(1303, 8)",Buy,KIE
97,0.7224080267558528,32.3,2018-05-18,"{'macd': 0.15, 'sod_14': 0.15, 'macdh': 0.13, 'volume': 0.13, 'rsi_14': 0.12, 'obv_2': 0.11, 'wr_14': 0.11, 'roc_2': 0.1}",0.7224080267558528,-2.0,0.7224080267558528,"(1303, 8)",Strong Sell,MCS
98,0.7424749163879598,20.81,2018-05-18,"{'volume': 0.15, 'sod_14': 0.15, 'macd': 0.13, 'macdh': 0.13, 'rsi_14': 0.13, 'obv_2': 0.11, 'roc_2': 0.1, 'wr_14': 0.1}",0.7424749163879598,-1.0,0.7424749163879598,"(1303, 8)",Sell,MRC
99,0.8075601374570447,12.68,2018-05-18,"{'sod_14': 0.17, 'macd': 0.15, 'macdh': 0.14, 'volume': 0.14, 'rsi_14': 0.12, 'obv_2': 0.11, 'wr_14': 0.1, 'roc_2': 0.08}",0.8075601374570447,2.0,0.8075601374570447,"(1274, 8)",Strong Buy,MAB
100,0.7591973244147158,12.4,2018-05-18,"{'macd': 0.15, 'volume': 0.15, 'sod_14': 0.14, 'rsi_14': 0.13, 'macdh': 0.12, 'obv_2': 0.12, 'wr_14': 0.1, 'roc_2': 0.08}",0.7591973244147158,2.0,0.7591973244147158,"(1303, 8)",Strong Buy,MYI
101,0.7854671280276817,41.12,2018-05-18,"{'volume': 0.2, 'macd': 0.14, 'sod_14': 0.13, 'macdh': 0.12, 'obv_2': 0.12, 'rsi_14': 0.11, 'roc_2': 0.09, 'wr_14': 0.09}",0.7854671280276817,1.0,0.7854671280276817,"(1265, 8)",Buy,OSB
102,0.7658862876254181,24.26,2018-05-18,"{'volume': 0.17, 'sod_14': 0.16, 'macd': 0.13, 'macdh': 0.12, 'rsi_14': 0.12, 'obv_2': 0.1, 'wr_14': 0.1, 'roc_2': 0.09}",0.7658862876254181,-1.0,0.7658862876254181,"(1303, 8)",Sell,PIN
103,0.7424749163879598,48.0,2018-05-18,"{'volume': 0.16, 'sod_14': 0.15, 'macd': 0.14, 'macdh': 0.13, 'rsi_14': 0.12, 'obv_2': 0.11, 'wr_14': 0.1, 'roc_2': 0.09}",0.7424749163879598,-1.0,0.7424749163879598,"(1303, 8)",Sell,PAG
104,0.7658862876254181,35.85,2018-05-18,"{'macd': 0.16, 'rsi_14': 0.14, 'macdh': 0.13, 'volume': 0.13, 'sod_14': 0.13, 'obv_2': 0.11, 'wr_14': 0.11, 'roc_2': 0.09}",0.7658862876254181,2.0,0.7658862876254181,"(1303, 8)",Strong Buy,PETS
105,0.7290969899665551,58.8,2018-05-18,"{'sod_14': 0.17, 'volume': 0.15, 'macd': 0.14, 'macdh': 0.12, 'obv_2': 0.12, 'rsi_14': 0.11, 'wr_14': 0.1, 'roc_2': 0.09}",0.7290969899665551,1.0,0.7290969899665551,"(1303, 8)",Buy,PFG
106,0.8093645484949833,10.01,2018-05-18,"{'macd': 0.17, 'sod_14': 0.16, 'macdh': 0.13, 'rsi_14': 0.13, 'volume': 0.12, 'obv_2': 0.1, 'wr_14': 0.1, 'roc_2': 0.08}",0.8093645484949833,-2.0,0.8093645484949833,"(1303, 8)",Strong Sell,PZC
107,0.7692307692307693,15.45,2018-05-18,"{'macd': 0.15, 'macdh': 0.14, 'sod_14': 0.14, 'rsi_14': 0.13, 'volume': 0.13, 'obv_2': 0.11, 'wr_14': 0.11, 'roc_2': 0.1}",0.7692307692307693,-1.0,0.7692307692307693,"(1303, 8)",Sell,RDI
108,0.6666666666666666,18.36,2018-05-18,"{'macd': 0.2, 'volume': 0.14, 'obv_2': 0.13, 'rsi_14': 0.12, 'sod_14': 0.12, 'macdh': 0.11, 'roc_2': 0.11, 'wr_14': 0.08}",0.6666666666666666,-2.0,0.6666666666666666,"(229, 8)",Strong Sell,SAFE
109,0.802675585284281,35.85,2018-05-18,"{'volume': 0.16, 'macd': 0.15, 'sod_14': 0.15, 'rsi_14': 0.13, 'macdh': 0.12, 'wr_14': 0.11, 'obv_2': 0.1, 'roc_2': 0.08}",0.802675585284281,1.0,0.802675585284281,"(1303, 8)",Buy,SNN
110,0.7845117845117845,28.18,2018-05-18,"{'volume': 0.15, 'macd': 0.14, 'rsi_14': 0.14, 'sod_14': 0.14, 'macdh': 0.13, 'wr_14': 0.12, 'obv_2': 0.11, 'roc_2': 0.08}",0.7845117845117845,-1.0,0.7845117845117845,"(1295, 8)",Sell,SDP
111,0.7986577181208053,18.69,2018-05-18,"{'volume': 0.15, 'sod_14': 0.15, 'macd': 0.14, 'rsi_14': 0.14, 'macdh': 0.12, 'obv_2': 0.11, 'wr_14': 0.11, 'roc_2': 0.09}",0.7986577181208053,-1.0,0.7986577181208053,"(1300, 8)",Sell,SCIN
112,0.8121827411167513,7.47,2018-05-18,"{'macd': 0.16, 'volume': 0.16, 'sod_14': 0.16, 'rsi_14': 0.13, 'macdh': 0.11, 'wr_14': 0.1, 'obv_2': 0.09, 'roc_2': 0.09}",0.8121827411167513,-1.0,0.8121827411167513,"(897, 8)",Sell,SNR
113,0.7926421404682275,69.39,2018-05-18,"{'macd': 0.16, 'volume': 0.16, 'rsi_14': 0.14, 'macdh': 0.12, 'sod_14': 0.12, 'obv_2': 0.11, 'roc_2': 0.09, 'wr_14': 0.09}",0.7926421404682275,-2.0,0.7926421404682275,"(1303, 8)",Strong Sell,SHI
114,0.7983193277310925,0.3803,2018-05-18,"{'volume': 0.17, 'rsi_14': 0.14, 'macd': 0.13, 'sod_14': 0.13, 'obv_2': 0.12, 'wr_14': 0.11, 'macdh': 0.1, 'roc_2': 0.1}",0.7983193277310925,2.0,0.7983193277310925,"(585, 8)",Strong Buy,SPI
115,0.7625418060200669,44.01,2018-05-18,"{'macd': 0.17, 'rsi_14': 0.14, 'volume': 0.14, 'macdh': 0.12, 'sod_14': 0.12, 'obv_2': 0.11, 'wr_14': 0.11, 'roc_2': 0.09}",0.7625418060200669,-1.0,0.7625418060200669,"(1303, 8)",Sell,SMP
116,0.7508417508417509,23.2,2018-05-18,"{'volume': 0.15, 'sod_14': 0.15, 'macdh': 0.14, 'macd': 0.13, 'rsi_14': 0.12, 'obv_2': 0.11, 'wr_14': 0.1, 'roc_2': 0.09}",0.7508417508417509,1.0,0.7508417508417509,"(1298, 8)",Buy,SGC
117,0.822742474916388,1.9,2018-05-18,"{'volume': 0.18, 'macd': 0.14, 'sod_14': 0.14, 'macdh': 0.12, 'rsi_14': 0.12, 'obv_2': 0.11, 'wr_14': 0.11, 'roc_2': 0.08}",0.822742474916388,-2.0,0.822742474916388,"(1303, 8)",Strong Sell,SYNC
118,0.8294314381270903,30.3,2018-05-18,"{'volume': 0.15, 'macd': 0.14, 'macdh': 0.13, 'rsi_14': 0.13, 'sod_14': 0.13, 'obv_2': 0.12, 'wr_14': 0.11, 'roc_2': 0.08}",0.8294314381270903,2.0,0.8294314381270903,"(1303, 8)",Strong Buy,SYNT
119,0.7820069204152249,43.47,2018-05-18,"{'volume': 0.2, 'macd': 0.13, 'rsi_14': 0.13, 'sod_14': 0.13, 'macdh': 0.11, 'obv_2': 0.11, 'roc_2': 0.09, 'wr_14': 0.09}",0.7820069204152249,-2.0,0.7820069204152249,"(1264, 8)",Strong Sell,TEP
120,0.8193979933110368,11.33,2018-05-18,"{'macd': 0.15, 'volume': 0.15, 'rsi_14': 0.14, 'macdh': 0.13, 'sod_14': 0.13, 'obv_2': 0.11, 'roc_2': 0.1, 'wr_14': 0.09}",0.8193979933110368,2.0,0.8193979933110368,"(1303, 8)",Strong Buy,TCAP
121,0.7759197324414716,2.7,2018-05-18,"{'volume': 0.16, 'macd': 0.14, 'sod_14': 0.14, 'macdh': 0.13, 'rsi_14': 0.13, 'obv_2': 0.11, 'roc_2': 0.1, 'wr_14': 0.09}",0.7759197324414716,-2.0,0.7759197324414716,"(1304, 8)",Strong Sell,BBOX
122,0.9141414141414141,17.7858,2018-05-18,"{'volume': 0.18, 'sod_14': 0.17, 'macd': 0.15, 'rsi_14': 0.13, 'obv_2': 0.11, 'macdh': 0.1, 'roc_2': 0.08, 'wr_14': 0.08}",0.9141414141414141,-1.0,0.9141414141414141,"(900, 8)",Sell,UBM
123,0.8666666666666667,16.52,2018-05-18,"{'volume': 0.17, 'macd': 0.15, 'sod_14': 0.15, 'rsi_14': 0.13, 'macdh': 0.11, 'obv_2': 0.11, 'wr_14': 0.1, 'roc_2': 0.08}",0.8666666666666667,-1.0,0.8666666666666667,"(1250, 8)",Sell,ULE
124,0.7926421404682275,28.15,2018-05-18,"{'macd': 0.16, 'macdh': 0.14, 'rsi_14': 0.14, 'volume': 0.14, 'sod_14': 0.13, 'obv_2': 0.11, 'wr_14': 0.1, 'roc_2': 0.09}",0.7926421404682275,-2.0,0.7926421404682275,"(1303, 8)",Strong Sell,UTG
125,0.8408304498269896,0.155,2018-03-26,"{'macd': 0.18, 'rsi_14': 0.14, 'sod_14': 0.14, 'macdh': 0.12, 'volume': 0.12, 'obv_2': 0.1, 'roc_2': 0.1, 'wr_14': 0.1}",0.8408304498269896,2.0,0.8408304498269896,"(1265, 8)",Strong Buy,WG
126,0.7892976588628763,71.99,2018-05-18,"{'macd': 0.18, 'macdh': 0.15, 'rsi_14': 0.13, 'volume': 0.13, 'obv_2': 0.11, 'sod_14': 0.11, 'wr_14': 0.1, 'roc_2': 0.09}",0.7892976588628763,2.0,0.7892976588628763,"(1304, 8)",Strong Buy,ATVI
127,0.7290969899665551,238.09,2018-05-18,"{'macd': 0.15, 'sod_14': 0.15, 'macdh': 0.13, 'rsi_14': 0.13, 'volume': 0.13, 'obv_2': 0.11, 'wr_14': 0.11, 'roc_2': 0.09}",0.7290969899665551,2.0,0.7290969899665551,"(1304, 8)",Strong Buy,ADBE
128,0.7558528428093646,121.07,2018-05-18,"{'macd': 0.16, 'volume': 0.15, 'macdh': 0.14, 'sod_14': 0.14, 'rsi_14': 0.12, 'obv_2': 0.11, 'wr_14': 0.1, 'roc_2': 0.09}",0.7558528428093646,-2.0,0.7558528428093646,"(1304, 8)",Strong Sell,ALXN
129,0.7892976588628763,298.0,2018-05-18,"{'macd': 0.18, 'macdh': 0.13, 'rsi_14': 0.13, 'volume': 0.13, 'sod_14': 0.13, 'obv_2': 0.1, 'roc_2': 0.1, 'wr_14': 0.1}",0.7892976588628763,-2.0,0.7892976588628763,"(1304, 8)",Strong Sell,ALGN
130,0.7393162393162394,1066.36,2018-05-18,"{'macd': 0.16, 'macdh': 0.15, 'rsi_14': 0.14, 'sod_14': 0.13, 'volume': 0.12, 'wr_14': 0.12, 'obv_2': 0.1, 'roc_2': 0.09}",0.7393162393162394,-2.0,0.7393162393162394,"(1045, 8)",Strong Sell,GOOG
131,0.7558528428093646,1069.64,2018-05-18,"{'macd': 0.16, 'macdh': 0.15, 'sod_14': 0.14, 'volume': 0.13, 'rsi_14': 0.12, 'obv_2': 0.11, 'wr_14': 0.1, 'roc_2': 0.09}",0.7558528428093646,2.0,0.7558528428093646,"(1303, 8)",Strong Buy,GOOGL
132,0.7692307692307693,1574.37,2018-05-18,"{'macd': 0.15, 'sod_14': 0.15, 'rsi_14': 0.13, 'volume': 0.13, 'macdh': 0.12, 'obv_2': 0.11, 'wr_14': 0.11, 'roc_2': 0.09}",0.7692307692307693,1.0,0.7692307692307693,"(1304, 8)",Buy,AMZN
133,0.7993311036789298,43.38,2018-05-18,"{'macd': 0.16, 'volume': 0.15, 'sod_14': 0.14, 'macdh': 0.13, 'rsi_14': 0.12, 'obv_2': 0.11, 'wr_14': 0.1, 'roc_2': 0.09}",0.7993311036789298,1.0,0.7993311036789298,"(1304, 8)",Buy,AAL
134,0.6421404682274248,176.3,2018-05-18,"{'macd': 0.14, 'macdh': 0.14, 'rsi_14': 0.13, 'sod_14': 0.13, 'obv_2': 0.12, 'volume': 0.12, 'roc_2': 0.11, 'wr_14': 0.11}",0.6421404682274248,1.0,0.6421404682274248,"(1304, 8)",Buy,AMGN
135,0.6889632107023411,94.88,2018-05-18,"{'volume': 0.15, 'macd': 0.14, 'macdh': 0.14, 'rsi_14': 0.13, 'sod_14': 0.13, 'obv_2': 0.11, 'wr_14': 0.1, 'roc_2': 0.09}",0.6889632107023411,2.0,0.6889632107023411,"(1304, 8)",Strong Buy,ADI
136,0.822742474916388,186.31,2018-05-18,"{'volume': 0.16, 'macd': 0.14, 'macdh': 0.14, 'rsi_14': 0.12, 'sod_14': 0.12, 'obv_2': 0.11, 'wr_14': 0.11, 'roc_2': 0.09}",0.822742474916388,-2.0,0.822742474916388,"(1304, 8)",Strong Sell,AAPL
137,0.7692307692307693,49.51,2018-05-18,"{'macd': 0.17, 'rsi_14': 0.15, 'macdh': 0.13, 'sod_14': 0.13, 'volume': 0.12, 'obv_2': 0.11, 'wr_14': 0.1, 'roc_2': 0.09}",0.7692307692307693,-2.0,0.7692307692307693,"(1304, 8)",Strong Sell,AMAT
138,0.7491638795986622,197.34,2018-05-18,"{'sod_14': 0.16, 'macd': 0.14, 'macdh': 0.13, 'rsi_14': 0.13, 'volume': 0.12, 'wr_14': 0.12, 'obv_2': 0.1, 'roc_2': 0.09}",0.7491638795986622,1.0,0.7491638795986622,"(1304, 8)",Buy,ASML
139,0.7023411371237458,138.85,2018-05-18,"{'sod_14': 0.15, 'macd': 0.14, 'macdh': 0.14, 'rsi_14': 0.13, 'volume': 0.13, 'obv_2': 0.11, 'wr_14': 0.11, 'roc_2': 0.09}",0.7023411371237458,-2.0,0.7023411371237458,"(1304, 8)",Strong Sell,ADSK
140,0.6956521739130435,128.91,2018-05-18,"{'macd': 0.15, 'sod_14': 0.14, 'macdh': 0.13, 'rsi_14': 0.13, 'volume': 0.13, 'wr_14': 0.12, 'obv_2': 0.1, 'roc_2': 0.1}",0.6956521739130435,-2.0,0.6956521739130435,"(1304, 8)",Strong Sell,ADP
141,0.7658862876254181,253.01,2018-05-18,"{'macd': 0.16, 'macdh': 0.15, 'volume': 0.14, 'sod_14': 0.14, 'rsi_14': 0.13, 'obv_2': 0.1, 'wr_14': 0.1, 'roc_2': 0.09}",0.7658862876254181,-2.0,0.7658862876254181,"(1304, 8)",Strong Sell,BIDU
142,0.7391304347826086,280.4,2018-05-18,"{'macd': 0.16, 'volume': 0.14, 'sod_14': 0.14, 'macdh': 0.12, 'rsi_14': 0.12, 'obv_2': 0.11, 'wr_14': 0.11, 'roc_2': 0.09}",0.7391304347826086,1.0,0.7391304347826086,"(1304, 8)",Buy,BIIB
143,0.7224080267558528,88.88,2018-05-18,"{'macd': 0.15, 'macdh': 0.14, 'rsi_14': 0.14, 'sod_14': 0.14, 'volume': 0.12, 'wr_14': 0.11, 'obv_2': 0.1, 'roc_2': 0.1}",0.7224080267558528,2.0,0.7224080267558528,"(1303, 8)",Strong Buy,BMRN
144,0.8327759197324415,2066.34,2018-05-18,"{'macd': 0.16, 'rsi_14': 0.15, 'macdh': 0.14, 'sod_14': 0.14, 'volume': 0.12, 'obv_2': 0.1, 'wr_14': 0.1, 'roc_2': 0.09}",0.8327759197324415,1.0,0.8327759197324415,"(1304, 8)",Buy,BKNG
145,0.7157190635451505,235.99,2018-05-18,"{'macd': 0.17, 'macdh': 0.16, 'volume': 0.13, 'sod_14': 0.13, 'rsi_14': 0.12, 'obv_2': 0.1, 'wr_14': 0.1, 'roc_2': 0.09}",0.7157190635451505,-2.0,0.7157190635451505,"(1304, 8)",Strong Sell,AVGO
146,0.7357859531772575,35.17,2018-05-18,"{'volume': 0.15, 'macd': 0.14, 'macdh': 0.13, 'rsi_14': 0.13, 'sod_14': 0.13, 'obv_2': 0.12, 'wr_14': 0.11, 'roc_2': 0.1}",0.7357859531772575,1.0,0.7357859531772575,"(1303, 8)",Buy,CA
147,0.7357859531772575,41.8,2018-05-18,"{'volume': 0.18, 'macd': 0.13, 'macdh': 0.13, 'obv_2': 0.13, 'sod_14': 0.13, 'rsi_14': 0.11, 'roc_2': 0.1, 'wr_14': 0.1}",0.7357859531772575,-2.0,0.7357859531772575,"(1303, 8)",Strong Sell,CDNS
148,0.7558528428093646,78.37,2018-05-18,"{'macd': 0.16, 'macdh': 0.15, 'sod_14': 0.15, 'rsi_14': 0.13, 'volume': 0.12, 'obv_2': 0.1, 'wr_14': 0.1, 'roc_2': 0.09}",0.7558528428093646,2.0,0.7558528428093646,"(1303, 8)",Strong Buy,CELG
149,0.7625418060200669,61.34,2018-05-18,"{'macd': 0.15, 'macdh': 0.15, 'sod_14': 0.14, 'volume': 0.13, 'rsi_14': 0.12, 'obv_2': 0.11, 'wr_14': 0.1, 'roc_2': 0.09}",0.7625418060200669,2.0,0.7625418060200669,"(1303, 8)",Strong Buy,CERN
150,0.7859531772575251,270.17,2018-05-18,"{'macd': 0.17, 'volume': 0.14, 'macdh': 0.13, 'rsi_14': 0.13, 'sod_14': 0.13, 'obv_2': 0.1, 'wr_14': 0.1, 'roc_2': 0.09}",0.7859531772575251,-2.0,0.7859531772575251,"(1303, 8)",Strong Sell,CHTR
151,0.745819397993311,95.68,2018-05-18,"{'macd': 0.15, 'sod_14': 0.15, 'macdh': 0.13, 'rsi_14': 0.13, 'volume': 0.13, 'obv_2': 0.11, 'wr_14': 0.11, 'roc_2': 0.1}",0.745819397993311,1.0,0.745819397993311,"(1303, 8)",Buy,CHKP
152,0.6822742474916388,182.85,2018-05-18,"{'macd': 0.16, 'volume': 0.14, 'sod_14': 0.14, 'rsi_14': 0.13, 'macdh': 0.12, 'wr_14': 0.12, 'obv_2': 0.1, 'roc_2': 0.1}",0.6822742474916388,1.0,0.6822742474916388,"(1303, 8)",Buy,CTAS
153,0.8193979933110368,43.21,2018-05-18,"{'sod_14': 0.15, 'macd': 0.14, 'volume': 0.14, 'macdh': 0.13, 'rsi_14': 0.13, 'obv_2': 0.1, 'wr_14': 0.1, 'roc_2': 0.09}",0.8193979933110368,-1.0,0.8193979933110368,"(1303, 8)",Sell,CSCO
154,0.7424749163879598,105.34,2018-05-18,"{'macd': 0.15, 'sod_14': 0.14, 'macdh': 0.13, 'rsi_14': 0.13, 'volume': 0.13, 'obv_2': 0.11, 'wr_14': 0.11, 'roc_2': 0.09}",0.7424749163879598,-2.0,0.7424749163879598,"(1303, 8)",Strong Sell,CTXS
155,0.7792642140468228,76.04,2018-05-18,"{'volume': 0.17, 'macd': 0.14, 'rsi_14': 0.14, 'macdh': 0.13, 'sod_14': 0.12, 'obv_2': 0.11, 'wr_14': 0.11, 'roc_2': 0.08}",0.7792642140468228,-1.0,0.7792642140468228,"(1303, 8)",Sell,CTSH
156,0.7725752508361204,32.72,2018-05-18,"{'macdh': 0.15, 'macd': 0.14, 'rsi_14': 0.13, 'volume': 0.13, 'sod_14': 0.13, 'obv_2': 0.11, 'roc_2': 0.1, 'wr_14': 0.1}",0.7725752508361204,-2.0,0.7725752508361204,"(1303, 8)",Strong Sell,CMCSA
157,0.7625418060200669,198.96,2018-05-18,"{'macd': 0.17, 'macdh': 0.14, 'sod_14': 0.14, 'rsi_14': 0.13, 'volume': 0.12, 'wr_14': 0.11, 'obv_2': 0.1, 'roc_2': 0.09}",0.7625418060200669,-2.0,0.7625418060200669,"(1303, 8)",Strong Sell,COST
158,0.705685618729097,63.76,2018-05-18,"{'macd': 0.16, 'macdh': 0.14, 'rsi_14': 0.14, 'sod_14': 0.14, 'volume': 0.13, 'wr_14': 0.11, 'obv_2': 0.1, 'roc_2': 0.09}",0.705685618729097,-1.0,0.705685618729097,"(1303, 8)",Sell,CSX
159,0.7658862876254181,43.09,2018-05-18,"{'macd': 0.16, 'macdh': 0.14, 'sod_14': 0.14, 'volume': 0.13, 'obv_2': 0.12, 'rsi_14': 0.12, 'wr_14': 0.1, 'roc_2': 0.09}",0.7658862876254181,1.0,0.7658862876254181,"(1303, 8)",Buy,CTRP
160,0.7725752508361204,47.5,2018-05-18,"{'macd': 0.16, 'volume': 0.16, 'obv_2': 0.13, 'rsi_14': 0.13, 'macdh': 0.12, 'sod_14': 0.11, 'wr_14': 0.1, 'roc_2': 0.09}",0.7725752508361204,1.0,0.7725752508361204,"(1303, 8)",Buy,XRAY
161,0.7625418060200669,32.35,2018-05-18,"{'macd': 0.17, 'volume': 0.15, 'macdh': 0.14, 'rsi_14': 0.13, 'sod_14': 0.13, 'obv_2': 0.1, 'wr_14': 0.1, 'roc_2': 0.09}",0.7625418060200669,-2.0,0.7625418060200669,"(1303, 8)",Strong Sell,DISH
162,0.7959866220735786,93.1,2018-05-18,"{'sod_14': 0.15, 'macd': 0.14, 'macdh': 0.14, 'rsi_14': 0.14, 'volume': 0.13, 'obv_2': 0.11, 'wr_14': 0.11, 'roc_2': 0.09}",0.7959866220735786,-2.0,0.7959866220735786,"(1303, 8)",Strong Sell,DLTR
163,0.745819397993311,38.32,2018-05-18,"{'macd': 0.15, 'macdh': 0.14, 'volume': 0.14, 'sod_14': 0.13, 'rsi_14': 0.12, 'obv_2': 0.11, 'wr_14': 0.11, 'roc_2': 0.1}",0.745819397993311,2.0,0.745819397993311,"(1303, 8)",Strong Buy,EBAY
164,0.7926421404682275,132.0,2018-05-18,"{'macd': 0.17, 'macdh': 0.15, 'sod_14': 0.14, 'rsi_14': 0.13, 'volume': 0.12, 'obv_2': 0.1, 'wr_14': 0.1, 'roc_2': 0.09}",0.7926421404682275,-2.0,0.7926421404682275,"(1303, 8)",Strong Sell,EA
165,0.7157190635451505,115.07,2018-05-18,"{'sod_14': 0.15, 'macd': 0.14, 'macdh': 0.14, 'wr_14': 0.13, 'obv_2': 0.12, 'rsi_14': 0.12, 'volume': 0.12, 'roc_2': 0.09}",0.7157190635451505,2.0,0.7157190635451505,"(1303, 8)",Strong Buy,EXPE
166,0.7692307692307693,75.65,2018-05-18,"{'macd': 0.16, 'macdh': 0.13, 'rsi_14': 0.13, 'volume': 0.13, 'sod_14': 0.13, 'obv_2': 0.12, 'wr_14': 0.11, 'roc_2': 0.09}",0.7692307692307693,2.0,0.7692307692307693,"(1303, 8)",Strong Buy,ESRX
167,0.7796610169491526,182.68,2018-05-18,"{'rsi_14': 0.16, 'macd': 0.15, 'volume': 0.14, 'sod_14': 0.14, 'macdh': 0.12, 'obv_2': 0.1, 'roc_2': 0.1, 'wr_14': 0.1}",0.7796610169491526,-1.0,0.7796610169491526,"(1287, 8)",Sell,FB
168,0.7525083612040134,52.76,2018-05-18,"{'macd': 0.16, 'volume': 0.14, 'macdh': 0.13, 'rsi_14': 0.13, 'sod_14': 0.12, 'obv_2': 0.11, 'roc_2': 0.1, 'wr_14': 0.1}",0.7525083612040134,2.0,0.7525083612040134,"(1303, 8)",Strong Buy,FAST
169,0.68561872909699,72.98,2018-05-18,"{'macd': 0.17, 'macdh': 0.14, 'sod_14': 0.13, 'rsi_14': 0.12, 'volume': 0.12, 'wr_14': 0.12, 'obv_2': 0.11, 'roc_2': 0.1}",0.68561872909699,2.0,0.68561872909699,"(1303, 8)",Strong Buy,FISV
170,0.8260869565217391,68.02,2018-05-18,"{'volume': 0.16, 'macd': 0.15, 'macdh': 0.13, 'rsi_14': 0.13, 'sod_14': 0.13, 'obv_2': 0.11, 'wr_14': 0.1, 'roc_2': 0.09}",0.8260869565217391,-2.0,0.8260869565217391,"(1303, 8)",Strong Sell,GILD
171,0.7558528428093646,88.71,2018-05-18,"{'macd': 0.15, 'macdh': 0.14, 'rsi_14': 0.14, 'sod_14': 0.14, 'volume': 0.12, 'obv_2': 0.11, 'roc_2': 0.1, 'wr_14': 0.1}",0.7558528428093646,1.0,0.7558528428093646,"(1303, 8)",Buy,HAS
172,0.782608695652174,71.94,2018-05-18,"{'macd': 0.16, 'macdh': 0.14, 'sod_14': 0.14, 'rsi_14': 0.13, 'volume': 0.13, 'obv_2': 0.11, 'wr_14': 0.1, 'roc_2': 0.09}",0.782608695652174,-2.0,0.782608695652174,"(1303, 8)",Strong Sell,HSIC
173,0.8260869565217391,38.82,2018-05-18,"{'volume': 0.15, 'macd': 0.14, 'sod_14': 0.14, 'macdh': 0.13, 'rsi_14': 0.13, 'obv_2': 0.11, 'wr_14': 0.11, 'roc_2': 0.09}",0.8260869565217391,1.0,0.8260869565217391,"(1303, 8)",Buy,HOLX
174,0.7993311036789298,200.76,2018-05-18,"{'macd': 0.16, 'macdh': 0.14, 'rsi_14': 0.14, 'sod_14': 0.14, 'volume': 0.13, 'wr_14': 0.11, 'obv_2': 0.09, 'roc_2': 0.09}",0.7993311036789298,-2.0,0.7993311036789298,"(1303, 8)",Strong Sell,IDXX
175,0.8060200668896321,269.67,2018-05-18,"{'macd': 0.16, 'macdh': 0.15, 'rsi_14': 0.14, 'sod_14': 0.14, 'volume': 0.12, 'obv_2': 0.1, 'wr_14': 0.1, 'roc_2': 0.09}",0.8060200668896321,-1.0,0.8060200668896321,"(1303, 8)",Sell,ILMN
176,0.7892976588628763,67.83,2018-05-18,"{'macd': 0.15, 'volume': 0.15, 'sod_14': 0.15, 'rsi_14': 0.14, 'macdh': 0.13, 'obv_2': 0.11, 'wr_14': 0.1, 'roc_2': 0.08}",0.7892976588628763,-1.0,0.7892976588628763,"(1303, 8)",Sell,INCY
177,0.8060200668896321,53.5,2018-05-18,"{'macd': 0.16, 'macdh': 0.15, 'sod_14': 0.14, 'rsi_14': 0.13, 'volume': 0.13, 'wr_14': 0.11, 'obv_2': 0.1, 'roc_2': 0.09}",0.8060200668896321,-2.0,0.8060200668896321,"(1303, 8)",Strong Sell,INTC
178,0.6822742474916388,190.54,2018-05-18,"{'sod_14': 0.16, 'macd': 0.15, 'macdh': 0.14, 'rsi_14': 0.12, 'volume': 0.12, 'wr_14': 0.11, 'obv_2': 0.1, 'roc_2': 0.1}",0.6822742474916388,-1.0,0.6822742474916388,"(1303, 8)",Sell,INTU
179,0.8327759197324415,458.79,2018-05-18,"{'macd': 0.19, 'rsi_14': 0.15, 'volume': 0.13, 'macdh': 0.12, 'sod_14': 0.12, 'wr_14': 0.11, 'obv_2': 0.1, 'roc_2': 0.08}",0.8327759197324415,1.0,0.8327759197324415,"(1303, 8)",Buy,ISRG
180,0.7123745819397993,126.86,2018-05-18,"{'macd': 0.15, 'volume': 0.15, 'sod_14': 0.14, 'macdh': 0.12, 'rsi_14': 0.12, 'obv_2': 0.11, 'wr_14': 0.11, 'roc_2': 0.09}",0.7123745819397993,1.0,0.7123745819397993,"(1303, 8)",Buy,JBHT
181,0.7857142857142857,35.71,2018-05-18,"{'volume': 0.17, 'macd': 0.15, 'macdh': 0.13, 'sod_14': 0.13, 'rsi_14': 0.12, 'obv_2': 0.11, 'wr_14': 0.1, 'roc_2': 0.08}",0.7857142857142857,1.0,0.7857142857142857,"(1006, 8)",Buy,JD
182,0.7725752508361204,109.39,2018-05-18,"{'macd': 0.15, 'macdh': 0.15, 'rsi_14': 0.14, 'volume': 0.13, 'sod_14': 0.13, 'obv_2': 0.11, 'wr_14': 0.11, 'roc_2': 0.09}",0.7725752508361204,1.0,0.7725752508361204,"(1303, 8)",Buy,KLAC
183,0.7692307692307693,195.49,2018-05-18,"{'macd': 0.17, 'rsi_14': 0.14, 'macdh': 0.13, 'volume': 0.13, 'sod_14': 0.13, 'obv_2': 0.12, 'wr_14': 0.11, 'roc_2': 0.09}",0.7692307692307693,-1.0,0.7692307692307693,"(1303, 8)",Sell,LRCX
184,0.6923076923076923,29.22,2018-05-18,"{'macd': 0.14, 'macdh': 0.13, 'volume': 0.13, 'sod_14': 0.13, 'obv_2': 0.12, 'rsi_14': 0.12, 'roc_2': 0.11, 'wr_14': 0.11}",0.6923076923076923,-1.0,0.6923076923076923,"(1303, 8)",Sell,LBTYA
185,0.7424749163879598,28.46,2018-05-18,"{'volume': 0.17, 'macd': 0.14, 'macdh': 0.13, 'obv_2': 0.12, 'rsi_14': 0.12, 'sod_14': 0.12, 'wr_14': 0.11, 'roc_2': 0.09}",0.7424749163879598,-1.0,0.7424749163879598,"(1303, 8)",Sell,LBTYK
186,0.7725752508361204,138.52,2018-05-18,"{'macd': 0.17, 'rsi_14': 0.14, 'sod_14': 0.14, 'macdh': 0.13, 'volume': 0.13, 'obv_2': 0.11, 'wr_14': 0.1, 'roc_2': 0.08}",0.7725752508361204,-2.0,0.7725752508361204,"(1303, 8)",Strong Sell,MAR
187,0.7625418060200669,57.93,2018-05-18,"{'macd': 0.15, 'macdh': 0.14, 'sod_14': 0.14, 'rsi_14': 0.13, 'volume': 0.13, 'obv_2': 0.11, 'wr_14': 0.11, 'roc_2': 0.1}",0.7625418060200669,2.0,0.7625418060200669,"(1303, 8)",Strong Buy,MXIM
188,0.8093645484949833,295.37,2018-05-18,"{'macd': 0.16, 'macdh': 0.14, 'rsi_14': 0.14, 'sod_14': 0.13, 'volume': 0.12, 'obv_2': 0.11, 'wr_14': 0.11, 'roc_2': 0.09}",0.8093645484949833,2.0,0.8093645484949833,"(1303, 8)",Strong Buy,MELI
189,0.725752508361204,92.8,2018-05-18,"{'sod_14': 0.15, 'macd': 0.14, 'macdh': 0.13, 'rsi_14': 0.13, 'volume': 0.13, 'obv_2': 0.11, 'wr_14': 0.11, 'roc_2': 0.1}",0.725752508361204,-1.0,0.725752508361204,"(1303, 8)",Sell,MCHP
190,0.8160535117056856,53.39,2018-05-18,"{'macd': 0.2, 'rsi_14': 0.15, 'macdh': 0.14, 'volume': 0.12, 'sod_14': 0.11, 'obv_2': 0.1, 'wr_14': 0.1, 'roc_2': 0.08}",0.8160535117056856,-2.0,0.8160535117056856,"(1303, 8)",Strong Sell,MU
191,0.6711864406779661,96.36,2018-05-18,"{'macd': 0.13, 'macdh': 0.13, 'obv_2': 0.13, 'rsi_14': 0.13, 'volume': 0.13, 'sod_14': 0.13, 'wr_14': 0.11, 'roc_2': 0.1}",0.6711864406779661,2.0,0.6711864406779661,"(1287, 8)",Strong Buy,MSFT
192,0.6989966555183946,39.65,2018-05-18,"{'macd': 0.14, 'rsi_14': 0.14, 'volume': 0.14, 'macdh': 0.13, 'sod_14': 0.13, 'obv_2': 0.12, 'wr_14': 0.11, 'roc_2': 0.1}",0.6989966555183946,1.0,0.6989966555183946,"(1303, 8)",Buy,MDLZ
193,0.842809364548495,49.47,2018-05-18,"{'macd': 0.15, 'sod_14': 0.15, 'volume': 0.14, 'macdh': 0.13, 'rsi_14': 0.13, 'wr_14': 0.11, 'obv_2': 0.1, 'roc_2': 0.08}",0.842809364548495,2.0,0.842809364548495,"(1303, 8)",Strong Buy,MNST
194,0.7926421404682275,39.66,2018-05-18,"{'volume': 0.16, 'macd': 0.15, 'macdh': 0.14, 'rsi_14': 0.13, 'sod_14': 0.12, 'wr_14': 0.11, 'obv_2': 0.1, 'roc_2': 0.09}",0.7926421404682275,-1.0,0.7926421404682275,"(1303, 8)",Sell,MYL
195,0.7190635451505016,246.33,2018-05-18,"{'volume': 0.15, 'macd': 0.14, 'macdh': 0.14, 'sod_14': 0.13, 'rsi_14': 0.12, 'obv_2': 0.11, 'wr_14': 0.11, 'roc_2': 0.09}",0.7190635451505016,-1.0,0.7190635451505016,"(1303, 8)",Sell,NTES
196,0.8327759197324415,324.18,2018-05-18,"{'volume': 0.16, 'macdh': 0.14, 'sod_14': 0.14, 'rsi_14': 0.13, 'macd': 0.12, 'obv_2': 0.12, 'wr_14': 0.11, 'roc_2': 0.09}",0.8327759197324415,2.0,0.8327759197324415,"(1303, 8)",Strong Buy,NFLX
197,0.7792642140468228,245.94,2018-05-18,"{'macd': 0.22, 'macdh': 0.14, 'volume': 0.14, 'rsi_14': 0.11, 'sod_14': 0.11, 'obv_2': 0.1, 'wr_14': 0.1, 'roc_2': 0.08}",0.7792642140468228,1.0,0.7792642140468228,"(1303, 8)",Buy,NVDA
198,0.7591973244147158,272.09,2018-05-18,"{'macd': 0.18, 'macdh': 0.15, 'rsi_14': 0.13, 'volume': 0.13, 'sod_14': 0.12, 'wr_14': 0.11, 'obv_2': 0.1, 'roc_2': 0.09}",0.7591973244147158,-2.0,0.7591973244147158,"(1303, 8)",Strong Sell,ORLY
199,0.7391304347826086,65.01,2018-05-18,"{'macd': 0.15, 'sod_14': 0.14, 'macdh': 0.13, 'rsi_14': 0.12, 'volume': 0.12, 'obv_2': 0.11, 'wr_14': 0.11, 'roc_2': 0.1}",0.7391304347826086,-1.0,0.7391304347826086,"(1303, 8)",Sell,PCAR
200,0.705685618729097,64.82,2018-05-18,"{'macd': 0.16, 'rsi_14': 0.14, 'macdh': 0.13, 'volume': 0.12, 'sod_14': 0.12, 'obv_2': 0.11, 'wr_14': 0.11, 'roc_2': 0.1}",0.705685618729097,-2.0,0.705685618729097,"(1303, 8)",Strong Sell,PAYX
201,0.7922077922077922,80.79,2018-05-18,"{'rsi_14': 0.17, 'macd': 0.14, 'sod_14': 0.14, 'volume': 0.13, 'wr_14': 0.12, 'macdh': 0.11, 'obv_2': 0.1, 'roc_2': 0.09}",0.7922077922077922,-2.0,0.7922077922077922,"(725, 8)",Strong Sell,PYPL
202,0.8260869565217391,57.51,2018-05-18,"{'rsi_14': 0.15, 'macd': 0.14, 'macdh': 0.14, 'volume': 0.13, 'sod_14': 0.13, 'wr_14': 0.12, 'obv_2': 0.1, 'roc_2': 0.09}",0.8260869565217391,-1.0,0.8260869565217391,"(1303, 8)",Sell,QCOM
203,0.7993311036789298,22.6,2018-05-18,"{'sod_14': 0.16, 'macd': 0.15, 'volume': 0.15, 'macdh': 0.14, 'rsi_14': 0.11, 'wr_14': 0.11, 'obv_2': 0.1, 'roc_2': 0.08}",0.7993311036789298,-2.0,0.7993311036789298,"(1303, 8)",Strong Sell,QRTEA
204,0.725752508361204,301.81,2018-05-18,"{'macd': 0.19, 'macdh': 0.15, 'sod_14': 0.13, 'rsi_14': 0.12, 'volume': 0.11, 'obv_2': 0.1, 'roc_2': 0.1, 'wr_14': 0.1}",0.725752508361204,-1.0,0.725752508361204,"(1303, 8)",Sell,REGN
205,0.7324414715719063,82.47,2018-05-18,"{'macd': 0.15, 'rsi_14': 0.15, 'sod_14': 0.15, 'macdh': 0.13, 'volume': 0.12, 'obv_2': 0.11, 'wr_14': 0.11, 'roc_2': 0.08}",0.7324414715719063,-2.0,0.7324414715719063,"(1303, 8)",Strong Sell,ROST
206,0.802675585284281,56.31,2018-05-18,"{'volume': 0.16, 'macd': 0.14, 'rsi_14': 0.14, 'sod_14': 0.13, 'macdh': 0.12, 'obv_2': 0.12, 'wr_14': 0.1, 'roc_2': 0.08}",0.802675585284281,-2.0,0.802675585284281,"(1303, 8)",Strong Sell,STX
207,0.8127090301003345,169.61,2018-05-18,"{'volume': 0.21, 'sod_14': 0.15, 'macd': 0.14, 'macdh': 0.12, 'obv_2': 0.11, 'rsi_14': 0.11, 'wr_14': 0.09, 'roc_2': 0.07}",0.8127090301003345,1.0,0.8127090301003345,"(1303, 8)",Buy,SHPG
208,0.7224080267558528,6.97,2018-05-18,"{'macd': 0.15, 'volume': 0.15, 'sod_14': 0.14, 'macdh': 0.13, 'obv_2': 0.12, 'rsi_14': 0.12, 'roc_2': 0.1, 'wr_14': 0.1}",0.7224080267558528,1.0,0.7224080267558528,"(1303, 8)",Buy,SIRI
209,0.7926421404682275,98.49,2018-05-18,"{'macd': 0.16, 'volume': 0.16, 'macdh': 0.15, 'rsi_14': 0.13, 'sod_14': 0.13, 'obv_2': 0.1, 'wr_14': 0.09, 'roc_2': 0.08}",0.7926421404682275,-2.0,0.7926421404682275,"(1303, 8)",Strong Sell,SWKS
210,0.7391304347826086,57.16,2018-05-18,"{'rsi_14': 0.15, 'sod_14': 0.15, 'macd': 0.14, 'macdh': 0.13, 'obv_2': 0.11, 'volume': 0.11, 'wr_14': 0.11, 'roc_2': 0.09}",0.7391304347826086,2.0,0.7391304347826086,"(1303, 8)",Strong Buy,SBUX
211,0.782608695652174,22.19,2018-05-18,"{'volume': 0.18, 'obv_2': 0.16, 'macd': 0.14, 'sod_14': 0.12, 'macdh': 0.11, 'rsi_14': 0.11, 'roc_2': 0.09, 'wr_14': 0.09}",0.782608695652174,-1.0,0.782608695652174,"(1303, 8)",Sell,SYMC
212,0.8294314381270903,89.25,2018-05-18,"{'sod_14': 0.16, 'macd': 0.15, 'macdh': 0.14, 'rsi_14': 0.13, 'volume': 0.13, 'wr_14': 0.11, 'obv_2': 0.1, 'roc_2': 0.09}",0.8294314381270903,2.0,0.8294314381270903,"(1303, 8)",Strong Buy,SNPS
213,0.7560137457044673,56.93,2018-05-18,"{'macd': 0.15, 'macdh': 0.14, 'rsi_14': 0.14, 'sod_14': 0.14, 'volume': 0.13, 'obv_2': 0.11, 'roc_2': 0.1, 'wr_14': 0.1}",0.7560137457044673,-1.0,0.7560137457044673,"(1273, 8)",Sell,TMUS
214,0.7324414715719063,115.81,2018-05-18,"{'macd': 0.18, 'macdh': 0.14, 'rsi_14': 0.13, 'sod_14': 0.13, 'volume': 0.11, 'wr_14': 0.11, 'obv_2': 0.1, 'roc_2': 0.09}",0.7324414715719063,2.0,0.7324414715719063,"(1303, 8)",Strong Buy,TTWO
215,0.8127090301003345,276.82,2018-05-18,"{'volume': 0.15, 'macd': 0.14, 'rsi_14': 0.14, 'sod_14': 0.14, 'macdh': 0.12, 'obv_2': 0.11, 'wr_14': 0.1, 'roc_2': 0.09}",0.8127090301003345,1.0,0.8127090301003345,"(1303, 8)",Buy,TSLA
216,0.7190635451505016,110.54,2018-05-18,"{'macd': 0.16, 'macdh': 0.14, 'rsi_14': 0.13, 'volume': 0.13, 'obv_2': 0.12, 'sod_14': 0.12, 'wr_14': 0.11, 'roc_2': 0.09}",0.7190635451505016,2.0,0.7190635451505016,"(1303, 8)",Strong Buy,TXN
217,0.8376623376623377,56.79,2018-05-18,"{'rsi_14': 0.16, 'macd': 0.15, 'volume': 0.15, 'sod_14': 0.14, 'macdh': 0.12, 'wr_14': 0.1, 'obv_2': 0.09, 'roc_2': 0.09}",0.8376623376623377,2.0,0.8376623376623377,"(725, 8)",Strong Buy,KHC
218,0.7597173144876325,37.27,2018-05-18,"{'sod_14': 0.17, 'macd': 0.15, 'macdh': 0.14, 'volume': 0.13, 'rsi_14': 0.11, 'wr_14': 0.11, 'obv_2': 0.1, 'roc_2': 0.09}",0.7597173144876325,-1.0,0.7597173144876325,"(1239, 8)",Sell,FOX
219,0.823321554770318,37.66,2018-05-18,"{'macd': 0.15, 'macdh': 0.15, 'sod_14': 0.14, 'volume': 0.13, 'rsi_14': 0.12, 'obv_2': 0.11, 'wr_14': 0.11, 'roc_2': 0.09}",0.823321554770318,-2.0,0.823321554770318,"(1239, 8)",Strong Sell,FOXA
220,0.8160535117056856,255.59,2018-05-18,"{'macd': 0.17, 'volume': 0.15, 'macdh': 0.14, 'rsi_14': 0.14, 'wr_14': 0.11, 'sod_14': 0.11, 'obv_2': 0.1, 'roc_2': 0.08}",0.8160535117056856,-1.0,0.8160535117056856,"(1303, 8)",Sell,ULTA
221,0.7157190635451505,106.31,2018-05-18,"{'macd': 0.15, 'volume': 0.14, 'macdh': 0.13, 'rsi_14': 0.13, 'sod_14': 0.13, 'wr_14': 0.12, 'obv_2': 0.11, 'roc_2': 0.09}",0.7157190635451505,1.0,0.7157190635451505,"(1303, 8)",Buy,VRSK
222,0.7424749163879598,157.24,2018-05-18,"{'macd': 0.15, 'sod_14': 0.14, 'macdh': 0.13, 'rsi_14': 0.13, 'volume': 0.13, 'obv_2': 0.11, 'roc_2': 0.11, 'wr_14': 0.11}",0.7424749163879598,2.0,0.7424749163879598,"(1303, 8)",Strong Buy,VRTX
223,0.8294314381270903,26.41,2018-05-18,"{'macd': 0.17, 'macdh': 0.14, 'rsi_14': 0.14, 'sod_14': 0.14, 'volume': 0.12, 'obv_2': 0.11, 'wr_14': 0.11, 'roc_2': 0.08}",0.8294314381270903,-2.0,0.8294314381270903,"(1303, 8)",Strong Sell,VOD
224,0.7759197324414716,64.34,2018-05-18,"{'rsi_14': 0.14, 'sod_14': 0.14, 'macd': 0.13, 'macdh': 0.13, 'volume': 0.13, 'obv_2': 0.12, 'wr_14': 0.11, 'roc_2': 0.1}",0.7759197324414716,-2.0,0.7759197324414716,"(1303, 8)",Strong Sell,WBA
225,0.8260869565217391,84.75,2018-05-18,"{'volume': 0.16, 'macd': 0.15, 'sod_14': 0.14, 'rsi_14': 0.13, 'macdh': 0.12, 'obv_2': 0.11, 'wr_14': 0.1, 'roc_2': 0.09}",0.8260869565217391,-1.0,0.8260869565217391,"(1303, 8)",Sell,WDC
226,0.7023411371237458,134.48,2018-05-18,"{'macd': 0.15, 'rsi_14': 0.14, 'volume': 0.14, 'sod_14': 0.13, 'macdh': 0.12, 'obv_2': 0.12, 'wr_14': 0.11, 'roc_2': 0.1}",0.7023411371237458,-2.0,0.7023411371237458,"(1303, 8)",Strong Sell,WDAY
227,0.8461538461538461,189.03,2018-05-18,"{'macd': 0.18, 'volume': 0.16, 'rsi_14': 0.14, 'macdh': 0.12, 'sod_14': 0.12, 'obv_2': 0.1, 'wr_14': 0.09, 'roc_2': 0.07}",0.8461538461538461,1.0,0.8461538461538461,"(1303, 8)",Buy,WYNN
228,0.7391304347826086,71.23,2018-05-18,"{'macd': 0.16, 'macdh': 0.14, 'sod_14': 0.13, 'obv_2': 0.12, 'rsi_14': 0.12, 'volume': 0.12, 'wr_14': 0.12, 'roc_2': 0.09}",0.7391304347826086,-2.0,0.7391304347826086,"(1303, 8)",Strong Sell,XLNX
229,0.7859531772575251,18.89,2018-05-18,"{'macd': 0.17, 'volume': 0.14, 'sod_14': 0.14, 'macdh': 0.13, 'rsi_14': 0.13, 'wr_14': 0.1, 'obv_2': 0.09, 'roc_2': 0.09}",0.7859531772575251,-2.0,0.7859531772575251,"(1304, 8)",Strong Sell,AGNC
230,0.7357859531772575,121.37,2018-05-18,"{'volume': 0.14, 'sod_14': 0.14, 'obv_2': 0.13, 'rsi_14': 0.13, 'macd': 0.12, 'macdh': 0.12, 'wr_14': 0.11, 'roc_2': 0.1}",0.7357859531772575,2.0,0.7357859531772575,"(1304, 8)",Strong Buy,ANAT
231,0.8193979933110368,13.76,2018-05-18,"{'macd': 0.15, 'volume': 0.15, 'macdh': 0.14, 'sod_14': 0.13, 'rsi_14': 0.12, 'obv_2': 0.11, 'roc_2': 0.1, 'wr_14': 0.1}",0.8193979933110368,-2.0,0.8193979933110368,"(1304, 8)",Strong Sell,AFSI
232,0.8060200668896321,78.67,2018-05-18,"{'rsi_14': 0.15, 'sod_14': 0.15, 'macd': 0.14, 'volume': 0.14, 'macdh': 0.13, 'wr_14': 0.11, 'obv_2': 0.1, 'roc_2': 0.09}",0.8060200668896321,1.0,0.8060200668896321,"(1304, 8)",Buy,ACGL
233,0.7591973244147158,48.48,2018-05-18,"{'macd': 0.17, 'volume': 0.16, 'macdh': 0.14, 'sod_14': 0.14, 'rsi_14': 0.12, 'obv_2': 0.1, 'wr_14': 0.1, 'roc_2': 0.08}",0.7591973244147158,2.0,0.7591973244147158,"(1303, 8)",Strong Buy,OZRK
234,0.7357859531772575,58.11,2018-05-18,"{'macd': 0.16, 'macdh': 0.14, 'volume': 0.14, 'rsi_14': 0.13, 'sod_14': 0.13, 'obv_2': 0.11, 'wr_14': 0.1, 'roc_2': 0.09}",0.7357859531772575,-1.0,0.7357859531772575,"(1304, 8)",Sell,BANR
235,0.7558528428093646,12.24,2018-05-18,"{'macd': 0.16, 'sod_14': 0.15, 'macdh': 0.14, 'rsi_14': 0.13, 'volume': 0.11, 'wr_14': 0.11, 'obv_2': 0.1, 'roc_2': 0.09}",0.7558528428093646,1.0,0.7558528428093646,"(1304, 8)",Buy,BGCP
236,0.8494983277591973,41.69,2018-05-18,"{'macd': 0.16, 'volume': 0.15, 'sod_14': 0.15, 'macdh': 0.13, 'rsi_14': 0.12, 'obv_2': 0.1, 'wr_14': 0.1, 'roc_2': 0.08}",0.8494983277591973,2.0,0.8494983277591973,"(1304, 8)",Strong Buy,BOFI
237,0.7558528428093646,104.13,2018-05-18,"{'volume': 0.17, 'macd': 0.15, 'macdh': 0.15, 'rsi_14': 0.12, 'sod_14': 0.12, 'obv_2': 0.11, 'wr_14': 0.09, 'roc_2': 0.08}",0.7558528428093646,-1.0,0.7558528428093646,"(1304, 8)",Sell,BOKF
238,0.7692307692307693,47.18,2018-05-18,"{'obv_2': 0.19, 'volume': 0.18, 'macd': 0.14, 'rsi_14': 0.11, 'sod_14': 0.11, 'macdh': 0.1, 'wr_14': 0.1, 'roc_2': 0.08}",0.7692307692307693,2.0,0.7692307692307693,"(213, 8)",Strong Buy,BHF
239,0.7424749163879598,13.1,2018-05-18,"{'macd': 0.17, 'macdh': 0.15, 'sod_14': 0.14, 'rsi_14': 0.13, 'volume': 0.13, 'obv_2': 0.1, 'roc_2': 0.09, 'wr_14': 0.09}",0.7424749163879598,2.0,0.7424749163879598,"(1303, 8)",Strong Buy,CFFN
240,0.68561872909699,42.04,2018-05-18,"{'macdh': 0.16, 'macd': 0.14, 'rsi_14': 0.13, 'volume': 0.13, 'sod_14': 0.13, 'obv_2': 0.11, 'wr_14': 0.11, 'roc_2': 0.09}",0.68561872909699,-1.0,0.68561872909699,"(1303, 8)",Sell,CATY
241,0.7759197324414716,106.56,2018-05-18,"{'macd': 0.17, 'volume': 0.16, 'rsi_14': 0.14, 'macdh': 0.13, 'sod_14': 0.12, 'obv_2': 0.11, 'wr_14': 0.09, 'roc_2': 0.08}",0.7759197324414716,1.0,0.7759197324414716,"(1303, 8)",Buy,CBOE
242,0.6622073578595318,55.96,2018-05-18,"{'volume': 0.16, 'macdh': 0.15, 'macd': 0.14, 'sod_14': 0.13, 'rsi_14': 0.12, 'obv_2': 0.1, 'wr_14': 0.1, 'roc_2': 0.09}",0.6622073578595318,1.0,0.6622073578595318,"(1303, 8)",Buy,CHFC
243,0.8050847457627118,15.05,2018-05-18,"{'macd': 0.15, 'sod_14': 0.15, 'macdh': 0.14, 'rsi_14': 0.14, 'volume': 0.12, 'roc_2': 0.1, 'wr_14': 0.1, 'obv_2': 0.09}",0.8050847457627118,2.0,0.8050847457627118,"(1051, 8)",Strong Buy,CMCT
244,0.725752508361204,70.73,2018-05-18,"{'macd': 0.14, 'macdh': 0.14, 'rsi_14': 0.14, 'volume': 0.13, 'sod_14': 0.13, 'obv_2': 0.11, 'wr_14': 0.11, 'roc_2': 0.09}",0.725752508361204,1.0,0.725752508361204,"(1303, 8)",Buy,CINF
245,0.7090301003344481,159.78,2018-05-18,"{'macd': 0.15, 'volume': 0.14, 'macdh': 0.13, 'rsi_14': 0.13, 'sod_14': 0.13, 'obv_2': 0.12, 'wr_14': 0.11, 'roc_2': 0.1}",0.7090301003344481,1.0,0.7090301003344481,"(1303, 8)",Buy,CME
246,0.7993311036789298,76.4,2018-05-18,"{'macd': 0.16, 'macdh': 0.15, 'rsi_14': 0.13, 'volume': 0.13, 'sod_14': 0.13, 'obv_2': 0.11, 'wr_14': 0.1, 'roc_2': 0.09}",0.7993311036789298,-1.0,0.7993311036789298,"(1303, 8)",Sell,CIGI
247,0.7558528428093646,42.68,2018-05-18,"{'macd': 0.16, 'macdh': 0.15, 'sod_14': 0.14, 'rsi_14': 0.12, 'volume': 0.12, 'obv_2': 0.11, 'roc_2': 0.1, 'wr_14': 0.1}",0.7558528428093646,1.0,0.7558528428093646,"(1303, 8)",Buy,COLB
248,0.7224080267558528,64.59,2018-05-18,"{'macd': 0.14, 'volume': 0.14, 'sod_14': 0.14, 'macdh': 0.13, 'obv_2': 0.12, 'rsi_14': 0.12, 'wr_14': 0.11, 'roc_2': 0.09}",0.7224080267558528,-2.0,0.7224080267558528,"(1303, 8)",Strong Sell,CBSH
249,0.7959866220735786,352.06,2018-05-18,"{'volume': 0.15, 'macd': 0.14, 'macdh': 0.14, 'sod_14': 0.14, 'rsi_14': 0.13, 'obv_2': 0.11, 'wr_14': 0.11, 'roc_2': 0.09}",0.7959866220735786,2.0,0.7959866220735786,"(1303, 8)",Strong Buy,CACC
250,0.6688963210702341,23.14,2018-05-18,"{'macd': 0.17, 'macdh': 0.16, 'rsi_14': 0.14, 'volume': 0.12, 'sod_14': 0.12, 'obv_2': 0.1, 'roc_2': 0.1, 'wr_14': 0.1}",0.6688963210702341,1.0,0.6688963210702341,"(1303, 8)",Buy,CVBF
251,0.822742474916388,52.14,2018-05-18,"{'macd': 0.15, 'rsi_14': 0.15, 'volume': 0.15, 'macdh': 0.13, 'sod_14': 0.12, 'obv_2': 0.11, 'wr_14': 0.1, 'roc_2': 0.08}",0.822742474916388,-2.0,0.822742474916388,"(1303, 8)",Strong Sell,CONE
252,0.7424749163879598,64.66,2018-05-18,"{'macd': 0.16, 'volume': 0.14, 'macdh': 0.13, 'rsi_14': 0.13, 'sod_14': 0.13, 'obv_2': 0.11, 'wr_14': 0.1, 'roc_2': 0.09}",0.7424749163879598,1.0,0.7424749163879598,"(1303, 8)",Buy,ETFC
253,0.7859531772575251,70.48,2018-05-18,"{'macd': 0.17, 'macdh': 0.14, 'rsi_14': 0.14, 'volume': 0.13, 'sod_14': 0.12, 'obv_2': 0.11, 'wr_14': 0.11, 'roc_2': 0.09}",0.7859531772575251,-1.0,0.7859531772575251,"(1303, 8)",Sell,EWBC
254,0.7491638795986622,212.2,2018-05-18,"{'macd': 0.18, 'macdh': 0.14, 'sod_14': 0.13, 'rsi_14': 0.12, 'volume': 0.12, 'roc_2': 0.11, 'wr_14': 0.11, 'obv_2': 0.1}",0.7491638795986622,-1.0,0.7491638795986622,"(1303, 8)",Sell,ESGR
255,0.7190635451505016,385.86,2018-05-18,"{'volume': 0.16, 'macd': 0.15, 'rsi_14': 0.13, 'macdh': 0.12, 'obv_2': 0.12, 'sod_14': 0.12, 'wr_14': 0.11, 'roc_2': 0.09}",0.7190635451505016,-2.0,0.7190635451505016,"(1303, 8)",Strong Sell,EQIX
256,0.802675585284281,111.75,2018-05-18,"{'macd': 0.15, 'sod_14': 0.15, 'macdh': 0.14, 'volume': 0.14, 'rsi_14': 0.12, 'obv_2': 0.1, 'wr_14': 0.1, 'roc_2': 0.09}",0.802675585284281,-1.0,0.802675585284281,"(1303, 8)",Sell,ERIE
257,0.7591973244147158,33.56,2018-05-18,"{'macd': 0.16, 'macdh': 0.14, 'sod_14': 0.14, 'volume': 0.13, 'rsi_14': 0.12, 'obv_2': 0.11, 'wr_14': 0.11, 'roc_2': 0.09}",0.7591973244147158,2.0,0.7591973244147158,"(1303, 8)",Strong Buy,FITB
258,0.7859531772575251,44.6,2018-05-18,"{'macd': 0.15, 'sod_14': 0.15, 'macdh': 0.14, 'rsi_14': 0.14, 'volume': 0.14, 'wr_14': 0.11, 'obv_2': 0.09, 'roc_2': 0.08}",0.7859531772575251,-1.0,0.7859531772575251,"(1303, 8)",Sell,FNGN
259,0.6789297658862876,449.95,2018-05-18,"{'sod_14': 0.15, 'macd': 0.14, 'volume': 0.14, 'macdh': 0.13, 'rsi_14': 0.12, 'obv_2': 0.11, 'wr_14': 0.11, 'roc_2': 0.1}",0.6789297658862876,-2.0,0.6789297658862876,"(1303, 8)",Strong Sell,FCNCA
260,0.6086956521739131,31.65,2018-05-18,"{'macd': 0.15, 'sod_14': 0.14, 'rsi_14': 0.13, 'volume': 0.13, 'macdh': 0.12, 'wr_14': 0.12, 'obv_2': 0.11, 'roc_2': 0.1}",0.6086956521739131,-2.0,0.6086956521739131,"(1303, 8)",Strong Sell,FFBC
261,0.7692307692307693,52.6,2018-05-18,"{'sod_14': 0.16, 'macd': 0.15, 'macdh': 0.13, 'rsi_14': 0.13, 'volume': 0.13, 'wr_14': 0.11, 'obv_2': 0.1, 'roc_2': 0.09}",0.7692307692307693,-1.0,0.7692307692307693,"(1303, 8)",Sell,FFIN
262,0.813953488372093,28.32,2018-05-18,"{'macd': 0.17, 'rsi_14': 0.16, 'volume': 0.14, 'macdh': 0.12, 'obv_2': 0.12, 'sod_14': 0.11, 'wr_14': 0.1, 'roc_2': 0.09}",0.813953488372093,-1.0,0.813953488372093,"(451, 8)",Sell,FHB
263,0.7090301003344481,25.38,2018-05-18,"{'macd': 0.14, 'rsi_14': 0.14, 'volume': 0.14, 'macdh': 0.13, 'sod_14': 0.13, 'obv_2': 0.11, 'wr_14': 0.11, 'roc_2': 0.1}",0.7090301003344481,-1.0,0.7090301003344481,"(1303, 8)",Sell,FMBI
264,0.73125,70.71,2018-05-18,"{'rsi_14': 0.16, 'macd': 0.15, 'volume': 0.14, 'sod_14': 0.13, 'macdh': 0.12, 'wr_14': 0.11, 'roc_2': 0.1, 'obv_2': 0.09}",0.73125,-2.0,0.73125,"(748, 8)",Strong Sell,FSV
265,0.6956521739130435,17.3,2018-05-18,"{'macdh': 0.15, 'macd': 0.14, 'volume': 0.13, 'sod_14': 0.13, 'rsi_14': 0.12, 'obv_2': 0.11, 'wr_14': 0.11, 'roc_2': 0.1}",0.6956521739130435,1.0,0.6956521739130435,"(1303, 8)",Buy,FULT
266,0.8506224066390041,34.58,2018-05-18,"{'macd': 0.2, 'volume': 0.14, 'macdh': 0.13, 'rsi_14': 0.13, 'sod_14': 0.11, 'obv_2': 0.1, 'wr_14': 0.1, 'roc_2': 0.08}",0.8506224066390041,-2.0,0.8506224066390041,"(1072, 8)",Strong Sell,GLPI
267,0.7692307692307693,39.37,2018-05-18,"{'macd': 0.15, 'macdh': 0.15, 'sod_14': 0.15, 'rsi_14': 0.14, 'volume': 0.12, 'obv_2': 0.1, 'wr_14': 0.1, 'roc_2': 0.09}",0.7692307692307693,1.0,0.7692307692307693,"(1303, 8)",Buy,GBCI
268,0.7658862876254181,51.8,2018-05-18,"{'macd': 0.15, 'sod_14': 0.15, 'macdh': 0.14, 'volume': 0.14, 'rsi_14': 0.13, 'obv_2': 0.11, 'wr_14': 0.11, 'roc_2': 0.08}",0.7658862876254181,1.0,0.7658862876254181,"(1303, 8)",Buy,HBHC
269,0.7264150943396226,73.72,2018-05-18,"{'volume': 0.16, 'sod_14': 0.15, 'rsi_14': 0.14, 'macd': 0.13, 'macdh': 0.12, 'wr_14': 0.12, 'obv_2': 0.1, 'roc_2': 0.09}",0.7264150943396226,1.0,0.7264150943396226,"(958, 8)",Buy,HQY
270,0.7491638795986622,23.44,2018-05-18,"{'macd': 0.15, 'volume': 0.15, 'sod_14': 0.14, 'rsi_14': 0.13, 'macdh': 0.12, 'obv_2': 0.11, 'wr_14': 0.11, 'roc_2': 0.09}",0.7491638795986622,-1.0,0.7491638795986622,"(1303, 8)",Sell,HOMB
271,0.6923076923076923,15.12,2018-05-18,"{'sod_14': 0.15, 'macd': 0.14, 'macdh': 0.13, 'rsi_14': 0.13, 'volume': 0.13, 'wr_14': 0.12, 'obv_2': 0.1, 'roc_2': 0.1}",0.6923076923076923,2.0,0.6923076923076923,"(1303, 8)",Strong Buy,HBAN
272,0.7324414715719063,79.45,2018-05-18,"{'macd': 0.15, 'macdh': 0.14, 'volume': 0.14, 'sod_14': 0.14, 'rsi_14': 0.12, 'obv_2': 0.11, 'wr_14': 0.1, 'roc_2': 0.09}",0.7324414715719063,1.0,0.7324414715719063,"(1303, 8)",Buy,IBKC
273,0.8454545454545455,51.43,2018-05-18,"{'sod_14': 0.15, 'macd': 0.14, 'rsi_14': 0.14, 'volume': 0.14, 'macdh': 0.13, 'obv_2': 0.12, 'wr_14': 0.1, 'roc_2': 0.09}",0.8454545454545455,1.0,0.8454545454545455,"(987, 8)",Buy,INFO
274,0.6555183946488294,74.85,2018-05-18,"{'macd': 0.17, 'sod_14': 0.15, 'rsi_14': 0.14, 'macdh': 0.13, 'volume': 0.12, 'obv_2': 0.11, 'wr_14': 0.1, 'roc_2': 0.09}",0.6555183946488294,1.0,0.6555183946488294,"(1303, 8)",Buy,INDB
275,0.7993311036789298,77.6,2018-05-18,"{'rsi_14': 0.16, 'macd': 0.15, 'macdh': 0.15, 'volume': 0.13, 'sod_14': 0.12, 'obv_2': 0.1, 'wr_14': 0.1, 'roc_2': 0.09}",0.7993311036789298,-2.0,0.7993311036789298,"(1303, 8)",Strong Sell,IBKR
276,0.7190635451505016,42.8,2018-05-18,"{'macd': 0.16, 'macdh': 0.13, 'rsi_14': 0.13, 'volume': 0.13, 'sod_14': 0.12, 'obv_2': 0.11, 'wr_14': 0.11, 'roc_2': 0.1}",0.7190635451505016,-1.0,0.7190635451505016,"(1303, 8)",Sell,IBOC
277,0.7558528428093646,13.54,2018-05-18,"{'volume': 0.2, 'macd': 0.14, 'macdh': 0.13, 'sod_14': 0.13, 'rsi_14': 0.12, 'obv_2': 0.11, 'roc_2': 0.09, 'wr_14': 0.09}",0.7558528428093646,2.0,0.7558528428093646,"(1303, 8)",Strong Buy,ISBC
278,0.7525083612040134,68.38,2018-05-18,"{'macd': 0.16, 'volume': 0.14, 'sod_14': 0.14, 'macdh': 0.13, 'rsi_14': 0.13, 'obv_2': 0.11, 'wr_14': 0.11, 'roc_2': 0.09}",0.7525083612040134,1.0,0.7525083612040134,"(1303, 8)",Buy,LAMR
279,0.7491638795986622,43.51,2018-05-18,"{'macd': 0.15, 'rsi_14': 0.15, 'sod_14': 0.15, 'macdh': 0.14, 'volume': 0.13, 'wr_14': 0.11, 'obv_2': 0.1, 'roc_2': 0.09}",0.7491638795986622,-1.0,0.7491638795986622,"(1303, 8)",Sell,LTXB
280,0.7908163265306123,70.95,2018-05-18,"{'macd': 0.18, 'volume': 0.16, 'macdh': 0.13, 'rsi_14': 0.13, 'sod_14': 0.12, 'wr_14': 0.11, 'obv_2': 0.1, 'roc_2': 0.08}",0.7908163265306123,-2.0,0.7908163265306123,"(891, 8)",Strong Sell,LBRDK
281,0.842809364548495,70.47,2018-05-18,"{'sod_14': 0.15, 'macd': 0.14, 'rsi_14': 0.14, 'macdh': 0.13, 'volume': 0.13, 'wr_14': 0.11, 'obv_2': 0.1, 'roc_2': 0.1}",0.842809364548495,-1.0,0.842809364548495,"(1303, 8)",Sell,LPLA
282,0.7424749163879598,204.72,2018-05-18,"{'macd': 0.15, 'macdh': 0.14, 'rsi_14': 0.14, 'volume': 0.14, 'sod_14': 0.14, 'wr_14': 0.12, 'obv_2': 0.1, 'roc_2': 0.08}",0.7424749163879598,-2.0,0.7424749163879598,"(1303, 8)",Strong Sell,MKTX
283,0.7424749163879598,43.65,2018-05-18,"{'macd': 0.15, 'macdh': 0.14, 'sod_14': 0.14, 'rsi_14': 0.13, 'volume': 0.13, 'obv_2': 0.12, 'roc_2': 0.1, 'wr_14': 0.1}",0.7424749163879598,1.0,0.7424749163879598,"(1303, 8)",Buy,MBFI
284,0.7190635451505016,90.07,2018-05-18,"{'volume': 0.15, 'macd': 0.14, 'rsi_14': 0.14, 'macdh': 0.13, 'obv_2': 0.12, 'sod_14': 0.12, 'wr_14': 0.11, 'roc_2': 0.09}",0.7190635451505016,-2.0,0.7190635451505016,"(1303, 8)",Strong Sell,NDAQ
285,0.7666666666666667,26.45,2018-05-18,"{'macd': 0.15, 'volume': 0.15, 'sod_14': 0.14, 'macdh': 0.13, 'rsi_14': 0.12, 'obv_2': 0.11, 'wr_14': 0.11, 'roc_2': 0.09}",0.7666666666666667,-1.0,0.7666666666666667,"(1070, 8)",Sell,NGHC
286,0.8521739130434782,14.07,2018-05-18,"{'macd': 0.15, 'rsi_14': 0.15, 'volume': 0.15, 'macdh': 0.14, 'sod_14': 0.13, 'obv_2': 0.1, 'wr_14': 0.1, 'roc_2': 0.08}",0.8521739130434782,2.0,0.8521739130434782,"(1030, 8)",Strong Buy,NAVI
287,0.6755852842809364,38.1,2018-05-18,"{'macd': 0.16, 'volume': 0.14, 'sod_14': 0.14, 'macdh': 0.13, 'rsi_14': 0.12, 'obv_2': 0.11, 'wr_14': 0.11, 'roc_2': 0.1}",0.6755852842809364,2.0,0.6755852842809364,"(1303, 8)",Strong Buy,NBTB
288,0.6956521739130435,107.82,2018-05-18,"{'macd': 0.15, 'macdh': 0.14, 'rsi_14': 0.14, 'sod_14': 0.14, 'volume': 0.12, 'wr_14': 0.11, 'obv_2': 0.1, 'roc_2': 0.1}",0.6956521739130435,2.0,0.6956521739130435,"(1303, 8)",Strong Buy,NTRS
289,0.7959866220735786,16.95,2018-05-18,"{'macd': 0.15, 'macdh': 0.15, 'volume': 0.13, 'sod_14': 0.13, 'rsi_14': 0.12, 'obv_2': 0.11, 'wr_14': 0.11, 'roc_2': 0.1}",0.7959866220735786,-2.0,0.7959866220735786,"(1303, 8)",Strong Sell,NWBI
290,0.7792642140468228,17.85,2018-05-18,"{'macd': 0.15, 'macdh': 0.14, 'volume': 0.14, 'rsi_14': 0.12, 'sod_14': 0.12, 'obv_2': 0.11, 'wr_14': 0.11, 'roc_2': 0.1}",0.7792642140468228,2.0,0.7792642140468228,"(1303, 8)",Strong Buy,ONB
291,0.7090301003344481,53.87,2018-05-18,"{'volume': 0.18, 'sod_14': 0.14, 'macd': 0.13, 'macdh': 0.13, 'rsi_14': 0.12, 'obv_2': 0.11, 'wr_14': 0.11, 'roc_2': 0.09}",0.7090301003344481,-2.0,0.7090301003344481,"(1303, 8)",Strong Sell,PACW
292,0.6956521739130435,18.63,2018-05-18,"{'macd': 0.15, 'sod_14': 0.14, 'macdh': 0.13, 'rsi_14': 0.13, 'volume': 0.13, 'obv_2': 0.11, 'wr_14': 0.11, 'roc_2': 0.1}",0.6956521739130435,2.0,0.6956521739130435,"(1303, 8)",Strong Buy,PBCT
293,0.7224080267558528,66.55,2018-05-18,"{'volume': 0.16, 'macd': 0.15, 'macdh': 0.15, 'rsi_14': 0.12, 'sod_14': 0.12, 'obv_2': 0.11, 'wr_14': 0.11, 'roc_2': 0.08}",0.7224080267558528,-1.0,0.7224080267558528,"(1303, 8)",Sell,PNFP
294,0.7224080267558528,46.77,2018-05-18,"{'sod_14': 0.16, 'macd': 0.14, 'volume': 0.14, 'macdh': 0.13, 'rsi_14': 0.12, 'obv_2': 0.11, 'wr_14': 0.11, 'roc_2': 0.09}",0.7224080267558528,-2.0,0.7224080267558528,"(1304, 8)",Strong Sell,BPOP
295,0.7993311036789298,48.3,2018-05-18,"{'macd': 0.15, 'macdh': 0.14, 'volume': 0.13, 'sod_14': 0.13, 'rsi_14': 0.12, 'obv_2': 0.11, 'wr_14': 0.11, 'roc_2': 0.1}",0.7993311036789298,-1.0,0.7993311036789298,"(1303, 8)",Sell,PCH
296,0.7792642140468228,39.9,2018-05-18,"{'macd': 0.16, 'volume': 0.15, 'rsi_14': 0.14, 'macdh': 0.12, 'sod_14': 0.12, 'obv_2': 0.11, 'roc_2': 0.1, 'wr_14': 0.1}",0.7792642140468228,-2.0,0.7792642140468228,"(1303, 8)",Strong Sell,PRAA
297,0.7290969899665551,58.8,2018-05-18,"{'sod_14': 0.17, 'volume': 0.15, 'macd': 0.14, 'macdh': 0.12, 'obv_2': 0.12, 'rsi_14': 0.11, 'wr_14': 0.1, 'roc_2': 0.09}",0.7290969899665551,1.0,0.7290969899665551,"(1303, 8)",Buy,PFG
298,0.7290969899665551,47.1,2018-05-18,"{'macd': 0.14, 'macdh': 0.14, 'volume': 0.14, 'sod_14': 0.13, 'rsi_14': 0.12, 'obv_2': 0.11, 'wr_14': 0.11, 'roc_2': 0.1}",0.7290969899665551,-2.0,0.7290969899665551,"(1303, 8)",Strong Sell,RNST
299,0.7190635451505016,17.16,2018-05-18,"{'volume': 0.17, 'rsi_14': 0.14, 'macd': 0.13, 'macdh': 0.12, 'obv_2': 0.12, 'sod_14': 0.12, 'wr_14': 0.11, 'roc_2': 0.09}",0.7190635451505016,-1.0,0.7190635451505016,"(1303, 8)",Sell,ROIC
300,0.7926421404682275,19.13,2018-05-18,"{'volume': 0.16, 'macd': 0.13, 'macdh': 0.13, 'rsi_14': 0.13, 'sod_14': 0.13, 'obv_2': 0.12, 'wr_14': 0.1, 'roc_2': 0.09}",0.7926421404682275,-2.0,0.7926421404682275,"(1303, 8)",Strong Sell,SBRA
301,0.745819397993311,157.69,2018-05-18,"{'macd': 0.15, 'rsi_14': 0.14, 'volume': 0.14, 'macdh': 0.13, 'sod_14': 0.13, 'obv_2': 0.11, 'wr_14': 0.1, 'roc_2': 0.09}",0.745819397993311,-1.0,0.745819397993311,"(1303, 8)",Sell,SBAC
302,0.7725752508361204,65.15,2018-05-18,"{'macd': 0.18, 'volume': 0.14, 'macdh': 0.13, 'rsi_14': 0.13, 'sod_14': 0.13, 'obv_2': 0.11, 'wr_14': 0.11, 'roc_2': 0.09}",0.7725752508361204,1.0,0.7725752508361204,"(1303, 8)",Buy,SEIC
303,0.6822742474916388,56.1,2018-05-18,"{'rsi_14': 0.16, 'volume': 0.14, 'macd': 0.13, 'sod_14': 0.13, 'macdh': 0.12, 'wr_14': 0.11, 'obv_2': 0.1, 'roc_2': 0.1}",0.6822742474916388,2.0,0.6822742474916388,"(1303, 8)",Strong Buy,SIGI
304,0.7610619469026548,43.18,2018-05-18,"{'macd': 0.17, 'volume': 0.15, 'macdh': 0.13, 'sod_14': 0.13, 'obv_2': 0.11, 'rsi_14': 0.11, 'wr_14': 0.1, 'roc_2': 0.09}",0.7610619469026548,2.0,0.7610619469026548,"(1012, 8)",Strong Buy,SFBS
305,0.8060200668896321,129.31,2018-05-18,"{'volume': 0.16, 'macdh': 0.15, 'macd': 0.14, 'sod_14': 0.13, 'rsi_14': 0.12, 'obv_2': 0.11, 'wr_14': 0.1, 'roc_2': 0.09}",0.8060200668896321,1.0,0.8060200668896321,"(1303, 8)",Buy,SBNY
306,0.7625418060200669,31.1,2018-05-18,"{'volume': 0.17, 'macd': 0.15, 'sod_14': 0.14, 'macdh': 0.12, 'obv_2': 0.11, 'rsi_14': 0.11, 'wr_14': 0.11, 'roc_2': 0.09}",0.7625418060200669,-2.0,0.7625418060200669,"(1303, 8)",Strong Sell,SFNC
307,0.7892976588628763,11.49,2018-05-18,"{'macd': 0.15, 'sod_14': 0.15, 'macdh': 0.14, 'rsi_14': 0.14, 'volume': 0.13, 'wr_14': 0.11, 'obv_2': 0.09, 'roc_2': 0.09}",0.7892976588628763,2.0,0.7892976588628763,"(1303, 8)",Strong Buy,SLM
308,0.7926421404682275,88.7,2018-05-18,"{'macd': 0.15, 'volume': 0.15, 'macdh': 0.14, 'rsi_14': 0.13, 'sod_14': 0.13, 'obv_2': 0.11, 'wr_14': 0.11, 'roc_2': 0.09}",0.7926421404682275,-2.0,0.7926421404682275,"(1303, 8)",Strong Sell,SSB
309,0.8093645484949833,321.78,2018-05-18,"{'macd': 0.15, 'volume': 0.15, 'sod_14': 0.14, 'macdh': 0.13, 'rsi_14': 0.13, 'wr_14': 0.11, 'obv_2': 0.1, 'roc_2': 0.08}",0.8093645484949833,1.0,0.8093645484949833,"(1303, 8)",Buy,SIVB
310,0.7558528428093646,120.59,2018-05-18,"{'volume': 0.16, 'macd': 0.14, 'macdh': 0.13, 'rsi_14': 0.13, 'sod_14': 0.13, 'obv_2': 0.11, 'wr_14': 0.11, 'roc_2': 0.09}",0.7558528428093646,-2.0,0.7558528428093646,"(1303, 8)",Strong Sell,TROW
311,0.7692307692307693,60.69,2018-05-18,"{'macd': 0.16, 'sod_14': 0.14, 'macdh': 0.13, 'rsi_14': 0.13, 'volume': 0.12, 'wr_14': 0.11, 'obv_2': 0.1, 'roc_2': 0.09}",0.7692307692307693,-1.0,0.7692307692307693,"(1304, 8)",Sell,AMTD
312,0.8160535117056856,99.1,2018-05-18,"{'macd': 0.15, 'rsi_14': 0.15, 'macdh': 0.14, 'volume': 0.14, 'sod_14': 0.13, 'obv_2': 0.11, 'wr_14': 0.09, 'roc_2': 0.08}",0.8160535117056856,-2.0,0.8160535117056856,"(1303, 8)",Strong Sell,TCBI
313,0.7658862876254181,15.24,2018-05-18,"{'macd': 0.16, 'volume': 0.16, 'sod_14': 0.15, 'macdh': 0.12, 'rsi_14': 0.12, 'obv_2': 0.1, 'wr_14': 0.1, 'roc_2': 0.09}",0.7658862876254181,-2.0,0.7658862876254181,"(1303, 8)",Strong Sell,TFSL
314,0.7324414715719063,58.75,2018-05-18,"{'macd': 0.14, 'rsi_14': 0.14, 'macdh': 0.13, 'volume': 0.13, 'sod_14': 0.13, 'roc_2': 0.11, 'wr_14': 0.11, 'obv_2': 0.1}",0.7324414715719063,-1.0,0.7324414715719063,"(1303, 8)",Sell,NAVG
315,0.6722408026755853,32.4,2018-05-18,"{'macd': 0.14, 'macdh': 0.14, 'volume': 0.14, 'sod_14': 0.13, 'rsi_14': 0.12, 'wr_14': 0.12, 'obv_2': 0.11, 'roc_2': 0.1}",0.6722408026755853,-1.0,0.6722408026755853,"(1303, 8)",Sell,TRMK
316,0.7926421404682275,78.66,2018-05-18,"{'macd': 0.15, 'volume': 0.14, 'sod_14': 0.14, 'macdh': 0.13, 'rsi_14': 0.13, 'obv_2': 0.12, 'roc_2': 0.1, 'wr_14': 0.1}",0.7926421404682275,-2.0,0.7926421404682275,"(1303, 8)",Strong Sell,UMBF
317,0.6923076923076923,23.65,2018-05-18,"{'volume': 0.16, 'macd': 0.14, 'macdh': 0.14, 'sod_14': 0.14, 'obv_2': 0.12, 'rsi_14': 0.11, 'wr_14': 0.1, 'roc_2': 0.09}",0.6923076923076923,-2.0,0.6923076923076923,"(1303, 8)",Strong Sell,UMPQ
318,0.7357859531772575,35.9,2018-05-18,"{'macd': 0.17, 'volume': 0.15, 'macdh': 0.13, 'rsi_14': 0.13, 'sod_14': 0.12, 'obv_2': 0.11, 'wr_14': 0.1, 'roc_2': 0.09}",0.7357859531772575,2.0,0.7357859531772575,"(1303, 8)",Strong Buy,UBSI
319,0.7424749163879598,33.16,2018-05-18,"{'volume': 0.15, 'macd': 0.14, 'macdh': 0.14, 'rsi_14': 0.14, 'sod_14': 0.12, 'obv_2': 0.1, 'roc_2': 0.1, 'wr_14': 0.1}",0.7424749163879598,2.0,0.7424749163879598,"(1303, 8)",Strong Buy,UCBI
320,0.7724550898203593,20.04,2018-05-18,"{'macd': 0.16, 'macdh': 0.15, 'volume': 0.15, 'sod_14': 0.14, 'rsi_14': 0.13, 'wr_14': 0.11, 'obv_2': 0.09, 'roc_2': 0.08}",0.7724550898203593,-1.0,0.7724550898203593,"(778, 8)",Sell,UNIT
321,0.7391304347826086,32.2,2018-05-18,"{'macd': 0.15, 'sod_14': 0.15, 'macdh': 0.13, 'rsi_14': 0.13, 'volume': 0.13, 'obv_2': 0.11, 'wr_14': 0.11, 'roc_2': 0.09}",0.7391304347826086,2.0,0.7391304347826086,"(1303, 8)",Strong Buy,WAFD
322,0.7424749163879598,57.27,2018-05-18,"{'macd': 0.16, 'macdh': 0.14, 'rsi_14': 0.13, 'volume': 0.13, 'sod_14': 0.12, 'wr_14': 0.11, 'obv_2': 0.1, 'roc_2': 0.1}",0.7424749163879598,2.0,0.7424749163879598,"(1303, 8)",Strong Buy,WABC
323,0.6885245901639344,154.31,2018-05-18,"{'macd': 0.17, 'volume': 0.16, 'sod_14': 0.14, 'macdh': 0.13, 'rsi_14': 0.13, 'obv_2': 0.1, 'wr_14': 0.1, 'roc_2': 0.08}",0.6885245901639344,2.0,0.6885245901639344,"(598, 8)",Strong Buy,WLTW
324,0.6655518394648829,94.05,2018-05-18,"{'macd': 0.15, 'rsi_14': 0.15, 'macdh': 0.13, 'volume': 0.13, 'sod_14': 0.13, 'wr_14': 0.11, 'obv_2': 0.1, 'roc_2': 0.1}",0.6655518394648829,1.0,0.6655518394648829,"(1303, 8)",Buy,WTFC
325,0.7658862876254181,11.59,2018-05-18,"{'macd': 0.16, 'macdh': 0.15, 'volume': 0.14, 'rsi_14': 0.13, 'sod_14': 0.12, 'obv_2': 0.1, 'wr_14': 0.1, 'roc_2': 0.09}",0.7658862876254181,-2.0,0.7658862876254181,"(1303, 8)",Strong Sell,WETF
326,0.7525083612040134,51.66,2018-05-18,"{'macd': 0.17, 'volume': 0.15, 'rsi_14': 0.13, 'macdh': 0.12, 'obv_2': 0.12, 'sod_14': 0.12, 'wr_14': 0.11, 'roc_2': 0.08}",0.7525083612040134,2.0,0.7525083612040134,"(1303, 8)",Strong Buy,ZG
327,0.7190635451505016,57.77,2018-05-18,"{'macdh': 0.15, 'macd': 0.14, 'volume': 0.14, 'rsi_14': 0.13, 'sod_14': 0.12, 'obv_2': 0.11, 'wr_14': 0.11, 'roc_2': 0.09}",0.7190635451505016,1.0,0.7190635451505016,"(1303, 8)",Buy,ZION
