,(-1) close,(-1) date,accuracy,close,date,features,precision,prediction,recall,shape,signal,symbol
0,188.58,2018-05-25,0.8542372881355932,170.6442,2017-11-14,"{'volume': 0.17, 'macdh': 0.15, 'macd': 0.14, 'rsi_14': 0.13, 'sod_14': 0.13, 'wr_14': 0.11, 'obv_2': 0.09, 'roc_2': 0.08}",0.8542372881355932,1.0,0.8542372881355932,"(1309, 8)",Buy,AAPL
1,1075.66,2018-05-25,0.8043478260869565,1026.0,2017-11-14,"{'macd': 0.16, 'sod_14': 0.15, 'rsi_14': 0.14, 'macdh': 0.13, 'volume': 0.13, 'obv_2': 0.11, 'wr_14': 0.1, 'roc_2': 0.09}",0.8043478260869565,2.0,0.8043478260869565,"(1050, 8)",Buy Strong,GOOG
2,163.21,2018-05-25,0.8605442176870748,166.0631,2017-11-14,"{'macdh': 0.15, 'macd': 0.14, 'rsi_14': 0.14, 'volume': 0.13, 'obv_2': 0.12, 'sod_14': 0.12, 'wr_14': 0.11, 'roc_2': 0.09}",0.8605442176870748,2.0,0.8605442176870748,"(1308, 8)",Buy Strong,MCD
3,98.36,2018-05-25,0.7655172413793103,83.239,2017-11-14,"{'macd': 0.16, 'volume': 0.15, 'sod_14': 0.14, 'macdh': 0.12, 'obv_2': 0.12, 'rsi_14': 0.12, 'wr_14': 0.1, 'roc_2': 0.09}",0.7655172413793103,1.0,0.7655172413793103,"(1292, 8)",Buy,MSFT
