,(-1) close,(-1) date,accuracy,close,date,features,precision,prediction,recall,shape,signal,symbol
0,188.58,2018-05-25,0.8695652173913043,170.6442,2017-11-14,"{'rsi_14': 0.15, 'volume': 0.14, 'sod_14': 0.14, 'macd': 0.13, 'obv_2': 0.12, 'macdh': 0.11, 'wr_14': 0.11, 'roc_2': 0.1}",0.8695652173913043,2.0,0.8695652173913043,"(1309, 8)",Buy Strong,AAPL
1,1075.66,2018-05-25,0.8910505836575876,1026.0,2017-11-14,"{'rsi_14': 0.18, 'sod_14': 0.15, 'macd': 0.13, 'macdh': 0.12, 'volume': 0.12, 'obv_2': 0.11, 'roc_2': 0.1, 'wr_14': 0.1}",0.8910505836575876,2.0,0.8910505836575876,"(1050, 8)",Buy Strong,GOOG
2,163.21,2018-05-25,0.9658385093167702,166.0631,2017-11-14,"{'macd': 0.16, 'volume': 0.16, 'macdh': 0.13, 'obv_2': 0.12, 'rsi_14': 0.12, 'sod_14': 0.12, 'wr_14': 0.09, 'roc_2': 0.08}",0.9658385093167702,2.0,0.9658385093167702,"(1308, 8)",Buy Strong,MCD
3,98.36,2018-05-25,0.9276729559748428,83.239,2017-11-14,"{'macd': 0.15, 'macdh': 0.14, 'volume': 0.14, 'rsi_14': 0.13, 'sod_14': 0.13, 'obv_2': 0.11, 'wr_14': 0.11, 'roc_2': 0.09}",0.9276729559748428,2.0,0.9276729559748428,"(1292, 8)",Buy Strong,MSFT
