,(-1) close,(-1) date,accuracy,close,date,features,precision,prediction,recall,shape,signal,symbol
0,188.36,2018-05-23,0.7391304347826086,173.9607,2017-11-10,"{'macd': 0.15, 'rsi_14': 0.14, 'volume': 0.14, 'macdh': 0.13, 'sod_14': 0.13, 'obv_2': 0.12, 'roc_2': 0.1, 'wr_14': 0.1}",0.7391304347826086,1.0,0.7391304347826086,"(1307, 8)",Buy,AAPL
1,1079.69,2018-05-23,0.7276264591439688,1028.07,2017-11-10,"{'sod_14': 0.14, 'macd': 0.13, 'macdh': 0.13, 'rsi_14': 0.13, 'volume': 0.13, 'obv_2': 0.11, 'roc_2': 0.11, 'wr_14': 0.11}",0.7276264591439688,-1.0,0.7276264591439688,"(1048, 8)",Sell,GOOG
2,161.62,2018-05-23,0.7383177570093458,163.5738,2017-11-10,"{'macd': 0.14, 'rsi_14': 0.14, 'sod_14': 0.14, 'volume': 0.13, 'macdh': 0.12, 'obv_2': 0.12, 'roc_2': 0.1, 'wr_14': 0.1}",0.7383177570093458,2.0,0.7383177570093458,"(1306, 8)",Buy Strong,MCD
3,98.66,2018-05-23,0.6561514195583596,83.0608,2017-11-10,"{'macd': 0.16, 'volume': 0.14, 'macdh': 0.13, 'sod_14': 0.13, 'obv_2': 0.12, 'rsi_14': 0.12, 'wr_14': 0.11, 'roc_2': 0.1}",0.6561514195583596,1.0,0.6561514195583596,"(1290, 8)",Buy,MSFT
