,(-1) close,(-1) date,accuracy,close,date,features,precision,prediction,recall,shape,signal,symbol
0,186.31,2018-05-18,0.8122866894197952,173.4765,2017-11-07,"{'volume': 0.16, 'macd': 0.15, 'macdh': 0.14, 'rsi_14': 0.13, 'sod_14': 0.13, 'wr_14': 0.11, 'obv_2': 0.1, 'roc_2': 0.08}",0.8122866894197952,-1.0,0.8122866894197952,"(1304, 8)",Sell,AAPL
1,100.99,2018-05-18,0.7918088737201365,95.0347,2017-11-07,"{'macd': 0.17, 'rsi_14': 0.15, 'macdh': 0.14, 'volume': 0.13, 'sod_14': 0.13, 'obv_2': 0.1, 'wr_14': 0.1, 'roc_2': 0.08}",0.7918088737201365,-1.0,0.7918088737201365,"(1304, 8)",Sell,AXP
2,351.23,2018-05-18,0.856655290102389,263.4068,2017-11-07,"{'macd': 0.17, 'sod_14': 0.15, 'rsi_14': 0.14, 'volume': 0.14, 'macdh': 0.13, 'obv_2': 0.1, 'wr_14': 0.09, 'roc_2': 0.08}",0.856655290102389,1.0,0.856655290102389,"(1304, 8)",Buy,BA
3,155.71,2018-05-18,0.7474402730375427,138.1687,2017-11-07,"{'macd': 0.16, 'volume': 0.15, 'rsi_14': 0.14, 'sod_14': 0.13, 'macdh': 0.12, 'obv_2': 0.1, 'roc_2': 0.1, 'wr_14': 0.1}",0.7474402730375427,-1.0,0.7474402730375427,"(1303, 8)",Sell,CAT
4,43.21,2018-05-18,0.7918088737201365,34.1453,2017-11-07,"{'sod_14': 0.17, 'macd': 0.14, 'volume': 0.14, 'rsi_14': 0.13, 'macdh': 0.12, 'wr_14': 0.11, 'obv_2': 0.1, 'roc_2': 0.09}",0.7918088737201365,2.0,0.7918088737201365,"(1303, 8)",Buy Strong,CSCO
5,127.86,2018-05-18,0.78839590443686,115.0078,2017-11-07,"{'volume': 0.16, 'macdh': 0.14, 'sod_14': 0.14, 'macd': 0.13, 'rsi_14': 0.12, 'obv_2': 0.11, 'wr_14': 0.1, 'roc_2': 0.09}",0.78839590443686,1.0,0.78839590443686,"(1303, 8)",Buy,CVX
6,103.93,2018-05-18,0.8327645051194539,100.7992,2017-11-07,"{'macd': 0.18, 'rsi_14': 0.16, 'sod_14': 0.15, 'macdh': 0.13, 'volume': 0.11, 'wr_14': 0.1, 'obv_2': 0.09, 'roc_2': 0.07}",0.8327645051194539,-1.0,0.8327645051194539,"(1303, 8)",Sell,DIS
7,14.97,2018-05-18,0.7952218430034129,19.9067,2017-11-07,"{'macd': 0.16, 'volume': 0.15, 'macdh': 0.13, 'rsi_14': 0.13, 'sod_14': 0.13, 'obv_2': 0.1, 'roc_2': 0.1, 'wr_14': 0.1}",0.7952218430034129,-2.0,0.7952218430034129,"(1303, 8)",Sell Strong,GE
8,237.0,2018-05-18,0.6860068259385665,238.3896,2017-11-07,"{'macd': 0.15, 'rsi_14': 0.14, 'macdh': 0.13, 'volume': 0.13, 'sod_14': 0.13, 'obv_2': 0.12, 'roc_2': 0.1, 'wr_14': 0.1}",0.6860068259385665,-1.0,0.6860068259385665,"(1303, 8)",Sell,GS
9,187.42,2018-05-18,0.7713310580204779,161.9117,2017-11-07,"{'rsi_14': 0.15, 'macd': 0.14, 'macdh': 0.13, 'volume': 0.13, 'sod_14': 0.13, 'obv_2': 0.11, 'wr_14': 0.11, 'roc_2': 0.1}",0.7713310580204779,1.0,0.7713310580204779,"(1303, 8)",Buy,HD
10,144.08,2018-05-18,0.757679180887372,148.3912,2017-11-07,"{'macd': 0.14, 'macdh': 0.14, 'rsi_14': 0.14, 'volume': 0.13, 'sod_14': 0.13, 'obv_2': 0.11, 'wr_14': 0.11, 'roc_2': 0.09}",0.757679180887372,-1.0,0.757679180887372,"(1303, 8)",Sell,IBM
11,53.5,2018-05-18,0.7986348122866894,46.4648,2017-11-07,"{'macd': 0.17, 'sod_14': 0.15, 'macdh': 0.13, 'rsi_14': 0.13, 'volume': 0.13, 'obv_2': 0.1, 'wr_14': 0.1, 'roc_2': 0.09}",0.7986348122866894,1.0,0.7986348122866894,"(1303, 8)",Buy,INTC
12,124.24,2018-05-18,0.7679180887372014,138.0353,2017-11-07,"{'rsi_14': 0.15, 'sod_14': 0.14, 'macd': 0.13, 'macdh': 0.13, 'volume': 0.13, 'wr_14': 0.12, 'obv_2': 0.11, 'roc_2': 0.09}",0.7679180887372014,-2.0,0.7679180887372014,"(1303, 8)",Sell Strong,JNJ
13,111.13,2018-05-18,0.7440273037542662,98.2383,2017-11-07,"{'macd': 0.15, 'sod_14': 0.15, 'volume': 0.14, 'macdh': 0.13, 'rsi_14': 0.13, 'obv_2': 0.11, 'wr_14': 0.1, 'roc_2': 0.09}",0.7440273037542662,1.0,0.7440273037542662,"(1303, 8)",Buy,JPM
14,42.18,2018-05-18,0.7167235494880546,45.1677,2017-11-07,"{'macd': 0.14, 'volume': 0.14, 'sod_14': 0.14, 'macdh': 0.13, 'rsi_14': 0.13, 'roc_2': 0.11, 'obv_2': 0.1, 'wr_14': 0.1}",0.7167235494880546,-2.0,0.7167235494880546,"(1303, 8)",Sell Strong,KO
15,160.98,2018-05-18,0.7610921501706485,168.6907,2017-11-07,"{'macd': 0.15, 'macdh': 0.14, 'sod_14': 0.14, 'rsi_14': 0.13, 'volume': 0.13, 'obv_2': 0.11, 'wr_14': 0.11, 'roc_2': 0.09}",0.7610921501706485,-2.0,0.7610921501706485,"(1303, 8)",Sell Strong,MCD
16,198.96,2018-05-18,0.757679180887372,227.5536,2017-11-07,"{'macd': 0.16, 'volume': 0.14, 'sod_14': 0.14, 'rsi_14': 0.13, 'macdh': 0.12, 'obv_2': 0.12, 'wr_14': 0.11, 'roc_2': 0.09}",0.757679180887372,-2.0,0.757679180887372,"(1303, 8)",Sell Strong,MMM
17,59.14,2018-05-18,0.764505119453925,54.6433,2017-11-07,"{'sod_14': 0.17, 'volume': 0.15, 'macdh': 0.14, 'macd': 0.13, 'rsi_14': 0.11, 'wr_14': 0.11, 'obv_2': 0.1, 'roc_2': 0.09}",0.764505119453925,1.0,0.764505119453925,"(1303, 8)",Buy,MRK
18,96.36,2018-05-18,0.71280276816609,83.4569,2017-11-07,"{'volume': 0.15, 'macd': 0.14, 'sod_14': 0.14, 'rsi_14': 0.13, 'macdh': 0.12, 'obv_2': 0.11, 'wr_14': 0.11, 'roc_2': 0.1}",0.71280276816609,-1.0,0.71280276816609,"(1287, 8)",Sell,MSFT
19,71.32,2018-05-18,0.7781569965870307,54.8017,2017-11-07,"{'macd': 0.15, 'sod_14': 0.15, 'macdh': 0.14, 'volume': 0.14, 'rsi_14': 0.13, 'obv_2': 0.1, 'wr_14': 0.1, 'roc_2': 0.09}",0.7781569965870307,2.0,0.7781569965870307,"(1303, 8)",Buy Strong,NKE
20,35.64,2018-05-18,0.7610921501706485,34.7182,2017-11-07,"{'macd': 0.15, 'volume': 0.14, 'macdh': 0.13, 'rsi_14': 0.13, 'sod_14': 0.13, 'obv_2': 0.12, 'wr_14': 0.11, 'roc_2': 0.09}",0.7610921501706485,-1.0,0.7610921501706485,"(1303, 8)",Sell,PFE
21,73.45,2018-05-18,0.7030716723549488,86.3223,2017-11-07,"{'macd': 0.16, 'sod_14': 0.15, 'volume': 0.14, 'macdh': 0.12, 'rsi_14': 0.12, 'obv_2': 0.11, 'wr_14': 0.11, 'roc_2': 0.09}",0.7030716723549488,-2.0,0.7030716723549488,"(1303, 8)",Sell Strong,PG
22,129.85,2018-05-18,0.6757679180887372,132.3131,2017-11-07,"{'macd': 0.17, 'rsi_14': 0.16, 'volume': 0.13, 'macdh': 0.12, 'obv_2': 0.11, 'wr_14': 0.11, 'sod_14': 0.11, 'roc_2': 0.09}",0.6757679180887372,-2.0,0.6757679180887372,"(1303, 8)",Sell Strong,TRV
23,244.64,2018-05-18,0.7133105802047781,211.2847,2017-11-07,"{'macd': 0.15, 'macdh': 0.14, 'volume': 0.14, 'sod_14': 0.14, 'rsi_14': 0.13, 'obv_2': 0.11, 'wr_14': 0.11, 'roc_2': 0.09}",0.7133105802047781,-1.0,0.7133105802047781,"(1303, 8)",Sell,UNH
24,125.19,2018-05-18,0.7235494880546075,119.3679,2017-11-07,"{'sod_14': 0.16, 'macd': 0.15, 'rsi_14': 0.14, 'macdh': 0.13, 'volume': 0.12, 'wr_14': 0.11, 'obv_2': 0.1, 'roc_2': 0.09}",0.7235494880546075,-1.0,0.7235494880546075,"(1303, 8)",Sell,UTX
25,129.93,2018-05-18,0.7508532423208191,111.6972,2017-11-07,"{'macd': 0.16, 'macdh': 0.14, 'rsi_14': 0.13, 'volume': 0.13, 'sod_14': 0.12, 'obv_2': 0.11, 'roc_2': 0.1, 'wr_14': 0.1}",0.7508532423208191,1.0,0.7508532423208191,"(1303, 8)",Buy,V
26,47.74,2018-05-18,0.7030716723549488,45.0568,2017-11-07,"{'macd': 0.15, 'volume': 0.14, 'sod_14': 0.14, 'macdh': 0.13, 'obv_2': 0.12, 'rsi_14': 0.11, 'roc_2': 0.1, 'wr_14': 0.1}",0.7030716723549488,2.0,0.7030716723549488,"(1303, 8)",Buy Strong,VZ
27,83.64,2018-05-18,0.8088737201365188,87.5007,2017-11-07,"{'macd': 0.15, 'volume': 0.15, 'sod_14': 0.14, 'macdh': 0.13, 'rsi_14': 0.13, 'obv_2': 0.11, 'wr_14': 0.11, 'roc_2': 0.09}",0.8088737201365188,-2.0,0.8088737201365188,"(1303, 8)",Sell Strong,WMT
28,81.3,2018-05-18,0.7849829351535836,81.9753,2017-11-07,"{'macdh': 0.15, 'volume': 0.15, 'macd': 0.14, 'sod_14': 0.13, 'rsi_14': 0.12, 'obv_2': 0.11, 'wr_14': 0.11, 'roc_2': 0.09}",0.7849829351535836,1.0,0.7849829351535836,"(1303, 8)",Buy,XOM
29,4.14,2018-05-18,0.8122866894197952,3.87,2017-11-07,"{'sod_14': 0.16, 'macd': 0.15, 'volume': 0.15, 'macdh': 0.13, 'rsi_14': 0.13, 'obv_2': 0.11, 'wr_14': 0.1, 'roc_2': 0.09}",0.8122866894197952,1.0,0.8122866894197952,"(1303, 8)",Buy,III
30,45.02,2018-05-18,0.7508532423208191,38.9179,2017-11-07,"{'volume': 0.17, 'macd': 0.15, 'rsi_14': 0.14, 'sod_14': 0.13, 'macdh': 0.12, 'obv_2': 0.11, 'roc_2': 0.09, 'wr_14': 0.09}",0.7508532423208191,-2.0,0.7508532423208191,"(1304, 8)",Sell Strong,ADM
31,43.38,2018-05-18,0.8293515358361775,46.2695,2017-11-07,"{'macd': 0.15, 'volume': 0.15, 'sod_14': 0.14, 'macdh': 0.13, 'rsi_14': 0.13, 'obv_2': 0.1, 'wr_14': 0.1, 'roc_2': 0.09}",0.8293515358361775,-2.0,0.8293515358361775,"(1304, 8)",Sell Strong,AAL
32,6.87,2018-05-18,0.7337883959044369,6.0906,2017-11-07,"{'macd': 0.17, 'rsi_14': 0.14, 'macdh': 0.13, 'volume': 0.13, 'sod_14': 0.13, 'roc_2': 0.1, 'wr_14': 0.1, 'obv_2': 0.09}",0.7337883959044369,1.0,0.7337883959044369,"(1304, 8)",Buy,AHT
33,36.33,2018-05-18,0.7612456747404844,32.6829,2017-11-07,"{'macd': 0.18, 'rsi_14': 0.14, 'macdh': 0.13, 'sod_14': 0.13, 'volume': 0.12, 'obv_2': 0.1, 'roc_2': 0.1, 'wr_14': 0.1}",0.7612456747404844,1.0,0.7612456747404844,"(1287, 8)",Buy,AZN
34,351.23,2018-05-18,0.856655290102389,263.4068,2017-11-07,"{'macd': 0.17, 'sod_14': 0.15, 'rsi_14': 0.14, 'volume': 0.14, 'macdh': 0.13, 'obv_2': 0.1, 'wr_14': 0.09, 'roc_2': 0.08}",0.856655290102389,1.0,0.856655290102389,"(1304, 8)",Buy,BA
35,47.38,2018-05-18,0.8088737201365188,40.2712,2017-11-07,"{'volume': 0.15, 'sod_14': 0.15, 'macd': 0.14, 'rsi_14': 0.13, 'macdh': 0.12, 'obv_2': 0.11, 'wr_14': 0.1, 'roc_2': 0.09}",0.8088737201365188,1.0,0.8088737201365188,"(1304, 8)",Buy,BP
36,64.84,2018-05-18,0.7474402730375427,65.0842,2017-11-07,"{'sod_14': 0.15, 'macd': 0.14, 'macdh': 0.13, 'rsi_14': 0.13, 'volume': 0.13, 'obv_2': 0.11, 'wr_14': 0.11, 'roc_2': 0.1}",0.7474402730375427,-2.0,0.7474402730375427,"(1303, 8)",Sell Strong,CCL
37,49.27,2018-05-18,0.7918088737201365,52.1072,2017-11-07,"{'sod_14': 0.16, 'volume': 0.15, 'macd': 0.14, 'macdh': 0.14, 'rsi_14': 0.13, 'obv_2': 0.11, 'wr_14': 0.1, 'roc_2': 0.08}",0.7918088737201365,-2.0,0.7918088737201365,"(1303, 8)",Sell Strong,CNA
38,8.49,2018-05-18,0.8873720136518771,8.6216,2017-11-07,"{'volume': 0.2, 'sod_14': 0.14, 'macd': 0.13, 'rsi_14': 0.12, 'macdh': 0.11, 'obv_2': 0.11, 'wr_14': 0.1, 'roc_2': 0.08}",0.8873720136518771,1.0,0.8873720136518771,"(1302, 8)",Buy,CPG
39,37.73,2018-05-18,0.7747440273037542,35.42,2017-11-07,"{'sod_14': 0.17, 'macd': 0.15, 'volume': 0.14, 'macdh': 0.12, 'rsi_14': 0.12, 'obv_2': 0.11, 'wr_14': 0.1, 'roc_2': 0.09}",0.7747440273037542,-1.0,0.7747440273037542,"(1303, 8)",Sell,CRH
40,131.37,2018-05-18,0.8091872791519434,123.05,2017-10-30,"{'volume': 0.2, 'sod_14': 0.16, 'macd': 0.13, 'obv_2': 0.12, 'macdh': 0.1, 'rsi_14': 0.1, 'roc_2': 0.09, 'wr_14': 0.09}",0.8091872791519434,-1.0,0.8091872791519434,"(1264, 8)",Sell,EZJ
41,108.25,2018-05-18,0.7679180887372014,76.2264,2017-11-07,"{'macd': 0.15, 'macdh': 0.14, 'rsi_14': 0.14, 'volume': 0.13, 'sod_14': 0.13, 'obv_2': 0.11, 'wr_14': 0.11, 'roc_2': 0.09}",0.7679180887372014,2.0,0.7679180887372014,"(1303, 8)",Buy Strong,EVR
42,40.03,2018-05-18,0.8122866894197952,34.709,2017-11-07,"{'macd': 0.16, 'rsi_14': 0.15, 'sod_14': 0.14, 'volume': 0.13, 'macdh': 0.12, 'wr_14': 0.11, 'obv_2': 0.1, 'roc_2': 0.09}",0.8122866894197952,2.0,0.8122866894197952,"(1303, 8)",Buy Strong,GSK
43,3.96,2018-05-18,0.7440273037542662,4.5839,2017-11-07,"{'macd': 0.15, 'volume': 0.15, 'sod_14': 0.15, 'rsi_14': 0.13, 'macdh': 0.12, 'obv_2': 0.11, 'wr_14': 0.1, 'roc_2': 0.09}",0.7440273037542662,-1.0,0.7440273037542662,"(1303, 8)",Sell,HL
44,12.25,2018-05-18,0.8600682593856656,12.7542,2017-11-07,"{'macd': 0.16, 'volume': 0.16, 'rsi_14': 0.15, 'sod_14': 0.14, 'macdh': 0.12, 'obv_2': 0.11, 'wr_14': 0.09, 'roc_2': 0.07}",0.8600682593856656,-1.0,0.8600682593856656,"(1303, 8)",Sell,INF
45,65.23,2018-05-18,0.7474402730375427,56.59,2017-11-07,"{'sod_14': 0.16, 'macd': 0.15, 'rsi_14': 0.14, 'macdh': 0.13, 'volume': 0.12, 'wr_14': 0.12, 'obv_2': 0.1, 'roc_2': 0.09}",0.7474402730375427,1.0,0.7474402730375427,"(1303, 8)",Buy,IHG
46,6.01,2018-05-18,0.7747440273037542,5.75,2017-11-07,"{'macd': 0.15, 'volume': 0.14, 'macdh': 0.13, 'rsi_14': 0.13, 'sod_14': 0.13, 'obv_2': 0.12, 'roc_2': 0.1, 'wr_14': 0.1}",0.7747440273037542,1.0,0.7747440273037542,"(1303, 8)",Buy,IAG
47,3.6,2018-05-18,0.7098976109215017,5.1944,2017-11-07,"{'volume': 0.15, 'macd': 0.14, 'rsi_14': 0.14, 'sod_14': 0.14, 'macdh': 0.12, 'obv_2': 0.11, 'wr_14': 0.11, 'roc_2': 0.1}",0.7098976109215017,-2.0,0.7098976109215017,"(1303, 8)",Sell Strong,JE
48,12.72,2018-05-18,0.7781569965870307,13.7324,2017-11-07,"{'sod_14': 0.15, 'macd': 0.14, 'volume': 0.14, 'obv_2': 0.13, 'rsi_14': 0.13, 'macdh': 0.11, 'roc_2': 0.1, 'wr_14': 0.1}",0.7781569965870307,-1.0,0.7781569965870307,"(1303, 8)",Sell,LAND
49,30.55,2018-05-18,0.7508532423208191,29.6866,2017-11-07,"{'volume': 0.18, 'sod_14': 0.14, 'macd': 0.12, 'rsi_14': 0.12, 'macdh': 0.11, 'obv_2': 0.11, 'wr_14': 0.11, 'roc_2': 0.09}",0.7508532423208191,1.0,0.7508532423208191,"(1303, 8)",Buy,MDC
50,21.41,2018-05-18,0.7918088737201365,16.0566,2017-11-07,"{'volume': 0.19, 'macd': 0.14, 'obv_2': 0.13, 'macdh': 0.12, 'sod_14': 0.12, 'rsi_14': 0.11, 'wr_14': 0.1, 'roc_2': 0.08}",0.7918088737201365,2.0,0.7918088737201365,"(1303, 8)",Buy Strong,MRO
51,26.4806,2018-05-18,0.7907801418439716,26.345,2017-10-12,"{'volume': 0.16, 'sod_14': 0.15, 'macd': 0.13, 'macdh': 0.13, 'rsi_14': 0.12, 'wr_14': 0.12, 'obv_2': 0.1, 'roc_2': 0.09}",0.7907801418439716,-1.0,0.7907801418439716,"(1258, 8)",Sell,MCRO
52,4.83,2018-05-18,0.7747440273037542,4.09,2017-11-07,"{'macd': 0.16, 'volume': 0.16, 'macdh': 0.12, 'obv_2': 0.12, 'rsi_14': 0.12, 'wr_14': 0.12, 'sod_14': 0.12, 'roc_2': 0.09}",0.7747440273037542,1.0,0.7747440273037542,"(1303, 8)",Buy,NG
53,102.43,2018-05-18,0.7201365187713311,110.2604,2017-11-07,"{'macd': 0.15, 'macdh': 0.14, 'volume': 0.14, 'sod_14': 0.14, 'rsi_14': 0.12, 'obv_2': 0.11, 'wr_14': 0.11, 'roc_2': 0.09}",0.7201365187713311,-2.0,0.7201365187713311,"(1303, 8)",Sell Strong,PRU
54,58.41,2018-05-18,0.764505119453925,49.89,2017-11-07,"{'volume': 0.16, 'sod_14': 0.15, 'macd': 0.14, 'macdh': 0.12, 'rsi_14': 0.12, 'obv_2': 0.11, 'wr_14': 0.11, 'roc_2': 0.09}",0.764505119453925,1.0,0.764505119453925,"(1303, 8)",Buy,RIO
55,7.92,2018-05-18,0.7849829351535836,7.3,2017-11-07,"{'volume': 0.17, 'macd': 0.15, 'rsi_14': 0.14, 'sod_14': 0.13, 'macdh': 0.12, 'obv_2': 0.11, 'wr_14': 0.1, 'roc_2': 0.08}",0.7849829351535836,1.0,0.7849829351535836,"(1303, 8)",Buy,RBS
56,1.38,2018-05-18,0.825938566552901,1.2739,2017-11-07,"{'macd': 0.16, 'sod_14': 0.14, 'macdh': 0.13, 'rsi_14': 0.13, 'volume': 0.13, 'obv_2': 0.11, 'wr_14': 0.11, 'roc_2': 0.09}",0.825938566552901,2.0,0.825938566552901,"(1303, 8)",Buy Strong,SDR
57,9.125,2018-05-18,0.7535714285714286,8.9,2017-11-06,"{'volume': 0.16, 'sod_14': 0.15, 'macd': 0.14, 'macdh': 0.14, 'rsi_14': 0.12, 'obv_2': 0.1, 'roc_2': 0.1, 'wr_14': 0.1}",0.7535714285714286,-1.0,0.7535714285714286,"(1250, 8)",Sell,SVT
58,29.62,2018-05-18,0.8873720136518771,12.79,2017-11-07,"{'macd': 0.15, 'volume': 0.14, 'sod_14': 0.14, 'macdh': 0.13, 'rsi_14': 0.13, 'obv_2': 0.11, 'wr_14': 0.1, 'roc_2': 0.09}",0.8873720136518771,2.0,0.8873720136518771,"(1303, 8)",Buy Strong,SKY
59,3.96,2018-05-18,0.8327645051194539,5.11,2017-11-07,"{'volume': 0.19, 'macd': 0.17, 'macdh': 0.13, 'rsi_14': 0.13, 'obv_2': 0.11, 'sod_14': 0.11, 'wr_14': 0.09, 'roc_2': 0.08}",0.8327645051194539,-1.0,0.8327645051194539,"(1303, 8)",Sell,SN
60,45.3,2018-05-18,0.8146853146853147,48.3461,2017-11-07,"{'volume': 0.19, 'macd': 0.16, 'rsi_14': 0.13, 'sod_14': 0.13, 'macdh': 0.12, 'wr_14': 0.11, 'obv_2': 0.1, 'roc_2': 0.07}",0.8146853146853147,-2.0,0.8146853146853147,"(1273, 8)",Sell Strong,SMIN
61,72.82,2018-05-18,0.7986348122866894,58.6461,2017-11-07,"{'volume': 0.16, 'macd': 0.15, 'rsi_14': 0.14, 'sod_14': 0.14, 'macdh': 0.13, 'obv_2': 0.1, 'wr_14': 0.1, 'roc_2': 0.08}",0.7986348122866894,2.0,0.7986348122866894,"(1303, 8)",Buy Strong,TSCO
62,26.41,2018-05-18,0.8395904436860068,28.3925,2017-11-07,"{'macd': 0.16, 'sod_14': 0.15, 'rsi_14': 0.14, 'volume': 0.14, 'macdh': 0.13, 'obv_2': 0.1, 'wr_14': 0.1, 'roc_2': 0.08}",0.8395904436860068,-1.0,0.8395904436860068,"(1303, 8)",Sell,VOD
63,89.19,2018-05-18,0.7337883959044369,85.52,2017-11-07,"{'volume': 0.17, 'macd': 0.13, 'macdh': 0.13, 'obv_2': 0.12, 'rsi_14': 0.12, 'sod_14': 0.12, 'wr_14': 0.11, 'roc_2': 0.1}",0.7337883959044369,1.0,0.7337883959044369,"(1303, 8)",Buy,WPP
64,46.74,2018-05-18,0.7337883959044369,42.24,2017-11-07,"{'volume': 0.22, 'obv_2': 0.14, 'macd': 0.13, 'sod_14': 0.12, 'macdh': 0.11, 'rsi_14': 0.11, 'wr_14': 0.09, 'roc_2': 0.08}",0.7337883959044369,1.0,0.7337883959044369,"(1303, 8)",Buy,ALFA
65,51.47,2018-05-18,0.7166666666666667,50.4388,2017-11-07,"{'macd': 0.16, 'volume': 0.15, 'sod_14': 0.15, 'macdh': 0.14, 'obv_2': 0.11, 'rsi_14': 0.11, 'wr_14': 0.1, 'roc_2': 0.08}",0.7166666666666667,-2.0,0.7166666666666667,"(609, 8)",Sell Strong,AGR
66,3.74,2018-05-18,0.8668941979522184,7.67,2017-11-07,"{'volume': 0.17, 'sod_14': 0.16, 'macd': 0.13, 'macdh': 0.13, 'rsi_14': 0.13, 'obv_2': 0.1, 'wr_14': 0.09, 'roc_2': 0.08}",0.8668941979522184,-2.0,0.8668941979522184,"(1304, 8)",Sell Strong,AUTO
67,36.15,2018-05-18,0.7679180887372014,35.0374,2017-11-07,"{'volume': 0.18, 'sod_14': 0.15, 'rsi_14': 0.14, 'macd': 0.13, 'macdh': 0.11, 'obv_2': 0.11, 'wr_14': 0.09, 'roc_2': 0.08}",0.7679180887372014,-1.0,0.7679180887372014,"(1304, 8)",Sell,BME
68,29.4,2018-05-18,0.7918088737201365,30.2488,2017-11-07,"{'macd': 0.15, 'sod_14': 0.15, 'rsi_14': 0.14, 'volume': 0.14, 'macdh': 0.13, 'wr_14': 0.11, 'obv_2': 0.1, 'roc_2': 0.09}",0.7918088737201365,-2.0,0.7918088737201365,"(1304, 8)",Sell Strong,BAB
69,78.25,2018-05-18,0.7610921501706485,54.8276,2017-11-07,"{'macd': 0.17, 'macdh': 0.14, 'rsi_14': 0.14, 'sod_14': 0.14, 'volume': 0.12, 'wr_14': 0.11, 'obv_2': 0.1, 'roc_2': 0.09}",0.7610921501706485,2.0,0.7610921501706485,"(1304, 8)",Buy Strong,BBY
70,2.69,2018-05-18,0.7952218430034129,2.56,2017-11-07,"{'volume': 0.18, 'macd': 0.13, 'macdh': 0.13, 'sod_14': 0.13, 'obv_2': 0.12, 'rsi_14': 0.12, 'roc_2': 0.1, 'wr_14': 0.09}",0.7952218430034129,2.0,0.7952218430034129,"(1304, 8)",Buy Strong,BTG
71,27.6225,2018-05-18,0.7172413793103448,27.2312,2017-11-02,"{'macdh': 0.14, 'macd': 0.13, 'rsi_14': 0.13, 'volume': 0.13, 'sod_14': 0.13, 'obv_2': 0.12, 'roc_2': 0.11, 'wr_14': 0.11}",0.7172413793103448,1.0,0.7172413793103448,"(1290, 8)",Buy,CPI
72,20.64,2018-05-18,0.8505338078291815,22.8988,2017-11-07,"{'volume': 0.19, 'macd': 0.16, 'rsi_14': 0.14, 'macdh': 0.12, 'obv_2': 0.11, 'sod_14': 0.1, 'roc_2': 0.09, 'wr_14': 0.09}",0.8505338078291815,-2.0,0.8505338078291815,"(1256, 8)",Sell Strong,CTY
73,47.31,2018-03-19,0.7943262411347518,36.0,2017-09-07,"{'volume': 0.15, 'macd': 0.14, 'macdh': 0.13, 'sod_14': 0.13, 'obv_2': 0.12, 'rsi_14': 0.12, 'wr_14': 0.11, 'roc_2': 0.1}",0.7943262411347518,2.0,0.7943262411347518,"(1260, 8)",Buy Strong,CBG
74,17.51,2018-05-18,0.8020477815699659,22.9055,2017-11-07,"{'macd': 0.15, 'macdh': 0.14, 'volume': 0.14, 'sod_14': 0.13, 'rsi_14': 0.12, 'wr_14': 0.12, 'roc_2': 0.11, 'obv_2': 0.1}",0.8020477815699659,-2.0,0.8020477815699659,"(1303, 8)",Sell Strong,CLI
75,21.5,2018-03-08,0.7624113475177305,12.6,2017-08-28,"{'sod_14': 0.16, 'macdh': 0.14, 'volume': 0.14, 'macd': 0.13, 'rsi_14': 0.13, 'obv_2': 0.11, 'wr_14': 0.11, 'roc_2': 0.09}",0.7624113475177305,2.0,0.7624113475177305,"(1258, 8)",Buy Strong,CCC
76,10.89,2018-05-18,0.7201365187713311,11.0295,2017-11-07,"{'rsi_14': 0.15, 'macd': 0.14, 'volume': 0.14, 'sod_14': 0.14, 'macdh': 0.12, 'obv_2': 0.11, 'wr_14': 0.1, 'roc_2': 0.09}",0.7201365187713311,-2.0,0.7201365187713311,"(1303, 8)",Sell Strong,GLO
77,90.08,2018-05-18,0.6860068259385665,88.1898,2017-11-07,"{'macd': 0.17, 'rsi_14': 0.15, 'volume': 0.13, 'macdh': 0.12, 'sod_14': 0.12, 'wr_14': 0.11, 'obv_2': 0.1, 'roc_2': 0.1}",0.6860068259385665,-2.0,0.6860068259385665,"(1303, 8)",Sell Strong,DLN
78,25.97,2018-05-18,0.7372013651877133,23.9326,2017-11-07,"{'macd': 0.16, 'rsi_14': 0.14, 'volume': 0.14, 'macdh': 0.12, 'sod_14': 0.12, 'obv_2': 0.11, 'wr_14': 0.11, 'roc_2': 0.1}",0.7372013651877133,1.0,0.7372013651877133,"(1303, 8)",Buy,ETO
79,35.54,2018-05-18,0.7677165354330708,41.44,2017-11-07,"{'macd': 0.15, 'macdh': 0.13, 'rsi_14': 0.13, 'volume': 0.13, 'sod_14': 0.13, 'wr_14': 0.12, 'obv_2': 0.11, 'roc_2': 0.09}",0.7677165354330708,-2.0,0.7677165354330708,"(1145, 8)",Sell Strong,ESNT
80,22.04,2018-05-18,0.8333333333333334,20.994,2017-10-31,"{'macd': 0.21, 'macdh': 0.17, 'sod_14': 0.16, 'rsi_14': 0.13, 'volume': 0.1, 'wr_14': 0.09, 'obv_2': 0.07, 'roc_2': 0.07}",0.8333333333333334,-2.0,0.8333333333333334,"(273, 8)",Sell Strong,ERM
81,22.06,2018-05-18,0.8203125,25.6249,2017-11-07,"{'volume': 0.24, 'sod_14': 0.15, 'macd': 0.11, 'obv_2': 0.11, 'roc_2': 0.1, 'rsi_14': 0.1, 'wr_14': 0.1, 'macdh': 0.09}",0.8203125,-2.0,0.8203125,"(643, 8)",Sell Strong,FCPT
82,50.03,2018-05-18,0.7610921501706485,45.6115,2017-11-07,"{'macd': 0.17, 'volume': 0.15, 'sod_14': 0.14, 'rsi_14': 0.13, 'macdh': 0.12, 'wr_14': 0.11, 'obv_2': 0.1, 'roc_2': 0.08}",0.7610921501706485,1.0,0.7610921501706485,"(1303, 8)",Buy,FDM
83,3.73,2018-05-18,0.8395904436860068,4.5994,2017-11-07,"{'macd': 0.16, 'volume': 0.15, 'macdh': 0.13, 'sod_14': 0.13, 'rsi_14': 0.12, 'obv_2': 0.11, 'roc_2': 0.1, 'wr_14': 0.1}",0.8395904436860068,-1.0,0.8395904436860068,"(1303, 8)",Sell,FGP
84,31.25,2018-05-18,0.8849557522123894,28.7,2017-11-07,"{'sod_14': 0.17, 'macd': 0.14, 'obv_2': 0.13, 'rsi_14': 0.13, 'volume': 0.13, 'macdh': 0.1, 'roc_2': 0.09, 'wr_14': 0.09}",0.8849557522123894,-1.0,0.8849557522123894,"(584, 8)",Sell,GCP
85,0.7047,2018-05-18,0.8088737201365188,0.7863,2017-11-07,"{'volume': 0.17, 'sod_14': 0.15, 'macd': 0.14, 'macdh': 0.13, 'rsi_14': 0.13, 'obv_2': 0.1, 'wr_14': 0.1, 'roc_2': 0.09}",0.8088737201365188,-1.0,0.8088737201365188,"(1303, 8)",Sell,GSS
86,10.65,2018-05-18,0.7747440273037542,14.18,2017-11-07,"{'volume': 0.15, 'macd': 0.14, 'sod_14': 0.14, 'macdh': 0.13, 'rsi_14': 0.13, 'obv_2': 0.12, 'wr_14': 0.11, 'roc_2': 0.09}",0.7747440273037542,-1.0,0.7747440273037542,"(1303, 8)",Sell,GPOR
87,42.7053,2018-05-18,0.7098976109215017,44.0976,2017-11-07,"{'macd': 0.16, 'volume': 0.14, 'sod_14': 0.14, 'macdh': 0.13, 'obv_2': 0.12, 'rsi_14': 0.11, 'roc_2': 0.1, 'wr_14': 0.1}",0.7098976109215017,-2.0,0.7098976109215017,"(1303, 8)",Sell Strong,GRI
88,3.4,2018-05-18,0.8156996587030717,6.3,2017-11-07,"{'volume': 0.16, 'macd': 0.15, 'rsi_14': 0.14, 'sod_14': 0.14, 'macdh': 0.13, 'obv_2': 0.1, 'wr_14': 0.1, 'roc_2': 0.08}",0.8156996587030717,-2.0,0.8156996587030717,"(1303, 8)",Sell Strong,GNC
89,17.71,2018-05-18,0.9214659685863874,11.38,2017-11-07,"{'volume': 0.24, 'macd': 0.2, 'macdh': 0.11, 'rsi_14': 0.11, 'sod_14': 0.11, 'wr_14': 0.1, 'obv_2': 0.08, 'roc_2': 0.06}",0.9214659685863874,2.0,0.9214659685863874,"(896, 8)",Buy Strong,GNK
90,88.71,2018-05-18,0.7508532423208191,89.3465,2017-11-07,"{'macd': 0.17, 'sod_14': 0.15, 'rsi_14': 0.14, 'macdh': 0.13, 'volume': 0.13, 'obv_2': 0.1, 'wr_14': 0.1, 'roc_2': 0.09}",0.7508532423208191,-2.0,0.7508532423208191,"(1303, 8)",Sell Strong,HAS
91,58.74,2018-05-18,0.8054607508532423,48.29,2017-11-07,"{'macd': 0.16, 'rsi_14': 0.14, 'sod_14': 0.14, 'macdh': 0.13, 'volume': 0.13, 'wr_14': 0.11, 'obv_2': 0.1, 'roc_2': 0.09}",0.8054607508532423,2.0,0.8054607508532423,"(1303, 8)",Buy Strong,HRI
92,1.44,2018-05-18,0.8361774744027304,1.17,2017-11-07,"{'macdh': 0.18, 'macd': 0.17, 'sod_14': 0.14, 'volume': 0.13, 'rsi_14': 0.12, 'obv_2': 0.09, 'wr_14': 0.09, 'roc_2': 0.08}",0.8361774744027304,2.0,0.8361774744027304,"(1303, 8)",Buy Strong,IMI
93,190.54,2018-05-18,0.7337883959044369,152.1478,2017-11-07,"{'macd': 0.16, 'sod_14': 0.14, 'macdh': 0.13, 'rsi_14': 0.13, 'volume': 0.13, 'obv_2': 0.11, 'roc_2': 0.1, 'wr_14': 0.1}",0.7337883959044369,2.0,0.7337883959044369,"(1303, 8)",Buy Strong,INTU
94,28.85,2018-05-18,0.78125,27.4964,2017-11-07,"{'volume': 0.2, 'macd': 0.14, 'obv_2': 0.13, 'sod_14': 0.13, 'rsi_14': 0.12, 'macdh': 0.11, 'wr_14': 0.09, 'roc_2': 0.08}",0.78125,-1.0,0.78125,"(1156, 8)",Sell,IPO
95,35.71,2018-05-18,0.8127853881278538,39.79,2017-11-07,"{'volume': 0.16, 'macd': 0.15, 'macdh': 0.14, 'sod_14': 0.13, 'rsi_14': 0.12, 'obv_2': 0.11, 'roc_2': 0.1, 'wr_14': 0.1}",0.8127853881278538,-2.0,0.8127853881278538,"(1006, 8)",Sell Strong,JD
96,30.68,2018-05-18,0.7167235494880546,30.3932,2017-11-07,"{'macd': 0.16, 'macdh': 0.14, 'volume': 0.13, 'sod_14': 0.13, 'rsi_14': 0.12, 'obv_2': 0.11, 'wr_14': 0.11, 'roc_2': 0.1}",0.7167235494880546,-2.0,0.7167235494880546,"(1303, 8)",Sell Strong,KIE
97,32.3,2018-05-18,0.7610921501706485,26.2373,2017-11-07,"{'macdh': 0.16, 'macd': 0.15, 'sod_14': 0.14, 'volume': 0.13, 'rsi_14': 0.12, 'wr_14': 0.11, 'obv_2': 0.1, 'roc_2': 0.09}",0.7610921501706485,1.0,0.7610921501706485,"(1303, 8)",Buy,MCS
98,20.81,2018-05-18,0.7610921501706485,16.12,2017-11-07,"{'volume': 0.15, 'macd': 0.14, 'macdh': 0.14, 'rsi_14': 0.14, 'sod_14': 0.13, 'obv_2': 0.1, 'roc_2': 0.1, 'wr_14': 0.1}",0.7610921501706485,2.0,0.7610921501706485,"(1303, 8)",Buy Strong,MRC
99,12.68,2018-05-18,0.7972027972027972,13.2428,2017-10-26,"{'volume': 0.16, 'sod_14': 0.16, 'macd': 0.15, 'macdh': 0.13, 'rsi_14': 0.13, 'obv_2': 0.11, 'wr_14': 0.1, 'roc_2': 0.07}",0.7972027972027972,-2.0,0.7972027972027972,"(1274, 8)",Sell Strong,MAB
100,12.4,2018-05-18,0.8122866894197952,13.8232,2017-11-07,"{'volume': 0.16, 'macd': 0.14, 'obv_2': 0.13, 'rsi_14': 0.13, 'sod_14': 0.13, 'macdh': 0.12, 'wr_14': 0.1, 'roc_2': 0.08}",0.8122866894197952,-2.0,0.8122866894197952,"(1303, 8)",Sell Strong,MYI
101,41.12,2018-05-18,0.8028169014084507,34.5193,2017-11-07,"{'volume': 0.2, 'macd': 0.14, 'sod_14': 0.14, 'obv_2': 0.12, 'rsi_14': 0.11, 'macdh': 0.1, 'roc_2': 0.09, 'wr_14': 0.09}",0.8028169014084507,2.0,0.8028169014084507,"(1265, 8)",Buy Strong,OSB
102,24.26,2018-05-18,0.7815699658703071,25.43,2017-11-07,"{'sod_14': 0.16, 'volume': 0.15, 'macd': 0.14, 'macdh': 0.13, 'rsi_14': 0.13, 'obv_2': 0.1, 'wr_14': 0.1, 'roc_2': 0.09}",0.7815699658703071,-2.0,0.7815699658703071,"(1303, 8)",Sell Strong,PIN
103,48.0,2018-05-18,0.8361774744027304,45.6832,2017-11-07,"{'volume': 0.16, 'macd': 0.15, 'sod_14': 0.15, 'macdh': 0.12, 'rsi_14': 0.12, 'wr_14': 0.11, 'obv_2': 0.1, 'roc_2': 0.08}",0.8361774744027304,-1.0,0.8361774744027304,"(1303, 8)",Sell,PAG
104,35.85,2018-05-18,0.8122866894197952,36.7915,2017-11-07,"{'macd': 0.15, 'macdh': 0.15, 'volume': 0.14, 'rsi_14': 0.13, 'sod_14': 0.12, 'obv_2': 0.11, 'wr_14': 0.11, 'roc_2': 0.09}",0.8122866894197952,-2.0,0.8122866894197952,"(1303, 8)",Sell Strong,PETS
105,58.8,2018-05-18,0.7952218430034129,68.0596,2017-11-07,"{'sod_14': 0.17, 'volume': 0.15, 'macd': 0.13, 'macdh': 0.13, 'rsi_14': 0.12, 'obv_2': 0.11, 'wr_14': 0.1, 'roc_2': 0.09}",0.7952218430034129,-2.0,0.7952218430034129,"(1303, 8)",Sell Strong,PFG
106,10.01,2018-05-18,0.8191126279863481,10.0544,2017-11-07,"{'sod_14': 0.16, 'macd': 0.15, 'macdh': 0.15, 'rsi_14': 0.13, 'volume': 0.12, 'wr_14': 0.11, 'obv_2': 0.09, 'roc_2': 0.08}",0.8191126279863481,-1.0,0.8191126279863481,"(1303, 8)",Sell,PZC
107,15.45,2018-05-18,0.7747440273037542,14.83,2017-11-07,"{'macdh': 0.16, 'sod_14': 0.15, 'macd': 0.14, 'rsi_14': 0.12, 'volume': 0.12, 'obv_2': 0.11, 'roc_2': 0.1, 'wr_14': 0.1}",0.7747440273037542,-1.0,0.7747440273037542,"(1303, 8)",Sell,RDI
108,18.36,2018-05-18,0.72,17.2131,2017-11-07,"{'macd': 0.17, 'volume': 0.17, 'macdh': 0.16, 'rsi_14': 0.11, 'wr_14': 0.11, 'sod_14': 0.11, 'obv_2': 0.09, 'roc_2': 0.07}",0.72,2.0,0.72,"(229, 8)",Buy Strong,SAFE
109,35.85,2018-05-18,0.8361774744027304,37.08,2017-11-07,"{'macd': 0.15, 'volume': 0.15, 'sod_14': 0.15, 'macdh': 0.13, 'rsi_14': 0.13, 'wr_14': 0.11, 'obv_2': 0.1, 'roc_2': 0.08}",0.8361774744027304,-2.0,0.8361774744027304,"(1303, 8)",Sell Strong,SNN
110,28.18,2018-05-18,0.7731958762886598,23.29,2017-11-07,"{'macd': 0.14, 'rsi_14': 0.14, 'volume': 0.14, 'macdh': 0.13, 'sod_14': 0.13, 'obv_2': 0.11, 'wr_14': 0.11, 'roc_2': 0.09}",0.7731958762886598,2.0,0.7731958762886598,"(1295, 8)",Buy Strong,SDP
111,18.69,2018-05-18,0.7705479452054794,21.1865,2017-11-07,"{'macdh': 0.15, 'sod_14': 0.15, 'macd': 0.14, 'rsi_14': 0.14, 'volume': 0.13, 'wr_14': 0.11, 'obv_2': 0.1, 'roc_2': 0.08}",0.7705479452054794,-2.0,0.7705479452054794,"(1300, 8)",Sell Strong,SCIN
112,7.47,2018-05-18,0.8125,7.6413,2017-11-07,"{'volume': 0.18, 'macd': 0.15, 'sod_14': 0.15, 'rsi_14': 0.13, 'macdh': 0.11, 'obv_2': 0.11, 'roc_2': 0.09, 'wr_14': 0.09}",0.8125,1.0,0.8125,"(897, 8)",Buy,SNR
113,69.39,2018-05-18,0.8054607508532423,58.94,2017-11-07,"{'macd': 0.17, 'rsi_14': 0.15, 'volume': 0.15, 'macdh': 0.13, 'sod_14': 0.13, 'obv_2': 0.1, 'roc_2': 0.09, 'wr_14': 0.09}",0.8054607508532423,1.0,0.8054607508532423,"(1303, 8)",Buy,SHI
114,0.3803,2018-05-18,0.6842105263157895,1.355,2017-10-24,"{'volume': 0.17, 'macd': 0.16, 'rsi_14': 0.14, 'obv_2': 0.13, 'sod_14': 0.12, 'macdh': 0.11, 'wr_14': 0.1, 'roc_2': 0.08}",0.6842105263157895,-1.0,0.6842105263157895,"(585, 8)",Sell,SPI
115,44.01,2018-05-18,0.7508532423208191,41.333,2017-11-07,"{'macd': 0.17, 'rsi_14': 0.16, 'macdh': 0.13, 'sod_14': 0.13, 'volume': 0.12, 'wr_14': 0.11, 'obv_2': 0.1, 'roc_2': 0.09}",0.7508532423208191,1.0,0.7508532423208191,"(1303, 8)",Buy,SMP
116,23.2,2018-05-18,0.8253424657534246,22.8869,2017-11-07,"{'macdh': 0.15, 'volume': 0.15, 'macd': 0.14, 'sod_14': 0.14, 'rsi_14': 0.12, 'obv_2': 0.11, 'wr_14': 0.1, 'roc_2': 0.09}",0.8253424657534246,-2.0,0.8253424657534246,"(1298, 8)",Sell Strong,SGC
117,1.9,2018-05-18,0.7986348122866894,2.45,2017-11-07,"{'volume': 0.17, 'sod_14': 0.16, 'macd': 0.13, 'rsi_14': 0.13, 'macdh': 0.12, 'obv_2': 0.11, 'wr_14': 0.1, 'roc_2': 0.08}",0.7986348122866894,-1.0,0.7986348122866894,"(1303, 8)",Sell,SYNC
118,30.3,2018-05-18,0.78839590443686,23.38,2017-11-07,"{'volume': 0.17, 'macd': 0.15, 'macdh': 0.13, 'rsi_14': 0.12, 'sod_14': 0.12, 'obv_2': 0.11, 'wr_14': 0.1, 'roc_2': 0.09}",0.78839590443686,2.0,0.78839590443686,"(1303, 8)",Buy Strong,SYNT
119,43.47,2018-05-18,0.7703180212014135,45.9061,2017-11-07,"{'volume': 0.2, 'sod_14': 0.14, 'macd': 0.13, 'obv_2': 0.12, 'macdh': 0.11, 'rsi_14': 0.11, 'roc_2': 0.09, 'wr_14': 0.09}",0.7703180212014135,-2.0,0.7703180212014135,"(1264, 8)",Sell Strong,TEP
120,11.33,2018-05-18,0.8020477815699659,9.2046,2017-11-07,"{'macd': 0.17, 'volume': 0.15, 'macdh': 0.13, 'sod_14': 0.13, 'rsi_14': 0.12, 'obv_2': 0.11, 'wr_14': 0.1, 'roc_2': 0.09}",0.8020477815699659,2.0,0.8020477815699659,"(1303, 8)",Buy Strong,TCAP
121,2.7,2018-05-18,0.7918088737201365,2.925,2017-11-07,"{'volume': 0.16, 'macd': 0.14, 'rsi_14': 0.14, 'sod_14': 0.14, 'macdh': 0.13, 'obv_2': 0.12, 'wr_14': 0.1, 'roc_2': 0.08}",0.7918088737201365,-2.0,0.7918088737201365,"(1304, 8)",Sell Strong,BBOX
122,17.7858,2018-05-18,0.9166666666666666,15.4,2017-02-23,"{'sod_14': 0.19, 'volume': 0.16, 'macd': 0.15, 'rsi_14': 0.13, 'wr_14': 0.11, 'macdh': 0.09, 'obv_2': 0.09, 'roc_2': 0.07}",0.9166666666666666,2.0,0.9166666666666666,"(900, 8)",Buy Strong,UBM
123,16.52,2018-05-18,0.8535714285714285,16.38,2017-11-07,"{'volume': 0.19, 'sod_14': 0.15, 'macd': 0.14, 'rsi_14': 0.12, 'macdh': 0.11, 'obv_2': 0.11, 'wr_14': 0.1, 'roc_2': 0.08}",0.8535714285714285,1.0,0.8535714285714285,"(1250, 8)",Buy,ULE
124,28.15,2018-05-18,0.7952218430034129,30.5363,2017-11-07,"{'macd': 0.16, 'rsi_14': 0.15, 'volume': 0.14, 'sod_14': 0.14, 'macdh': 0.13, 'obv_2': 0.11, 'wr_14': 0.1, 'roc_2': 0.08}",0.7952218430034129,-2.0,0.7952218430034129,"(1303, 8)",Sell Strong,UTG
125,0.155,2018-03-26,0.8345070422535211,2.77,2017-09-14,"{'macd': 0.17, 'rsi_14': 0.15, 'sod_14': 0.15, 'macdh': 0.13, 'volume': 0.11, 'obv_2': 0.1, 'roc_2': 0.09, 'wr_14': 0.09}",0.8345070422535211,-1.0,0.8345070422535211,"(1265, 8)",Sell,WG
126,71.99,2018-05-18,0.7372013651877133,60.96,2017-11-07,"{'macd': 0.17, 'macdh': 0.14, 'sod_14': 0.14, 'rsi_14': 0.13, 'volume': 0.13, 'obv_2': 0.1, 'wr_14': 0.1, 'roc_2': 0.09}",0.7372013651877133,-1.0,0.7372013651877133,"(1304, 8)",Sell,ATVI
127,238.09,2018-05-18,0.6860068259385665,180.88,2017-11-07,"{'macd': 0.15, 'volume': 0.15, 'sod_14': 0.15, 'rsi_14': 0.13, 'macdh': 0.12, 'obv_2': 0.12, 'wr_14': 0.1, 'roc_2': 0.09}",0.6860068259385665,2.0,0.6860068259385665,"(1304, 8)",Buy Strong,ADBE
128,121.07,2018-05-18,0.7918088737201365,117.42,2017-11-07,"{'volume': 0.16, 'macd': 0.15, 'macdh': 0.13, 'sod_14': 0.13, 'obv_2': 0.12, 'rsi_14': 0.12, 'wr_14': 0.1, 'roc_2': 0.09}",0.7918088737201365,1.0,0.7918088737201365,"(1304, 8)",Buy,ALXN
129,298.0,2018-05-18,0.825938566552901,246.46,2017-11-07,"{'macd': 0.17, 'macdh': 0.14, 'sod_14': 0.14, 'rsi_14': 0.13, 'volume': 0.12, 'obv_2': 0.11, 'wr_14': 0.11, 'roc_2': 0.09}",0.825938566552901,-1.0,0.825938566552901,"(1304, 8)",Sell,ALGN
130,1066.36,2018-05-18,0.7991266375545851,1033.33,2017-11-07,"{'macd': 0.16, 'rsi_14': 0.14, 'sod_14': 0.14, 'macdh': 0.13, 'volume': 0.13, 'obv_2': 0.1, 'wr_14': 0.1, 'roc_2': 0.09}",0.7991266375545851,-1.0,0.7991266375545851,"(1045, 8)",Sell,GOOG
131,1069.64,2018-05-18,0.7986348122866894,1052.39,2017-11-07,"{'macd': 0.16, 'sod_14': 0.15, 'rsi_14': 0.14, 'macdh': 0.13, 'volume': 0.13, 'obv_2': 0.11, 'wr_14': 0.1, 'roc_2': 0.09}",0.7986348122866894,-2.0,0.7986348122866894,"(1303, 8)",Sell Strong,GOOGL
132,1574.37,2018-05-18,0.7918088737201365,1123.17,2017-11-07,"{'macd': 0.16, 'sod_14': 0.15, 'rsi_14': 0.14, 'macdh': 0.13, 'volume': 0.13, 'obv_2': 0.1, 'wr_14': 0.1, 'roc_2': 0.09}",0.7918088737201365,2.0,0.7918088737201365,"(1304, 8)",Buy Strong,AMZN
133,43.38,2018-05-18,0.8293515358361775,46.2695,2017-11-07,"{'macd': 0.15, 'volume': 0.15, 'sod_14': 0.14, 'macdh': 0.13, 'rsi_14': 0.13, 'obv_2': 0.1, 'wr_14': 0.1, 'roc_2': 0.09}",0.8293515358361775,-2.0,0.8293515358361775,"(1304, 8)",Sell Strong,AAL
134,176.3,2018-05-18,0.7133105802047781,171.0095,2017-11-07,"{'macd': 0.14, 'macdh': 0.13, 'rsi_14': 0.13, 'volume': 0.13, 'sod_14': 0.13, 'obv_2': 0.12, 'wr_14': 0.11, 'roc_2': 0.1}",0.7133105802047781,-1.0,0.7133105802047781,"(1304, 8)",Sell,AMGN
135,94.88,2018-05-18,0.7201365187713311,90.9441,2017-11-07,"{'macd': 0.15, 'macdh': 0.14, 'rsi_14': 0.14, 'volume': 0.13, 'sod_14': 0.13, 'obv_2': 0.11, 'wr_14': 0.11, 'roc_2': 0.09}",0.7201365187713311,-1.0,0.7201365187713311,"(1304, 8)",Sell,ADI
136,186.31,2018-05-18,0.8122866894197952,173.4765,2017-11-07,"{'volume': 0.16, 'macd': 0.15, 'macdh': 0.14, 'rsi_14': 0.13, 'sod_14': 0.13, 'wr_14': 0.11, 'obv_2': 0.1, 'roc_2': 0.08}",0.8122866894197952,-1.0,0.8122866894197952,"(1304, 8)",Sell,AAPL
137,49.51,2018-05-18,0.7713310580204779,56.2715,2017-11-07,"{'macd': 0.17, 'macdh': 0.13, 'rsi_14': 0.13, 'volume': 0.13, 'sod_14': 0.12, 'obv_2': 0.11, 'wr_14': 0.11, 'roc_2': 0.1}",0.7713310580204779,-2.0,0.7713310580204779,"(1304, 8)",Sell Strong,AMAT
138,197.34,2018-05-18,0.7440273037542662,183.52,2017-11-07,"{'sod_14': 0.15, 'macd': 0.14, 'macdh': 0.13, 'rsi_14': 0.13, 'volume': 0.13, 'obv_2': 0.11, 'wr_14': 0.11, 'roc_2': 0.1}",0.7440273037542662,-1.0,0.7440273037542662,"(1304, 8)",Sell,ASML
139,138.85,2018-05-18,0.7713310580204779,123.4,2017-11-07,"{'macd': 0.15, 'sod_14': 0.14, 'rsi_14': 0.13, 'volume': 0.13, 'macdh': 0.12, 'wr_14': 0.12, 'obv_2': 0.11, 'roc_2': 0.09}",0.7713310580204779,-1.0,0.7713310580204779,"(1304, 8)",Sell,ADSK
140,128.91,2018-05-18,0.6928327645051194,111.5238,2017-11-07,"{'macd': 0.16, 'macdh': 0.14, 'volume': 0.13, 'sod_14': 0.13, 'rsi_14': 0.12, 'obv_2': 0.11, 'wr_14': 0.11, 'roc_2': 0.1}",0.6928327645051194,2.0,0.6928327645051194,"(1304, 8)",Buy Strong,ADP
141,253.01,2018-05-18,0.7713310580204779,243.47,2017-11-07,"{'macd': 0.18, 'macdh': 0.14, 'volume': 0.14, 'sod_14': 0.14, 'rsi_14': 0.12, 'obv_2': 0.1, 'roc_2': 0.09, 'wr_14': 0.09}",0.7713310580204779,-2.0,0.7713310580204779,"(1304, 8)",Sell Strong,BIDU
142,280.4,2018-05-18,0.7030716723549488,313.57,2017-11-07,"{'macd': 0.15, 'volume': 0.15, 'sod_14': 0.14, 'macdh': 0.13, 'rsi_14': 0.13, 'obv_2': 0.11, 'wr_14': 0.11, 'roc_2': 0.1}",0.7030716723549488,-2.0,0.7030716723549488,"(1304, 8)",Sell Strong,BIIB
143,88.88,2018-05-18,0.757679180887372,83.77,2017-11-07,"{'macd': 0.16, 'macdh': 0.14, 'rsi_14': 0.14, 'sod_14': 0.13, 'volume': 0.12, 'wr_14': 0.11, 'obv_2': 0.1, 'roc_2': 0.09}",0.757679180887372,1.0,0.757679180887372,"(1303, 8)",Buy,BMRN
144,2066.34,2018-05-18,0.7372013651877133,1645.72,2017-11-07,"{'macd': 0.16, 'macdh': 0.14, 'rsi_14': 0.14, 'sod_14': 0.14, 'volume': 0.13, 'obv_2': 0.1, 'wr_14': 0.1, 'roc_2': 0.09}",0.7372013651877133,-1.0,0.7372013651877133,"(1304, 8)",Sell,BKNG
145,235.99,2018-05-18,0.764505119453925,269.5331,2017-11-07,"{'macd': 0.18, 'macdh': 0.15, 'volume': 0.13, 'sod_14': 0.13, 'rsi_14': 0.12, 'obv_2': 0.1, 'roc_2': 0.09, 'wr_14': 0.09}",0.764505119453925,-2.0,0.764505119453925,"(1304, 8)",Sell Strong,AVGO
146,35.17,2018-05-18,0.7201365187713311,31.8149,2017-11-07,"{'macd': 0.15, 'volume': 0.14, 'sod_14': 0.14, 'macdh': 0.13, 'obv_2': 0.12, 'rsi_14': 0.11, 'roc_2': 0.1, 'wr_14': 0.1}",0.7201365187713311,1.0,0.7201365187713311,"(1303, 8)",Buy,CA
147,41.8,2018-05-18,0.7372013651877133,44.3,2017-11-07,"{'volume': 0.17, 'sod_14': 0.14, 'macd': 0.13, 'macdh': 0.13, 'rsi_14': 0.12, 'obv_2': 0.1, 'roc_2': 0.1, 'wr_14': 0.1}",0.7372013651877133,-2.0,0.7372013651877133,"(1303, 8)",Sell Strong,CDNS
148,78.37,2018-05-18,0.7713310580204779,102.33,2017-11-07,"{'macdh': 0.15, 'sod_14': 0.15, 'volume': 0.14, 'macd': 0.13, 'rsi_14': 0.13, 'obv_2': 0.1, 'wr_14': 0.1, 'roc_2': 0.09}",0.7713310580204779,-2.0,0.7713310580204779,"(1303, 8)",Sell Strong,CELG
149,61.34,2018-05-18,0.7781569965870307,65.92,2017-11-07,"{'macd': 0.15, 'sod_14': 0.15, 'rsi_14': 0.14, 'volume': 0.14, 'macdh': 0.13, 'obv_2': 0.11, 'wr_14': 0.1, 'roc_2': 0.09}",0.7781569965870307,-1.0,0.7781569965870307,"(1303, 8)",Sell,CERN
150,270.17,2018-05-18,0.7815699658703071,343.01,2017-11-07,"{'macd': 0.17, 'volume': 0.16, 'macdh': 0.13, 'rsi_14': 0.13, 'obv_2': 0.12, 'sod_14': 0.11, 'wr_14': 0.1, 'roc_2': 0.08}",0.7815699658703071,-2.0,0.7815699658703071,"(1303, 8)",Sell Strong,CHTR
151,95.68,2018-05-18,0.78839590443686,104.99,2017-11-07,"{'macd': 0.16, 'macdh': 0.14, 'rsi_14': 0.13, 'volume': 0.13, 'sod_14': 0.13, 'obv_2': 0.11, 'wr_14': 0.11, 'roc_2': 0.1}",0.78839590443686,-2.0,0.78839590443686,"(1303, 8)",Sell Strong,CHKP
152,182.85,2018-05-18,0.7098976109215017,146.2689,2017-11-07,"{'macd': 0.15, 'volume': 0.14, 'sod_14': 0.14, 'macdh': 0.12, 'rsi_14': 0.12, 'obv_2': 0.11, 'wr_14': 0.11, 'roc_2': 0.1}",0.7098976109215017,2.0,0.7098976109215017,"(1303, 8)",Buy Strong,CTAS
153,43.21,2018-05-18,0.7918088737201365,34.1453,2017-11-07,"{'sod_14': 0.17, 'macd': 0.14, 'volume': 0.14, 'rsi_14': 0.13, 'macdh': 0.12, 'wr_14': 0.11, 'obv_2': 0.1, 'roc_2': 0.09}",0.7918088737201365,2.0,0.7918088737201365,"(1303, 8)",Buy Strong,CSCO
154,105.34,2018-05-18,0.7167235494880546,84.48,2017-11-07,"{'macd': 0.15, 'rsi_14': 0.15, 'sod_14': 0.14, 'volume': 0.13, 'macdh': 0.12, 'obv_2': 0.11, 'wr_14': 0.11, 'roc_2': 0.09}",0.7167235494880546,2.0,0.7167235494880546,"(1303, 8)",Buy Strong,CTXS
155,76.04,2018-05-18,0.7918088737201365,74.3187,2017-11-07,"{'volume': 0.17, 'rsi_14': 0.15, 'macd': 0.14, 'macdh': 0.14, 'sod_14': 0.11, 'obv_2': 0.1, 'wr_14': 0.1, 'roc_2': 0.08}",0.7918088737201365,-1.0,0.7918088737201365,"(1303, 8)",Sell,CTSH
156,32.72,2018-05-18,0.7372013651877133,36.2469,2017-11-07,"{'macd': 0.14, 'macdh': 0.14, 'volume': 0.14, 'rsi_14': 0.13, 'obv_2': 0.12, 'sod_14': 0.12, 'wr_14': 0.11, 'roc_2': 0.1}",0.7372013651877133,-2.0,0.7372013651877133,"(1303, 8)",Sell Strong,CMCSA
157,198.96,2018-05-18,0.8054607508532423,165.3455,2017-11-07,"{'macd': 0.16, 'sod_14': 0.15, 'macdh': 0.13, 'rsi_14': 0.13, 'volume': 0.13, 'obv_2': 0.11, 'wr_14': 0.11, 'roc_2': 0.09}",0.8054607508532423,2.0,0.8054607508532423,"(1303, 8)",Buy Strong,COST
158,63.76,2018-05-18,0.7440273037542662,51.4151,2017-11-07,"{'macd': 0.16, 'rsi_14': 0.15, 'macdh': 0.13, 'sod_14': 0.13, 'volume': 0.12, 'wr_14': 0.11, 'obv_2': 0.1, 'roc_2': 0.09}",0.7440273037542662,2.0,0.7440273037542662,"(1303, 8)",Buy Strong,CSX
159,43.09,2018-05-18,0.8088737201365188,45.9,2017-11-07,"{'macd': 0.17, 'macdh': 0.14, 'volume': 0.14, 'sod_14': 0.13, 'rsi_14': 0.12, 'obv_2': 0.11, 'wr_14': 0.11, 'roc_2': 0.08}",0.8088737201365188,-2.0,0.8088737201365188,"(1303, 8)",Sell Strong,CTRP
160,47.5,2018-05-18,0.7542662116040956,64.2947,2017-11-07,"{'volume': 0.17, 'macd': 0.15, 'obv_2': 0.13, 'rsi_14': 0.13, 'macdh': 0.12, 'sod_14': 0.11, 'wr_14': 0.1, 'roc_2': 0.09}",0.7542662116040956,-2.0,0.7542662116040956,"(1303, 8)",Sell Strong,XRAY
161,32.35,2018-05-18,0.764505119453925,50.07,2017-11-07,"{'macd': 0.15, 'macdh': 0.14, 'volume': 0.14, 'sod_14': 0.14, 'rsi_14': 0.13, 'wr_14': 0.11, 'obv_2': 0.1, 'roc_2': 0.09}",0.764505119453925,-2.0,0.764505119453925,"(1303, 8)",Sell Strong,DISH
162,93.1,2018-05-18,0.8156996587030717,93.62,2017-11-07,"{'macd': 0.15, 'macdh': 0.15, 'rsi_14': 0.15, 'volume': 0.14, 'sod_14': 0.13, 'obv_2': 0.11, 'wr_14': 0.1, 'roc_2': 0.08}",0.8156996587030717,-1.0,0.8156996587030717,"(1303, 8)",Sell,DLTR
163,38.32,2018-05-18,0.7406143344709898,37.41,2017-11-07,"{'macd': 0.15, 'sod_14': 0.15, 'rsi_14': 0.13, 'volume': 0.13, 'macdh': 0.12, 'wr_14': 0.12, 'obv_2': 0.11, 'roc_2': 0.09}",0.7406143344709898,-1.0,0.7406143344709898,"(1303, 8)",Sell,EBAY
164,132.0,2018-05-18,0.7747440273037542,111.7,2017-11-07,"{'macd': 0.17, 'sod_14': 0.16, 'macdh': 0.13, 'rsi_14': 0.12, 'volume': 0.12, 'obv_2': 0.1, 'wr_14': 0.1, 'roc_2': 0.09}",0.7747440273037542,-1.0,0.7747440273037542,"(1303, 8)",Sell,EA
165,115.07,2018-05-18,0.7167235494880546,118.9866,2017-11-07,"{'macd': 0.16, 'macdh': 0.15, 'sod_14': 0.14, 'rsi_14': 0.13, 'volume': 0.12, 'obv_2': 0.11, 'wr_14': 0.1, 'roc_2': 0.09}",0.7167235494880546,-2.0,0.7167235494880546,"(1303, 8)",Sell Strong,EXPE
166,75.65,2018-05-18,0.7508532423208191,60.6,2017-11-07,"{'macd': 0.15, 'macdh': 0.15, 'rsi_14': 0.14, 'volume': 0.13, 'sod_14': 0.13, 'wr_14': 0.11, 'obv_2': 0.1, 'roc_2': 0.09}",0.7508532423208191,2.0,0.7508532423208191,"(1303, 8)",Buy Strong,ESRX
167,182.68,2018-05-18,0.7231833910034602,180.25,2017-11-07,"{'rsi_14': 0.16, 'sod_14': 0.16, 'macd': 0.14, 'volume': 0.14, 'macdh': 0.11, 'obv_2': 0.1, 'wr_14': 0.1, 'roc_2': 0.09}",0.7231833910034602,-2.0,0.7231833910034602,"(1287, 8)",Sell Strong,FB
168,52.76,2018-05-18,0.7747440273037542,47.7252,2017-11-07,"{'macd': 0.17, 'volume': 0.15, 'macdh': 0.14, 'rsi_14': 0.13, 'sod_14': 0.12, 'wr_14': 0.1, 'obv_2': 0.09, 'roc_2': 0.09}",0.7747440273037542,1.0,0.7747440273037542,"(1303, 8)",Buy,FAST
169,72.98,2018-05-18,0.7440273037542662,126.97,2017-11-07,"{'macd': 0.18, 'macdh': 0.14, 'sod_14': 0.13, 'rsi_14': 0.12, 'volume': 0.12, 'wr_14': 0.11, 'obv_2': 0.1, 'roc_2': 0.09}",0.7440273037542662,-2.0,0.7440273037542662,"(1303, 8)",Sell Strong,FISV
170,68.02,2018-05-18,0.825938566552901,72.2019,2017-11-07,"{'macd': 0.15, 'volume': 0.15, 'macdh': 0.14, 'rsi_14': 0.13, 'sod_14': 0.13, 'obv_2': 0.11, 'wr_14': 0.1, 'roc_2': 0.09}",0.825938566552901,-1.0,0.825938566552901,"(1303, 8)",Sell,GILD
171,88.71,2018-05-18,0.7508532423208191,89.3465,2017-11-07,"{'macd': 0.17, 'sod_14': 0.15, 'rsi_14': 0.14, 'macdh': 0.13, 'volume': 0.13, 'obv_2': 0.1, 'wr_14': 0.1, 'roc_2': 0.09}",0.7508532423208191,-2.0,0.7508532423208191,"(1303, 8)",Sell Strong,HAS
172,71.94,2018-05-18,0.7440273037542662,71.01,2017-11-07,"{'macd': 0.17, 'macdh': 0.14, 'sod_14': 0.14, 'rsi_14': 0.13, 'volume': 0.12, 'obv_2': 0.11, 'wr_14': 0.11, 'roc_2': 0.09}",0.7440273037542662,-1.0,0.7440273037542662,"(1303, 8)",Sell,HSIC
173,38.82,2018-05-18,0.7133105802047781,39.5,2017-11-07,"{'volume': 0.16, 'macd': 0.15, 'sod_14': 0.14, 'macdh': 0.13, 'rsi_14': 0.13, 'wr_14': 0.11, 'obv_2': 0.1, 'roc_2': 0.09}",0.7133105802047781,-1.0,0.7133105802047781,"(1303, 8)",Sell,HOLX
174,200.76,2018-05-18,0.7986348122866894,150.08,2017-11-07,"{'macd': 0.17, 'macdh': 0.15, 'sod_14': 0.14, 'rsi_14': 0.13, 'volume': 0.13, 'obv_2': 0.1, 'roc_2': 0.09, 'wr_14': 0.09}",0.7986348122866894,2.0,0.7986348122866894,"(1303, 8)",Buy Strong,IDXX
175,269.67,2018-05-18,0.7918088737201365,211.74,2017-11-07,"{'macd': 0.17, 'macdh': 0.15, 'rsi_14': 0.14, 'volume': 0.13, 'sod_14': 0.13, 'wr_14': 0.1, 'obv_2': 0.09, 'roc_2': 0.08}",0.7918088737201365,1.0,0.7918088737201365,"(1303, 8)",Buy,ILMN
176,67.83,2018-05-18,0.7747440273037542,108.14,2017-11-07,"{'macd': 0.17, 'rsi_14': 0.15, 'macdh': 0.14, 'volume': 0.14, 'sod_14': 0.14, 'obv_2': 0.1, 'wr_14': 0.1, 'roc_2': 0.07}",0.7747440273037542,-2.0,0.7747440273037542,"(1303, 8)",Sell Strong,INCY
177,53.5,2018-05-18,0.7986348122866894,46.4648,2017-11-07,"{'macd': 0.17, 'sod_14': 0.15, 'macdh': 0.13, 'rsi_14': 0.13, 'volume': 0.13, 'obv_2': 0.1, 'wr_14': 0.1, 'roc_2': 0.09}",0.7986348122866894,1.0,0.7986348122866894,"(1303, 8)",Buy,INTC
178,190.54,2018-05-18,0.7337883959044369,152.1478,2017-11-07,"{'macd': 0.16, 'sod_14': 0.14, 'macdh': 0.13, 'rsi_14': 0.13, 'volume': 0.13, 'obv_2': 0.11, 'roc_2': 0.1, 'wr_14': 0.1}",0.7337883959044369,2.0,0.7337883959044369,"(1303, 8)",Buy Strong,INTU
179,458.79,2018-05-18,0.7849829351535836,391.04,2017-11-07,"{'macd': 0.18, 'macdh': 0.14, 'rsi_14': 0.14, 'volume': 0.12, 'sod_14': 0.12, 'wr_14': 0.11, 'obv_2': 0.1, 'roc_2': 0.08}",0.7849829351535836,1.0,0.7849829351535836,"(1303, 8)",Buy,ISRG
180,126.86,2018-05-18,0.6996587030716723,106.433,2017-11-07,"{'macd': 0.16, 'sod_14': 0.15, 'rsi_14': 0.13, 'macdh': 0.12, 'obv_2': 0.11, 'volume': 0.11, 'wr_14': 0.11, 'roc_2': 0.09}",0.6996587030716723,2.0,0.6996587030716723,"(1303, 8)",Buy Strong,JBHT
181,35.71,2018-05-18,0.8127853881278538,39.79,2017-11-07,"{'volume': 0.16, 'macd': 0.15, 'macdh': 0.14, 'sod_14': 0.13, 'rsi_14': 0.12, 'obv_2': 0.11, 'roc_2': 0.1, 'wr_14': 0.1}",0.8127853881278538,-2.0,0.8127853881278538,"(1006, 8)",Sell Strong,JD
182,109.39,2018-05-18,0.7372013651877133,106.2726,2017-11-07,"{'macd': 0.16, 'rsi_14': 0.15, 'macdh': 0.14, 'sod_14': 0.13, 'volume': 0.12, 'obv_2': 0.11, 'wr_14': 0.11, 'roc_2': 0.09}",0.7372013651877133,-2.0,0.7372013651877133,"(1303, 8)",Sell Strong,KLAC
183,195.49,2018-05-18,0.7610921501706485,208.0865,2017-11-07,"{'macd': 0.16, 'macdh': 0.14, 'rsi_14': 0.14, 'volume': 0.14, 'sod_14': 0.14, 'obv_2': 0.11, 'wr_14': 0.1, 'roc_2': 0.08}",0.7610921501706485,-2.0,0.7610921501706485,"(1303, 8)",Sell Strong,LRCX
184,29.22,2018-05-18,0.7849829351535836,30.54,2017-11-07,"{'volume': 0.15, 'sod_14': 0.14, 'macd': 0.13, 'macdh': 0.13, 'obv_2': 0.12, 'rsi_14': 0.11, 'wr_14': 0.11, 'roc_2': 0.1}",0.7849829351535836,-1.0,0.7849829351535836,"(1303, 8)",Sell,LBTYA
185,28.46,2018-05-18,0.8191126279863481,29.68,2017-11-07,"{'volume': 0.19, 'macd': 0.13, 'sod_14': 0.13, 'macdh': 0.12, 'obv_2': 0.12, 'rsi_14': 0.11, 'wr_14': 0.11, 'roc_2': 0.09}",0.8191126279863481,1.0,0.8191126279863481,"(1303, 8)",Buy,LBTYK
186,138.52,2018-05-18,0.7542662116040956,120.2928,2017-11-07,"{'macd': 0.16, 'rsi_14': 0.15, 'volume': 0.14, 'macdh': 0.13, 'sod_14': 0.13, 'obv_2': 0.11, 'wr_14': 0.1, 'roc_2': 0.09}",0.7542662116040956,-1.0,0.7542662116040956,"(1303, 8)",Sell,MAR
187,57.93,2018-05-18,0.757679180887372,53.9771,2017-11-07,"{'macd': 0.15, 'sod_14': 0.15, 'macdh': 0.14, 'rsi_14': 0.14, 'volume': 0.13, 'wr_14': 0.11, 'obv_2': 0.1, 'roc_2': 0.09}",0.757679180887372,-1.0,0.757679180887372,"(1303, 8)",Sell,MXIM
188,295.37,2018-05-18,0.7815699658703071,265.5052,2017-11-07,"{'macd': 0.16, 'macdh': 0.14, 'rsi_14': 0.14, 'sod_14': 0.14, 'volume': 0.13, 'obv_2': 0.11, 'wr_14': 0.11, 'roc_2': 0.08}",0.7815699658703071,-1.0,0.7815699658703071,"(1303, 8)",Sell,MELI
189,92.8,2018-05-18,0.7610921501706485,90.6806,2017-11-07,"{'volume': 0.15, 'sod_14': 0.15, 'macd': 0.13, 'macdh': 0.13, 'rsi_14': 0.12, 'obv_2': 0.11, 'wr_14': 0.11, 'roc_2': 0.1}",0.7610921501706485,-1.0,0.7610921501706485,"(1303, 8)",Sell,MCHP
190,53.39,2018-05-18,0.7781569965870307,43.95,2017-11-07,"{'macd': 0.21, 'rsi_14': 0.14, 'macdh': 0.13, 'volume': 0.13, 'sod_14': 0.12, 'obv_2': 0.09, 'wr_14': 0.09, 'roc_2': 0.08}",0.7781569965870307,-1.0,0.7781569965870307,"(1303, 8)",Sell,MU
191,96.36,2018-05-18,0.71280276816609,83.4569,2017-11-07,"{'volume': 0.15, 'macd': 0.14, 'sod_14': 0.14, 'rsi_14': 0.13, 'macdh': 0.12, 'obv_2': 0.11, 'wr_14': 0.11, 'roc_2': 0.1}",0.71280276816609,-1.0,0.71280276816609,"(1287, 8)",Sell,MSFT
192,39.65,2018-05-18,0.658703071672355,41.0004,2017-11-07,"{'volume': 0.14, 'macd': 0.13, 'macdh': 0.13, 'rsi_14': 0.13, 'sod_14': 0.13, 'obv_2': 0.11, 'roc_2': 0.11, 'wr_14': 0.11}",0.658703071672355,-2.0,0.658703071672355,"(1303, 8)",Sell Strong,MDLZ
193,49.47,2018-05-18,0.8327645051194539,57.92,2017-11-07,"{'macd': 0.15, 'macdh': 0.14, 'rsi_14': 0.14, 'volume': 0.14, 'sod_14': 0.14, 'obv_2': 0.11, 'wr_14': 0.11, 'roc_2': 0.09}",0.8327645051194539,-2.0,0.8327645051194539,"(1303, 8)",Sell Strong,MNST
194,39.66,2018-05-18,0.7474402730375427,36.67,2017-11-07,"{'macd': 0.15, 'sod_14': 0.15, 'volume': 0.14, 'macdh': 0.13, 'rsi_14': 0.13, 'obv_2': 0.11, 'wr_14': 0.11, 'roc_2': 0.08}",0.7474402730375427,1.0,0.7474402730375427,"(1303, 8)",Buy,MYL
195,246.33,2018-05-18,0.7849829351535836,305.5352,2017-11-07,"{'macd': 0.16, 'volume': 0.14, 'macdh': 0.13, 'obv_2': 0.12, 'rsi_14': 0.12, 'sod_14': 0.12, 'wr_14': 0.11, 'roc_2': 0.1}",0.7849829351535836,-2.0,0.7849829351535836,"(1303, 8)",Sell Strong,NTES
196,324.18,2018-05-18,0.8327645051194539,195.89,2017-11-07,"{'volume': 0.15, 'macd': 0.14, 'macdh': 0.14, 'rsi_14': 0.13, 'sod_14': 0.13, 'obv_2': 0.11, 'wr_14': 0.11, 'roc_2': 0.09}",0.8327645051194539,2.0,0.8327645051194539,"(1303, 8)",Buy Strong,NFLX
197,245.94,2018-05-18,0.8088737201365188,211.7513,2017-11-07,"{'macd': 0.23, 'macdh': 0.15, 'volume': 0.14, 'rsi_14': 0.12, 'sod_14': 0.1, 'obv_2': 0.09, 'wr_14': 0.09, 'roc_2': 0.07}",0.8088737201365188,-1.0,0.8088737201365188,"(1303, 8)",Sell,NVDA
198,272.09,2018-05-18,0.7303754266211604,208.11,2017-11-07,"{'macd': 0.16, 'macdh': 0.16, 'rsi_14': 0.13, 'volume': 0.12, 'wr_14': 0.11, 'sod_14': 0.11, 'obv_2': 0.1, 'roc_2': 0.1}",0.7303754266211604,2.0,0.7303754266211604,"(1303, 8)",Buy Strong,ORLY
199,65.01,2018-05-18,0.7610921501706485,69.9667,2017-11-07,"{'macd': 0.16, 'sod_14': 0.14, 'rsi_14': 0.13, 'volume': 0.13, 'macdh': 0.12, 'obv_2': 0.11, 'wr_14': 0.11, 'roc_2': 0.1}",0.7610921501706485,-2.0,0.7610921501706485,"(1303, 8)",Sell Strong,PCAR
200,64.82,2018-05-18,0.7952218430034129,63.8013,2017-11-07,"{'macd': 0.18, 'rsi_14': 0.13, 'sod_14': 0.13, 'macdh': 0.12, 'volume': 0.12, 'obv_2': 0.11, 'wr_14': 0.1, 'roc_2': 0.09}",0.7952218430034129,-2.0,0.7952218430034129,"(1303, 8)",Sell Strong,PAYX
201,80.79,2018-05-18,0.8053691275167785,74.41,2017-11-07,"{'rsi_14': 0.17, 'sod_14': 0.15, 'macd': 0.14, 'volume': 0.14, 'wr_14': 0.11, 'obv_2': 0.1, 'macdh': 0.09, 'roc_2': 0.09}",0.8053691275167785,-1.0,0.8053691275167785,"(725, 8)",Sell,PYPL
202,57.51,2018-05-18,0.7713310580204779,63.0229,2017-11-07,"{'macd': 0.15, 'volume': 0.15, 'sod_14': 0.15, 'macdh': 0.13, 'rsi_14': 0.13, 'obv_2': 0.1, 'wr_14': 0.1, 'roc_2': 0.09}",0.7713310580204779,-1.0,0.7713310580204779,"(1303, 8)",Sell,QCOM
203,22.6,2018-05-18,0.8668941979522184,21.55,2017-11-07,"{'sod_14': 0.16, 'volume': 0.15, 'macd': 0.14, 'macdh': 0.14, 'rsi_14': 0.12, 'wr_14': 0.11, 'obv_2': 0.1, 'roc_2': 0.08}",0.8668941979522184,1.0,0.8668941979522184,"(1303, 8)",Buy,QRTEA
204,301.81,2018-05-18,0.7064846416382252,404.39,2017-11-07,"{'macd': 0.17, 'macdh': 0.15, 'rsi_14': 0.13, 'sod_14': 0.13, 'volume': 0.12, 'obv_2': 0.1, 'roc_2': 0.1, 'wr_14': 0.1}",0.7064846416382252,-2.0,0.7064846416382252,"(1303, 8)",Sell Strong,REGN
205,82.47,2018-05-18,0.8156996587030717,64.4641,2017-11-07,"{'rsi_14': 0.15, 'volume': 0.15, 'macd': 0.14, 'macdh': 0.13, 'sod_14': 0.13, 'obv_2': 0.11, 'wr_14': 0.11, 'roc_2': 0.09}",0.8156996587030717,2.0,0.8156996587030717,"(1303, 8)",Buy Strong,ROST
206,56.31,2018-05-18,0.7781569965870307,36.576,2017-11-07,"{'volume': 0.15, 'macd': 0.14, 'sod_14': 0.14, 'macdh': 0.13, 'obv_2': 0.12, 'rsi_14': 0.12, 'wr_14': 0.11, 'roc_2': 0.09}",0.7781569965870307,2.0,0.7781569965870307,"(1303, 8)",Buy Strong,STX
207,169.61,2018-05-18,0.8088737201365188,143.7251,2017-11-07,"{'volume': 0.21, 'macd': 0.14, 'sod_14': 0.13, 'macdh': 0.12, 'obv_2': 0.12, 'rsi_14': 0.11, 'wr_14': 0.09, 'roc_2': 0.08}",0.8088737201365188,1.0,0.8088737201365188,"(1303, 8)",Buy,SHPG
208,6.97,2018-05-18,0.7679180887372014,5.3193,2017-11-07,"{'sod_14': 0.16, 'macd': 0.15, 'macdh': 0.14, 'volume': 0.14, 'rsi_14': 0.12, 'obv_2': 0.1, 'roc_2': 0.1, 'wr_14': 0.1}",0.7679180887372014,2.0,0.7679180887372014,"(1303, 8)",Buy Strong,SIRI
209,98.49,2018-05-18,0.8395904436860068,110.5332,2017-11-07,"{'macd': 0.17, 'volume': 0.15, 'macdh': 0.14, 'sod_14': 0.14, 'rsi_14': 0.13, 'obv_2': 0.1, 'wr_14': 0.1, 'roc_2': 0.07}",0.8395904436860068,-2.0,0.8395904436860068,"(1303, 8)",Sell Strong,SWKS
210,57.16,2018-05-18,0.7679180887372014,56.6114,2017-11-07,"{'sod_14': 0.17, 'rsi_14': 0.16, 'macd': 0.14, 'macdh': 0.13, 'volume': 0.11, 'wr_14': 0.11, 'obv_2': 0.09, 'roc_2': 0.09}",0.7679180887372014,-1.0,0.7679180887372014,"(1303, 8)",Sell,SBUX
211,22.19,2018-05-18,0.8361774744027304,28.5245,2017-11-07,"{'volume': 0.2, 'macd': 0.13, 'obv_2': 0.13, 'macdh': 0.12, 'rsi_14': 0.12, 'sod_14': 0.12, 'roc_2': 0.08, 'wr_14': 0.08}",0.8361774744027304,-2.0,0.8361774744027304,"(1303, 8)",Sell Strong,SYMC
212,89.25,2018-05-18,0.7440273037542662,86.91,2017-11-07,"{'sod_14': 0.17, 'macd': 0.14, 'macdh': 0.14, 'volume': 0.14, 'obv_2': 0.11, 'rsi_14': 0.11, 'wr_14': 0.1, 'roc_2': 0.09}",0.7440273037542662,-2.0,0.7440273037542662,"(1303, 8)",Sell Strong,SNPS
213,56.93,2018-05-18,0.7867132867132867,55.36,2017-11-07,"{'macd': 0.16, 'rsi_14': 0.14, 'sod_14': 0.14, 'macdh': 0.13, 'volume': 0.13, 'obv_2': 0.1, 'wr_14': 0.1, 'roc_2': 0.09}",0.7867132867132867,-1.0,0.7867132867132867,"(1273, 8)",Sell,TMUS
214,115.81,2018-05-18,0.7918088737201365,106.39,2017-11-07,"{'macd': 0.17, 'sod_14': 0.15, 'macdh': 0.14, 'rsi_14': 0.13, 'volume': 0.12, 'obv_2': 0.1, 'wr_14': 0.1, 'roc_2': 0.09}",0.7918088737201365,-2.0,0.7918088737201365,"(1303, 8)",Sell Strong,TTWO
215,276.82,2018-05-18,0.7508532423208191,306.05,2017-11-07,"{'volume': 0.15, 'macdh': 0.14, 'rsi_14': 0.14, 'sod_14': 0.14, 'macd': 0.13, 'obv_2': 0.12, 'wr_14': 0.1, 'roc_2': 0.08}",0.7508532423208191,-2.0,0.7508532423208191,"(1303, 8)",Sell Strong,TSLA
216,110.54,2018-05-18,0.7440273037542662,97.8584,2017-11-07,"{'macd': 0.16, 'macdh': 0.14, 'sod_14': 0.14, 'rsi_14': 0.12, 'volume': 0.12, 'wr_14': 0.12, 'obv_2': 0.11, 'roc_2': 0.09}",0.7440273037542662,-1.0,0.7440273037542662,"(1303, 8)",Sell,TXN
217,56.79,2018-05-18,0.7785234899328859,76.8412,2017-11-07,"{'rsi_14': 0.16, 'sod_14': 0.16, 'macd': 0.13, 'volume': 0.13, 'macdh': 0.12, 'wr_14': 0.12, 'obv_2': 0.1, 'roc_2': 0.07}",0.7785234899328859,-2.0,0.7785234899328859,"(725, 8)",Sell Strong,KHC
218,37.27,2018-05-18,0.7509025270758123,26.9102,2017-11-07,"{'macd': 0.16, 'sod_14': 0.15, 'volume': 0.14, 'macdh': 0.13, 'rsi_14': 0.13, 'obv_2': 0.1, 'wr_14': 0.1, 'roc_2': 0.09}",0.7509025270758123,-2.0,0.7509025270758123,"(1239, 8)",Sell Strong,FOX
219,37.66,2018-05-18,0.8158844765342961,27.6185,2017-11-07,"{'macd': 0.16, 'volume': 0.15, 'rsi_14': 0.14, 'macdh': 0.13, 'sod_14': 0.13, 'obv_2': 0.1, 'wr_14': 0.1, 'roc_2': 0.09}",0.8158844765342961,-2.0,0.8158844765342961,"(1239, 8)",Sell Strong,FOXA
220,255.59,2018-05-18,0.856655290102389,198.01,2017-11-07,"{'macd': 0.18, 'rsi_14': 0.16, 'volume': 0.14, 'macdh': 0.13, 'sod_14': 0.12, 'wr_14': 0.1, 'obv_2': 0.09, 'roc_2': 0.07}",0.856655290102389,2.0,0.856655290102389,"(1303, 8)",Buy Strong,ULTA
221,106.31,2018-05-18,0.8122866894197952,92.29,2017-11-07,"{'sod_14': 0.16, 'macd': 0.14, 'macdh': 0.13, 'volume': 0.13, 'wr_14': 0.12, 'obv_2': 0.11, 'rsi_14': 0.11, 'roc_2': 0.09}",0.8122866894197952,2.0,0.8122866894197952,"(1303, 8)",Buy Strong,VRSK
222,157.24,2018-05-18,0.726962457337884,151.31,2017-11-07,"{'macd': 0.17, 'rsi_14': 0.15, 'sod_14': 0.13, 'macdh': 0.12, 'volume': 0.12, 'roc_2': 0.11, 'wr_14': 0.11, 'obv_2': 0.1}",0.726962457337884,-1.0,0.726962457337884,"(1303, 8)",Sell,VRTX
223,26.41,2018-05-18,0.8395904436860068,28.3925,2017-11-07,"{'macd': 0.16, 'sod_14': 0.15, 'rsi_14': 0.14, 'volume': 0.14, 'macdh': 0.13, 'obv_2': 0.1, 'wr_14': 0.1, 'roc_2': 0.08}",0.8395904436860068,-1.0,0.8395904436860068,"(1303, 8)",Sell,VOD
224,64.34,2018-05-18,0.757679180887372,67.1338,2017-11-07,"{'volume': 0.15, 'sod_14': 0.14, 'macd': 0.13, 'macdh': 0.13, 'rsi_14': 0.13, 'obv_2': 0.11, 'wr_14': 0.11, 'roc_2': 0.09}",0.757679180887372,-1.0,0.757679180887372,"(1303, 8)",Sell,WBA
225,84.75,2018-05-18,0.8464163822525598,85.5583,2017-11-07,"{'volume': 0.17, 'macd': 0.15, 'sod_14': 0.15, 'rsi_14': 0.13, 'macdh': 0.12, 'obv_2': 0.11, 'roc_2': 0.09, 'wr_14': 0.09}",0.8464163822525598,-1.0,0.8464163822525598,"(1303, 8)",Sell,WDC
226,134.48,2018-05-18,0.7474402730375427,108.53,2017-11-07,"{'macd': 0.15, 'sod_14': 0.15, 'macdh': 0.14, 'rsi_14': 0.13, 'volume': 0.13, 'wr_14': 0.11, 'obv_2': 0.1, 'roc_2': 0.09}",0.7474402730375427,2.0,0.7474402730375427,"(1303, 8)",Buy Strong,WDAY
227,189.03,2018-05-18,0.825938566552901,151.2339,2017-11-07,"{'macd': 0.2, 'volume': 0.16, 'rsi_14': 0.14, 'macdh': 0.12, 'obv_2': 0.11, 'sod_14': 0.11, 'wr_14': 0.08, 'roc_2': 0.07}",0.825938566552901,1.0,0.825938566552901,"(1303, 8)",Buy,WYNN
228,71.23,2018-05-18,0.7679180887372014,73.168,2017-11-07,"{'macd': 0.14, 'rsi_14': 0.14, 'macdh': 0.13, 'volume': 0.13, 'sod_14': 0.13, 'obv_2': 0.12, 'wr_14': 0.12, 'roc_2': 0.1}",0.7679180887372014,-2.0,0.7679180887372014,"(1303, 8)",Sell Strong,XLNX
229,18.89,2018-05-18,0.7337883959044369,18.8631,2017-11-07,"{'macd': 0.16, 'macdh': 0.14, 'rsi_14': 0.13, 'volume': 0.13, 'sod_14': 0.13, 'obv_2': 0.11, 'wr_14': 0.1, 'roc_2': 0.09}",0.7337883959044369,-1.0,0.7337883959044369,"(1304, 8)",Sell,AGNC
230,121.37,2018-05-18,0.7337883959044369,118.6349,2017-11-07,"{'sod_14': 0.15, 'rsi_14': 0.14, 'volume': 0.14, 'macd': 0.13, 'macdh': 0.12, 'obv_2': 0.12, 'wr_14': 0.1, 'roc_2': 0.09}",0.7337883959044369,-1.0,0.7337883959044369,"(1304, 8)",Sell,ANAT
231,13.76,2018-05-18,0.7952218430034129,11.6905,2017-11-07,"{'macd': 0.16, 'volume': 0.15, 'sod_14': 0.14, 'macdh': 0.12, 'rsi_14': 0.12, 'obv_2': 0.11, 'wr_14': 0.11, 'roc_2': 0.09}",0.7952218430034129,-1.0,0.7952218430034129,"(1304, 8)",Sell,AFSI
232,78.67,2018-05-18,0.8122866894197952,95.6,2017-11-07,"{'macd': 0.15, 'sod_14': 0.15, 'rsi_14': 0.14, 'macdh': 0.13, 'volume': 0.13, 'obv_2': 0.1, 'wr_14': 0.1, 'roc_2': 0.09}",0.8122866894197952,1.0,0.8122866894197952,"(1304, 8)",Buy,ACGL
233,48.48,2018-05-18,0.7918088737201365,44.5636,2017-11-07,"{'volume': 0.18, 'macd': 0.15, 'rsi_14': 0.13, 'macdh': 0.12, 'sod_14': 0.12, 'obv_2': 0.11, 'wr_14': 0.1, 'roc_2': 0.08}",0.7918088737201365,-1.0,0.7918088737201365,"(1303, 8)",Sell,OZRK
234,58.11,2018-05-18,0.7337883959044369,55.5116,2017-11-07,"{'macd': 0.17, 'volume': 0.17, 'rsi_14': 0.13, 'macdh': 0.12, 'sod_14': 0.12, 'obv_2': 0.11, 'wr_14': 0.1, 'roc_2': 0.08}",0.7337883959044369,-1.0,0.7337883959044369,"(1304, 8)",Sell,BANR
235,12.24,2018-05-18,0.7235494880546075,14.8638,2017-11-07,"{'macd': 0.17, 'volume': 0.14, 'sod_14': 0.14, 'rsi_14': 0.13, 'macdh': 0.11, 'obv_2': 0.11, 'wr_14': 0.1, 'roc_2': 0.09}",0.7235494880546075,-2.0,0.7235494880546075,"(1304, 8)",Sell Strong,BGCP
236,41.69,2018-05-18,0.8054607508532423,25.27,2017-11-07,"{'volume': 0.16, 'macd': 0.15, 'macdh': 0.14, 'sod_14': 0.13, 'rsi_14': 0.12, 'obv_2': 0.11, 'wr_14': 0.11, 'roc_2': 0.08}",0.8054607508532423,-1.0,0.8054607508532423,"(1304, 8)",Sell,BOFI
237,104.13,2018-05-18,0.8054607508532423,83.32,2017-11-07,"{'volume': 0.18, 'macd': 0.15, 'rsi_14': 0.13, 'sod_14': 0.13, 'macdh': 0.12, 'obv_2': 0.12, 'wr_14': 0.1, 'roc_2': 0.08}",0.8054607508532423,2.0,0.8054607508532423,"(1304, 8)",Buy Strong,BOKF
238,47.18,2018-05-18,0.7142857142857143,56.95,2017-11-07,"{'macd': 0.16, 'macdh': 0.14, 'obv_2': 0.14, 'sod_14': 0.13, 'rsi_14': 0.11, 'volume': 0.11, 'wr_14': 0.11, 'roc_2': 0.1}",0.7142857142857143,-2.0,0.7142857142857143,"(213, 8)",Sell Strong,BHF
239,13.1,2018-05-18,0.7508532423208191,13.2334,2017-11-07,"{'sod_14': 0.16, 'macd': 0.15, 'macdh': 0.14, 'volume': 0.14, 'rsi_14': 0.12, 'wr_14': 0.1, 'obv_2': 0.09, 'roc_2': 0.09}",0.7508532423208191,-1.0,0.7508532423208191,"(1303, 8)",Sell,CFFN
240,42.04,2018-05-18,0.78839590443686,39.7966,2017-11-07,"{'macd': 0.16, 'macdh': 0.14, 'rsi_14': 0.14, 'volume': 0.13, 'sod_14': 0.13, 'wr_14': 0.11, 'obv_2': 0.1, 'roc_2': 0.1}",0.78839590443686,-1.0,0.78839590443686,"(1303, 8)",Sell,CATY
241,106.56,2018-05-18,0.8122866894197952,112.894,2017-11-07,"{'macd': 0.16, 'volume': 0.16, 'rsi_14': 0.14, 'macdh': 0.13, 'sod_14': 0.12, 'obv_2': 0.11, 'wr_14': 0.1, 'roc_2': 0.08}",0.8122866894197952,-2.0,0.8122866894197952,"(1303, 8)",Sell Strong,CBOE
242,55.96,2018-05-18,0.757679180887372,51.2364,2017-11-07,"{'macd': 0.17, 'volume': 0.16, 'macdh': 0.14, 'rsi_14': 0.13, 'obv_2': 0.11, 'sod_14': 0.11, 'wr_14': 0.1, 'roc_2': 0.08}",0.757679180887372,-1.0,0.757679180887372,"(1303, 8)",Sell,CHFC
243,15.05,2018-05-18,0.8260869565217391,16.705,2017-11-07,"{'macd': 0.15, 'macdh': 0.14, 'sod_14': 0.14, 'rsi_14': 0.13, 'volume': 0.13, 'obv_2': 0.1, 'roc_2': 0.1, 'wr_14': 0.1}",0.8260869565217391,-1.0,0.8260869565217391,"(1051, 8)",Sell,CMCT
244,70.73,2018-05-18,0.7235494880546075,72.3815,2017-11-07,"{'macd': 0.15, 'macdh': 0.14, 'rsi_14': 0.13, 'volume': 0.13, 'sod_14': 0.13, 'wr_14': 0.12, 'obv_2': 0.1, 'roc_2': 0.1}",0.7235494880546075,-2.0,0.7235494880546075,"(1303, 8)",Sell Strong,CINF
245,159.78,2018-05-18,0.7303754266211604,136.387,2017-11-07,"{'macd': 0.16, 'volume': 0.15, 'macdh': 0.14, 'sod_14': 0.13, 'rsi_14': 0.12, 'obv_2': 0.11, 'wr_14': 0.11, 'roc_2': 0.09}",0.7303754266211604,1.0,0.7303754266211604,"(1303, 8)",Buy,CME
246,76.4,2018-05-18,0.7610921501706485,59.3004,2017-11-07,"{'macd': 0.17, 'rsi_14': 0.14, 'sod_14': 0.14, 'macdh': 0.13, 'volume': 0.13, 'obv_2': 0.11, 'wr_14': 0.1, 'roc_2': 0.09}",0.7610921501706485,2.0,0.7610921501706485,"(1303, 8)",Buy Strong,CIGI
247,42.68,2018-05-18,0.6860068259385665,42.9406,2017-11-07,"{'macd': 0.16, 'macdh': 0.15, 'rsi_14': 0.13, 'sod_14': 0.13, 'volume': 0.12, 'wr_14': 0.12, 'obv_2': 0.1, 'roc_2': 0.09}",0.6860068259385665,-2.0,0.6860068259385665,"(1303, 8)",Sell Strong,COLB
248,64.59,2018-05-18,0.7508532423208191,53.2214,2017-11-07,"{'sod_14': 0.15, 'macd': 0.14, 'rsi_14': 0.14, 'volume': 0.14, 'macdh': 0.13, 'obv_2': 0.11, 'wr_14': 0.1, 'roc_2': 0.09}",0.7508532423208191,2.0,0.7508532423208191,"(1303, 8)",Buy Strong,CBSH
249,352.06,2018-05-18,0.7952218430034129,284.15,2017-11-07,"{'volume': 0.18, 'macd': 0.15, 'macdh': 0.13, 'rsi_14': 0.13, 'sod_14': 0.13, 'obv_2': 0.11, 'roc_2': 0.09, 'wr_14': 0.09}",0.7952218430034129,1.0,0.7952218430034129,"(1303, 8)",Buy,CACC
250,23.14,2018-05-18,0.7440273037542662,22.8628,2017-11-07,"{'macd': 0.19, 'macdh': 0.14, 'rsi_14': 0.13, 'volume': 0.12, 'sod_14': 0.12, 'wr_14': 0.11, 'obv_2': 0.09, 'roc_2': 0.09}",0.7440273037542662,-1.0,0.7440273037542662,"(1303, 8)",Sell,CVBF
251,52.14,2018-05-18,0.8020477815699659,61.9603,2017-11-07,"{'macd': 0.15, 'macdh': 0.14, 'rsi_14': 0.14, 'volume': 0.14, 'sod_14': 0.13, 'obv_2': 0.11, 'wr_14': 0.1, 'roc_2': 0.09}",0.8020477815699659,-2.0,0.8020477815699659,"(1303, 8)",Sell Strong,CONE
252,64.66,2018-05-18,0.757679180887372,43.62,2017-11-07,"{'macd': 0.15, 'volume': 0.15, 'macdh': 0.13, 'rsi_14': 0.13, 'obv_2': 0.12, 'sod_14': 0.12, 'wr_14': 0.1, 'roc_2': 0.09}",0.757679180887372,2.0,0.757679180887372,"(1303, 8)",Buy Strong,ETFC
253,70.48,2018-05-18,0.7679180887372014,57.4677,2017-11-07,"{'macd': 0.16, 'volume': 0.14, 'macdh': 0.13, 'sod_14': 0.13, 'rsi_14': 0.12, 'obv_2': 0.11, 'roc_2': 0.1, 'wr_14': 0.1}",0.7679180887372014,2.0,0.7679180887372014,"(1303, 8)",Buy Strong,EWBC
254,212.2,2018-05-18,0.7372013651877133,229.35,2017-11-07,"{'macd': 0.17, 'macdh': 0.14, 'sod_14': 0.14, 'rsi_14': 0.13, 'volume': 0.12, 'wr_14': 0.11, 'obv_2': 0.1, 'roc_2': 0.1}",0.7372013651877133,-2.0,0.7372013651877133,"(1303, 8)",Sell Strong,ESGR
255,385.86,2018-05-18,0.7952218430034129,483.2058,2017-11-07,"{'volume': 0.16, 'macd': 0.15, 'macdh': 0.13, 'rsi_14': 0.13, 'sod_14': 0.12, 'obv_2': 0.11, 'wr_14': 0.11, 'roc_2': 0.09}",0.7952218430034129,-2.0,0.7952218430034129,"(1303, 8)",Sell Strong,EQIX
256,111.75,2018-05-18,0.7679180887372014,121.5894,2017-11-07,"{'volume': 0.15, 'macd': 0.14, 'macdh': 0.14, 'sod_14': 0.14, 'rsi_14': 0.12, 'obv_2': 0.11, 'roc_2': 0.1, 'wr_14': 0.1}",0.7679180887372014,-2.0,0.7679180887372014,"(1303, 8)",Sell Strong,ERIE
257,33.56,2018-05-18,0.7713310580204779,28.3015,2017-11-07,"{'macd': 0.16, 'sod_14': 0.14, 'macdh': 0.13, 'volume': 0.13, 'obv_2': 0.12, 'rsi_14': 0.12, 'wr_14': 0.12, 'roc_2': 0.1}",0.7713310580204779,1.0,0.7713310580204779,"(1303, 8)",Buy,FITB
258,44.6,2018-05-18,0.7747440273037542,27.7329,2017-11-07,"{'macd': 0.18, 'rsi_14': 0.14, 'volume': 0.14, 'sod_14': 0.14, 'macdh': 0.13, 'wr_14': 0.1, 'obv_2': 0.09, 'roc_2': 0.08}",0.7747440273037542,2.0,0.7747440273037542,"(1303, 8)",Buy Strong,FNGN
259,449.95,2018-05-18,0.7542662116040956,395.8496,2017-11-07,"{'sod_14': 0.16, 'macd': 0.15, 'volume': 0.15, 'macdh': 0.12, 'obv_2': 0.12, 'rsi_14': 0.11, 'wr_14': 0.1, 'roc_2': 0.09}",0.7542662116040956,1.0,0.7542662116040956,"(1303, 8)",Buy,FCNCA
260,31.65,2018-05-18,0.726962457337884,26.0682,2017-11-07,"{'macd': 0.16, 'macdh': 0.14, 'rsi_14': 0.14, 'volume': 0.13, 'sod_14': 0.13, 'wr_14': 0.11, 'obv_2': 0.1, 'roc_2': 0.09}",0.726962457337884,2.0,0.726962457337884,"(1303, 8)",Buy Strong,FFBC
261,52.6,2018-05-18,0.7406143344709898,44.0429,2017-11-07,"{'macd': 0.15, 'rsi_14': 0.14, 'sod_14': 0.14, 'volume': 0.13, 'macdh': 0.12, 'obv_2': 0.11, 'wr_14': 0.11, 'roc_2': 0.1}",0.7406143344709898,2.0,0.7406143344709898,"(1303, 8)",Buy Strong,FFIN
262,28.32,2018-05-18,0.8375,27.6313,2017-11-07,"{'macd': 0.18, 'rsi_14': 0.18, 'macdh': 0.16, 'volume': 0.12, 'wr_14': 0.11, 'sod_14': 0.1, 'obv_2': 0.09, 'roc_2': 0.08}",0.8375,1.0,0.8375,"(451, 8)",Buy,FHB
263,25.38,2018-05-18,0.757679180887372,22.6669,2017-11-07,"{'macd': 0.16, 'rsi_14': 0.15, 'macdh': 0.13, 'volume': 0.13, 'sod_14': 0.13, 'obv_2': 0.11, 'roc_2': 0.1, 'wr_14': 0.1}",0.757679180887372,1.0,0.757679180887372,"(1303, 8)",Buy,FMBI
264,70.71,2018-05-18,0.7922077922077922,67.68,2017-11-07,"{'macd': 0.18, 'macdh': 0.15, 'rsi_14': 0.15, 'wr_14': 0.12, 'obv_2': 0.1, 'roc_2': 0.1, 'volume': 0.1, 'sod_14': 0.1}",0.7922077922077922,-2.0,0.7922077922077922,"(748, 8)",Sell Strong,FSV
265,17.3,2018-05-18,0.6928327645051194,17.6421,2017-11-07,"{'macd': 0.15, 'rsi_14': 0.14, 'sod_14': 0.14, 'macdh': 0.13, 'volume': 0.12, 'obv_2': 0.11, 'roc_2': 0.11, 'wr_14': 0.11}",0.6928327645051194,-2.0,0.6928327645051194,"(1303, 8)",Sell Strong,FULT
266,34.58,2018-05-18,0.8297872340425532,35.6165,2017-11-07,"{'macd': 0.18, 'macdh': 0.14, 'rsi_14': 0.13, 'volume': 0.13, 'sod_14': 0.13, 'wr_14': 0.11, 'obv_2': 0.09, 'roc_2': 0.09}",0.8297872340425532,-1.0,0.8297872340425532,"(1072, 8)",Sell,GLPI
267,39.37,2018-05-18,0.7542662116040956,36.3891,2017-11-07,"{'macd': 0.16, 'macdh': 0.15, 'sod_14': 0.15, 'volume': 0.13, 'rsi_14': 0.12, 'wr_14': 0.12, 'obv_2': 0.1, 'roc_2': 0.09}",0.7542662116040956,1.0,0.7542662116040956,"(1303, 8)",Buy,GBCI
268,51.8,2018-05-18,0.78839590443686,46.8606,2017-11-07,"{'macdh': 0.15, 'macd': 0.14, 'volume': 0.14, 'sod_14': 0.14, 'rsi_14': 0.13, 'wr_14': 0.12, 'obv_2': 0.1, 'roc_2': 0.09}",0.78839590443686,1.0,0.78839590443686,"(1303, 8)",Buy,HBHC
269,73.72,2018-05-18,0.7342995169082126,49.31,2017-11-07,"{'sod_14': 0.17, 'volume': 0.15, 'rsi_14': 0.14, 'macd': 0.12, 'macdh': 0.12, 'obv_2': 0.11, 'wr_14': 0.11, 'roc_2': 0.08}",0.7342995169082126,2.0,0.7342995169082126,"(958, 8)",Buy Strong,HQY
270,23.44,2018-05-18,0.7713310580204779,21.4978,2017-11-07,"{'volume': 0.16, 'macd': 0.14, 'sod_14': 0.14, 'macdh': 0.13, 'rsi_14': 0.12, 'obv_2': 0.11, 'wr_14': 0.11, 'roc_2': 0.09}",0.7713310580204779,1.0,0.7713310580204779,"(1303, 8)",Buy,HOMB
271,15.12,2018-05-18,0.7406143344709898,13.2067,2017-11-07,"{'macd': 0.15, 'sod_14': 0.15, 'rsi_14': 0.13, 'volume': 0.13, 'macdh': 0.12, 'wr_14': 0.12, 'obv_2': 0.11, 'roc_2': 0.09}",0.7406143344709898,1.0,0.7406143344709898,"(1303, 8)",Buy,HBAN
272,79.45,2018-05-18,0.7815699658703071,71.6586,2017-11-07,"{'volume': 0.15, 'macd': 0.14, 'sod_14': 0.14, 'macdh': 0.13, 'rsi_14': 0.13, 'wr_14': 0.11, 'obv_2': 0.1, 'roc_2': 0.1}",0.7815699658703071,1.0,0.7815699658703071,"(1303, 8)",Buy,IBKC
273,51.43,2018-05-18,0.7663551401869159,43.43,2017-11-07,"{'macd': 0.16, 'sod_14': 0.16, 'volume': 0.14, 'macdh': 0.13, 'rsi_14': 0.13, 'wr_14': 0.11, 'obv_2': 0.1, 'roc_2': 0.09}",0.7663551401869159,2.0,0.7663551401869159,"(987, 8)",Buy Strong,INFO
274,74.85,2018-05-18,0.7030716723549488,69.0447,2017-11-07,"{'macd': 0.15, 'rsi_14': 0.14, 'macdh': 0.13, 'volume': 0.13, 'sod_14': 0.13, 'obv_2': 0.11, 'wr_14': 0.11, 'roc_2': 0.09}",0.7030716723549488,-1.0,0.7030716723549488,"(1303, 8)",Sell,INDB
275,77.6,2018-05-18,0.8191126279863481,53.9183,2017-11-07,"{'macd': 0.17, 'macdh': 0.15, 'rsi_14': 0.15, 'volume': 0.13, 'sod_14': 0.12, 'wr_14': 0.1, 'obv_2': 0.09, 'roc_2': 0.08}",0.8191126279863481,2.0,0.8191126279863481,"(1303, 8)",Buy Strong,IBKR
276,42.8,2018-05-18,0.7610921501706485,39.45,2017-11-07,"{'macd': 0.18, 'rsi_14': 0.14, 'macdh': 0.13, 'volume': 0.12, 'sod_14': 0.12, 'obv_2': 0.11, 'wr_14': 0.11, 'roc_2': 0.09}",0.7610921501706485,1.0,0.7610921501706485,"(1303, 8)",Buy,IBOC
277,13.54,2018-05-18,0.825938566552901,13.2697,2017-11-07,"{'volume': 0.21, 'macd': 0.16, 'sod_14': 0.13, 'macdh': 0.12, 'obv_2': 0.11, 'rsi_14': 0.11, 'roc_2': 0.08, 'wr_14': 0.08}",0.825938566552901,-1.0,0.825938566552901,"(1303, 8)",Sell,ISBC
278,68.38,2018-05-18,0.7372013651877133,75.3468,2017-11-07,"{'macd': 0.15, 'rsi_14': 0.14, 'sod_14': 0.14, 'macdh': 0.13, 'volume': 0.13, 'obv_2': 0.11, 'wr_14': 0.11, 'roc_2': 0.09}",0.7372013651877133,-2.0,0.7372013651877133,"(1303, 8)",Sell Strong,LAMR
279,43.51,2018-05-18,0.8361774744027304,37.7154,2017-11-07,"{'macd': 0.16, 'sod_14': 0.16, 'macdh': 0.14, 'rsi_14': 0.13, 'volume': 0.13, 'obv_2': 0.1, 'wr_14': 0.1, 'roc_2': 0.08}",0.8361774744027304,1.0,0.8361774744027304,"(1303, 8)",Buy,LTXB
280,70.95,2018-05-18,0.8526315789473684,89.51,2017-11-07,"{'macd': 0.17, 'volume': 0.15, 'rsi_14': 0.14, 'sod_14': 0.14, 'macdh': 0.12, 'obv_2': 0.1, 'wr_14': 0.1, 'roc_2': 0.08}",0.8526315789473684,-2.0,0.8526315789473684,"(891, 8)",Sell Strong,LBRDK
281,70.47,2018-05-18,0.7986348122866894,48.8983,2017-11-07,"{'macd': 0.16, 'rsi_14': 0.14, 'macdh': 0.13, 'volume': 0.13, 'sod_14': 0.13, 'obv_2': 0.11, 'wr_14': 0.11, 'roc_2': 0.09}",0.7986348122866894,2.0,0.7986348122866894,"(1303, 8)",Buy Strong,LPLA
282,204.72,2018-05-18,0.7918088737201365,177.6196,2017-11-07,"{'macd': 0.16, 'sod_14': 0.15, 'volume': 0.14, 'macdh': 0.13, 'rsi_14': 0.13, 'wr_14': 0.11, 'obv_2': 0.1, 'roc_2': 0.09}",0.7918088737201365,-1.0,0.7918088737201365,"(1303, 8)",Sell,MKTX
283,43.65,2018-05-18,0.7610921501706485,44.1163,2017-11-07,"{'macdh': 0.14, 'rsi_14': 0.14, 'sod_14': 0.14, 'macd': 0.13, 'volume': 0.12, 'obv_2': 0.11, 'wr_14': 0.11, 'roc_2': 0.1}",0.7610921501706485,-1.0,0.7610921501706485,"(1303, 8)",Sell,MBFI
284,90.07,2018-05-18,0.7337883959044369,71.3473,2017-11-07,"{'macd': 0.16, 'volume': 0.15, 'rsi_14': 0.14, 'obv_2': 0.12, 'sod_14': 0.12, 'macdh': 0.11, 'roc_2': 0.1, 'wr_14': 0.1}",0.7337883959044369,2.0,0.7337883959044369,"(1303, 8)",Buy Strong,NDAQ
285,26.45,2018-05-18,0.7787234042553192,20.5985,2017-11-07,"{'macd': 0.17, 'volume': 0.15, 'macdh': 0.13, 'rsi_14': 0.13, 'sod_14': 0.13, 'obv_2': 0.1, 'wr_14': 0.1, 'roc_2': 0.09}",0.7787234042553192,2.0,0.7787234042553192,"(1070, 8)",Buy Strong,NGHC
286,14.07,2018-05-18,0.8088888888888889,11.7918,2017-11-07,"{'volume': 0.18, 'macd': 0.14, 'rsi_14': 0.13, 'sod_14': 0.13, 'macdh': 0.12, 'obv_2': 0.11, 'wr_14': 0.1, 'roc_2': 0.09}",0.8088888888888889,2.0,0.8088888888888889,"(1030, 8)",Buy Strong,NAVI
287,38.1,2018-05-18,0.7235494880546075,36.2061,2017-11-07,"{'macd': 0.15, 'sod_14': 0.15, 'volume': 0.14, 'macdh': 0.13, 'rsi_14': 0.12, 'obv_2': 0.11, 'roc_2': 0.1, 'wr_14': 0.1}",0.7235494880546075,-1.0,0.7235494880546075,"(1303, 8)",Sell,NBTB
288,107.82,2018-05-18,0.7133105802047781,91.6558,2017-11-07,"{'macd': 0.16, 'sod_14': 0.14, 'macdh': 0.13, 'rsi_14': 0.13, 'volume': 0.12, 'wr_14': 0.11, 'obv_2': 0.1, 'roc_2': 0.1}",0.7133105802047781,2.0,0.7133105802047781,"(1303, 8)",Buy Strong,NTRS
289,16.95,2018-05-18,0.757679180887372,15.8104,2017-11-07,"{'macd': 0.15, 'macdh': 0.14, 'sod_14': 0.14, 'volume': 0.13, 'rsi_14': 0.12, 'obv_2': 0.11, 'wr_14': 0.11, 'roc_2': 0.1}",0.757679180887372,1.0,0.757679180887372,"(1303, 8)",Buy,NWBI
290,17.85,2018-05-18,0.764505119453925,17.2465,2017-11-07,"{'macd': 0.18, 'volume': 0.15, 'rsi_14': 0.13, 'sod_14': 0.13, 'macdh': 0.11, 'obv_2': 0.1, 'wr_14': 0.1, 'roc_2': 0.09}",0.764505119453925,-1.0,0.764505119453925,"(1303, 8)",Sell,ONB
291,53.87,2018-05-18,0.7337883959044369,44.541,2017-11-07,"{'volume': 0.2, 'sod_14': 0.15, 'macd': 0.14, 'macdh': 0.12, 'rsi_14': 0.11, 'obv_2': 0.1, 'wr_14': 0.1, 'roc_2': 0.08}",0.7337883959044369,2.0,0.7337883959044369,"(1303, 8)",Buy Strong,PACW
292,18.63,2018-05-18,0.6962457337883959,17.8916,2017-11-07,"{'macd': 0.15, 'rsi_14': 0.14, 'volume': 0.14, 'sod_14': 0.14, 'macdh': 0.12, 'obv_2': 0.11, 'roc_2': 0.1, 'wr_14': 0.1}",0.6962457337883959,-1.0,0.6962457337883959,"(1303, 8)",Sell,PBCT
293,66.55,2018-05-18,0.7542662116040956,64.5569,2017-11-07,"{'macd': 0.16, 'volume': 0.16, 'rsi_14': 0.13, 'sod_14': 0.13, 'macdh': 0.12, 'obv_2': 0.12, 'wr_14': 0.1, 'roc_2': 0.08}",0.7542662116040956,-1.0,0.7542662116040956,"(1303, 8)",Sell,PNFP
294,46.77,2018-05-18,0.7747440273037542,32.612,2017-11-07,"{'macd': 0.15, 'sod_14': 0.14, 'macdh': 0.13, 'rsi_14': 0.13, 'volume': 0.13, 'obv_2': 0.11, 'wr_14': 0.11, 'roc_2': 0.1}",0.7747440273037542,2.0,0.7747440273037542,"(1304, 8)",Buy Strong,BPOP
295,48.3,2018-05-18,0.7372013651877133,51.091,2017-11-07,"{'macd': 0.17, 'macdh': 0.14, 'volume': 0.13, 'sod_14': 0.13, 'rsi_14': 0.12, 'wr_14': 0.11, 'obv_2': 0.1, 'roc_2': 0.09}",0.7372013651877133,-1.0,0.7372013651877133,"(1303, 8)",Sell,PCH
296,39.9,2018-05-18,0.7610921501706485,27.725,2017-11-07,"{'macd': 0.16, 'rsi_14': 0.14, 'macdh': 0.13, 'volume': 0.13, 'sod_14': 0.13, 'obv_2': 0.12, 'wr_14': 0.1, 'roc_2': 0.09}",0.7610921501706485,2.0,0.7610921501706485,"(1303, 8)",Buy Strong,PRAA
297,58.8,2018-05-18,0.7952218430034129,68.0596,2017-11-07,"{'sod_14': 0.17, 'volume': 0.15, 'macd': 0.13, 'macdh': 0.13, 'rsi_14': 0.12, 'obv_2': 0.11, 'wr_14': 0.1, 'roc_2': 0.09}",0.7952218430034129,-2.0,0.7952218430034129,"(1303, 8)",Sell Strong,PFG
298,47.1,2018-05-18,0.7030716723549488,40.1089,2017-11-07,"{'macd': 0.15, 'volume': 0.15, 'sod_14': 0.14, 'macdh': 0.13, 'rsi_14': 0.12, 'obv_2': 0.11, 'wr_14': 0.11, 'roc_2': 0.08}",0.7030716723549488,2.0,0.7030716723549488,"(1303, 8)",Buy Strong,RNST
299,17.16,2018-05-18,0.7201365187713311,18.3873,2017-11-07,"{'volume': 0.17, 'macd': 0.14, 'rsi_14': 0.13, 'macdh': 0.12, 'obv_2': 0.12, 'sod_14': 0.12, 'wr_14': 0.11, 'roc_2': 0.09}",0.7201365187713311,-2.0,0.7201365187713311,"(1303, 8)",Sell Strong,ROIC
300,19.13,2018-05-18,0.7815699658703071,18.3432,2017-11-07,"{'volume': 0.17, 'rsi_14': 0.14, 'macd': 0.13, 'macdh': 0.13, 'sod_14': 0.13, 'obv_2': 0.11, 'wr_14': 0.1, 'roc_2': 0.09}",0.7815699658703071,1.0,0.7815699658703071,"(1303, 8)",Buy,SBRA
301,157.69,2018-05-18,0.78839590443686,165.65,2017-11-07,"{'macd': 0.15, 'volume': 0.14, 'sod_14': 0.14, 'rsi_14': 0.13, 'macdh': 0.12, 'obv_2': 0.11, 'wr_14': 0.11, 'roc_2': 0.09}",0.78839590443686,-2.0,0.78839590443686,"(1303, 8)",Sell Strong,SBAC
302,65.15,2018-05-18,0.726962457337884,64.8587,2017-11-07,"{'macd': 0.18, 'volume': 0.14, 'rsi_14': 0.13, 'sod_14': 0.13, 'macdh': 0.12, 'obv_2': 0.11, 'wr_14': 0.1, 'roc_2': 0.09}",0.726962457337884,-2.0,0.726962457337884,"(1303, 8)",Sell Strong,SEIC
303,56.1,2018-05-18,0.6996587030716723,58.0373,2017-11-07,"{'volume': 0.17, 'rsi_14': 0.15, 'macd': 0.13, 'obv_2': 0.12, 'macdh': 0.11, 'wr_14': 0.11, 'sod_14': 0.11, 'roc_2': 0.1}",0.6996587030716723,-2.0,0.6996587030716723,"(1303, 8)",Sell Strong,SIGI
304,43.18,2018-05-18,0.8045454545454546,39.5934,2017-11-07,"{'macd': 0.16, 'volume': 0.16, 'macdh': 0.14, 'rsi_14': 0.13, 'sod_14': 0.12, 'obv_2': 0.11, 'roc_2': 0.09, 'wr_14': 0.09}",0.8045454545454546,-1.0,0.8045454545454546,"(1012, 8)",Sell,SFBS
305,129.31,2018-05-18,0.8395904436860068,126.8,2017-11-07,"{'macd': 0.15, 'macdh': 0.15, 'volume': 0.15, 'sod_14': 0.13, 'rsi_14': 0.12, 'wr_14': 0.12, 'obv_2': 0.1, 'roc_2': 0.08}",0.8395904436860068,-1.0,0.8395904436860068,"(1303, 8)",Sell,SBNY
306,31.1,2018-05-18,0.7815699658703071,27.9111,2017-11-07,"{'volume': 0.18, 'macd': 0.14, 'obv_2': 0.13, 'sod_14': 0.13, 'macdh': 0.12, 'rsi_14': 0.12, 'roc_2': 0.09, 'wr_14': 0.09}",0.7815699658703071,1.0,0.7815699658703071,"(1303, 8)",Buy,SFNC
307,11.49,2018-05-18,0.7952218430034129,10.2,2017-11-07,"{'macd': 0.15, 'sod_14': 0.15, 'macdh': 0.14, 'rsi_14': 0.13, 'volume': 0.13, 'obv_2': 0.11, 'wr_14': 0.1, 'roc_2': 0.09}",0.7952218430034129,1.0,0.7952218430034129,"(1303, 8)",Buy,SLM
308,88.7,2018-05-18,0.7303754266211604,86.8396,2017-11-07,"{'macd': 0.17, 'volume': 0.15, 'sod_14': 0.15, 'rsi_14': 0.13, 'macdh': 0.12, 'obv_2': 0.1, 'wr_14': 0.1, 'roc_2': 0.08}",0.7303754266211604,-1.0,0.7303754266211604,"(1303, 8)",Sell,SSB
309,321.78,2018-05-18,0.8088737201365188,215.06,2017-11-07,"{'macd': 0.15, 'volume': 0.15, 'sod_14': 0.14, 'macdh': 0.13, 'rsi_14': 0.13, 'wr_14': 0.11, 'obv_2': 0.1, 'roc_2': 0.09}",0.8088737201365188,2.0,0.8088737201365188,"(1303, 8)",Buy Strong,SIVB
310,120.59,2018-05-18,0.6996587030716723,92.6814,2017-11-07,"{'macdh': 0.14, 'volume': 0.14, 'macd': 0.13, 'rsi_14': 0.13, 'sod_14': 0.13, 'wr_14': 0.12, 'obv_2': 0.11, 'roc_2': 0.1}",0.6996587030716723,2.0,0.6996587030716723,"(1303, 8)",Buy Strong,TROW
311,60.69,2018-05-18,0.7610921501706485,48.3091,2017-11-07,"{'macd': 0.15, 'sod_14': 0.15, 'macdh': 0.14, 'rsi_14': 0.13, 'volume': 0.13, 'obv_2': 0.11, 'wr_14': 0.1, 'roc_2': 0.09}",0.7610921501706485,1.0,0.7610921501706485,"(1304, 8)",Buy,AMTD
312,99.1,2018-05-18,0.8020477815699659,82.15,2017-11-07,"{'macd': 0.16, 'rsi_14': 0.14, 'volume': 0.14, 'sod_14': 0.14, 'macdh': 0.13, 'obv_2': 0.1, 'wr_14': 0.1, 'roc_2': 0.09}",0.8020477815699659,1.0,0.8020477815699659,"(1303, 8)",Buy,TCBI
313,15.24,2018-05-18,0.7440273037542662,14.8753,2017-11-07,"{'volume': 0.16, 'macd': 0.15, 'sod_14': 0.15, 'macdh': 0.14, 'rsi_14': 0.12, 'obv_2': 0.11, 'roc_2': 0.09, 'wr_14': 0.09}",0.7440273037542662,-1.0,0.7440273037542662,"(1303, 8)",Sell,TFSL
314,58.75,2018-05-18,0.6723549488054608,51.1731,2017-11-07,"{'macd': 0.14, 'macdh': 0.14, 'rsi_14': 0.14, 'sod_14': 0.14, 'volume': 0.13, 'obv_2': 0.11, 'wr_14': 0.11, 'roc_2': 0.1}",0.6723549488054608,2.0,0.6723549488054608,"(1303, 8)",Buy Strong,NAVG
315,32.4,2018-05-18,0.6962457337883959,31.6494,2017-11-07,"{'macd': 0.16, 'volume': 0.14, 'sod_14': 0.14, 'macdh': 0.13, 'rsi_14': 0.13, 'obv_2': 0.11, 'wr_14': 0.1, 'roc_2': 0.09}",0.6962457337883959,-1.0,0.6962457337883959,"(1303, 8)",Sell,TRMK
316,78.66,2018-05-18,0.78839590443686,70.3911,2017-11-07,"{'macd': 0.15, 'macdh': 0.15, 'volume': 0.14, 'sod_14': 0.13, 'rsi_14': 0.12, 'obv_2': 0.11, 'wr_14': 0.11, 'roc_2': 0.1}",0.78839590443686,1.0,0.78839590443686,"(1303, 8)",Buy,UMBF
317,23.65,2018-05-18,0.7713310580204779,19.928,2017-11-07,"{'macd': 0.15, 'volume': 0.15, 'sod_14': 0.15, 'macdh': 0.12, 'obv_2': 0.11, 'rsi_14': 0.11, 'roc_2': 0.1, 'wr_14': 0.1}",0.7713310580204779,2.0,0.7713310580204779,"(1303, 8)",Buy Strong,UMPQ
318,35.9,2018-05-18,0.7781569965870307,34.1118,2017-11-07,"{'macd': 0.17, 'volume': 0.17, 'macdh': 0.12, 'rsi_14': 0.12, 'sod_14': 0.12, 'obv_2': 0.11, 'wr_14': 0.1, 'roc_2': 0.08}",0.7781569965870307,-1.0,0.7781569965870307,"(1303, 8)",Sell,UBSI
319,33.16,2018-05-18,0.7679180887372014,26.1798,2017-11-07,"{'volume': 0.17, 'macd': 0.15, 'rsi_14': 0.14, 'sod_14': 0.13, 'macdh': 0.12, 'obv_2': 0.11, 'wr_14': 0.1, 'roc_2': 0.09}",0.7679180887372014,2.0,0.7679180887372014,"(1303, 8)",Buy Strong,UCBI
320,20.04,2018-05-18,0.8209876543209876,15.9953,2017-11-07,"{'macd': 0.19, 'macdh': 0.14, 'rsi_14': 0.13, 'volume': 0.13, 'sod_14': 0.13, 'wr_14': 0.11, 'obv_2': 0.09, 'roc_2': 0.08}",0.8209876543209876,2.0,0.8209876543209876,"(778, 8)",Buy Strong,UNIT
321,32.2,2018-05-18,0.7815699658703071,33.3889,2017-11-07,"{'macd': 0.16, 'macdh': 0.15, 'sod_14': 0.15, 'volume': 0.13, 'rsi_14': 0.12, 'wr_14': 0.11, 'obv_2': 0.1, 'roc_2': 0.09}",0.7815699658703071,-2.0,0.7815699658703071,"(1303, 8)",Sell Strong,WAFD
322,57.27,2018-05-18,0.7303754266211604,54.4542,2017-11-07,"{'macd': 0.16, 'macdh': 0.13, 'volume': 0.13, 'rsi_14': 0.12, 'wr_14': 0.12, 'sod_14': 0.12, 'obv_2': 0.11, 'roc_2': 0.1}",0.7303754266211604,1.0,0.7303754266211604,"(1303, 8)",Buy,WABC
323,154.31,2018-05-18,0.811965811965812,161.0352,2017-11-07,"{'macd': 0.17, 'sod_14': 0.15, 'volume': 0.14, 'macdh': 0.13, 'rsi_14': 0.12, 'wr_14': 0.12, 'obv_2': 0.09, 'roc_2': 0.07}",0.811965811965812,-2.0,0.811965811965812,"(598, 8)",Sell Strong,WLTW
324,94.05,2018-05-18,0.7610921501706485,77.9605,2017-11-07,"{'macd': 0.16, 'sod_14': 0.15, 'rsi_14': 0.14, 'volume': 0.13, 'macdh': 0.12, 'wr_14': 0.11, 'obv_2': 0.1, 'roc_2': 0.1}",0.7610921501706485,2.0,0.7610921501706485,"(1303, 8)",Buy Strong,WTFC
325,11.59,2018-05-18,0.757679180887372,12.1842,2017-11-07,"{'macd': 0.18, 'macdh': 0.15, 'volume': 0.14, 'sod_14': 0.13, 'rsi_14': 0.12, 'obv_2': 0.1, 'wr_14': 0.1, 'roc_2': 0.09}",0.757679180887372,-1.0,0.757679180887372,"(1303, 8)",Sell,WETF
326,51.66,2018-05-18,0.7781569965870307,40.22,2017-11-07,"{'macd': 0.17, 'volume': 0.16, 'macdh': 0.13, 'rsi_14': 0.12, 'sod_14': 0.12, 'obv_2': 0.11, 'wr_14': 0.1, 'roc_2': 0.08}",0.7781569965870307,1.0,0.7781569965870307,"(1303, 8)",Buy,ZG
327,57.77,2018-05-18,0.7747440273037542,44.5498,2017-11-07,"{'macd': 0.16, 'volume': 0.15, 'macdh': 0.14, 'sod_14': 0.13, 'rsi_14': 0.12, 'obv_2': 0.11, 'wr_14': 0.11, 'roc_2': 0.09}",0.7747440273037542,2.0,0.7747440273037542,"(1303, 8)",Buy Strong,ZION
