,accuracy,close,date,features,precision,prediction,recall,shape,signal,symbol
0,0.7517006802721088,65.55,2018-05-21,"{'sod_14': 0.15, 'macd': 0.14, 'macdh': 0.13, 'rsi_14': 0.13, 'volume': 0.13, 'obv_2': 0.11, 'wr_14': 0.11, 'roc_2': 0.1}",0.7517006802721088,-1.0,0.7517006802721088,"(1305, 8)",Sell,A
1,0.8333333333333334,44.28,2018-05-21,"{'macd': 0.16, 'volume': 0.15, 'sod_14': 0.15, 'macdh': 0.13, 'rsi_14': 0.13, 'obv_2': 0.1, 'wr_14': 0.1, 'roc_2': 0.08}",0.8333333333333334,1.0,0.8333333333333334,"(1305, 8)",Buy,AAL
2,0.8061224489795918,187.63,2018-05-21,"{'volume': 0.16, 'macd': 0.15, 'macdh': 0.14, 'rsi_14': 0.13, 'sod_14': 0.13, 'wr_14': 0.11, 'obv_2': 0.1, 'roc_2': 0.08}",0.8061224489795918,-1.0,0.8061224489795918,"(1305, 8)",Sell,AAPL
3,0.8129251700680272,79.6,2018-05-21,"{'macd': 0.15, 'rsi_14': 0.15, 'sod_14': 0.14, 'macdh': 0.13, 'volume': 0.13, 'wr_14': 0.11, 'obv_2': 0.1, 'roc_2': 0.09}",0.8129251700680272,1.0,0.8129251700680272,"(1305, 8)",Buy,ACGL
4,0.717687074829932,238.1,2018-05-21,"{'macd': 0.15, 'sod_14': 0.15, 'volume': 0.14, 'rsi_14': 0.13, 'macdh': 0.12, 'obv_2': 0.12, 'wr_14': 0.1, 'roc_2': 0.09}",0.717687074829932,2.0,0.717687074829932,"(1305, 8)",Buy Strong,ADBE
5,0.7346938775510204,95.3,2018-05-21,"{'macd': 0.15, 'macdh': 0.14, 'rsi_14': 0.14, 'volume': 0.13, 'sod_14': 0.13, 'obv_2': 0.11, 'wr_14': 0.11, 'roc_2': 0.09}",0.7346938775510204,1.0,0.7346938775510204,"(1305, 8)",Buy,ADI
6,0.7619047619047619,45.17,2018-05-21,"{'volume': 0.17, 'macd': 0.15, 'rsi_14': 0.14, 'sod_14': 0.14, 'macdh': 0.12, 'obv_2': 0.11, 'roc_2': 0.09, 'wr_14': 0.09}",0.7619047619047619,-2.0,0.7619047619047619,"(1305, 8)",Sell Strong,ADM
7,0.7312925170068028,128.84,2018-05-21,"{'macd': 0.16, 'macdh': 0.13, 'rsi_14': 0.13, 'volume': 0.13, 'sod_14': 0.13, 'obv_2': 0.11, 'wr_14': 0.11, 'roc_2': 0.1}",0.7312925170068028,-2.0,0.7312925170068028,"(1305, 8)",Sell Strong,ADP
8,0.7755102040816326,137.67,2018-05-21,"{'macd': 0.15, 'sod_14': 0.15, 'volume': 0.14, 'macdh': 0.13, 'obv_2': 0.12, 'rsi_14': 0.12, 'wr_14': 0.12, 'roc_2': 0.08}",0.7755102040816326,-2.0,0.7755102040816326,"(1305, 8)",Sell Strong,ADSK
9,0.8027210884353742,13.84,2018-05-21,"{'macd': 0.15, 'volume': 0.15, 'sod_14': 0.14, 'macdh': 0.13, 'obv_2': 0.11, 'rsi_14': 0.11, 'wr_14': 0.11, 'roc_2': 0.1}",0.8027210884353742,1.0,0.8027210884353742,"(1305, 8)",Buy,AFSI
10,0.7448979591836735,19.1,2018-05-21,"{'macd': 0.16, 'macdh': 0.15, 'sod_14': 0.14, 'rsi_14': 0.13, 'volume': 0.13, 'obv_2': 0.1, 'wr_14': 0.1, 'roc_2': 0.09}",0.7448979591836735,-2.0,0.7448979591836735,"(1305, 8)",Sell Strong,AGNC
11,0.725,51.75,2018-05-21,"{'sod_14': 0.16, 'macd': 0.15, 'macdh': 0.14, 'volume': 0.14, 'rsi_14': 0.12, 'wr_14': 0.11, 'obv_2': 0.1, 'roc_2': 0.08}",0.725,-2.0,0.725,"(610, 8)",Sell Strong,AGR
12,0.7585034013605442,6.99,2018-05-21,"{'macd': 0.17, 'rsi_14': 0.14, 'sod_14': 0.14, 'macdh': 0.13, 'volume': 0.12, 'wr_14': 0.11, 'obv_2': 0.1, 'roc_2': 0.1}",0.7585034013605442,-2.0,0.7585034013605442,"(1305, 8)",Sell Strong,AHT
13,0.7030716723549488,46.92,2018-05-21,"{'volume': 0.22, 'macd': 0.14, 'obv_2': 0.14, 'sod_14': 0.12, 'macdh': 0.11, 'rsi_14': 0.1, 'wr_14': 0.1, 'roc_2': 0.08}",0.7030716723549488,1.0,0.7030716723549488,"(1304, 8)",Buy,ALFA
14,0.8061224489795918,302.46,2018-05-21,"{'macd': 0.17, 'sod_14': 0.15, 'macdh': 0.13, 'rsi_14': 0.13, 'volume': 0.12, 'obv_2': 0.1, 'wr_14': 0.1, 'roc_2': 0.09}",0.8061224489795918,2.0,0.8061224489795918,"(1305, 8)",Buy Strong,ALGN
15,0.7925170068027211,119.37,2018-05-21,"{'macd': 0.16, 'volume': 0.15, 'macdh': 0.14, 'sod_14': 0.13, 'rsi_14': 0.12, 'obv_2': 0.11, 'wr_14': 0.1, 'roc_2': 0.09}",0.7925170068027211,2.0,0.7925170068027211,"(1305, 8)",Buy Strong,ALXN
16,0.7789115646258503,50.0,2018-05-21,"{'macd': 0.18, 'macdh': 0.13, 'rsi_14': 0.13, 'volume': 0.13, 'sod_14': 0.12, 'wr_14': 0.11, 'obv_2': 0.1, 'roc_2': 0.1}",0.7789115646258503,-2.0,0.7789115646258503,"(1305, 8)",Sell Strong,AMAT
17,0.6972789115646258,176.47,2018-05-21,"{'macd': 0.14, 'macdh': 0.13, 'obv_2': 0.13, 'volume': 0.13, 'sod_14': 0.13, 'rsi_14': 0.12, 'wr_14': 0.11, 'roc_2': 0.1}",0.6972789115646258,2.0,0.6972789115646258,"(1305, 8)",Buy Strong,AMGN
18,0.7755102040816326,60.97,2018-05-21,"{'macd': 0.15, 'macdh': 0.14, 'sod_14': 0.14, 'rsi_14': 0.13, 'volume': 0.13, 'obv_2': 0.11, 'wr_14': 0.11, 'roc_2': 0.09}",0.7755102040816326,-2.0,0.7755102040816326,"(1305, 8)",Sell Strong,AMTD
19,0.8197278911564626,1585.46,2018-05-21,"{'macd': 0.15, 'sod_14': 0.15, 'rsi_14': 0.14, 'macdh': 0.13, 'volume': 0.12, 'wr_14': 0.11, 'obv_2': 0.1, 'roc_2': 0.09}",0.8197278911564626,-2.0,0.8197278911564626,"(1305, 8)",Sell Strong,AMZN
20,0.8197278911564626,1585.46,2018-05-21,"{'macd': 0.15, 'sod_14': 0.15, 'rsi_14': 0.14, 'macdh': 0.13, 'volume': 0.12, 'wr_14': 0.11, 'obv_2': 0.1, 'roc_2': 0.09}",0.8197278911564626,-2.0,0.8197278911564626,"(1305, 8)",Sell Strong,AMZN
21,0.7585034013605442,122.0,2018-05-21,"{'volume': 0.16, 'sod_14': 0.14, 'macd': 0.13, 'macdh': 0.13, 'rsi_14': 0.13, 'obv_2': 0.11, 'roc_2': 0.1, 'wr_14': 0.1}",0.7585034013605442,2.0,0.7585034013605442,"(1305, 8)",Buy Strong,ANAT
22,0.7244897959183674,202.51,2018-05-21,"{'sod_14': 0.15, 'macd': 0.14, 'macdh': 0.14, 'rsi_14': 0.13, 'obv_2': 0.12, 'volume': 0.12, 'wr_14': 0.11, 'roc_2': 0.1}",0.7244897959183674,2.0,0.7244897959183674,"(1305, 8)",Buy Strong,ASML
23,0.7482993197278912,71.45,2018-05-21,"{'macd': 0.17, 'macdh': 0.14, 'sod_14': 0.14, 'rsi_14': 0.13, 'volume': 0.13, 'wr_14': 0.11, 'obv_2': 0.1, 'roc_2': 0.08}",0.7482993197278912,1.0,0.7482993197278912,"(1305, 8)",Buy,ATVI
24,0.8537414965986394,3.77,2018-05-21,"{'volume': 0.17, 'sod_14': 0.16, 'macd': 0.13, 'macdh': 0.13, 'rsi_14': 0.13, 'obv_2': 0.1, 'wr_14': 0.09, 'roc_2': 0.08}",0.8537414965986394,-2.0,0.8537414965986394,"(1305, 8)",Sell Strong,AUTO
25,0.7993197278911565,239.05,2018-05-21,"{'macd': 0.17, 'macdh': 0.15, 'volume': 0.14, 'sod_14': 0.14, 'rsi_14': 0.12, 'obv_2': 0.1, 'roc_2': 0.09, 'wr_14': 0.09}",0.7993197278911565,-1.0,0.7993197278911565,"(1305, 8)",Sell,AVGO
26,0.8299319727891157,102.04,2018-05-21,"{'macd': 0.17, 'rsi_14': 0.15, 'macdh': 0.14, 'volume': 0.13, 'sod_14': 0.13, 'obv_2': 0.1, 'wr_14': 0.1, 'roc_2': 0.08}",0.8299319727891157,-1.0,0.8299319727891157,"(1305, 8)",Sell,AXP
27,0.7612456747404844,36.79,2018-05-21,"{'macd': 0.18, 'rsi_14': 0.14, 'macdh': 0.13, 'sod_14': 0.13, 'volume': 0.12, 'wr_14': 0.11, 'obv_2': 0.1, 'roc_2': 0.1}",0.7612456747404844,-2.0,0.7612456747404844,"(1288, 8)",Sell Strong,AZN
28,0.8299319727891157,363.92,2018-05-21,"{'macd': 0.16, 'volume': 0.16, 'sod_14': 0.15, 'rsi_14': 0.14, 'macdh': 0.12, 'obv_2': 0.1, 'wr_14': 0.09, 'roc_2': 0.08}",0.8299319727891157,-1.0,0.8299319727891157,"(1305, 8)",Sell,BA
29,0.7687074829931972,29.28,2018-05-21,"{'macd': 0.16, 'sod_14': 0.16, 'volume': 0.14, 'macdh': 0.13, 'rsi_14': 0.13, 'obv_2': 0.1, 'wr_14': 0.1, 'roc_2': 0.08}",0.7687074829931972,-1.0,0.7687074829931972,"(1305, 8)",Sell,BAB
30,0.8484848484848485,197.64,2018-05-21,"{'volume': 0.18, 'macd': 0.17, 'rsi_14': 0.14, 'macdh': 0.12, 'sod_14': 0.12, 'obv_2': 0.11, 'wr_14': 0.09, 'roc_2': 0.07}",0.8484848484848485,-1.0,0.8484848484848485,"(924, 8)",Sell,BABA
31,0.7619047619047619,30.55,2018-05-21,"{'macd': 0.14, 'volume': 0.14, 'macdh': 0.13, 'rsi_14': 0.13, 'sod_14': 0.13, 'obv_2': 0.11, 'wr_14': 0.11, 'roc_2': 0.09}",0.7619047619047619,1.0,0.7619047619047619,"(1305, 8)",Buy,BAC
32,0.7619047619047619,59.11,2018-05-21,"{'macd': 0.17, 'volume': 0.17, 'macdh': 0.13, 'rsi_14': 0.13, 'sod_14': 0.12, 'obv_2': 0.1, 'wr_14': 0.09, 'roc_2': 0.08}",0.7619047619047619,-2.0,0.7619047619047619,"(1305, 8)",Sell Strong,BANR
33,0.7959183673469388,2.4,2018-05-21,"{'volume': 0.16, 'macd': 0.14, 'sod_14': 0.14, 'rsi_14': 0.13, 'macdh': 0.12, 'obv_2': 0.12, 'wr_14': 0.1, 'roc_2': 0.09}",0.7959183673469388,-2.0,0.7959183673469388,"(1305, 8)",Sell Strong,BBOX
34,0.8027210884353742,78.3,2018-05-21,"{'macd': 0.17, 'macdh': 0.14, 'rsi_14': 0.14, 'sod_14': 0.14, 'volume': 0.11, 'obv_2': 0.1, 'wr_14': 0.1, 'roc_2': 0.09}",0.8027210884353742,-1.0,0.8027210884353742,"(1305, 8)",Sell,BBY
35,0.7312925170068028,12.25,2018-05-21,"{'macd': 0.17, 'sod_14': 0.15, 'rsi_14': 0.13, 'volume': 0.13, 'macdh': 0.11, 'obv_2': 0.11, 'wr_14': 0.1, 'roc_2': 0.09}",0.7312925170068028,1.0,0.7312925170068028,"(1305, 8)",Buy,BGCP
36,0.7619047619047619,47.59,2018-05-21,"{'obv_2': 0.16, 'sod_14': 0.15, 'macd': 0.14, 'macdh': 0.12, 'volume': 0.12, 'rsi_14': 0.11, 'roc_2': 0.1, 'wr_14': 0.1}",0.7619047619047619,1.0,0.7619047619047619,"(214, 8)",Buy,BHF
37,0.7346938775510204,240.51,2018-05-21,"{'macd': 0.18, 'macdh': 0.14, 'volume': 0.14, 'sod_14': 0.14, 'rsi_14': 0.12, 'obv_2': 0.1, 'wr_14': 0.1, 'roc_2': 0.08}",0.7346938775510204,-2.0,0.7346938775510204,"(1305, 8)",Sell Strong,BIDU
38,0.7380952380952381,277.67,2018-05-21,"{'macd': 0.15, 'volume': 0.15, 'macdh': 0.13, 'rsi_14': 0.13, 'sod_14': 0.13, 'wr_14': 0.11, 'obv_2': 0.1, 'roc_2': 0.1}",0.7380952380952381,-2.0,0.7380952380952381,"(1305, 8)",Sell Strong,BIIB
39,0.7346938775510204,2071.56,2018-05-21,"{'macd': 0.16, 'rsi_14': 0.15, 'macdh': 0.14, 'sod_14': 0.14, 'volume': 0.13, 'obv_2': 0.1, 'wr_14': 0.1, 'roc_2': 0.09}",0.7346938775510204,1.0,0.7346938775510204,"(1305, 8)",Buy,BKNG
40,0.7857142857142857,35.82,2018-05-21,"{'volume': 0.17, 'sod_14': 0.15, 'rsi_14': 0.14, 'macd': 0.13, 'macdh': 0.11, 'obv_2': 0.11, 'wr_14': 0.1, 'roc_2': 0.08}",0.7857142857142857,1.0,0.7857142857142857,"(1305, 8)",Buy,BME
41,0.7781569965870307,89.36,2018-05-21,"{'macd': 0.16, 'rsi_14': 0.15, 'macdh': 0.14, 'volume': 0.13, 'sod_14': 0.13, 'wr_14': 0.11, 'obv_2': 0.09, 'roc_2': 0.09}",0.7781569965870307,2.0,0.7781569965870307,"(1304, 8)",Buy Strong,BMRN
42,0.8401360544217688,41.95,2018-05-21,"{'volume': 0.16, 'macd': 0.15, 'macdh': 0.14, 'rsi_14': 0.13, 'sod_14': 0.12, 'obv_2': 0.11, 'wr_14': 0.09, 'roc_2': 0.08}",0.8401360544217688,2.0,0.8401360544217688,"(1305, 8)",Buy Strong,BOFI
43,0.8061224489795918,105.26,2018-05-21,"{'volume': 0.18, 'macd': 0.16, 'rsi_14': 0.13, 'sod_14': 0.13, 'macdh': 0.12, 'obv_2': 0.11, 'wr_14': 0.09, 'roc_2': 0.08}",0.8061224489795918,-2.0,0.8061224489795918,"(1305, 8)",Sell Strong,BOKF
44,0.8367346938775511,47.79,2018-05-21,"{'volume': 0.15, 'sod_14': 0.15, 'macd': 0.14, 'rsi_14': 0.14, 'macdh': 0.12, 'obv_2': 0.1, 'wr_14': 0.1, 'roc_2': 0.09}",0.8367346938775511,1.0,0.8367346938775511,"(1305, 8)",Buy,BP
45,0.7108843537414966,47.29,2018-05-21,"{'macd': 0.15, 'macdh': 0.14, 'sod_14': 0.14, 'volume': 0.13, 'rsi_14': 0.12, 'obv_2': 0.11, 'wr_14': 0.11, 'roc_2': 0.1}",0.7108843537414966,-1.0,0.7108843537414966,"(1305, 8)",Sell,BPOP
46,0.7755102040816326,2.61,2018-05-21,"{'volume': 0.18, 'macdh': 0.14, 'macd': 0.13, 'sod_14': 0.13, 'obv_2': 0.12, 'rsi_14': 0.11, 'roc_2': 0.1, 'wr_14': 0.09}",0.7755102040816326,2.0,0.7755102040816326,"(1305, 8)",Buy Strong,BTG
47,0.7857142857142857,70.43,2018-05-21,"{'macd': 0.15, 'volume': 0.14, 'sod_14': 0.14, 'macdh': 0.13, 'rsi_14': 0.13, 'obv_2': 0.11, 'roc_2': 0.1, 'wr_14': 0.1}",0.7857142857142857,-2.0,0.7857142857142857,"(1305, 8)",Sell Strong,C
48,0.7235494880546075,35.5,2018-05-21,"{'macd': 0.15, 'volume': 0.14, 'sod_14': 0.14, 'macdh': 0.13, 'obv_2': 0.12, 'rsi_14': 0.11, 'roc_2': 0.1, 'wr_14': 0.1}",0.7235494880546075,-1.0,0.7235494880546075,"(1304, 8)",Sell,CA
49,0.8020477815699659,358.29,2018-05-21,"{'volume': 0.17, 'macd': 0.15, 'macdh': 0.13, 'rsi_14': 0.13, 'sod_14': 0.13, 'obv_2': 0.11, 'roc_2': 0.09, 'wr_14': 0.09}",0.8020477815699659,2.0,0.8020477815699659,"(1304, 8)",Buy Strong,CACC
50,0.7713310580204779,158.92,2018-05-21,"{'macd': 0.15, 'volume': 0.15, 'rsi_14': 0.14, 'sod_14': 0.13, 'macdh': 0.12, 'obv_2': 0.11, 'roc_2': 0.1, 'wr_14': 0.1}",0.7713310580204779,1.0,0.7713310580204779,"(1304, 8)",Buy,CAT
51,0.7781569965870307,42.73,2018-05-21,"{'macd': 0.16, 'macdh': 0.14, 'rsi_14': 0.14, 'volume': 0.13, 'sod_14': 0.13, 'obv_2': 0.11, 'wr_14': 0.11, 'roc_2': 0.1}",0.7781569965870307,-2.0,0.7781569965870307,"(1304, 8)",Sell Strong,CATY
52,0.7943262411347518,47.31,2018-03-19,"{'volume': 0.15, 'macd': 0.14, 'macdh': 0.13, 'sod_14': 0.13, 'obv_2': 0.12, 'rsi_14': 0.12, 'wr_14': 0.11, 'roc_2': 0.1}",0.7943262411347518,-2.0,0.7943262411347518,"(1260, 8)",Sell Strong,CBG
53,0.7986348122866894,106.49,2018-05-21,"{'macd': 0.16, 'volume': 0.16, 'rsi_14': 0.14, 'macdh': 0.13, 'sod_14': 0.13, 'obv_2': 0.11, 'wr_14': 0.09, 'roc_2': 0.08}",0.7986348122866894,2.0,0.7986348122866894,"(1304, 8)",Buy Strong,CBOE
54,0.764505119453925,65.4,2018-05-21,"{'sod_14': 0.15, 'macd': 0.14, 'rsi_14': 0.14, 'volume': 0.14, 'macdh': 0.13, 'obv_2': 0.11, 'wr_14': 0.1, 'roc_2': 0.09}",0.764505119453925,-2.0,0.764505119453925,"(1304, 8)",Sell Strong,CBSH
55,0.7624113475177305,21.5,2018-03-08,"{'sod_14': 0.16, 'macdh': 0.14, 'volume': 0.14, 'macd': 0.13, 'rsi_14': 0.13, 'obv_2': 0.11, 'wr_14': 0.11, 'roc_2': 0.09}",0.7624113475177305,1.0,0.7624113475177305,"(1258, 8)",Buy,CCC
56,0.7406143344709898,64.77,2018-05-21,"{'sod_14': 0.16, 'macd': 0.14, 'macdh': 0.13, 'rsi_14': 0.13, 'volume': 0.13, 'obv_2': 0.11, 'wr_14': 0.11, 'roc_2': 0.1}",0.7406143344709898,-1.0,0.7406143344709898,"(1304, 8)",Sell,CCL
57,0.757679180887372,42.01,2018-05-21,"{'volume': 0.18, 'macd': 0.14, 'sod_14': 0.14, 'macdh': 0.12, 'rsi_14': 0.12, 'obv_2': 0.11, 'roc_2': 0.1, 'wr_14': 0.1}",0.757679180887372,-2.0,0.757679180887372,"(1304, 8)",Sell Strong,CDNS
58,0.764505119453925,74.69,2018-05-21,"{'sod_14': 0.15, 'macdh': 0.14, 'volume': 0.14, 'macd': 0.13, 'rsi_14': 0.13, 'wr_14': 0.11, 'obv_2': 0.1, 'roc_2': 0.09}",0.764505119453925,2.0,0.764505119453925,"(1304, 8)",Buy Strong,CELG
59,0.7406143344709898,60.75,2018-05-21,"{'macd': 0.16, 'sod_14': 0.15, 'rsi_14': 0.14, 'macdh': 0.13, 'volume': 0.13, 'obv_2': 0.11, 'wr_14': 0.1, 'roc_2': 0.09}",0.7406143344709898,2.0,0.7406143344709898,"(1304, 8)",Buy Strong,CERN
60,0.7508532423208191,13.14,2018-05-21,"{'sod_14': 0.16, 'macd': 0.15, 'macdh': 0.14, 'volume': 0.14, 'rsi_14': 0.12, 'wr_14': 0.1, 'obv_2': 0.09, 'roc_2': 0.09}",0.7508532423208191,-2.0,0.7508532423208191,"(1304, 8)",Sell Strong,CFFN
61,0.7474402730375427,57.31,2018-05-21,"{'macd': 0.16, 'volume': 0.16, 'macdh': 0.14, 'rsi_14': 0.13, 'sod_14': 0.12, 'obv_2': 0.11, 'wr_14': 0.1, 'roc_2': 0.09}",0.7474402730375427,1.0,0.7474402730375427,"(1304, 8)",Buy,CHFC
62,0.7815699658703071,96.97,2018-05-21,"{'macd': 0.16, 'macdh': 0.14, 'rsi_14': 0.13, 'sod_14': 0.13, 'volume': 0.12, 'obv_2': 0.11, 'wr_14': 0.11, 'roc_2': 0.1}",0.7815699658703071,2.0,0.7815699658703071,"(1304, 8)",Buy Strong,CHKP
63,0.7986348122866894,266.55,2018-05-21,"{'macd': 0.17, 'volume': 0.17, 'macdh': 0.13, 'rsi_14': 0.13, 'obv_2': 0.12, 'sod_14': 0.1, 'roc_2': 0.09, 'wr_14': 0.09}",0.7986348122866894,-2.0,0.7986348122866894,"(1304, 8)",Sell Strong,CHTR
64,0.7372013651877133,77.15,2018-05-21,"{'macd': 0.17, 'rsi_14': 0.14, 'sod_14': 0.14, 'macdh': 0.13, 'volume': 0.12, 'obv_2': 0.11, 'roc_2': 0.1, 'wr_14': 0.1}",0.7372013651877133,-2.0,0.7372013651877133,"(1304, 8)",Sell Strong,CIGI
65,0.7372013651877133,71.29,2018-05-21,"{'macd': 0.15, 'macdh': 0.14, 'rsi_14': 0.14, 'volume': 0.13, 'sod_14': 0.13, 'wr_14': 0.11, 'obv_2': 0.1, 'roc_2': 0.1}",0.7372013651877133,1.0,0.7372013651877133,"(1304, 8)",Buy,CINF
66,0.7815699658703071,17.87,2018-05-21,"{'macd': 0.15, 'macdh': 0.14, 'volume': 0.14, 'sod_14': 0.13, 'wr_14': 0.12, 'obv_2': 0.11, 'roc_2': 0.11, 'rsi_14': 0.11}",0.7815699658703071,1.0,0.7815699658703071,"(1304, 8)",Buy,CLI
67,0.7650602409638554,29.69,2018-05-21,"{'volume': 0.16, 'macd': 0.15, 'macdh': 0.14, 'sod_14': 0.14, 'rsi_14': 0.12, 'obv_2': 0.1, 'wr_14': 0.1, 'roc_2': 0.09}",0.7650602409638554,-2.0,0.7650602409638554,"(796, 8)",Sell Strong,CLLS
68,0.7713310580204779,32.34,2018-05-21,"{'volume': 0.15, 'macd': 0.14, 'macdh': 0.14, 'rsi_14': 0.13, 'obv_2': 0.12, 'sod_14': 0.12, 'wr_14': 0.11, 'roc_2': 0.1}",0.7713310580204779,-2.0,0.7713310580204779,"(1304, 8)",Sell Strong,CMCSA
69,0.8347826086956521,14.75,2018-05-21,"{'macd': 0.16, 'sod_14': 0.15, 'macdh': 0.14, 'rsi_14': 0.14, 'volume': 0.13, 'roc_2': 0.1, 'wr_14': 0.1, 'obv_2': 0.09}",0.8347826086956521,1.0,0.8347826086956521,"(1052, 8)",Buy,CMCT
70,0.7133105802047781,161.38,2018-05-21,"{'macd': 0.16, 'volume': 0.15, 'macdh': 0.14, 'sod_14': 0.13, 'rsi_14': 0.12, 'obv_2': 0.11, 'wr_14': 0.1, 'roc_2': 0.09}",0.7133105802047781,2.0,0.7133105802047781,"(1304, 8)",Buy Strong,CME
71,0.7679180887372014,49.27,2018-05-21,"{'sod_14': 0.16, 'macd': 0.14, 'volume': 0.14, 'macdh': 0.13, 'obv_2': 0.12, 'rsi_14': 0.12, 'wr_14': 0.1, 'roc_2': 0.09}",0.7679180887372014,-2.0,0.7679180887372014,"(1304, 8)",Sell Strong,CNA
72,0.6655290102389079,43.05,2018-05-21,"{'macd': 0.17, 'macdh': 0.15, 'sod_14': 0.13, 'rsi_14': 0.12, 'volume': 0.12, 'wr_14': 0.11, 'obv_2': 0.1, 'roc_2': 0.09}",0.6655290102389079,2.0,0.6655290102389079,"(1304, 8)",Buy Strong,COLB
73,0.7952218430034129,52.67,2018-05-21,"{'macd': 0.16, 'macdh': 0.14, 'rsi_14': 0.14, 'volume': 0.13, 'sod_14': 0.13, 'obv_2': 0.11, 'wr_14': 0.1, 'roc_2': 0.08}",0.7952218430034129,-2.0,0.7952218430034129,"(1304, 8)",Sell Strong,CONE
74,0.8191126279863481,199.62,2018-05-21,"{'macd': 0.16, 'rsi_14': 0.14, 'sod_14': 0.14, 'macdh': 0.13, 'volume': 0.13, 'obv_2': 0.11, 'wr_14': 0.11, 'roc_2': 0.09}",0.8191126279863481,-2.0,0.8191126279863481,"(1304, 8)",Sell Strong,COST
75,0.8532423208191127,8.61,2018-05-21,"{'volume': 0.21, 'macd': 0.13, 'sod_14': 0.13, 'macdh': 0.12, 'rsi_14': 0.12, 'obv_2': 0.1, 'wr_14': 0.1, 'roc_2': 0.09}",0.8532423208191127,1.0,0.8532423208191127,"(1303, 8)",Buy,CPG
76,0.696551724137931,27.67,2018-05-21,"{'macdh': 0.14, 'rsi_14': 0.14, 'macd': 0.13, 'volume': 0.13, 'sod_14': 0.13, 'obv_2': 0.11, 'roc_2': 0.11, 'wr_14': 0.11}",0.696551724137931,-1.0,0.696551724137931,"(1291, 8)",Sell,CPI
77,0.7337883959044369,37.99,2018-05-21,"{'sod_14': 0.16, 'macd': 0.15, 'volume': 0.14, 'rsi_14': 0.13, 'macdh': 0.12, 'obv_2': 0.11, 'wr_14': 0.1, 'roc_2': 0.09}",0.7337883959044369,-1.0,0.7337883959044369,"(1304, 8)",Sell,CRH
78,0.8020477815699659,43.75,2018-05-21,"{'sod_14': 0.16, 'macd': 0.15, 'volume': 0.14, 'rsi_14': 0.13, 'macdh': 0.12, 'obv_2': 0.11, 'wr_14': 0.11, 'roc_2': 0.09}",0.8020477815699659,-2.0,0.8020477815699659,"(1304, 8)",Sell Strong,CSCO
79,0.7508532423208191,64.01,2018-05-21,"{'macd': 0.17, 'macdh': 0.14, 'rsi_14': 0.14, 'volume': 0.13, 'sod_14': 0.12, 'wr_14': 0.11, 'obv_2': 0.1, 'roc_2': 0.09}",0.7508532423208191,-1.0,0.7508532423208191,"(1304, 8)",Sell,CSX
80,0.6860068259385665,183.43,2018-05-21,"{'macd': 0.16, 'volume': 0.15, 'sod_14': 0.14, 'rsi_14': 0.13, 'macdh': 0.12, 'obv_2': 0.11, 'wr_14': 0.11, 'roc_2': 0.1}",0.6860068259385665,1.0,0.6860068259385665,"(1304, 8)",Buy,CTAS
81,0.7508532423208191,42.98,2018-05-21,"{'macd': 0.16, 'macdh': 0.14, 'volume': 0.14, 'rsi_14': 0.13, 'sod_14': 0.13, 'obv_2': 0.11, 'wr_14': 0.1, 'roc_2': 0.08}",0.7508532423208191,1.0,0.7508532423208191,"(1304, 8)",Buy,CTRP
82,0.8327645051194539,75.75,2018-05-21,"{'rsi_14': 0.16, 'volume': 0.16, 'macd': 0.14, 'macdh': 0.14, 'sod_14': 0.12, 'obv_2': 0.1, 'wr_14': 0.1, 'roc_2': 0.08}",0.8327645051194539,-2.0,0.8327645051194539,"(1304, 8)",Sell Strong,CTSH
83,0.7235494880546075,105.56,2018-05-21,"{'macd': 0.15, 'rsi_14': 0.15, 'sod_14': 0.14, 'macdh': 0.13, 'volume': 0.13, 'obv_2': 0.11, 'roc_2': 0.1, 'wr_14': 0.1}",0.7235494880546075,-2.0,0.7235494880546075,"(1304, 8)",Sell Strong,CTXS
84,0.8687943262411347,20.68,2018-05-21,"{'volume': 0.18, 'macd': 0.16, 'rsi_14': 0.14, 'macdh': 0.12, 'obv_2': 0.11, 'sod_14': 0.1, 'roc_2': 0.09, 'wr_14': 0.09}",0.8687943262411347,-1.0,0.8687943262411347,"(1257, 8)",Sell,CTY
85,0.7440273037542662,23.48,2018-05-21,"{'macd': 0.19, 'macdh': 0.14, 'rsi_14': 0.13, 'volume': 0.12, 'sod_14': 0.12, 'wr_14': 0.11, 'obv_2': 0.1, 'roc_2': 0.1}",0.7440273037542662,-1.0,0.7440273037542662,"(1304, 8)",Sell,CVBF
86,0.7849829351535836,129.37,2018-05-21,"{'volume': 0.17, 'macdh': 0.14, 'macd': 0.13, 'sod_14': 0.13, 'rsi_14': 0.12, 'obv_2': 0.11, 'wr_14': 0.11, 'roc_2': 0.09}",0.7849829351535836,-2.0,0.7849829351535836,"(1304, 8)",Sell Strong,CVX
87,0.7679180887372014,158.33,2018-05-21,"{'macd': 0.17, 'sod_14': 0.15, 'rsi_14': 0.14, 'volume': 0.14, 'macdh': 0.12, 'obv_2': 0.1, 'wr_14': 0.1, 'roc_2': 0.09}",0.7679180887372014,2.0,0.7679180887372014,"(1304, 8)",Buy Strong,DE
88,0.8293515358361775,104.06,2018-05-21,"{'macd': 0.19, 'rsi_14': 0.16, 'macdh': 0.14, 'sod_14': 0.14, 'volume': 0.11, 'obv_2': 0.1, 'wr_14': 0.1, 'roc_2': 0.07}",0.8293515358361775,1.0,0.8293515358361775,"(1304, 8)",Buy,DIS
89,0.7440273037542662,31.84,2018-05-21,"{'macd': 0.15, 'macdh': 0.14, 'volume': 0.14, 'sod_14': 0.14, 'rsi_14': 0.13, 'wr_14': 0.11, 'obv_2': 0.1, 'roc_2': 0.09}",0.7440273037542662,-2.0,0.7440273037542662,"(1304, 8)",Sell Strong,DISH
90,0.6928327645051194,90.71,2018-05-21,"{'macd': 0.17, 'rsi_14': 0.15, 'macdh': 0.12, 'volume': 0.12, 'sod_14': 0.12, 'obv_2': 0.11, 'wr_14': 0.11, 'roc_2': 0.1}",0.6928327645051194,2.0,0.6928327645051194,"(1304, 8)",Buy Strong,DLN
91,0.8054607508532423,93.82,2018-05-21,"{'macd': 0.15, 'macdh': 0.15, 'rsi_14': 0.14, 'volume': 0.14, 'sod_14': 0.13, 'obv_2': 0.1, 'wr_14': 0.09, 'roc_2': 0.08}",0.8054607508532423,-1.0,0.8054607508532423,"(1304, 8)",Sell,DLTR
92,0.764505119453925,132.91,2018-05-21,"{'macd': 0.16, 'sod_14': 0.16, 'macdh': 0.15, 'rsi_14': 0.12, 'volume': 0.12, 'obv_2': 0.1, 'wr_14': 0.1, 'roc_2': 0.09}",0.764505119453925,-2.0,0.764505119453925,"(1304, 8)",Sell Strong,EA
93,0.7167235494880546,38.29,2018-05-21,"{'macd': 0.16, 'sod_14': 0.15, 'volume': 0.14, 'rsi_14': 0.13, 'macdh': 0.12, 'obv_2': 0.11, 'wr_14': 0.11, 'roc_2': 0.09}",0.7167235494880546,2.0,0.7167235494880546,"(1304, 8)",Buy Strong,EBAY
94,0.8928571428571429,33.38,2018-05-21,"{'volume': 0.23, 'macd': 0.18, 'rsi_14': 0.13, 'obv_2': 0.12, 'macdh': 0.1, 'sod_14': 0.1, 'wr_14': 0.09, 'roc_2': 0.05}",0.8928571428571429,2.0,0.8928571428571429,"(579, 8)",Buy Strong,EDIT
95,0.764505119453925,386.47,2018-05-21,"{'volume': 0.15, 'macd': 0.14, 'rsi_14': 0.14, 'macdh': 0.13, 'wr_14': 0.12, 'sod_14': 0.12, 'obv_2': 0.11, 'roc_2': 0.09}",0.764505119453925,-2.0,0.764505119453925,"(1304, 8)",Sell Strong,EQIX
96,0.7815699658703071,113.46,2018-05-21,"{'macd': 0.14, 'volume': 0.14, 'sod_14': 0.14, 'macdh': 0.13, 'rsi_14': 0.13, 'obv_2': 0.11, 'roc_2': 0.1, 'wr_14': 0.1}",0.7815699658703071,1.0,0.7815699658703071,"(1304, 8)",Buy,ERIE
97,0.7777777777777778,22.19,2018-05-21,"{'macd': 0.2, 'macdh': 0.18, 'sod_14': 0.14, 'rsi_14': 0.11, 'volume': 0.1, 'wr_14': 0.1, 'obv_2': 0.09, 'roc_2': 0.09}",0.7777777777777778,-2.0,0.7777777777777778,"(274, 8)",Sell Strong,ERM
98,0.7167235494880546,214.95,2018-05-21,"{'macd': 0.16, 'rsi_14': 0.14, 'sod_14': 0.14, 'macdh': 0.13, 'volume': 0.12, 'wr_14': 0.11, 'obv_2': 0.1, 'roc_2': 0.1}",0.7167235494880546,1.0,0.7167235494880546,"(1304, 8)",Buy,ESGR
99,0.7716535433070866,35.59,2018-05-21,"{'macd': 0.16, 'rsi_14': 0.14, 'sod_14': 0.14, 'macdh': 0.13, 'volume': 0.13, 'obv_2': 0.11, 'wr_14': 0.11, 'roc_2': 0.09}",0.7716535433070866,2.0,0.7716535433070866,"(1146, 8)",Buy Strong,ESNT
100,0.7747440273037542,76.52,2018-05-21,"{'macd': 0.15, 'macdh': 0.15, 'rsi_14': 0.14, 'sod_14': 0.14, 'volume': 0.13, 'obv_2': 0.11, 'wr_14': 0.11, 'roc_2': 0.09}",0.7747440273037542,-1.0,0.7747440273037542,"(1304, 8)",Sell,ESRX
101,0.7610921501706485,65.3,2018-05-21,"{'macd': 0.16, 'volume': 0.15, 'macdh': 0.13, 'rsi_14': 0.13, 'sod_14': 0.12, 'obv_2': 0.11, 'wr_14': 0.1, 'roc_2': 0.09}",0.7610921501706485,1.0,0.7610921501706485,"(1304, 8)",Buy,ETFC
102,0.7235494880546075,26.02,2018-05-21,"{'macd': 0.16, 'rsi_14': 0.14, 'volume': 0.14, 'macdh': 0.13, 'sod_14': 0.12, 'obv_2': 0.11, 'wr_14': 0.11, 'roc_2': 0.1}",0.7235494880546075,-2.0,0.7235494880546075,"(1304, 8)",Sell Strong,ETO
103,0.7133105802047781,110.3,2018-05-21,"{'macd': 0.16, 'macdh': 0.14, 'rsi_14': 0.14, 'sod_14': 0.14, 'volume': 0.13, 'wr_14': 0.11, 'obv_2': 0.1, 'roc_2': 0.09}",0.7133105802047781,-1.0,0.7133105802047781,"(1304, 8)",Sell,EVR
104,0.764505119453925,71.35,2018-05-21,"{'macd': 0.16, 'volume': 0.14, 'macdh': 0.13, 'rsi_14': 0.13, 'sod_14': 0.13, 'obv_2': 0.12, 'wr_14': 0.1, 'roc_2': 0.09}",0.764505119453925,-1.0,0.764505119453925,"(1304, 8)",Sell,EWBC
105,0.7303754266211604,116.36,2018-05-21,"{'macd': 0.16, 'macdh': 0.14, 'sod_14': 0.14, 'rsi_14': 0.13, 'volume': 0.12, 'obv_2': 0.11, 'wr_14': 0.11, 'roc_2': 0.09}",0.7303754266211604,2.0,0.7303754266211604,"(1304, 8)",Buy Strong,EXPE
106,0.7887323943661971,131.37,2018-05-21,"{'volume': 0.2, 'sod_14': 0.16, 'macd': 0.13, 'obv_2': 0.12, 'rsi_14': 0.11, 'macdh': 0.1, 'wr_14': 0.1, 'roc_2': 0.09}",0.7887323943661971,2.0,0.7887323943661971,"(1265, 8)",Buy Strong,EZJ
107,0.7406143344709898,53.77,2018-05-21,"{'macd': 0.17, 'volume': 0.15, 'macdh': 0.14, 'rsi_14': 0.13, 'sod_14': 0.12, 'obv_2': 0.1, 'wr_14': 0.1, 'roc_2': 0.09}",0.7406143344709898,1.0,0.7406143344709898,"(1304, 8)",Buy,FAST
108,0.7439446366782007,184.49,2018-05-21,"{'rsi_14': 0.16, 'sod_14': 0.16, 'macd': 0.14, 'volume': 0.14, 'macdh': 0.11, 'obv_2': 0.1, 'wr_14': 0.1, 'roc_2': 0.09}",0.7439446366782007,-2.0,0.7439446366782007,"(1288, 8)",Sell Strong,FB
109,0.7542662116040956,457.29,2018-05-21,"{'macd': 0.15, 'volume': 0.15, 'sod_14': 0.15, 'macdh': 0.13, 'obv_2': 0.12, 'rsi_14': 0.12, 'roc_2': 0.09, 'wr_14': 0.09}",0.7542662116040956,-2.0,0.7542662116040956,"(1304, 8)",Sell Strong,FCNCA
110,0.84375,22.3,2018-05-21,"{'volume': 0.23, 'sod_14': 0.15, 'macd': 0.12, 'macdh': 0.1, 'obv_2': 0.1, 'roc_2': 0.1, 'rsi_14': 0.1, 'wr_14': 0.1}",0.84375,-2.0,0.84375,"(644, 8)",Sell Strong,FCPT
111,0.7542662116040956,50.3856,2018-05-21,"{'macd': 0.16, 'volume': 0.15, 'sod_14': 0.14, 'macdh': 0.13, 'rsi_14': 0.13, 'wr_14': 0.11, 'obv_2': 0.1, 'roc_2': 0.08}",0.7542662116040956,-2.0,0.7542662116040956,"(1304, 8)",Sell Strong,FDM
112,0.7133105802047781,32.15,2018-05-21,"{'macd': 0.16, 'macdh': 0.15, 'rsi_14': 0.13, 'volume': 0.13, 'sod_14': 0.13, 'wr_14': 0.11, 'obv_2': 0.1, 'roc_2': 0.09}",0.7133105802047781,-2.0,0.7133105802047781,"(1304, 8)",Sell Strong,FFBC
113,0.7747440273037542,53.5,2018-05-21,"{'macd': 0.15, 'rsi_14': 0.14, 'volume': 0.14, 'sod_14': 0.14, 'macdh': 0.13, 'obv_2': 0.11, 'wr_14': 0.11, 'roc_2': 0.1}",0.7747440273037542,-2.0,0.7747440273037542,"(1304, 8)",Sell Strong,FFIN
114,0.8600682593856656,3.69,2018-05-21,"{'macd': 0.16, 'volume': 0.16, 'sod_14': 0.14, 'macdh': 0.13, 'rsi_14': 0.13, 'obv_2': 0.1, 'wr_14': 0.1, 'roc_2': 0.09}",0.8600682593856656,2.0,0.8600682593856656,"(1304, 8)",Buy Strong,FGP
115,0.8625,28.65,2018-05-21,"{'rsi_14': 0.17, 'macd': 0.16, 'macdh': 0.15, 'volume': 0.14, 'wr_14': 0.11, 'obv_2': 0.1, 'sod_14': 0.09, 'roc_2': 0.08}",0.8625,2.0,0.8625,"(452, 8)",Buy Strong,FHB
116,0.7406143344709898,73.25,2018-05-21,"{'macd': 0.17, 'macdh': 0.15, 'sod_14': 0.13, 'rsi_14': 0.12, 'wr_14': 0.12, 'volume': 0.11, 'obv_2': 0.1, 'roc_2': 0.09}",0.7406143344709898,-1.0,0.7406143344709898,"(1304, 8)",Sell,FISV
117,0.7781569965870307,30.9,2018-05-21,"{'macd': 0.16, 'sod_14': 0.14, 'volume': 0.13, 'macdh': 0.12, 'rsi_14': 0.12, 'obv_2': 0.11, 'wr_14': 0.11, 'roc_2': 0.1}",0.7781569965870307,-2.0,0.7781569965870307,"(1304, 8)",Sell Strong,FITB
118,0.7303754266211604,26.15,2018-05-21,"{'macd': 0.16, 'rsi_14': 0.14, 'macdh': 0.13, 'volume': 0.13, 'sod_14': 0.12, 'obv_2': 0.11, 'wr_14': 0.11, 'roc_2': 0.1}",0.7303754266211604,-1.0,0.7303754266211604,"(1304, 8)",Sell,FMBI
119,0.8054607508532423,44.65,2018-05-21,"{'macd': 0.17, 'rsi_14': 0.14, 'volume': 0.14, 'sod_14': 0.14, 'macdh': 0.13, 'wr_14': 0.1, 'obv_2': 0.09, 'roc_2': 0.08}",0.8054607508532423,-1.0,0.8054607508532423,"(1304, 8)",Sell,FNGN
120,0.7942238267148014,37.45,2018-05-21,"{'macd': 0.16, 'sod_14': 0.16, 'volume': 0.14, 'macdh': 0.13, 'rsi_14': 0.12, 'obv_2': 0.1, 'roc_2': 0.09, 'wr_14': 0.09}",0.7942238267148014,-1.0,0.7942238267148014,"(1240, 8)",Sell,FOX
121,0.8014440433212996,37.93,2018-05-21,"{'macd': 0.17, 'volume': 0.15, 'sod_14': 0.14, 'macdh': 0.13, 'rsi_14': 0.13, 'obv_2': 0.1, 'wr_14': 0.1, 'roc_2': 0.09}",0.8014440433212996,-2.0,0.8014440433212996,"(1240, 8)",Sell Strong,FOXA
122,0.7548387096774194,70.97,2018-05-21,"{'macd': 0.18, 'macdh': 0.16, 'rsi_14': 0.15, 'wr_14': 0.12, 'obv_2': 0.1, 'volume': 0.1, 'sod_14': 0.1, 'roc_2': 0.09}",0.7548387096774194,-2.0,0.7548387096774194,"(749, 8)",Sell Strong,FSV
123,0.7167235494880546,17.75,2018-05-21,"{'macd': 0.15, 'rsi_14': 0.15, 'macdh': 0.13, 'sod_14': 0.13, 'obv_2': 0.11, 'volume': 0.11, 'wr_14': 0.11, 'roc_2': 0.1}",0.7167235494880546,1.0,0.7167235494880546,"(1304, 8)",Buy,FULT
124,0.7508532423208191,40.02,2018-05-21,"{'macd': 0.16, 'macdh': 0.15, 'sod_14': 0.15, 'volume': 0.13, 'rsi_14': 0.12, 'wr_14': 0.11, 'obv_2': 0.1, 'roc_2': 0.09}",0.7508532423208191,1.0,0.7508532423208191,"(1304, 8)",Buy,GBCI
125,0.8859649122807017,31.1,2018-05-21,"{'sod_14': 0.18, 'macd': 0.14, 'rsi_14': 0.14, 'obv_2': 0.12, 'volume': 0.12, 'macdh': 0.11, 'wr_14': 0.1, 'roc_2': 0.09}",0.8859649122807017,-1.0,0.8859649122807017,"(585, 8)",Sell,GCP
126,0.7849829351535836,15.26,2018-05-21,"{'macd': 0.15, 'volume': 0.15, 'rsi_14': 0.13, 'sod_14': 0.13, 'macdh': 0.12, 'obv_2': 0.11, 'wr_14': 0.11, 'roc_2': 0.1}",0.7849829351535836,1.0,0.7849829351535836,"(1304, 8)",Buy,GE
127,0.7952218430034129,67.63,2018-05-21,"{'volume': 0.16, 'macd': 0.15, 'macdh': 0.14, 'rsi_14': 0.13, 'sod_14': 0.13, 'obv_2': 0.1, 'wr_14': 0.1, 'roc_2': 0.09}",0.7952218430034129,-2.0,0.7952218430034129,"(1304, 8)",Sell Strong,GILD
128,0.7303754266211604,10.97,2018-05-21,"{'macd': 0.15, 'rsi_14': 0.15, 'volume': 0.14, 'sod_14': 0.14, 'macdh': 0.12, 'obv_2': 0.12, 'wr_14': 0.1, 'roc_2': 0.09}",0.7303754266211604,1.0,0.7303754266211604,"(1304, 8)",Buy,GLO
129,0.7796610169491526,34.61,2018-05-21,"{'macd': 0.18, 'macdh': 0.14, 'volume': 0.13, 'sod_14': 0.13, 'rsi_14': 0.12, 'wr_14': 0.11, 'obv_2': 0.09, 'roc_2': 0.09}",0.7796610169491526,-1.0,0.7796610169491526,"(1073, 8)",Sell,GLPI
130,0.825938566552901,3.48,2018-05-21,"{'macd': 0.15, 'volume': 0.15, 'macdh': 0.14, 'rsi_14': 0.14, 'sod_14': 0.13, 'obv_2': 0.1, 'wr_14': 0.1, 'roc_2': 0.08}",0.825938566552901,-2.0,0.825938566552901,"(1304, 8)",Sell Strong,GNC
131,0.921875,17.78,2018-05-21,"{'volume': 0.22, 'macd': 0.2, 'rsi_14': 0.13, 'macdh': 0.11, 'sod_14': 0.1, 'obv_2': 0.09, 'wr_14': 0.09, 'roc_2': 0.05}",0.921875,1.0,0.921875,"(897, 8)",Buy,GNK
132,0.8384279475982532,1079.58,2018-05-21,"{'macd': 0.17, 'sod_14': 0.15, 'macdh': 0.13, 'rsi_14': 0.13, 'volume': 0.13, 'obv_2': 0.11, 'wr_14': 0.1, 'roc_2': 0.08}",0.8384279475982532,1.0,0.8384279475982532,"(1046, 8)",Buy,GOOG
133,0.8293515358361775,1084.01,2018-05-21,"{'macd': 0.16, 'rsi_14': 0.14, 'volume': 0.14, 'sod_14': 0.14, 'macdh': 0.12, 'obv_2': 0.11, 'roc_2': 0.09, 'wr_14': 0.09}",0.8293515358361775,1.0,0.8293515358361775,"(1304, 8)",Buy,GOOGL
134,0.7781569965870307,11.09,2018-05-21,"{'volume': 0.16, 'macd': 0.13, 'macdh': 0.13, 'obv_2': 0.13, 'rsi_14': 0.13, 'sod_14': 0.13, 'wr_14': 0.11, 'roc_2': 0.09}",0.7781569965870307,1.0,0.7781569965870307,"(1304, 8)",Buy,GPOR
135,0.7508532423208191,42.96,2018-05-21,"{'macd': 0.16, 'volume': 0.14, 'sod_14': 0.14, 'macdh': 0.13, 'obv_2': 0.12, 'rsi_14': 0.12, 'roc_2': 0.1, 'wr_14': 0.1}",0.7508532423208191,1.0,0.7508532423208191,"(1304, 8)",Buy,GRI
136,0.6655290102389079,237.7,2018-05-21,"{'macd': 0.15, 'rsi_14': 0.14, 'macdh': 0.13, 'volume': 0.13, 'sod_14': 0.13, 'obv_2': 0.12, 'wr_14': 0.1, 'roc_2': 0.09}",0.6655290102389079,2.0,0.6655290102389079,"(1304, 8)",Buy Strong,GS
137,0.8020477815699659,40.05,2018-05-21,"{'macd': 0.15, 'rsi_14': 0.14, 'sod_14': 0.14, 'volume': 0.13, 'macdh': 0.12, 'wr_14': 0.11, 'obv_2': 0.1, 'roc_2': 0.09}",0.8020477815699659,1.0,0.8020477815699659,"(1304, 8)",Buy,GSK
138,0.8293515358361775,0.715,2018-05-21,"{'volume': 0.17, 'sod_14': 0.16, 'macd': 0.14, 'macdh': 0.13, 'rsi_14': 0.13, 'obv_2': 0.1, 'wr_14': 0.1, 'roc_2': 0.08}",0.8293515358361775,-1.0,0.8293515358361775,"(1304, 8)",Sell,GSS
139,0.764505119453925,87.37,2018-05-21,"{'macd': 0.17, 'sod_14': 0.15, 'rsi_14': 0.14, 'macdh': 0.13, 'volume': 0.13, 'obv_2': 0.1, 'wr_14': 0.1, 'roc_2': 0.09}",0.764505119453925,1.0,0.764505119453925,"(1304, 8)",Buy,HAS
140,0.7167235494880546,15.22,2018-05-21,"{'macd': 0.16, 'volume': 0.14, 'sod_14': 0.14, 'rsi_14': 0.13, 'macdh': 0.12, 'wr_14': 0.11, 'obv_2': 0.1, 'roc_2': 0.09}",0.7167235494880546,2.0,0.7167235494880546,"(1304, 8)",Buy Strong,HBAN
141,0.7508532423208191,52.65,2018-05-21,"{'macdh': 0.15, 'macd': 0.14, 'volume': 0.14, 'sod_14': 0.14, 'rsi_14': 0.13, 'obv_2': 0.11, 'wr_14': 0.11, 'roc_2': 0.09}",0.7508532423208191,1.0,0.7508532423208191,"(1304, 8)",Buy,HBHC
142,0.7542662116040956,189.79,2018-05-21,"{'macd': 0.14, 'rsi_14': 0.14, 'sod_14': 0.14, 'macdh': 0.13, 'volume': 0.13, 'obv_2': 0.11, 'wr_14': 0.11, 'roc_2': 0.1}",0.7542662116040956,1.0,0.7542662116040956,"(1304, 8)",Buy,HD
143,0.7610921501706485,3.98,2018-05-21,"{'volume': 0.16, 'sod_14': 0.15, 'macd': 0.14, 'rsi_14': 0.13, 'macdh': 0.12, 'obv_2': 0.11, 'wr_14': 0.1, 'roc_2': 0.09}",0.7610921501706485,-2.0,0.7610921501706485,"(1304, 8)",Sell Strong,HL
144,0.7542662116040956,39.07,2018-05-21,"{'volume': 0.15, 'macd': 0.14, 'sod_14': 0.14, 'macdh': 0.13, 'rsi_14': 0.13, 'obv_2': 0.11, 'wr_14': 0.11, 'roc_2': 0.09}",0.7542662116040956,-2.0,0.7542662116040956,"(1304, 8)",Sell Strong,HOLX
145,0.7815699658703071,23.6,2018-05-21,"{'volume': 0.16, 'macd': 0.14, 'sod_14': 0.14, 'macdh': 0.13, 'rsi_14': 0.12, 'obv_2': 0.11, 'wr_14': 0.11, 'roc_2': 0.09}",0.7815699658703071,1.0,0.7815699658703071,"(1304, 8)",Buy,HOMB
146,0.8615384615384616,22.09,2018-05-21,"{'macd': 0.17, 'sod_14': 0.15, 'rsi_14': 0.13, 'volume': 0.13, 'obv_2': 0.12, 'macdh': 0.1, 'wr_14': 0.1, 'roc_2': 0.09}",0.8615384615384616,1.0,0.8615384615384616,"(652, 8)",Buy,HPQ
147,0.7439613526570048,74.35,2018-05-21,"{'sod_14': 0.16, 'volume': 0.15, 'rsi_14': 0.14, 'macd': 0.13, 'macdh': 0.12, 'obv_2': 0.11, 'wr_14': 0.11, 'roc_2': 0.09}",0.7439613526570048,-1.0,0.7439613526570048,"(959, 8)",Sell,HQY
148,0.7815699658703071,59.92,2018-05-21,"{'macd': 0.16, 'rsi_14': 0.15, 'sod_14': 0.14, 'macdh': 0.13, 'volume': 0.13, 'wr_14': 0.11, 'obv_2': 0.09, 'roc_2': 0.09}",0.7815699658703071,2.0,0.7815699658703071,"(1304, 8)",Buy Strong,HRI
149,0.7781569965870307,71.46,2018-05-21,"{'macd': 0.17, 'macdh': 0.14, 'sod_14': 0.14, 'rsi_14': 0.13, 'volume': 0.12, 'obv_2': 0.11, 'wr_14': 0.1, 'roc_2': 0.09}",0.7781569965870307,1.0,0.7781569965870307,"(1304, 8)",Buy,HSIC
150,0.7679180887372014,6.02,2018-05-21,"{'macd': 0.16, 'macdh': 0.14, 'volume': 0.14, 'sod_14': 0.13, 'rsi_14': 0.12, 'obv_2': 0.11, 'wr_14': 0.11, 'roc_2': 0.1}",0.7679180887372014,1.0,0.7679180887372014,"(1304, 8)",Buy,IAG
151,0.7474402730375427,80.95,2018-05-21,"{'volume': 0.15, 'sod_14': 0.15, 'macd': 0.14, 'macdh': 0.13, 'rsi_14': 0.13, 'wr_14': 0.11, 'obv_2': 0.1, 'roc_2': 0.09}",0.7474402730375427,-2.0,0.7474402730375427,"(1304, 8)",Sell Strong,IBKC
152,0.8122866894197952,79.01,2018-05-21,"{'macd': 0.17, 'rsi_14': 0.16, 'macdh': 0.14, 'volume': 0.13, 'sod_14': 0.12, 'wr_14': 0.1, 'obv_2': 0.09, 'roc_2': 0.09}",0.8122866894197952,-2.0,0.8122866894197952,"(1304, 8)",Sell Strong,IBKR
153,0.7679180887372014,145.49,2018-05-21,"{'macd': 0.15, 'macdh': 0.14, 'rsi_14': 0.14, 'volume': 0.13, 'sod_14': 0.13, 'obv_2': 0.11, 'wr_14': 0.11, 'roc_2': 0.09}",0.7679180887372014,2.0,0.7679180887372014,"(1304, 8)",Buy Strong,IBM
154,0.726962457337884,43.65,2018-05-21,"{'macd': 0.18, 'rsi_14': 0.15, 'macdh': 0.13, 'sod_14': 0.13, 'volume': 0.12, 'obv_2': 0.11, 'wr_14': 0.11, 'roc_2': 0.09}",0.726962457337884,-1.0,0.726962457337884,"(1304, 8)",Sell,IBOC
155,0.8020477815699659,201.19,2018-05-21,"{'macd': 0.18, 'macdh': 0.14, 'sod_14': 0.14, 'rsi_14': 0.13, 'volume': 0.13, 'obv_2': 0.1, 'wr_14': 0.09, 'roc_2': 0.08}",0.8020477815699659,-2.0,0.8020477815699659,"(1304, 8)",Sell Strong,IDXX
156,0.7542662116040956,65.74,2018-05-21,"{'sod_14': 0.16, 'macd': 0.15, 'macdh': 0.13, 'rsi_14': 0.13, 'wr_14': 0.13, 'obv_2': 0.11, 'volume': 0.11, 'roc_2': 0.09}",0.7542662116040956,2.0,0.7542662116040956,"(1304, 8)",Buy Strong,IHG
157,0.7918088737201365,4.17,2018-05-21,"{'sod_14': 0.16, 'volume': 0.15, 'macd': 0.14, 'macdh': 0.13, 'rsi_14': 0.13, 'obv_2': 0.11, 'roc_2': 0.09, 'wr_14': 0.09}",0.7918088737201365,-1.0,0.7918088737201365,"(1304, 8)",Sell,III
158,0.78839590443686,268.29,2018-05-21,"{'macd': 0.18, 'rsi_14': 0.15, 'macdh': 0.14, 'sod_14': 0.13, 'volume': 0.12, 'wr_14': 0.11, 'obv_2': 0.09, 'roc_2': 0.08}",0.78839590443686,1.0,0.78839590443686,"(1304, 8)",Buy,ILMN
159,0.8293515358361775,1.39,2018-05-21,"{'macd': 0.18, 'macdh': 0.17, 'sod_14': 0.15, 'volume': 0.13, 'rsi_14': 0.12, 'obv_2': 0.09, 'wr_14': 0.09, 'roc_2': 0.08}",0.8293515358361775,-2.0,0.8293515358361775,"(1304, 8)",Sell Strong,IMI
160,0.7235494880546075,66.79,2018-05-21,"{'macd': 0.17, 'rsi_14': 0.15, 'sod_14': 0.15, 'volume': 0.14, 'macdh': 0.12, 'obv_2': 0.1, 'wr_14': 0.1, 'roc_2': 0.07}",0.7235494880546075,1.0,0.7235494880546075,"(1304, 8)",Buy,INCY
161,0.6962457337883959,76.3,2018-05-21,"{'macd': 0.16, 'rsi_14': 0.14, 'sod_14': 0.14, 'macdh': 0.13, 'volume': 0.13, 'obv_2': 0.11, 'wr_14': 0.11, 'roc_2': 0.09}",0.6962457337883959,1.0,0.6962457337883959,"(1304, 8)",Buy,INDB
162,0.8873720136518771,12.36,2018-05-21,"{'volume': 0.17, 'macd': 0.16, 'rsi_14': 0.15, 'sod_14': 0.14, 'macdh': 0.12, 'obv_2': 0.11, 'wr_14': 0.09, 'roc_2': 0.07}",0.8873720136518771,-1.0,0.8873720136518771,"(1304, 8)",Sell,INF
163,0.7897196261682243,51.6,2018-05-21,"{'macd': 0.16, 'sod_14': 0.16, 'volume': 0.14, 'macdh': 0.13, 'rsi_14': 0.13, 'obv_2': 0.1, 'wr_14': 0.1, 'roc_2': 0.09}",0.7897196261682243,1.0,0.7897196261682243,"(988, 8)",Buy,INFO
164,0.78839590443686,54.32,2018-05-21,"{'macd': 0.17, 'sod_14': 0.15, 'macdh': 0.14, 'volume': 0.13, 'rsi_14': 0.12, 'obv_2': 0.1, 'wr_14': 0.1, 'roc_2': 0.08}",0.78839590443686,-2.0,0.78839590443686,"(1304, 8)",Sell Strong,INTC
165,0.7235494880546075,191.69,2018-05-21,"{'macd': 0.16, 'sod_14': 0.14, 'macdh': 0.13, 'rsi_14': 0.13, 'volume': 0.12, 'obv_2': 0.11, 'roc_2': 0.1, 'wr_14': 0.1}",0.7235494880546075,-2.0,0.7235494880546075,"(1304, 8)",Sell Strong,INTU
166,0.7821011673151751,28.88,2018-05-21,"{'volume': 0.2, 'obv_2': 0.14, 'macd': 0.13, 'sod_14': 0.13, 'rsi_14': 0.12, 'macdh': 0.11, 'wr_14': 0.09, 'roc_2': 0.08}",0.7821011673151751,2.0,0.7821011673151751,"(1157, 8)",Buy Strong,IPO
167,0.8327645051194539,13.62,2018-05-21,"{'volume': 0.22, 'macd': 0.16, 'sod_14': 0.13, 'macdh': 0.12, 'obv_2': 0.11, 'rsi_14': 0.11, 'roc_2': 0.08, 'wr_14': 0.08}",0.8327645051194539,-2.0,0.8327645051194539,"(1304, 8)",Sell Strong,ISBC
168,0.7747440273037542,463.38,2018-05-21,"{'macd': 0.2, 'macdh': 0.14, 'rsi_14': 0.14, 'volume': 0.12, 'sod_14': 0.12, 'wr_14': 0.11, 'obv_2': 0.1, 'roc_2': 0.08}",0.7747440273037542,1.0,0.7747440273037542,"(1304, 8)",Buy,ISRG
169,0.7098976109215017,128.1,2018-05-21,"{'macd': 0.16, 'sod_14': 0.15, 'rsi_14': 0.13, 'macdh': 0.12, 'volume': 0.12, 'obv_2': 0.11, 'wr_14': 0.11, 'roc_2': 0.1}",0.7098976109215017,-1.0,0.7098976109215017,"(1304, 8)",Sell,JBHT
170,0.8127853881278538,36.28,2018-05-21,"{'macd': 0.16, 'volume': 0.16, 'macdh': 0.13, 'sod_14': 0.13, 'obv_2': 0.12, 'rsi_14': 0.12, 'wr_14': 0.1, 'roc_2': 0.09}",0.8127853881278538,2.0,0.8127853881278538,"(1007, 8)",Buy Strong,JD
171,0.726962457337884,3.64,2018-05-21,"{'volume': 0.15, 'macd': 0.13, 'macdh': 0.13, 'rsi_14': 0.13, 'sod_14': 0.13, 'obv_2': 0.11, 'wr_14': 0.11, 'roc_2': 0.1}",0.726962457337884,1.0,0.726962457337884,"(1304, 8)",Buy,JE
172,0.7781569965870307,123.72,2018-05-21,"{'rsi_14': 0.15, 'sod_14': 0.14, 'macd': 0.13, 'macdh': 0.13, 'volume': 0.13, 'wr_14': 0.12, 'obv_2': 0.11, 'roc_2': 0.09}",0.7781569965870307,-1.0,0.7781569965870307,"(1304, 8)",Sell,JNJ
173,0.7406143344709898,112.15,2018-05-21,"{'macd': 0.15, 'sod_14': 0.15, 'macdh': 0.13, 'rsi_14': 0.13, 'volume': 0.13, 'obv_2': 0.11, 'wr_14': 0.11, 'roc_2': 0.09}",0.7406143344709898,2.0,0.7406143344709898,"(1304, 8)",Buy Strong,JPM
174,0.7785234899328859,56.45,2018-05-21,"{'rsi_14': 0.18, 'sod_14': 0.15, 'volume': 0.14, 'macd': 0.13, 'macdh': 0.11, 'wr_14': 0.11, 'obv_2': 0.1, 'roc_2': 0.07}",0.7785234899328859,2.0,0.7785234899328859,"(726, 8)",Buy Strong,KHC
175,0.7440273037542662,30.98,2018-05-21,"{'macd': 0.16, 'macdh': 0.14, 'volume': 0.14, 'sod_14': 0.13, 'rsi_14': 0.12, 'obv_2': 0.11, 'wr_14': 0.11, 'roc_2': 0.1}",0.7440273037542662,1.0,0.7440273037542662,"(1304, 8)",Buy,KIE
176,0.7713310580204779,111.44,2018-05-21,"{'macd': 0.17, 'rsi_14': 0.15, 'macdh': 0.14, 'volume': 0.12, 'sod_14': 0.12, 'obv_2': 0.11, 'wr_14': 0.1, 'roc_2': 0.08}",0.7713310580204779,-1.0,0.7713310580204779,"(1304, 8)",Sell,KLAC
177,0.7167235494880546,42.41,2018-05-21,"{'sod_14': 0.15, 'macd': 0.14, 'volume': 0.14, 'macdh': 0.13, 'rsi_14': 0.13, 'obv_2': 0.11, 'roc_2': 0.1, 'wr_14': 0.1}",0.7167235494880546,-1.0,0.7167235494880546,"(1304, 8)",Sell,KO
178,0.7064846416382252,68.84,2018-05-21,"{'macd': 0.16, 'rsi_14': 0.15, 'sod_14': 0.14, 'volume': 0.13, 'macdh': 0.12, 'wr_14': 0.11, 'obv_2': 0.1, 'roc_2': 0.09}",0.7064846416382252,1.0,0.7064846416382252,"(1304, 8)",Buy,LAMR
179,0.78839590443686,12.78,2018-05-21,"{'sod_14': 0.16, 'macd': 0.14, 'volume': 0.14, 'rsi_14': 0.13, 'obv_2': 0.12, 'macdh': 0.11, 'roc_2': 0.1, 'wr_14': 0.1}",0.78839590443686,-1.0,0.78839590443686,"(1304, 8)",Sell,LAND
180,0.8526315789473684,70.63,2018-05-21,"{'macd': 0.17, 'volume': 0.15, 'sod_14': 0.15, 'macdh': 0.13, 'rsi_14': 0.13, 'obv_2': 0.1, 'wr_14': 0.1, 'roc_2': 0.08}",0.8526315789473684,-2.0,0.8526315789473684,"(892, 8)",Sell Strong,LBRDK
181,0.7986348122866894,29.05,2018-05-21,"{'volume': 0.15, 'sod_14': 0.14, 'macd': 0.13, 'macdh': 0.13, 'obv_2': 0.12, 'wr_14': 0.12, 'rsi_14': 0.11, 'roc_2': 0.1}",0.7986348122866894,-1.0,0.7986348122866894,"(1304, 8)",Sell,LBTYA
182,0.8293515358361775,28.25,2018-05-21,"{'volume': 0.19, 'macd': 0.13, 'sod_14': 0.13, 'macdh': 0.12, 'obv_2': 0.12, 'rsi_14': 0.11, 'wr_14': 0.11, 'roc_2': 0.09}",0.8293515358361775,-1.0,0.8293515358361775,"(1304, 8)",Sell,LBTYK
183,0.7337883959044369,324.28,2018-05-21,"{'macd': 0.16, 'volume': 0.16, 'macdh': 0.13, 'rsi_14': 0.13, 'obv_2': 0.11, 'sod_14': 0.11, 'wr_14': 0.1, 'roc_2': 0.09}",0.7337883959044369,1.0,0.7337883959044369,"(1304, 8)",Buy,LMT
184,0.8156996587030717,71.91,2018-05-21,"{'macd': 0.16, 'rsi_14': 0.14, 'sod_14': 0.14, 'volume': 0.13, 'macdh': 0.12, 'obv_2': 0.11, 'wr_14': 0.11, 'roc_2': 0.09}",0.8156996587030717,-1.0,0.8156996587030717,"(1304, 8)",Sell,LPLA
185,0.7610921501706485,199.87,2018-05-21,"{'macd': 0.15, 'macdh': 0.14, 'rsi_14': 0.14, 'volume': 0.14, 'sod_14': 0.14, 'obv_2': 0.11, 'wr_14': 0.1, 'roc_2': 0.08}",0.7610921501706485,-2.0,0.7610921501706485,"(1304, 8)",Sell Strong,LRCX
186,0.7918088737201365,43.76,2018-05-21,"{'macd': 0.16, 'sod_14': 0.16, 'macdh': 0.14, 'rsi_14': 0.14, 'volume': 0.12, 'wr_14': 0.11, 'obv_2': 0.1, 'roc_2': 0.08}",0.7918088737201365,-2.0,0.7918088737201365,"(1304, 8)",Sell Strong,LTXB
187,0.7713310580204779,191.2,2018-05-21,"{'volume': 0.16, 'macd': 0.15, 'rsi_14': 0.14, 'macdh': 0.12, 'obv_2': 0.12, 'sod_14': 0.12, 'wr_14': 0.1, 'roc_2': 0.08}",0.7713310580204779,1.0,0.7713310580204779,"(1304, 8)",Buy,MA
188,0.7692307692307693,12.64,2018-05-21,"{'volume': 0.17, 'sod_14': 0.16, 'macd': 0.15, 'rsi_14': 0.13, 'macdh': 0.12, 'obv_2': 0.11, 'wr_14': 0.09, 'roc_2': 0.08}",0.7692307692307693,2.0,0.7692307692307693,"(1275, 8)",Buy Strong,MAB
189,0.7372013651877133,138.8,2018-05-21,"{'macd': 0.16, 'rsi_14': 0.15, 'volume': 0.14, 'macdh': 0.13, 'sod_14': 0.13, 'obv_2': 0.11, 'roc_2': 0.09, 'wr_14': 0.09}",0.7372013651877133,2.0,0.7372013651877133,"(1304, 8)",Buy Strong,MAR
190,0.7781569965870307,49.28,2018-05-21,"{'rsi_14': 0.15, 'macdh': 0.14, 'sod_14': 0.14, 'macd': 0.13, 'obv_2': 0.11, 'volume': 0.11, 'wr_14': 0.11, 'roc_2': 0.09}",0.7781569965870307,-1.0,0.7781569965870307,"(1304, 8)",Sell,MBFI
191,0.7815699658703071,161.48,2018-05-21,"{'macd': 0.16, 'macdh': 0.14, 'sod_14': 0.14, 'rsi_14': 0.13, 'volume': 0.13, 'obv_2': 0.11, 'wr_14': 0.11, 'roc_2': 0.09}",0.7815699658703071,-1.0,0.7815699658703071,"(1304, 8)",Sell,MCD
192,0.7713310580204779,93.81,2018-05-21,"{'volume': 0.15, 'sod_14': 0.15, 'macd': 0.14, 'macdh': 0.14, 'rsi_14': 0.12, 'obv_2': 0.11, 'wr_14': 0.1, 'roc_2': 0.09}",0.7713310580204779,-1.0,0.7713310580204779,"(1304, 8)",Sell,MCHP
193,0.7801418439716312,26.53,2018-05-21,"{'volume': 0.15, 'sod_14': 0.15, 'macd': 0.13, 'macdh': 0.13, 'rsi_14': 0.12, 'wr_14': 0.12, 'obv_2': 0.1, 'roc_2': 0.09}",0.7801418439716312,-1.0,0.7801418439716312,"(1259, 8)",Sell,MCRO
194,0.764505119453925,32.45,2018-05-21,"{'macdh': 0.16, 'macd': 0.15, 'sod_14': 0.14, 'rsi_14': 0.12, 'volume': 0.12, 'obv_2': 0.11, 'wr_14': 0.11, 'roc_2': 0.09}",0.764505119453925,2.0,0.764505119453925,"(1304, 8)",Buy Strong,MCS
195,0.7781569965870307,30.77,2018-05-21,"{'volume': 0.18, 'sod_14': 0.14, 'macd': 0.13, 'rsi_14': 0.12, 'macdh': 0.11, 'obv_2': 0.11, 'wr_14': 0.11, 'roc_2': 0.09}",0.7781569965870307,-2.0,0.7781569965870307,"(1304, 8)",Sell Strong,MDC
196,0.6484641638225256,39.34,2018-05-21,"{'macd': 0.14, 'volume': 0.14, 'macdh': 0.13, 'rsi_14': 0.13, 'sod_14': 0.13, 'obv_2': 0.11, 'wr_14': 0.11, 'roc_2': 0.1}",0.6484641638225256,-1.0,0.6484641638225256,"(1304, 8)",Sell,MDLZ
197,0.7610921501706485,290.6,2018-05-21,"{'macd': 0.16, 'macdh': 0.14, 'rsi_14': 0.14, 'sod_14': 0.14, 'volume': 0.13, 'obv_2': 0.11, 'wr_14': 0.1, 'roc_2': 0.09}",0.7610921501706485,2.0,0.7610921501706485,"(1304, 8)",Buy Strong,MELI
198,0.7952218430034129,210.59,2018-05-21,"{'macd': 0.16, 'sod_14': 0.15, 'volume': 0.14, 'macdh': 0.13, 'rsi_14': 0.13, 'obv_2': 0.1, 'wr_14': 0.1, 'roc_2': 0.08}",0.7952218430034129,-2.0,0.7952218430034129,"(1304, 8)",Sell Strong,MKTX
199,0.7474402730375427,201.76,2018-05-21,"{'macd': 0.16, 'volume': 0.15, 'sod_14': 0.14, 'macdh': 0.12, 'obv_2': 0.12, 'rsi_14': 0.12, 'wr_14': 0.11, 'roc_2': 0.09}",0.7474402730375427,2.0,0.7474402730375427,"(1304, 8)",Buy Strong,MMM
200,0.8498293515358362,49.91,2018-05-21,"{'macd': 0.15, 'rsi_14': 0.14, 'volume': 0.14, 'sod_14': 0.14, 'macdh': 0.13, 'obv_2': 0.11, 'wr_14': 0.1, 'roc_2': 0.09}",0.8498293515358362,1.0,0.8498293515358362,"(1304, 8)",Buy,MNST
201,0.7713310580204779,21.25,2018-05-21,"{'macd': 0.14, 'macdh': 0.14, 'rsi_14': 0.14, 'volume': 0.14, 'sod_14': 0.14, 'obv_2': 0.1, 'roc_2': 0.1, 'wr_14': 0.1}",0.7713310580204779,-1.0,0.7713310580204779,"(1304, 8)",Sell,MRC
202,0.78839590443686,58.57,2018-05-21,"{'sod_14': 0.16, 'macdh': 0.15, 'macd': 0.14, 'volume': 0.14, 'rsi_14': 0.11, 'obv_2': 0.1, 'wr_14': 0.1, 'roc_2': 0.09}",0.78839590443686,-1.0,0.78839590443686,"(1304, 8)",Sell,MRK
203,0.8191126279863481,21.9,2018-05-21,"{'volume': 0.19, 'macd': 0.14, 'obv_2': 0.13, 'sod_14': 0.13, 'macdh': 0.12, 'rsi_14': 0.11, 'wr_14': 0.1, 'roc_2': 0.08}",0.8191126279863481,-2.0,0.8191126279863481,"(1304, 8)",Sell Strong,MRO
204,0.7162629757785467,97.6,2018-05-21,"{'sod_14': 0.15, 'macd': 0.14, 'volume': 0.14, 'rsi_14': 0.13, 'macdh': 0.12, 'obv_2': 0.12, 'wr_14': 0.11, 'roc_2': 0.1}",0.7162629757785467,2.0,0.7162629757785467,"(1288, 8)",Buy Strong,MSFT
205,0.7815699658703071,55.48,2018-05-21,"{'macd': 0.2, 'rsi_14': 0.15, 'macdh': 0.13, 'volume': 0.13, 'sod_14': 0.12, 'obv_2': 0.1, 'wr_14': 0.09, 'roc_2': 0.08}",0.7815699658703071,1.0,0.7815699658703071,"(1304, 8)",Buy,MU
206,0.7372013651877133,58.27,2018-05-21,"{'macd': 0.16, 'rsi_14': 0.14, 'sod_14': 0.14, 'macdh': 0.13, 'volume': 0.13, 'obv_2': 0.1, 'roc_2': 0.1, 'wr_14': 0.1}",0.7372013651877133,1.0,0.7372013651877133,"(1304, 8)",Buy,MXIM
207,0.7474402730375427,12.4,2018-05-21,"{'volume': 0.16, 'macd': 0.15, 'sod_14': 0.14, 'obv_2': 0.13, 'rsi_14': 0.13, 'macdh': 0.12, 'wr_14': 0.1, 'roc_2': 0.08}",0.7474402730375427,2.0,0.7474402730375427,"(1304, 8)",Buy Strong,MYI
208,0.7508532423208191,39.55,2018-05-21,"{'macd': 0.15, 'rsi_14': 0.14, 'volume': 0.14, 'sod_14': 0.14, 'macdh': 0.12, 'obv_2': 0.11, 'wr_14': 0.11, 'roc_2': 0.08}",0.7508532423208191,-2.0,0.7508532423208191,"(1304, 8)",Sell Strong,MYL
209,0.7064846416382252,59.7,2018-05-21,"{'macd': 0.14, 'macdh': 0.14, 'sod_14': 0.14, 'rsi_14': 0.13, 'volume': 0.13, 'wr_14': 0.11, 'obv_2': 0.1, 'roc_2': 0.1}",0.7064846416382252,2.0,0.7064846416382252,"(1304, 8)",Buy Strong,NAVG
210,0.8088888888888889,14.27,2018-05-21,"{'volume': 0.17, 'macd': 0.15, 'sod_14': 0.14, 'rsi_14': 0.13, 'macdh': 0.12, 'obv_2': 0.11, 'roc_2': 0.09, 'wr_14': 0.09}",0.8088888888888889,-2.0,0.8088888888888889,"(1031, 8)",Sell Strong,NAVI
211,0.7030716723549488,38.47,2018-05-21,"{'sod_14': 0.16, 'macd': 0.15, 'macdh': 0.13, 'volume': 0.13, 'rsi_14': 0.12, 'obv_2': 0.11, 'wr_14': 0.1, 'roc_2': 0.09}",0.7030716723549488,2.0,0.7030716723549488,"(1304, 8)",Buy Strong,NBTB
212,0.7474402730375427,91.21,2018-05-21,"{'macd': 0.16, 'volume': 0.16, 'rsi_14': 0.13, 'obv_2': 0.12, 'sod_14': 0.12, 'macdh': 0.11, 'wr_14': 0.1, 'roc_2': 0.09}",0.7474402730375427,-2.0,0.7474402730375427,"(1304, 8)",Sell Strong,NDAQ
213,0.8088737201365188,331.82,2018-05-21,"{'volume': 0.16, 'macd': 0.14, 'macdh': 0.13, 'sod_14': 0.13, 'rsi_14': 0.12, 'obv_2': 0.11, 'wr_14': 0.11, 'roc_2': 0.09}",0.8088737201365188,2.0,0.8088737201365188,"(1304, 8)",Buy Strong,NFLX
214,0.7713310580204779,4.67,2018-05-21,"{'macd': 0.17, 'volume': 0.16, 'macdh': 0.12, 'rsi_14': 0.12, 'wr_14': 0.12, 'sod_14': 0.12, 'obv_2': 0.11, 'roc_2': 0.08}",0.7713310580204779,1.0,0.7713310580204779,"(1304, 8)",Buy,NG
215,0.774468085106383,26.89,2018-05-21,"{'macd': 0.16, 'volume': 0.14, 'sod_14': 0.14, 'macdh': 0.13, 'rsi_14': 0.13, 'obv_2': 0.1, 'wr_14': 0.1, 'roc_2': 0.09}",0.774468085106383,-1.0,0.774468085106383,"(1071, 8)",Sell,NGHC
216,0.7952218430034129,71.38,2018-05-21,"{'macd': 0.15, 'sod_14': 0.15, 'macdh': 0.14, 'volume': 0.14, 'rsi_14': 0.13, 'obv_2': 0.1, 'wr_14': 0.1, 'roc_2': 0.09}",0.7952218430034129,-1.0,0.7952218430034129,"(1304, 8)",Sell,NKE
217,0.726962457337884,331.36,2018-05-21,"{'macd': 0.17, 'volume': 0.14, 'macdh': 0.13, 'rsi_14': 0.13, 'sod_14': 0.13, 'obv_2': 0.12, 'wr_14': 0.1, 'roc_2': 0.08}",0.726962457337884,1.0,0.726962457337884,"(1304, 8)",Buy,NOC
218,0.7610921501706485,233.59,2018-05-21,"{'macd': 0.16, 'volume': 0.14, 'macdh': 0.13, 'sod_14': 0.13, 'rsi_14': 0.12, 'obv_2': 0.11, 'wr_14': 0.11, 'roc_2': 0.1}",0.7610921501706485,-1.0,0.7610921501706485,"(1304, 8)",Sell,NTES
219,0.84375,24.34,2018-05-21,"{'macd': 0.19, 'macdh': 0.15, 'rsi_14': 0.13, 'volume': 0.13, 'sod_14': 0.13, 'wr_14': 0.12, 'obv_2': 0.09, 'roc_2': 0.07}",0.84375,-2.0,0.84375,"(514, 8)",Sell Strong,NTLA
220,0.7064846416382252,108.45,2018-05-21,"{'macd': 0.16, 'rsi_14': 0.14, 'sod_14': 0.14, 'macdh': 0.13, 'volume': 0.12, 'wr_14': 0.11, 'obv_2': 0.1, 'roc_2': 0.1}",0.7064846416382252,2.0,0.7064846416382252,"(1304, 8)",Buy Strong,NTRS
221,0.8088737201365188,244.24,2018-05-21,"{'macd': 0.23, 'volume': 0.15, 'macdh': 0.14, 'rsi_14': 0.12, 'sod_14': 0.1, 'obv_2': 0.09, 'wr_14': 0.09, 'roc_2': 0.08}",0.8088737201365188,-1.0,0.8088737201365188,"(1304, 8)",Sell,NVDA
222,0.726962457337884,17.14,2018-05-21,"{'macd': 0.16, 'macdh': 0.15, 'sod_14': 0.14, 'volume': 0.13, 'rsi_14': 0.12, 'obv_2': 0.11, 'wr_14': 0.11, 'roc_2': 0.1}",0.726962457337884,-2.0,0.726962457337884,"(1304, 8)",Sell Strong,NWBI
223,0.7167235494880546,18.0,2018-05-21,"{'macd': 0.17, 'volume': 0.15, 'sod_14': 0.14, 'rsi_14': 0.13, 'macdh': 0.12, 'obv_2': 0.11, 'wr_14': 0.1, 'roc_2': 0.08}",0.7167235494880546,2.0,0.7167235494880546,"(1304, 8)",Buy Strong,ONB
224,0.7952218430034129,47.21,2018-05-21,"{'macd': 0.16, 'macdh': 0.14, 'rsi_14': 0.13, 'volume': 0.13, 'sod_14': 0.13, 'wr_14': 0.12, 'obv_2': 0.1, 'roc_2': 0.1}",0.7952218430034129,1.0,0.7952218430034129,"(1302, 8)",Buy,ORCL
225,0.7542662116040956,276.18,2018-05-21,"{'macd': 0.17, 'macdh': 0.16, 'rsi_14': 0.13, 'volume': 0.12, 'wr_14': 0.11, 'sod_14': 0.11, 'obv_2': 0.1, 'roc_2': 0.1}",0.7542662116040956,2.0,0.7542662116040956,"(1304, 8)",Buy Strong,ORLY
226,0.8063380281690141,41.2,2018-05-21,"{'volume': 0.2, 'macd': 0.14, 'obv_2': 0.13, 'sod_14': 0.13, 'rsi_14': 0.11, 'macdh': 0.1, 'roc_2': 0.09, 'wr_14': 0.09}",0.8063380281690141,1.0,0.8063380281690141,"(1266, 8)",Buy,OSB
227,0.78839590443686,48.7,2018-05-21,"{'volume': 0.17, 'macd': 0.15, 'rsi_14': 0.13, 'macdh': 0.12, 'sod_14': 0.12, 'obv_2': 0.11, 'wr_14': 0.1, 'roc_2': 0.09}",0.78839590443686,-2.0,0.78839590443686,"(1304, 8)",Sell Strong,OZRK
228,0.7167235494880546,54.5,2018-05-21,"{'volume': 0.19, 'sod_14': 0.15, 'macd': 0.14, 'macdh': 0.12, 'rsi_14': 0.11, 'obv_2': 0.1, 'wr_14': 0.1, 'roc_2': 0.08}",0.7167235494880546,-2.0,0.7167235494880546,"(1304, 8)",Sell Strong,PACW
229,0.8088737201365188,48.47,2018-05-21,"{'volume': 0.16, 'macd': 0.15, 'sod_14': 0.15, 'macdh': 0.12, 'obv_2': 0.11, 'rsi_14': 0.11, 'wr_14': 0.1, 'roc_2': 0.09}",0.8088737201365188,-1.0,0.8088737201365188,"(1304, 8)",Sell,PAG
230,0.8020477815699659,65.12,2018-05-21,"{'macd': 0.18, 'sod_14': 0.14, 'rsi_14': 0.13, 'macdh': 0.12, 'volume': 0.12, 'obv_2': 0.11, 'wr_14': 0.11, 'roc_2': 0.09}",0.8020477815699659,2.0,0.8020477815699659,"(1304, 8)",Buy Strong,PAYX
231,0.7235494880546075,18.82,2018-05-21,"{'macd': 0.16, 'rsi_14': 0.14, 'volume': 0.14, 'macdh': 0.13, 'sod_14': 0.13, 'obv_2': 0.11, 'wr_14': 0.1, 'roc_2': 0.09}",0.7235494880546075,-1.0,0.7235494880546075,"(1304, 8)",Sell,PBCT
232,0.7337883959044369,66.01,2018-05-21,"{'macd': 0.17, 'sod_14': 0.14, 'rsi_14': 0.13, 'volume': 0.13, 'macdh': 0.11, 'obv_2': 0.11, 'wr_14': 0.11, 'roc_2': 0.1}",0.7337883959044369,2.0,0.7337883959044369,"(1304, 8)",Buy Strong,PCAR
233,0.7474402730375427,48.95,2018-05-21,"{'macd': 0.17, 'macdh': 0.14, 'sod_14': 0.14, 'volume': 0.13, 'rsi_14': 0.12, 'obv_2': 0.11, 'wr_14': 0.11, 'roc_2': 0.09}",0.7474402730375427,2.0,0.7474402730375427,"(1304, 8)",Buy Strong,PCH
234,0.78839590443686,36.3,2018-05-21,"{'macd': 0.15, 'macdh': 0.14, 'rsi_14': 0.13, 'volume': 0.13, 'wr_14': 0.12, 'sod_14': 0.12, 'obv_2': 0.11, 'roc_2': 0.09}",0.78839590443686,-2.0,0.78839590443686,"(1304, 8)",Sell Strong,PETS
235,0.7679180887372014,35.8,2018-05-21,"{'macd': 0.14, 'volume': 0.14, 'macdh': 0.13, 'rsi_14': 0.13, 'sod_14': 0.13, 'obv_2': 0.12, 'wr_14': 0.11, 'roc_2': 0.09}",0.7679180887372014,1.0,0.7679180887372014,"(1304, 8)",Buy,PFE
236,0.7440273037542662,59.18,2018-05-21,"{'sod_14': 0.17, 'volume': 0.15, 'macd': 0.14, 'macdh': 0.12, 'obv_2': 0.12, 'rsi_14': 0.12, 'wr_14': 0.1, 'roc_2': 0.09}",0.7440273037542662,1.0,0.7440273037542662,"(1304, 8)",Buy,PFG
237,0.7474402730375427,74.06,2018-05-21,"{'macd': 0.16, 'sod_14': 0.15, 'volume': 0.14, 'macdh': 0.12, 'rsi_14': 0.12, 'obv_2': 0.11, 'wr_14': 0.1, 'roc_2': 0.09}",0.7474402730375427,2.0,0.7474402730375427,"(1304, 8)",Buy Strong,PG
238,0.7372013651877133,24.1,2018-05-21,"{'volume': 0.16, 'sod_14': 0.16, 'macd': 0.14, 'macdh': 0.12, 'rsi_14': 0.12, 'obv_2': 0.11, 'wr_14': 0.1, 'roc_2': 0.09}",0.7372013651877133,-1.0,0.7372013651877133,"(1304, 8)",Sell,PIN
239,0.7474402730375427,67.85,2018-05-21,"{'macd': 0.17, 'volume': 0.16, 'rsi_14': 0.13, 'sod_14': 0.13, 'macdh': 0.12, 'obv_2': 0.11, 'wr_14': 0.1, 'roc_2': 0.08}",0.7474402730375427,-2.0,0.7474402730375427,"(1304, 8)",Sell Strong,PNFP
240,0.7440273037542662,40.15,2018-05-21,"{'macd': 0.16, 'rsi_14': 0.14, 'macdh': 0.13, 'volume': 0.13, 'sod_14': 0.13, 'obv_2': 0.12, 'wr_14': 0.1, 'roc_2': 0.09}",0.7440273037542662,-1.0,0.7440273037542662,"(1304, 8)",Sell,PRAA
241,0.7133105802047781,101.61,2018-05-21,"{'macd': 0.15, 'volume': 0.15, 'macdh': 0.14, 'rsi_14': 0.13, 'sod_14': 0.13, 'obv_2': 0.11, 'wr_14': 0.11, 'roc_2': 0.09}",0.7133105802047781,1.0,0.7133105802047781,"(1304, 8)",Buy,PRU
242,0.825503355704698,81.25,2018-05-21,"{'rsi_14': 0.17, 'sod_14': 0.16, 'macd': 0.14, 'volume': 0.14, 'wr_14': 0.11, 'obv_2': 0.1, 'macdh': 0.09, 'roc_2': 0.09}",0.825503355704698,-1.0,0.825503355704698,"(726, 8)",Sell,PYPL
243,0.8327645051194539,10.05,2018-05-21,"{'macd': 0.16, 'sod_14': 0.16, 'macdh': 0.15, 'rsi_14': 0.13, 'volume': 0.12, 'wr_14': 0.11, 'obv_2': 0.09, 'roc_2': 0.08}",0.8327645051194539,-2.0,0.8327645051194539,"(1304, 8)",Sell Strong,PZC
244,0.7440273037542662,57.71,2018-05-21,"{'sod_14': 0.16, 'volume': 0.15, 'macd': 0.14, 'macdh': 0.13, 'rsi_14': 0.13, 'obv_2': 0.1, 'wr_14': 0.1, 'roc_2': 0.08}",0.7440273037542662,-2.0,0.7440273037542662,"(1304, 8)",Sell Strong,QCOM
245,0.8070175438596491,18.47,2018-05-21,"{'macd': 0.16, 'rsi_14': 0.14, 'sod_14': 0.14, 'volume': 0.13, 'macdh': 0.12, 'wr_14': 0.11, 'obv_2': 0.1, 'roc_2': 0.09}",0.8070175438596491,1.0,0.8070175438596491,"(1272, 8)",Buy,QIWI
246,0.8430034129692833,22.56,2018-05-21,"{'sod_14': 0.17, 'volume': 0.15, 'macd': 0.14, 'macdh': 0.13, 'rsi_14': 0.11, 'obv_2': 0.1, 'wr_14': 0.1, 'roc_2': 0.08}",0.8430034129692833,-2.0,0.8430034129692833,"(1304, 8)",Sell Strong,QRTEA
247,0.7815699658703071,7.95,2018-05-21,"{'volume': 0.17, 'macd': 0.15, 'rsi_14': 0.15, 'sod_14': 0.14, 'macdh': 0.11, 'obv_2': 0.11, 'wr_14': 0.09, 'roc_2': 0.08}",0.7815699658703071,1.0,0.7815699658703071,"(1304, 8)",Buy,RBS
248,0.8088737201365188,15.71,2018-05-21,"{'macdh': 0.16, 'macd': 0.14, 'sod_14': 0.14, 'rsi_14': 0.13, 'volume': 0.12, 'wr_14': 0.11, 'obv_2': 0.1, 'roc_2': 0.1}",0.8088737201365188,-2.0,0.8088737201365188,"(1304, 8)",Sell Strong,RDI
249,0.7406143344709898,296.6,2018-05-21,"{'macd': 0.17, 'macdh': 0.17, 'sod_14': 0.14, 'rsi_14': 0.12, 'volume': 0.11, 'obv_2': 0.1, 'roc_2': 0.1, 'wr_14': 0.1}",0.7406143344709898,2.0,0.7406143344709898,"(1304, 8)",Buy Strong,REGN
250,0.764505119453925,59.16,2018-05-21,"{'volume': 0.16, 'sod_14': 0.15, 'macd': 0.14, 'rsi_14': 0.13, 'macdh': 0.12, 'obv_2': 0.11, 'wr_14': 0.11, 'roc_2': 0.09}",0.764505119453925,-2.0,0.764505119453925,"(1304, 8)",Sell Strong,RIO
251,0.6825938566552902,47.73,2018-05-21,"{'volume': 0.16, 'macd': 0.15, 'sod_14': 0.14, 'macdh': 0.13, 'rsi_14': 0.12, 'obv_2': 0.11, 'wr_14': 0.11, 'roc_2': 0.08}",0.6825938566552902,-2.0,0.6825938566552902,"(1304, 8)",Sell Strong,RNST
252,0.7133105802047781,17.38,2018-05-21,"{'volume': 0.17, 'macd': 0.14, 'rsi_14': 0.13, 'macdh': 0.12, 'obv_2': 0.12, 'sod_14': 0.12, 'wr_14': 0.1, 'roc_2': 0.09}",0.7133105802047781,1.0,0.7133105802047781,"(1304, 8)",Buy,ROIC
253,0.7918088737201365,81.93,2018-05-21,"{'macd': 0.15, 'rsi_14': 0.15, 'volume': 0.14, 'sod_14': 0.13, 'macdh': 0.12, 'obv_2': 0.11, 'wr_14': 0.11, 'roc_2': 0.09}",0.7918088737201365,-2.0,0.7918088737201365,"(1304, 8)",Sell Strong,ROST
254,0.68,18.4,2018-05-21,"{'volume': 0.21, 'macd': 0.19, 'macdh': 0.16, 'sod_14': 0.11, 'rsi_14': 0.1, 'obv_2': 0.09, 'wr_14': 0.08, 'roc_2': 0.06}",0.68,-2.0,0.68,"(230, 8)",Sell Strong,SAFE
255,0.8088737201365188,159.77,2018-05-21,"{'macd': 0.15, 'rsi_14': 0.14, 'volume': 0.14, 'sod_14': 0.14, 'macdh': 0.12, 'obv_2': 0.12, 'wr_14': 0.1, 'roc_2': 0.09}",0.8088737201365188,-2.0,0.8088737201365188,"(1304, 8)",Sell Strong,SBAC
256,0.8430034129692833,131.16,2018-05-21,"{'macd': 0.16, 'macdh': 0.15, 'volume': 0.15, 'sod_14': 0.13, 'rsi_14': 0.12, 'wr_14': 0.11, 'obv_2': 0.09, 'roc_2': 0.08}",0.8430034129692833,-2.0,0.8430034129692833,"(1304, 8)",Sell Strong,SBNY
257,0.7815699658703071,19.58,2018-05-21,"{'volume': 0.17, 'macd': 0.14, 'rsi_14': 0.14, 'macdh': 0.13, 'sod_14': 0.12, 'obv_2': 0.11, 'wr_14': 0.1, 'roc_2': 0.09}",0.7815699658703071,-2.0,0.7815699658703071,"(1304, 8)",Sell Strong,SBRA
258,0.757679180887372,57.34,2018-05-21,"{'rsi_14': 0.16, 'sod_14': 0.16, 'macd': 0.15, 'macdh': 0.14, 'volume': 0.11, 'wr_14': 0.11, 'obv_2': 0.1, 'roc_2': 0.09}",0.757679180887372,-1.0,0.757679180887372,"(1304, 8)",Sell,SBUX
259,0.7815699658703071,18.36,2018-05-21,"{'macd': 0.15, 'sod_14': 0.15, 'macdh': 0.14, 'rsi_14': 0.13, 'volume': 0.13, 'wr_14': 0.11, 'obv_2': 0.1, 'roc_2': 0.08}",0.7815699658703071,1.0,0.7815699658703071,"(1301, 8)",Buy,SCIN
260,0.7285223367697594,27.9473,2018-05-21,"{'rsi_14': 0.15, 'macd': 0.14, 'macdh': 0.14, 'volume': 0.14, 'sod_14': 0.13, 'obv_2': 0.11, 'wr_14': 0.11, 'roc_2': 0.09}",0.7285223367697594,2.0,0.7285223367697594,"(1296, 8)",Buy Strong,SDP
261,0.8122866894197952,1.52,2018-05-21,"{'macd': 0.16, 'sod_14': 0.14, 'macdh': 0.13, 'rsi_14': 0.13, 'volume': 0.13, 'obv_2': 0.11, 'wr_14': 0.11, 'roc_2': 0.09}",0.8122866894197952,-2.0,0.8122866894197952,"(1304, 8)",Sell Strong,SDR
262,0.7303754266211604,65.45,2018-05-21,"{'macd': 0.18, 'volume': 0.14, 'rsi_14': 0.13, 'sod_14': 0.13, 'macdh': 0.12, 'obv_2': 0.11, 'wr_14': 0.1, 'roc_2': 0.09}",0.7303754266211604,1.0,0.7303754266211604,"(1304, 8)",Buy,SEIC
263,0.7828054298642534,43.68,2018-05-21,"{'macd': 0.16, 'volume': 0.16, 'macdh': 0.14, 'rsi_14': 0.12, 'obv_2': 0.11, 'sod_14': 0.11, 'roc_2': 0.09, 'wr_14': 0.09}",0.7828054298642534,2.0,0.7828054298642534,"(1013, 8)",Buy Strong,SFBS
264,0.7781569965870307,31.35,2018-05-21,"{'volume': 0.19, 'macd': 0.14, 'sod_14': 0.13, 'macdh': 0.12, 'obv_2': 0.12, 'rsi_14': 0.11, 'roc_2': 0.09, 'wr_14': 0.09}",0.7781569965870307,-2.0,0.7781569965870307,"(1304, 8)",Sell Strong,SFNC
265,0.791095890410959,23.34,2018-05-21,"{'macdh': 0.15, 'volume': 0.15, 'macd': 0.14, 'sod_14': 0.14, 'rsi_14': 0.13, 'obv_2': 0.11, 'roc_2': 0.09, 'wr_14': 0.09}",0.791095890410959,1.0,0.791095890410959,"(1299, 8)",Buy,SGC
266,0.8088737201365188,15.5,2018-05-21,"{'macd': 0.17, 'macdh': 0.15, 'volume': 0.15, 'sod_14': 0.14, 'rsi_14': 0.12, 'obv_2': 0.1, 'wr_14': 0.09, 'roc_2': 0.08}",0.8088737201365188,-1.0,0.8088737201365188,"(1304, 8)",Sell,SGMO
267,0.8327645051194539,71.3,2018-05-21,"{'macd': 0.17, 'volume': 0.15, 'rsi_14': 0.14, 'macdh': 0.13, 'sod_14': 0.13, 'obv_2': 0.1, 'wr_14': 0.1, 'roc_2': 0.09}",0.8327645051194539,-2.0,0.8327645051194539,"(1304, 8)",Sell Strong,SHI
268,0.8054607508532423,168.95,2018-05-21,"{'volume': 0.21, 'macd': 0.14, 'sod_14': 0.13, 'obv_2': 0.12, 'rsi_14': 0.12, 'macdh': 0.11, 'wr_14': 0.09, 'roc_2': 0.08}",0.8054607508532423,-1.0,0.8054607508532423,"(1304, 8)",Sell,SHPG
269,0.7098976109215017,56.8,2018-05-21,"{'volume': 0.17, 'rsi_14': 0.14, 'macd': 0.12, 'obv_2': 0.12, 'wr_14': 0.12, 'sod_14': 0.12, 'macdh': 0.11, 'roc_2': 0.1}",0.7098976109215017,2.0,0.7098976109215017,"(1304, 8)",Buy Strong,SIGI
270,0.7747440273037542,7.0,2018-05-21,"{'macd': 0.15, 'volume': 0.15, 'sod_14': 0.15, 'macdh': 0.14, 'rsi_14': 0.12, 'obv_2': 0.1, 'wr_14': 0.1, 'roc_2': 0.09}",0.7747440273037542,1.0,0.7747440273037542,"(1304, 8)",Buy,SIRI
271,0.7918088737201365,322.2,2018-05-21,"{'macd': 0.15, 'volume': 0.14, 'sod_14': 0.14, 'macdh': 0.13, 'rsi_14': 0.13, 'obv_2': 0.11, 'wr_14': 0.11, 'roc_2': 0.08}",0.7918088737201365,-1.0,0.7918088737201365,"(1304, 8)",Sell,SIVB
272,0.8805460750853242,32.47,2018-05-21,"{'macd': 0.15, 'volume': 0.14, 'sod_14': 0.14, 'macdh': 0.13, 'rsi_14': 0.13, 'obv_2': 0.11, 'roc_2': 0.1, 'wr_14': 0.1}",0.8805460750853242,1.0,0.8805460750853242,"(1304, 8)",Buy,SKY
273,0.7713310580204779,11.64,2018-05-21,"{'macd': 0.15, 'sod_14': 0.15, 'macdh': 0.14, 'rsi_14': 0.14, 'volume': 0.13, 'wr_14': 0.11, 'obv_2': 0.1, 'roc_2': 0.09}",0.7713310580204779,2.0,0.7713310580204779,"(1304, 8)",Buy Strong,SLM
274,0.8356643356643356,44.87,2018-05-21,"{'volume': 0.19, 'macd': 0.15, 'rsi_14': 0.13, 'sod_14': 0.13, 'macdh': 0.12, 'obv_2': 0.11, 'wr_14': 0.11, 'roc_2': 0.08}",0.8356643356643356,-2.0,0.8356643356643356,"(1274, 8)",Sell Strong,SMIN
275,0.7372013651877133,44.45,2018-05-21,"{'rsi_14': 0.17, 'macd': 0.16, 'macdh': 0.13, 'sod_14': 0.13, 'volume': 0.12, 'wr_14': 0.11, 'obv_2': 0.1, 'roc_2': 0.09}",0.7372013651877133,2.0,0.7372013651877133,"(1304, 8)",Buy Strong,SMP
276,0.8327645051194539,4.1,2018-05-21,"{'volume': 0.19, 'macd': 0.17, 'macdh': 0.13, 'rsi_14': 0.13, 'obv_2': 0.11, 'sod_14': 0.11, 'wr_14': 0.09, 'roc_2': 0.08}",0.8327645051194539,-1.0,0.8327645051194539,"(1304, 8)",Sell,SN
277,0.825938566552901,35.93,2018-05-21,"{'macd': 0.15, 'volume': 0.15, 'sod_14': 0.15, 'macdh': 0.13, 'rsi_14': 0.13, 'wr_14': 0.11, 'obv_2': 0.1, 'roc_2': 0.08}",0.825938566552901,1.0,0.825938566552901,"(1304, 8)",Buy,SNN
278,0.7440273037542662,89.43,2018-05-21,"{'sod_14': 0.16, 'macdh': 0.15, 'macd': 0.14, 'volume': 0.14, 'obv_2': 0.11, 'rsi_14': 0.11, 'wr_14': 0.11, 'roc_2': 0.09}",0.7440273037542662,1.0,0.7440273037542662,"(1304, 8)",Buy,SNPS
279,0.8229166666666666,7.61,2018-05-21,"{'volume': 0.18, 'macd': 0.16, 'sod_14': 0.15, 'rsi_14': 0.13, 'obv_2': 0.11, 'macdh': 0.1, 'wr_14': 0.09, 'roc_2': 0.08}",0.8229166666666666,1.0,0.8229166666666666,"(898, 8)",Buy,SNR
280,0.7017543859649122,0.392,2018-05-21,"{'volume': 0.19, 'macd': 0.16, 'rsi_14': 0.13, 'macdh': 0.11, 'obv_2': 0.11, 'sod_14': 0.11, 'wr_14': 0.09, 'roc_2': 0.08}",0.7017543859649122,2.0,0.7017543859649122,"(586, 8)",Buy Strong,SPI
281,0.7610921501706485,90.6,2018-05-21,"{'macd': 0.17, 'sod_14': 0.16, 'volume': 0.14, 'rsi_14': 0.13, 'macdh': 0.12, 'obv_2': 0.1, 'wr_14': 0.1, 'roc_2': 0.08}",0.7610921501706485,-2.0,0.7610921501706485,"(1304, 8)",Sell Strong,SSB
282,0.757679180887372,57.25,2018-05-21,"{'macd': 0.14, 'volume': 0.14, 'sod_14': 0.14, 'macdh': 0.13, 'rsi_14': 0.13, 'obv_2': 0.11, 'wr_14': 0.11, 'roc_2': 0.09}",0.757679180887372,-1.0,0.757679180887372,"(1304, 8)",Sell,STX
283,0.7571428571428571,9.43,2018-05-21,"{'volume': 0.16, 'sod_14': 0.15, 'macdh': 0.14, 'macd': 0.13, 'rsi_14': 0.12, 'obv_2': 0.1, 'wr_14': 0.1, 'roc_2': 0.09}",0.7571428571428571,-2.0,0.7571428571428571,"(1251, 8)",Sell Strong,SVT
284,0.8395904436860068,98.85,2018-05-21,"{'macd': 0.16, 'volume': 0.16, 'sod_14': 0.15, 'macdh': 0.13, 'rsi_14': 0.13, 'obv_2': 0.1, 'wr_14': 0.09, 'roc_2': 0.07}",0.8395904436860068,-2.0,0.8395904436860068,"(1304, 8)",Sell Strong,SWKS
285,0.8054607508532423,21.59,2018-05-21,"{'volume': 0.2, 'macd': 0.14, 'obv_2': 0.13, 'sod_14': 0.13, 'macdh': 0.12, 'rsi_14': 0.12, 'roc_2': 0.08, 'wr_14': 0.08}",0.8054607508532423,-1.0,0.8054607508532423,"(1304, 8)",Sell,SYMC
286,0.8191126279863481,1.95,2018-05-21,"{'volume': 0.17, 'sod_14': 0.16, 'macd': 0.14, 'rsi_14': 0.13, 'macdh': 0.12, 'obv_2': 0.1, 'wr_14': 0.1, 'roc_2': 0.08}",0.8191126279863481,-1.0,0.8191126279863481,"(1304, 8)",Sell,SYNC
287,0.7952218430034129,30.81,2018-05-21,"{'volume': 0.16, 'macd': 0.14, 'macdh': 0.13, 'rsi_14': 0.13, 'sod_14': 0.13, 'obv_2': 0.11, 'wr_14': 0.1, 'roc_2': 0.09}",0.7952218430034129,2.0,0.7952218430034129,"(1304, 8)",Buy Strong,SYNT
288,0.78839590443686,11.35,2018-05-21,"{'macd': 0.18, 'volume': 0.14, 'macdh': 0.13, 'rsi_14': 0.13, 'sod_14': 0.13, 'wr_14': 0.11, 'obv_2': 0.1, 'roc_2': 0.09}",0.78839590443686,-2.0,0.78839590443686,"(1304, 8)",Sell Strong,TCAP
289,0.8088737201365188,101.55,2018-05-21,"{'macd': 0.16, 'rsi_14': 0.14, 'volume': 0.14, 'sod_14': 0.14, 'macdh': 0.13, 'obv_2': 0.1, 'wr_14': 0.1, 'roc_2': 0.09}",0.8088737201365188,-2.0,0.8088737201365188,"(1304, 8)",Sell Strong,TCBI
290,0.7372013651877133,9.26,2018-05-21,"{'macd': 0.15, 'volume': 0.14, 'sod_14': 0.14, 'macdh': 0.13, 'rsi_14': 0.13, 'obv_2': 0.11, 'wr_14': 0.11, 'roc_2': 0.09}",0.7372013651877133,1.0,0.7372013651877133,"(1304, 8)",Buy,TEF
291,0.8028169014084507,44.65,2018-05-21,"{'volume': 0.2, 'sod_14': 0.14, 'macd': 0.13, 'macdh': 0.12, 'obv_2': 0.12, 'rsi_14': 0.12, 'wr_14': 0.1, 'roc_2': 0.09}",0.8028169014084507,-1.0,0.8028169014084507,"(1265, 8)",Sell,TEP
292,0.7235494880546075,15.33,2018-05-21,"{'volume': 0.16, 'macd': 0.15, 'macdh': 0.14, 'sod_14': 0.14, 'obv_2': 0.12, 'rsi_14': 0.12, 'roc_2': 0.09, 'wr_14': 0.09}",0.7235494880546075,-1.0,0.7235494880546075,"(1304, 8)",Sell,TFSL
293,0.7972027972027972,57.19,2018-05-21,"{'macd': 0.16, 'rsi_14': 0.14, 'volume': 0.14, 'macdh': 0.13, 'sod_14': 0.13, 'obv_2': 0.1, 'roc_2': 0.1, 'wr_14': 0.1}",0.7972027972027972,-1.0,0.7972027972027972,"(1274, 8)",Sell,TMUS
294,0.7064846416382252,32.96,2018-05-21,"{'macd': 0.15, 'macdh': 0.14, 'volume': 0.14, 'sod_14': 0.14, 'rsi_14': 0.13, 'obv_2': 0.11, 'wr_14': 0.1, 'roc_2': 0.09}",0.7064846416382252,2.0,0.7064846416382252,"(1304, 8)",Buy Strong,TRMK
295,0.7167235494880546,121.94,2018-05-21,"{'macd': 0.14, 'macdh': 0.14, 'sod_14': 0.14, 'rsi_14': 0.13, 'volume': 0.13, 'wr_14': 0.12, 'obv_2': 0.11, 'roc_2': 0.1}",0.7167235494880546,-1.0,0.7167235494880546,"(1304, 8)",Sell,TROW
296,0.7167235494880546,131.14,2018-05-21,"{'macd': 0.17, 'rsi_14': 0.16, 'volume': 0.13, 'macdh': 0.12, 'obv_2': 0.11, 'wr_14': 0.11, 'sod_14': 0.11, 'roc_2': 0.1}",0.7167235494880546,2.0,0.7167235494880546,"(1304, 8)",Buy Strong,TRV
297,0.7918088737201365,73.64,2018-05-21,"{'macd': 0.16, 'volume': 0.16, 'sod_14': 0.14, 'rsi_14': 0.13, 'macdh': 0.12, 'obv_2': 0.11, 'wr_14': 0.1, 'roc_2': 0.09}",0.7918088737201365,-1.0,0.7918088737201365,"(1304, 8)",Sell,TSCO
298,0.764505119453925,284.49,2018-05-21,"{'macd': 0.14, 'macdh': 0.14, 'rsi_14': 0.14, 'volume': 0.14, 'sod_14': 0.14, 'obv_2': 0.11, 'wr_14': 0.1, 'roc_2': 0.09}",0.764505119453925,1.0,0.764505119453925,"(1304, 8)",Buy,TSLA
299,0.78839590443686,115.96,2018-05-21,"{'macd': 0.16, 'sod_14': 0.15, 'macdh': 0.14, 'rsi_14': 0.13, 'volume': 0.12, 'obv_2': 0.1, 'wr_14': 0.1, 'roc_2': 0.09}",0.78839590443686,-1.0,0.78839590443686,"(1304, 8)",Sell,TTWO
300,0.83399209486166,33.63,2018-05-21,"{'macd': 0.17, 'macdh': 0.15, 'sod_14': 0.15, 'volume': 0.14, 'rsi_14': 0.12, 'wr_14': 0.1, 'obv_2': 0.09, 'roc_2': 0.09}",0.83399209486166,-1.0,0.83399209486166,"(1141, 8)",Sell,TWTR
301,0.7235494880546075,110.41,2018-05-21,"{'macd': 0.15, 'sod_14': 0.15, 'macdh': 0.13, 'rsi_14': 0.13, 'volume': 0.13, 'obv_2': 0.11, 'wr_14': 0.11, 'roc_2': 0.09}",0.7235494880546075,1.0,0.7235494880546075,"(1304, 8)",Buy,TXN
302,0.9166666666666666,17.7858,2018-05-18,"{'sod_14': 0.19, 'volume': 0.16, 'macd': 0.15, 'rsi_14': 0.13, 'wr_14': 0.11, 'macdh': 0.09, 'obv_2': 0.09, 'roc_2': 0.07}",0.9166666666666666,1.0,0.9166666666666666,"(900, 8)",Buy,UBM
303,0.78839590443686,36.75,2018-05-21,"{'macd': 0.17, 'volume': 0.17, 'sod_14': 0.13, 'macdh': 0.12, 'rsi_14': 0.12, 'obv_2': 0.11, 'wr_14': 0.1, 'roc_2': 0.08}",0.78839590443686,-1.0,0.78839590443686,"(1304, 8)",Sell,UBSI
304,0.7610921501706485,33.45,2018-05-21,"{'volume': 0.17, 'macd': 0.14, 'rsi_14': 0.14, 'macdh': 0.13, 'sod_14': 0.12, 'obv_2': 0.11, 'wr_14': 0.11, 'roc_2': 0.09}",0.7610921501706485,1.0,0.7610921501706485,"(1304, 8)",Buy,UCBI
305,0.8071428571428572,16.52,2018-05-21,"{'volume': 0.2, 'sod_14': 0.15, 'macd': 0.14, 'rsi_14': 0.13, 'obv_2': 0.11, 'macdh': 0.1, 'wr_14': 0.1, 'roc_2': 0.08}",0.8071428571428572,2.0,0.8071428571428572,"(1251, 8)",Buy Strong,ULE
306,0.863481228668942,254.77,2018-05-21,"{'macd': 0.18, 'rsi_14': 0.15, 'volume': 0.14, 'macdh': 0.13, 'sod_14': 0.12, 'obv_2': 0.1, 'wr_14': 0.1, 'roc_2': 0.07}",0.863481228668942,-1.0,0.863481228668942,"(1304, 8)",Sell,ULTA
307,0.7747440273037542,79.39,2018-05-21,"{'macd': 0.16, 'macdh': 0.15, 'rsi_14': 0.13, 'volume': 0.13, 'sod_14': 0.13, 'wr_14': 0.11, 'obv_2': 0.1, 'roc_2': 0.09}",0.7747440273037542,2.0,0.7747440273037542,"(1304, 8)",Buy Strong,UMBF
308,0.7167235494880546,23.95,2018-05-21,"{'macd': 0.15, 'volume': 0.15, 'sod_14': 0.15, 'macdh': 0.13, 'obv_2': 0.11, 'rsi_14': 0.11, 'roc_2': 0.1, 'wr_14': 0.1}",0.7167235494880546,-2.0,0.7167235494880546,"(1304, 8)",Sell Strong,UMPQ
309,0.6860068259385665,247.9,2018-05-21,"{'macd': 0.15, 'macdh': 0.14, 'volume': 0.14, 'sod_14': 0.14, 'rsi_14': 0.13, 'obv_2': 0.11, 'wr_14': 0.11, 'roc_2': 0.09}",0.6860068259385665,2.0,0.6860068259385665,"(1304, 8)",Buy Strong,UNH
310,0.8271604938271605,20.03,2018-05-21,"{'macd': 0.2, 'macdh': 0.13, 'rsi_14': 0.13, 'volume': 0.13, 'sod_14': 0.12, 'wr_14': 0.11, 'obv_2': 0.09, 'roc_2': 0.08}",0.8271604938271605,-1.0,0.8271604938271605,"(779, 8)",Sell,UNIT
311,0.7815699658703071,28.24,2018-05-21,"{'macd': 0.16, 'rsi_14': 0.14, 'sod_14': 0.14, 'macdh': 0.13, 'volume': 0.13, 'obv_2': 0.11, 'wr_14': 0.1, 'roc_2': 0.08}",0.7815699658703071,-2.0,0.7815699658703071,"(1304, 8)",Sell Strong,UTG
312,0.7610921501706485,128.05,2018-05-21,"{'sod_14': 0.17, 'macd': 0.16, 'rsi_14': 0.14, 'macdh': 0.12, 'volume': 0.12, 'wr_14': 0.11, 'obv_2': 0.09, 'roc_2': 0.09}",0.7610921501706485,-1.0,0.7610921501706485,"(1304, 8)",Sell,UTX
313,0.7508532423208191,130.66,2018-05-21,"{'macd': 0.16, 'macdh': 0.14, 'rsi_14': 0.13, 'volume': 0.13, 'sod_14': 0.13, 'obv_2': 0.11, 'roc_2': 0.1, 'wr_14': 0.1}",0.7508532423208191,2.0,0.7508532423208191,"(1304, 8)",Buy Strong,V
314,0.8088737201365188,26.54,2018-05-21,"{'macd': 0.16, 'sod_14': 0.15, 'rsi_14': 0.14, 'volume': 0.14, 'macdh': 0.13, 'obv_2': 0.1, 'wr_14': 0.1, 'roc_2': 0.07}",0.8088737201365188,1.0,0.8088737201365188,"(1304, 8)",Buy,VOD
315,0.7747440273037542,107.16,2018-05-21,"{'sod_14': 0.16, 'macd': 0.14, 'macdh': 0.13, 'volume': 0.13, 'wr_14': 0.12, 'obv_2': 0.11, 'rsi_14': 0.11, 'roc_2': 0.1}",0.7747440273037542,1.0,0.7747440273037542,"(1304, 8)",Buy,VRSK
316,0.7201365187713311,156.22,2018-05-21,"{'macd': 0.17, 'rsi_14': 0.15, 'sod_14': 0.14, 'macdh': 0.12, 'volume': 0.12, 'wr_14': 0.11, 'obv_2': 0.1, 'roc_2': 0.09}",0.7201365187713311,2.0,0.7201365187713311,"(1304, 8)",Buy Strong,VRTX
317,0.6996587030716723,48.43,2018-05-21,"{'macd': 0.14, 'volume': 0.14, 'sod_14': 0.14, 'macdh': 0.13, 'obv_2': 0.12, 'rsi_14': 0.11, 'roc_2': 0.1, 'wr_14': 0.1}",0.6996587030716723,2.0,0.6996587030716723,"(1304, 8)",Buy Strong,VZ
318,0.7440273037542662,57.78,2018-05-21,"{'macd': 0.16, 'macdh': 0.13, 'rsi_14': 0.13, 'volume': 0.13, 'wr_14': 0.12, 'sod_14': 0.12, 'obv_2': 0.1, 'roc_2': 0.1}",0.7440273037542662,1.0,0.7440273037542662,"(1304, 8)",Buy,WABC
319,0.757679180887372,32.7,2018-05-21,"{'macd': 0.15, 'macdh': 0.15, 'sod_14': 0.15, 'rsi_14': 0.13, 'volume': 0.13, 'wr_14': 0.11, 'obv_2': 0.1, 'roc_2': 0.08}",0.757679180887372,1.0,0.757679180887372,"(1304, 8)",Buy,WAFD
320,0.7406143344709898,64.5,2018-05-21,"{'volume': 0.15, 'macdh': 0.14, 'sod_14': 0.14, 'macd': 0.13, 'rsi_14': 0.13, 'obv_2': 0.12, 'wr_14': 0.11, 'roc_2': 0.09}",0.7406143344709898,-1.0,0.7406143344709898,"(1304, 8)",Sell,WBA
321,0.6996587030716723,131.7,2018-05-21,"{'macd': 0.14, 'rsi_14': 0.14, 'volume': 0.14, 'sod_14': 0.14, 'macdh': 0.13, 'wr_14': 0.12, 'obv_2': 0.11, 'roc_2': 0.08}",0.6996587030716723,1.0,0.6996587030716723,"(1304, 8)",Buy,WDAY
322,0.8430034129692833,86.53,2018-05-21,"{'volume': 0.17, 'macd': 0.15, 'sod_14': 0.14, 'rsi_14': 0.13, 'obv_2': 0.12, 'macdh': 0.11, 'roc_2': 0.09, 'wr_14': 0.09}",0.8430034129692833,-1.0,0.8430034129692833,"(1304, 8)",Sell,WDC
323,0.7679180887372014,11.51,2018-05-21,"{'macd': 0.17, 'macdh': 0.15, 'volume': 0.14, 'rsi_14': 0.13, 'sod_14': 0.12, 'obv_2': 0.1, 'wr_14': 0.1, 'roc_2': 0.09}",0.7679180887372014,-1.0,0.7679180887372014,"(1304, 8)",Sell,WETF
324,0.8345070422535211,0.155,2018-03-26,"{'macd': 0.17, 'rsi_14': 0.15, 'sod_14': 0.15, 'macdh': 0.13, 'volume': 0.11, 'obv_2': 0.1, 'roc_2': 0.09, 'wr_14': 0.09}",0.8345070422535211,2.0,0.8345070422535211,"(1265, 8)",Buy Strong,WG
325,0.8376068376068376,155.62,2018-05-21,"{'macd': 0.16, 'sod_14': 0.15, 'volume': 0.14, 'macdh': 0.13, 'rsi_14': 0.12, 'wr_14': 0.12, 'obv_2': 0.1, 'roc_2': 0.08}",0.8376068376068376,-1.0,0.8376068376068376,"(599, 8)",Sell,WLTW
326,0.825938566552901,84.51,2018-05-21,"{'macd': 0.15, 'volume': 0.15, 'sod_14': 0.14, 'rsi_14': 0.13, 'macdh': 0.12, 'obv_2': 0.11, 'wr_14': 0.11, 'roc_2': 0.09}",0.825938566552901,2.0,0.825938566552901,"(1304, 8)",Buy Strong,WMT
327,0.7372013651877133,90.87,2018-05-21,"{'volume': 0.17, 'macd': 0.14, 'macdh': 0.14, 'rsi_14': 0.12, 'sod_14': 0.12, 'obv_2': 0.11, 'wr_14': 0.11, 'roc_2': 0.1}",0.7372013651877133,2.0,0.7372013651877133,"(1304, 8)",Buy Strong,WPP
328,0.7781569965870307,97.56,2018-05-21,"{'macd': 0.16, 'sod_14': 0.15, 'rsi_14': 0.14, 'macdh': 0.13, 'volume': 0.13, 'wr_14': 0.11, 'obv_2': 0.1, 'roc_2': 0.09}",0.7781569965870307,1.0,0.7781569965870307,"(1304, 8)",Buy,WTFC
329,0.8361774744027304,194.18,2018-05-21,"{'macd': 0.19, 'volume': 0.15, 'rsi_14': 0.14, 'macdh': 0.13, 'sod_14': 0.12, 'obv_2': 0.11, 'wr_14': 0.09, 'roc_2': 0.07}",0.8361774744027304,1.0,0.8361774744027304,"(1304, 8)",Buy,WYNN
330,0.7337883959044369,72.27,2018-05-21,"{'macd': 0.14, 'macdh': 0.14, 'rsi_14': 0.13, 'volume': 0.13, 'sod_14': 0.13, 'wr_14': 0.12, 'obv_2': 0.11, 'roc_2': 0.1}",0.7337883959044369,2.0,0.7337883959044369,"(1304, 8)",Buy Strong,XLNX
331,0.764505119453925,82.28,2018-05-21,"{'macdh': 0.15, 'volume': 0.15, 'macd': 0.14, 'sod_14': 0.14, 'rsi_14': 0.12, 'obv_2': 0.11, 'wr_14': 0.11, 'roc_2': 0.08}",0.764505119453925,2.0,0.764505119453925,"(1304, 8)",Buy Strong,XOM
332,0.7781569965870307,47.2,2018-05-21,"{'volume': 0.17, 'macd': 0.15, 'obv_2': 0.13, 'rsi_14': 0.13, 'macdh': 0.12, 'sod_14': 0.11, 'wr_14': 0.1, 'roc_2': 0.09}",0.7781569965870307,1.0,0.7781569965870307,"(1304, 8)",Buy,XRAY
333,0.7815699658703071,51.82,2018-05-21,"{'macd': 0.17, 'volume': 0.16, 'macdh': 0.13, 'rsi_14': 0.12, 'sod_14': 0.12, 'obv_2': 0.11, 'wr_14': 0.1, 'roc_2': 0.08}",0.7815699658703071,2.0,0.7815699658703071,"(1304, 8)",Buy Strong,ZG
334,0.7303754266211604,57.96,2018-05-21,"{'macd': 0.16, 'volume': 0.15, 'macdh': 0.14, 'sod_14': 0.13, 'rsi_14': 0.12, 'wr_14': 0.11, 'obv_2': 0.1, 'roc_2': 0.09}",0.7303754266211604,1.0,0.7303754266211604,"(1304, 8)",Buy,ZION
