,accuracy,candle,close,date,features,interval,precision,prediction,recall,shape,signal,source,symbol
0,0.8,1d,0.007111,2018-06-01,"{'sod_14': 0.22, 'macdh': 0.16, 'volume': 0.13, 'macd': 0.12, 'wr_14': 0.1, 'obv_2': 0.09, 'roc_2': 0.09, 'rsi_14': 0.08}",5y,0.8,2.0,0.8,"(169, 8)",Buy Strong,binance,WAVESETH
1,0.8108108108108109,1d,0.007237,2018-06-01,"{'macd': 0.14, 'volume': 0.14, 'macdh': 0.13, 'rsi_14': 0.13, 'sod_14': 0.13, 'obv_2': 0.12, 'wr_14': 0.11, 'roc_2': 0.09}",5y,0.8108108108108109,-1.0,0.8108108108108109,"(323, 8)",Sell,binance,NEOBTC
2,0.8823529411764706,1d,0.003605,2018-06-01,"{'macdh': 0.19, 'rsi_14': 0.17, 'macd': 0.16, 'volume': 0.13, 'wr_14': 0.1, 'obv_2': 0.09, 'roc_2': 0.08, 'sod_14': 0.08}",5y,0.8823529411764706,2.0,0.8823529411764706,"(163, 8)",Buy Strong,binance,AIONETH
3,0.765625,1d,0.0010032,2018-06-01,"{'sod_14': 0.18, 'volume': 0.16, 'macd': 0.13, 'macdh': 0.13, 'obv_2': 0.11, 'wr_14': 0.11, 'roc_2': 0.09, 'rsi_14': 0.09}",5y,0.765625,2.0,0.765625,"(285, 8)",Buy Strong,binance,OAXETH
4,0.7027027027027027,1d,0.00050329,2018-06-01,"{'obv_2': 0.14, 'rsi_14': 0.14, 'sod_14': 0.14, 'macd': 0.13, 'volume': 0.13, 'macdh': 0.12, 'roc_2': 0.1, 'wr_14': 0.1}",5y,0.7027027027027027,1.0,0.7027027027027027,"(176, 8)",Buy,binance,XLMETH
5,0.7058823529411765,1d,0.00014034,2018-06-01,"{'macdh': 0.21, 'macd': 0.18, 'sod_14': 0.13, 'volume': 0.12, 'rsi_14': 0.11, 'wr_14': 0.1, 'obv_2': 0.09, 'roc_2': 0.06}",5y,0.7058823529411765,-1.0,0.7058823529411765,"(163, 8)",Sell,binance,ELFBTC
6,0.7446808510638298,1d,1.904e-05,2018-06-01,"{'volume': 0.17, 'sod_14': 0.16, 'macdh': 0.14, 'rsi_14': 0.13, 'macd': 0.11, 'obv_2': 0.1, 'roc_2': 0.1, 'wr_14': 0.1}",5y,0.7446808510638298,-1.0,0.7446808510638298,"(218, 8)",Sell,binance,REQBTC
7,0.7777777777777778,1d,0.20852,2018-06-01,"{'volume': 0.19, 'sod_14': 0.19, 'wr_14': 0.15, 'macd': 0.13, 'macdh': 0.1, 'rsi_14': 0.1, 'obv_2': 0.09, 'roc_2': 0.06}",5y,0.7777777777777778,-2.0,0.7777777777777778,"(171, 8)",Sell Strong,binance,LTCETH
8,0.75,1d,6.17e-06,2018-06-01,"{'sod_14': 0.21, 'rsi_14': 0.15, 'obv_2': 0.13, 'roc_2': 0.13, 'macd': 0.1, 'volume': 0.1, 'wr_14': 0.1, 'macdh': 0.08}",5y,0.75,2.0,0.75,"(172, 8)",Buy Strong,binance,LENDBTC
9,0.7954545454545454,1d,0.020956,2018-06-01,"{'sod_14': 0.18, 'macd': 0.15, 'rsi_14': 0.13, 'volume': 0.13, 'wr_14': 0.13, 'macdh': 0.1, 'roc_2': 0.1, 'obv_2': 0.09}",5y,0.7954545454545454,2.0,0.7954545454545454,"(204, 8)",Buy Strong,binance,XMRBTC
10,0.9444444444444444,1d,8.28e-06,2018-06-01,"{'macd': 0.19, 'rsi_14': 0.17, 'volume': 0.16, 'macdh': 0.12, 'obv_2': 0.09, 'roc_2': 0.09, 'wr_14': 0.09, 'sod_14': 0.09}",5y,0.9444444444444444,1.0,0.9444444444444444,"(173, 8)",Buy,binance,CNDBTC
11,0.7962962962962963,1d,6.758e-05,2018-06-01,"{'volume': 0.17, 'macd': 0.15, 'macdh': 0.14, 'wr_14': 0.13, 'sod_14': 0.13, 'obv_2': 0.11, 'rsi_14': 0.09, 'roc_2': 0.07}",5y,0.7962962962962963,2.0,0.7962962962962963,"(243, 8)",Buy Strong,binance,XVGETH
12,0.8888888888888888,1d,0.00205,2018-06-01,"{'macd': 0.18, 'macdh': 0.15, 'obv_2': 0.15, 'volume': 0.15, 'sod_14': 0.13, 'rsi_14': 0.09, 'wr_14': 0.08, 'roc_2': 0.07}",5y,0.8888888888888888,2.0,0.8888888888888888,"(138, 8)",Buy Strong,binance,INSETH
13,0.8571428571428571,1d,6.693e-05,2018-06-01,"{'macdh': 0.18, 'macd': 0.17, 'rsi_14': 0.15, 'volume': 0.11, 'sod_14': 0.11, 'wr_14': 0.1, 'obv_2': 0.09, 'roc_2': 0.09}",5y,0.8571428571428571,-1.0,0.8571428571428571,"(226, 8)",Sell,binance,LRCBTC
14,0.7647058823529411,1d,0.14782,2018-06-01,"{'macd': 0.19, 'rsi_14': 0.14, 'volume': 0.13, 'macdh': 0.12, 'wr_14': 0.12, 'obv_2': 0.1, 'sod_14': 0.1, 'roc_2': 0.09}",5y,0.7647058823529411,2.0,0.7647058823529411,"(163, 8)",Buy Strong,binance,AIONBNB
15,0.825,1d,1.353e-05,2018-06-01,"{'volume': 0.22, 'obv_2': 0.17, 'wr_14': 0.13, 'sod_14': 0.12, 'macd': 0.11, 'rsi_14': 0.11, 'roc_2': 0.1, 'macdh': 0.03}",5y,0.825,1.0,0.825,"(190, 8)",Buy,binance,MANABTC
16,0.7142857142857143,1d,0.00402,2018-06-01,"{'macd': 0.18, 'obv_2': 0.14, 'rsi_14': 0.14, 'sod_14': 0.14, 'macdh': 0.12, 'wr_14': 0.11, 'roc_2': 0.09, 'volume': 0.09}",5y,0.7142857142857143,2.0,0.7142857142857143,"(253, 8)",Buy Strong,binance,BQXETH
17,0.9512195121951219,1d,4.762e-05,2018-06-01,"{'volume': 0.18, 'macdh': 0.16, 'rsi_14': 0.14, 'macd': 0.13, 'obv_2': 0.12, 'wr_14': 0.1, 'sod_14': 0.1, 'roc_2': 0.07}",5y,0.9512195121951219,1.0,0.9512195121951219,"(194, 8)",Buy,binance,POEETH
18,0.7777777777777778,1d,0.0003364,2018-06-01,"{'macd': 0.17, 'macdh': 0.17, 'rsi_14': 0.13, 'wr_14': 0.13, 'sod_14': 0.12, 'volume': 0.11, 'obv_2': 0.08, 'roc_2': 0.08}",5y,0.7777777777777778,2.0,0.7777777777777778,"(207, 8)",Buy Strong,binance,KMDBTC
19,0.7804878048780488,1d,0.00028846,2018-06-01,"{'volume': 0.16, 'macd': 0.15, 'macdh': 0.15, 'rsi_14': 0.14, 'obv_2': 0.11, 'sod_14': 0.11, 'wr_14': 0.09, 'roc_2': 0.08}",5y,0.7804878048780488,1.0,0.7804878048780488,"(193, 8)",Buy,binance,QSPETH
20,0.8095238095238095,1d,0.005928,2018-06-01,"{'macd': 0.19, 'macdh': 0.13, 'volume': 0.13, 'obv_2': 0.12, 'rsi_14': 0.12, 'wr_14': 0.12, 'sod_14': 0.11, 'roc_2': 0.08}",5y,0.8095238095238095,2.0,0.8095238095238095,"(197, 8)",Buy Strong,binance,GXSETH
21,0.8409090909090909,1d,1.73251,2018-06-01,"{'volume': 0.2, 'sod_14': 0.18, 'obv_2': 0.14, 'macd': 0.12, 'macdh': 0.09, 'rsi_14': 0.09, 'roc_2': 0.08, 'wr_14': 0.08}",5y,0.8409090909090909,2.0,0.8409090909090909,"(203, 8)",Buy Strong,binance,BCCETH
22,0.7627118644067796,1d,0.018491,2018-06-01,"{'sod_14': 0.18, 'volume': 0.15, 'macd': 0.13, 'macdh': 0.12, 'rsi_14': 0.12, 'wr_14': 0.11, 'obv_2': 0.1, 'roc_2': 0.09}",5y,0.7627118644067796,-1.0,0.7627118644067796,"(263, 8)",Sell,binance,OMGETH
23,0.8780487804878049,1d,0.613,2018-06-01,"{'macd': 0.26, 'sod_14': 0.17, 'obv_2': 0.15, 'rsi_14': 0.11, 'volume': 0.11, 'macdh': 0.07, 'roc_2': 0.07, 'wr_14': 0.06}",5y,0.8780487804878049,-1.0,0.8780487804878049,"(192, 8)",Sell,binance,LSKBNB
24,0.6363636363636364,1d,0.55368,2018-06-01,"{'rsi_14': 0.19, 'macd': 0.16, 'sod_14': 0.15, 'macdh': 0.12, 'obv_2': 0.11, 'volume': 0.11, 'wr_14': 0.09, 'roc_2': 0.07}",5y,0.6363636363636364,2.0,0.6363636363636364,"(162, 8)",Buy Strong,binance,NEBLBNB
25,0.6585365853658537,1d,0.014976,2018-06-01,"{'macdh': 0.18, 'volume': 0.16, 'obv_2': 0.15, 'wr_14': 0.13, 'sod_14': 0.13, 'rsi_14': 0.1, 'macd': 0.08, 'roc_2': 0.07}",5y,0.6585365853658537,2.0,0.6585365853658537,"(192, 8)",Buy Strong,binance,LSKETH
26,0.7692307692307693,1d,7435.0,2018-06-01,"{'volume': 0.18, 'macdh': 0.17, 'macd': 0.13, 'rsi_14': 0.12, 'obv_2': 0.11, 'wr_14': 0.11, 'sod_14': 0.09, 'roc_2': 0.08}",5y,0.7692307692307693,1.0,0.7692307692307693,"(289, 8)",Buy,binance,BTCUSDT
27,0.782608695652174,1d,0.00056685,2018-06-01,"{'volume': 0.2, 'sod_14': 0.14, 'macdh': 0.13, 'rsi_14': 0.13, 'macd': 0.12, 'wr_14': 0.1, 'obv_2': 0.09, 'roc_2': 0.09}",5y,0.782608695652174,2.0,0.782608695652174,"(213, 8)",Buy Strong,binance,POWRETH
28,0.9230769230769231,1d,0.005135,2018-06-01,"{'macdh': 0.2, 'volume': 0.17, 'macd': 0.14, 'sod_14': 0.13, 'rsi_14': 0.12, 'wr_14': 0.12, 'obv_2': 0.06, 'roc_2': 0.06}",5y,0.9230769230769231,-1.0,0.9230769230769231,"(236, 8)",Sell,binance,MTLETH
29,0.6739130434782609,1d,0.001448,2018-06-01,"{'macd': 0.17, 'volume': 0.16, 'macdh': 0.14, 'rsi_14': 0.13, 'obv_2': 0.11, 'wr_14': 0.1, 'sod_14': 0.1, 'roc_2': 0.08}",5y,0.6739130434782609,2.0,0.6739130434782609,"(211, 8)",Buy Strong,binance,STORJETH
30,0.76,1d,7.752e-05,2018-06-01,"{'sod_14': 0.2, 'wr_14': 0.16, 'rsi_14': 0.15, 'macd': 0.13, 'volume': 0.13, 'macdh': 0.09, 'obv_2': 0.09, 'roc_2': 0.05}",5y,0.76,2.0,0.76,"(129, 8)",Buy Strong,binance,IOSTETH
31,0.7804878048780488,1d,0.01489,2018-06-01,"{'rsi_14': 0.16, 'macdh': 0.13, 'volume': 0.13, 'macd': 0.12, 'roc_2': 0.12, 'sod_14': 0.12, 'obv_2': 0.11, 'wr_14': 0.11}",5y,0.7804878048780488,2.0,0.7804878048780488,"(193, 8)",Buy Strong,binance,BTSBNB
32,0.7692307692307693,1d,0.021391,2018-06-01,"{'macd': 0.18, 'rsi_14': 0.15, 'macdh': 0.14, 'volume': 0.14, 'sod_14': 0.11, 'obv_2': 0.1, 'wr_14': 0.1, 'roc_2': 0.08}",5y,0.7692307692307693,2.0,0.7692307692307693,"(183, 8)",Buy Strong,binance,PPTETH
33,0.8723404255319149,1d,0.00024966,2018-06-01,"{'macd': 0.16, 'volume': 0.16, 'macdh': 0.15, 'rsi_14': 0.13, 'wr_14': 0.13, 'sod_14': 0.12, 'obv_2': 0.1, 'roc_2': 0.06}",5y,0.8723404255319149,1.0,0.8723404255319149,"(218, 8)",Buy,binance,REQETH
34,0.8695652173913043,1d,0.002884,2018-06-01,"{'macd': 0.19, 'rsi_14': 0.18, 'volume': 0.13, 'macdh': 0.12, 'sod_14': 0.12, 'obv_2': 0.1, 'wr_14': 0.09, 'roc_2': 0.08}",5y,0.8695652173913043,1.0,0.8695652173913043,"(211, 8)",Buy,binance,MODETH
35,0.8888888888888888,1d,0.00045051,2018-06-01,"{'macd': 0.2, 'macdh': 0.18, 'volume': 0.15, 'sod_14': 0.12, 'obv_2': 0.1, 'rsi_14': 0.1, 'roc_2': 0.07, 'wr_14': 0.07}",5y,0.8888888888888888,2.0,0.8888888888888888,"(207, 8)",Buy Strong,binance,VENBTC
36,0.7068965517241379,1d,0.000584,2018-06-01,"{'volume': 0.2, 'macd': 0.17, 'macdh': 0.16, 'sod_14': 0.11, 'obv_2': 0.1, 'rsi_14': 0.1, 'wr_14': 0.09, 'roc_2': 0.07}",5y,0.7068965517241379,-2.0,0.7068965517241379,"(261, 8)",Sell Strong,binance,STRATBTC
37,0.8292682926829268,1d,2.77e-05,2018-06-01,"{'sod_14': 0.17, 'rsi_14': 0.16, 'volume': 0.14, 'macd': 0.13, 'macdh': 0.12, 'wr_14': 0.12, 'obv_2': 0.09, 'roc_2': 0.08}",5y,0.8292682926829268,-2.0,0.8292682926829268,"(193, 8)",Sell Strong,binance,BTSBTC
38,0.7647058823529411,1d,1.332e-05,2018-06-01,"{'macdh': 0.19, 'volume': 0.18, 'macd': 0.13, 'rsi_14': 0.13, 'wr_14': 0.11, 'sod_14': 0.11, 'obv_2': 0.08, 'roc_2': 0.07}",5y,0.7647058823529411,1.0,0.7647058823529411,"(233, 8)",Buy,binance,SNTBTC
39,0.873015873015873,1d,0.0014868,2018-06-01,"{'macdh': 0.19, 'macd': 0.18, 'sod_14': 0.13, 'rsi_14': 0.12, 'volume': 0.12, 'wr_14': 0.1, 'roc_2': 0.09, 'obv_2': 0.07}",5y,0.873015873015873,2.0,0.873015873015873,"(279, 8)",Buy Strong,binance,WTCBTC
40,0.6190476190476191,1d,0.0023201,2018-06-01,"{'macd': 0.16, 'rsi_14': 0.15, 'volume': 0.15, 'macdh': 0.13, 'sod_14': 0.13, 'obv_2': 0.1, 'roc_2': 0.1, 'wr_14': 0.08}",5y,0.6190476190476191,-2.0,0.6190476190476191,"(198, 8)",Sell Strong,binance,GVTBTC
41,0.7115384615384616,1d,0.001048,2018-06-01,"{'volume': 0.17, 'sod_14': 0.14, 'macd': 0.13, 'obv_2': 0.13, 'macdh': 0.12, 'rsi_14': 0.11, 'roc_2': 0.1, 'wr_14': 0.09}",5y,0.7115384615384616,2.0,0.7115384615384616,"(238, 8)",Buy Strong,binance,HSRBTC
42,0.68,1d,0.0005109,2018-06-01,"{'obv_2': 0.19, 'macd': 0.17, 'rsi_14': 0.14, 'macdh': 0.13, 'volume': 0.11, 'roc_2': 0.09, 'wr_14': 0.09, 'sod_14': 0.07}",5y,0.68,2.0,0.68,"(130, 8)",Buy Strong,binance,PIVXBTC
43,0.75,1d,8.056e-05,2018-06-01,"{'macdh': 0.2, 'rsi_14': 0.15, 'macd': 0.14, 'obv_2': 0.12, 'volume': 0.1, 'wr_14': 0.1, 'sod_14': 0.1, 'roc_2': 0.09}",5y,0.75,2.0,0.75,"(172, 8)",Buy Strong,binance,LENDETH
44,0.7608695652173914,1d,1.371e-05,2018-06-01,"{'obv_2': 0.16, 'volume': 0.16, 'roc_2': 0.15, 'rsi_14': 0.14, 'sod_14': 0.11, 'macd': 0.1, 'wr_14': 0.1, 'macdh': 0.08}",5y,0.7608695652173914,-1.0,0.7608695652173914,"(211, 8)",Sell,binance,ENJBTC
45,0.8484848484848485,1d,0.0002019,2018-06-01,"{'rsi_14': 0.16, 'macd': 0.15, 'sod_14': 0.14, 'obv_2': 0.13, 'volume': 0.13, 'macdh': 0.12, 'roc_2': 0.09, 'wr_14': 0.08}",5y,0.8484848484848485,-1.0,0.8484848484848485,"(159, 8)",Sell,binance,EDOBTC
46,0.734375,1d,0.00010778,2018-06-01,"{'macdh': 0.19, 'macd': 0.16, 'volume': 0.13, 'sod_14': 0.12, 'obv_2': 0.11, 'rsi_14': 0.11, 'roc_2': 0.1, 'wr_14': 0.08}",5y,0.734375,2.0,0.734375,"(284, 8)",Buy Strong,binance,DNTETH
47,0.9,1d,7.61e-06,2018-06-01,"{'volume': 0.25, 'sod_14': 0.18, 'obv_2': 0.14, 'macd': 0.11, 'rsi_14': 0.11, 'roc_2': 0.09, 'wr_14': 0.09, 'macdh': 0.03}",5y,0.9,2.0,0.9,"(110, 8)",Buy Strong,binance,RPXBTC
48,0.72,1d,0.006665,2018-06-01,"{'macd': 0.21, 'rsi_14': 0.15, 'macdh': 0.13, 'obv_2': 0.12, 'wr_14': 0.11, 'volume': 0.1, 'roc_2': 0.09, 'sod_14': 0.08}",5y,0.72,2.0,0.72,"(130, 8)",Buy Strong,binance,PIVXETH
49,0.7317073170731707,1d,2.208e-05,2018-06-01,"{'macdh': 0.19, 'rsi_14': 0.16, 'macd': 0.15, 'volume': 0.13, 'sod_14': 0.13, 'obv_2': 0.1, 'wr_14': 0.09, 'roc_2': 0.05}",5y,0.7317073170731707,-2.0,0.7317073170731707,"(193, 8)",Sell Strong,binance,QSPBTC
50,0.5909090909090909,1d,0.002785,2018-06-01,"{'macd': 0.23, 'sod_14': 0.14, 'rsi_14': 0.13, 'macdh': 0.12, 'volume': 0.11, 'obv_2': 0.1, 'roc_2': 0.09, 'wr_14': 0.09}",5y,0.5909090909090909,1.0,0.5909090909090909,"(117, 8)",Buy,binance,VIAETH
51,0.72,1d,8.22e-06,2018-06-01,"{'rsi_14': 0.22, 'volume': 0.13, 'macd': 0.12, 'sod_14': 0.12, 'obv_2': 0.11, 'wr_14': 0.11, 'macdh': 0.09, 'roc_2': 0.09}",5y,0.72,2.0,0.72,"(229, 8)",Buy Strong,binance,DNTBTC
52,0.7647058823529411,1d,1.01e-05,2018-06-01,"{'volume': 0.17, 'rsi_14': 0.14, 'sod_14': 0.14, 'macd': 0.12, 'obv_2': 0.12, 'macdh': 0.1, 'roc_2': 0.1, 'wr_14': 0.1}",5y,0.7647058823529411,2.0,0.7647058823529411,"(232, 8)",Buy Strong,binance,MTHBTC
53,0.78125,1d,0.011814,2018-06-01,"{'macd': 0.16, 'volume': 0.15, 'macdh': 0.14, 'rsi_14': 0.13, 'obv_2': 0.12, 'wr_14': 0.12, 'sod_14': 0.12, 'roc_2': 0.07}",5y,0.78125,2.0,0.78125,"(283, 8)",Buy Strong,binance,MCOETH
54,0.7454545454545455,1d,4.64e-06,2018-06-01,"{'rsi_14': 0.16, 'volume': 0.16, 'sod_14': 0.16, 'obv_2': 0.14, 'wr_14': 0.14, 'roc_2': 0.11, 'macd': 0.09, 'macdh': 0.05}",5y,0.7454545454545455,-1.0,0.7454545454545455,"(247, 8)",Sell,binance,FUNBTC
55,0.6727272727272727,1d,0.094677,2018-06-01,"{'macd': 0.16, 'volume': 0.15, 'sod_14': 0.14, 'macdh': 0.13, 'roc_2': 0.11, 'wr_14': 0.11, 'obv_2': 0.1, 'rsi_14': 0.1}",5y,0.6727272727272727,2.0,0.6727272727272727,"(247, 8)",Buy Strong,binance,NEOETH
56,0.8431372549019608,1d,0.0016312,2018-06-01,"{'macd': 0.26, 'macdh': 0.17, 'rsi_14': 0.15, 'obv_2': 0.09, 'volume': 0.09, 'sod_14': 0.09, 'roc_2': 0.08, 'wr_14': 0.07}",5y,0.8431372549019608,2.0,0.8431372549019608,"(234, 8)",Buy Strong,binance,EOSBTC
57,0.8787878787878788,1d,0.0009892,2018-06-01,"{'macdh': 0.25, 'volume': 0.18, 'sod_14': 0.14, 'macd': 0.13, 'obv_2': 0.1, 'roc_2': 0.07, 'rsi_14': 0.07, 'wr_14': 0.07}",5y,0.8787878787878788,-1.0,0.8787878787878788,"(160, 8)",Sell,binance,BRDETH
58,0.7446808510638298,1d,0.00022611,2018-06-01,"{'macd': 0.19, 'volume': 0.14, 'macdh': 0.12, 'obv_2': 0.11, 'rsi_14': 0.11, 'wr_14': 0.11, 'sod_14': 0.11, 'roc_2': 0.1}",5y,0.7446808510638298,-1.0,0.7446808510638298,"(215, 8)",Sell,binance,VIBETH
59,0.7777777777777778,1d,0.0002681,2018-06-01,"{'macd': 0.2, 'macdh': 0.2, 'rsi_14': 0.12, 'wr_14': 0.12, 'volume': 0.11, 'obv_2': 0.1, 'roc_2': 0.08, 'sod_14': 0.08}",5y,0.7777777777777778,-2.0,0.7777777777777778,"(245, 8)",Sell Strong,binance,SALTBTC
60,0.8055555555555556,1d,0.00010823,2018-06-01,"{'macd': 0.18, 'macdh': 0.13, 'rsi_14': 0.12, 'volume': 0.12, 'obv_2': 0.11, 'roc_2': 0.11, 'wr_14': 0.11, 'sod_14': 0.11}",5y,0.8055555555555556,2.0,0.8055555555555556,"(173, 8)",Buy Strong,binance,CNDETH
61,0.7857142857142857,1d,0.11437,2018-06-01,"{'sod_14': 0.24, 'macdh': 0.15, 'wr_14': 0.15, 'macd': 0.13, 'volume': 0.11, 'rsi_14': 0.09, 'obv_2': 0.08, 'roc_2': 0.06}",5y,0.7857142857142857,2.0,0.7857142857142857,"(141, 8)",Buy Strong,binance,RLCBNB
62,0.8857142857142857,1d,0.2923,2018-06-01,"{'macd': 0.17, 'rsi_14': 0.15, 'obv_2': 0.13, 'volume': 0.13, 'macdh': 0.11, 'wr_14': 0.11, 'sod_14': 0.11, 'roc_2': 0.08}",5y,0.8857142857142857,-1.0,0.8857142857142857,"(169, 8)",Sell,binance,WAVESBNB
63,0.6470588235294118,1d,0.003406,2018-06-01,"{'sod_14': 0.17, 'volume': 0.16, 'macd': 0.15, 'rsi_14': 0.13, 'macdh': 0.12, 'obv_2': 0.1, 'wr_14': 0.09, 'roc_2': 0.08}",5y,0.6470588235294118,-1.0,0.6470588235294118,"(232, 8)",Sell,binance,ENGETH
64,0.8048780487804879,1d,3.875,2018-06-01,"{'macd': 0.23, 'volume': 0.18, 'sod_14': 0.13, 'macdh': 0.12, 'obv_2': 0.1, 'rsi_14': 0.1, 'wr_14': 0.09, 'roc_2': 0.06}",5y,0.8048780487804879,-2.0,0.8048780487804879,"(194, 8)",Sell Strong,binance,NEOBNB
65,0.717391304347826,1d,0.013725,2018-06-01,"{'volume': 0.24, 'obv_2': 0.15, 'rsi_14': 0.14, 'sod_14': 0.12, 'macd': 0.11, 'macdh': 0.1, 'wr_14': 0.08, 'roc_2': 0.07}",5y,0.717391304347826,2.0,0.717391304347826,"(214, 8)",Buy Strong,binance,HSRETH
66,0.6470588235294118,1d,2.086e-05,2018-06-01,"{'macd': 0.18, 'rsi_14': 0.15, 'macdh': 0.14, 'sod_14': 0.13, 'roc_2': 0.11, 'wr_14': 0.11, 'volume': 0.1, 'obv_2': 0.08}",5y,0.6470588235294118,2.0,0.6470588235294118,"(165, 8)",Buy Strong,binance,OSTBTC
67,0.8780487804878049,1d,0.00036307,2018-06-01,"{'macd': 0.19, 'sod_14': 0.19, 'macdh': 0.15, 'volume': 0.14, 'rsi_14': 0.1, 'obv_2': 0.09, 'wr_14': 0.08, 'roc_2': 0.06}",5y,0.8780487804878049,2.0,0.8780487804878049,"(193, 8)",Buy Strong,binance,BTSETH
68,0.8333333333333334,1d,0.0006304,2018-06-01,"{'macd': 0.2, 'volume': 0.18, 'macdh': 0.16, 'sod_14': 0.12, 'rsi_14': 0.11, 'obv_2': 0.08, 'roc_2': 0.08, 'wr_14': 0.08}",5y,0.8333333333333334,2.0,0.8333333333333334,"(148, 8)",Buy Strong,binance,APPCETH
69,0.7380952380952381,1d,5.63e-06,2018-06-01,"{'volume': 0.18, 'rsi_14': 0.16, 'sod_14': 0.16, 'obv_2': 0.13, 'wr_14': 0.11, 'macd': 0.1, 'roc_2': 0.09, 'macdh': 0.07}",5y,0.7380952380952381,-2.0,0.7380952380952381,"(198, 8)",Sell Strong,binance,CDTBTC
70,0.8695652173913043,1d,0.2899,2018-06-01,"{'rsi_14': 0.19, 'wr_14': 0.16, 'macd': 0.15, 'volume': 0.14, 'sod_14': 0.14, 'obv_2': 0.09, 'roc_2': 0.08, 'macdh': 0.06}",5y,0.8695652173913043,2.0,0.8695652173913043,"(120, 8)",Buy Strong,binance,NANOBNB
71,0.76,1d,5.91e-06,2018-06-01,"{'sod_14': 0.25, 'wr_14': 0.18, 'rsi_14': 0.17, 'obv_2': 0.15, 'volume': 0.11, 'roc_2': 0.09, 'macd': 0.04, 'macdh': 0.01}",5y,0.76,2.0,0.76,"(129, 8)",Buy Strong,binance,IOSTBTC
72,0.7027027027027027,1d,0.015946,2018-06-01,"{'volume': 0.17, 'macd': 0.14, 'rsi_14': 0.14, 'obv_2': 0.13, 'sod_14': 0.12, 'macdh': 0.11, 'wr_14': 0.1, 'roc_2': 0.09}",5y,0.7027027027027027,2.0,0.7027027027027027,"(323, 8)",Buy Strong,binance,LTCBTC
73,0.7317073170731707,1d,53.77,2018-06-01,"{'volume': 0.21, 'macd': 0.19, 'rsi_14': 0.13, 'sod_14': 0.13, 'obv_2': 0.1, 'macdh': 0.09, 'wr_14': 0.09, 'roc_2': 0.07}",5y,0.7317073170731707,2.0,0.7317073170731707,"(194, 8)",Buy Strong,binance,NEOUSDT
74,0.84375,1d,0.0006977,2018-06-01,"{'macdh': 0.18, 'sod_14': 0.18, 'macd': 0.15, 'wr_14': 0.11, 'obv_2': 0.1, 'rsi_14': 0.1, 'volume': 0.1, 'roc_2': 0.08}",5y,0.84375,-2.0,0.84375,"(158, 8)",Sell Strong,binance,WINGSETH
75,0.8636363636363636,1d,0.0004187,2018-06-01,"{'volume': 0.17, 'sod_14': 0.14, 'rsi_14': 0.13, 'wr_14': 0.13, 'macd': 0.11, 'obv_2': 0.11, 'roc_2': 0.11, 'macdh': 0.09}",5y,0.8636363636363636,2.0,0.8636363636363636,"(115, 8)",Buy Strong,binance,AEBTC
76,0.8367346938775511,1d,0.0008763,2018-06-01,"{'macd': 0.2, 'rsi_14': 0.16, 'macdh': 0.14, 'volume': 0.12, 'obv_2': 0.11, 'wr_14': 0.1, 'sod_14': 0.09, 'roc_2': 0.08}",5y,0.8367346938775511,2.0,0.8367346938775511,"(225, 8)",Buy Strong,binance,LRCETH
77,0.7971014492753623,1d,0.132211,2018-06-01,"{'volume': 0.17, 'rsi_14': 0.14, 'macd': 0.12, 'wr_14': 0.12, 'sod_14': 0.12, 'macdh': 0.11, 'roc_2': 0.11, 'obv_2': 0.1}",5y,0.7971014492753623,-2.0,0.7971014492753623,"(304, 8)",Sell Strong,binance,BCCBTC
78,0.7592592592592593,1d,0.00024908,2018-06-01,"{'sod_14': 0.18, 'macdh': 0.17, 'macd': 0.13, 'rsi_14': 0.12, 'volume': 0.11, 'roc_2': 0.1, 'wr_14': 0.1, 'obv_2': 0.09}",5y,0.7592592592592593,-2.0,0.7592592592592593,"(245, 8)",Sell Strong,binance,IOTABTC
79,0.5909090909090909,1d,0.02938,2018-06-01,"{'macd': 0.2, 'rsi_14': 0.16, 'sod_14': 0.15, 'macdh': 0.11, 'obv_2': 0.1, 'volume': 0.1, 'roc_2': 0.09, 'wr_14': 0.08}",5y,0.5909090909090909,-1.0,0.5909090909090909,"(116, 8)",Sell,binance,BLZBNB
80,0.8863636363636364,1d,70.84,2018-06-01,"{'rsi_14': 0.2, 'macdh': 0.15, 'macd': 0.13, 'volume': 0.12, 'sod_14': 0.12, 'obv_2': 0.11, 'wr_14': 0.1, 'roc_2': 0.08}",5y,0.8863636363636364,-1.0,0.8863636363636364,"(203, 8)",Sell,binance,BCCBNB
81,0.8048780487804879,1d,0.01184,2018-06-01,"{'macd': 0.18, 'rsi_14': 0.14, 'macdh': 0.13, 'obv_2': 0.13, 'roc_2': 0.13, 'wr_14': 0.11, 'volume': 0.09, 'sod_14': 0.09}",5y,0.8048780487804879,-2.0,0.8048780487804879,"(193, 8)",Sell Strong,binance,QSPBNB
82,0.8181818181818182,1d,1.251e-05,2018-06-01,"{'rsi_14': 0.17, 'macd': 0.14, 'macdh': 0.14, 'volume': 0.14, 'sod_14': 0.12, 'wr_14': 0.11, 'obv_2': 0.1, 'roc_2': 0.09}",5y,0.8181818181818182,2.0,0.8181818181818182,"(206, 8)",Buy Strong,binance,RCNBTC
83,0.9629629629629629,1d,0.0001563,2018-06-01,"{'sod_14': 0.21, 'macdh': 0.18, 'macd': 0.17, 'wr_14': 0.11, 'rsi_14': 0.1, 'roc_2': 0.09, 'obv_2': 0.08, 'volume': 0.06}",5y,0.9629629629629629,2.0,0.9629629629629629,"(138, 8)",Buy Strong,binance,INSBTC
84,0.8108108108108109,1d,0.02056,2018-06-01,"{'macd': 0.2, 'roc_2': 0.14, 'rsi_14': 0.14, 'macdh': 0.13, 'volume': 0.12, 'wr_14': 0.11, 'obv_2': 0.09, 'sod_14': 0.08}",5y,0.8108108108108109,-2.0,0.8108108108108109,"(176, 8)",Sell Strong,binance,XLMBNB
85,0.8529411764705882,1d,0.01112,2018-06-01,"{'rsi_14': 0.18, 'macd': 0.16, 'sod_14': 0.14, 'wr_14': 0.12, 'macdh': 0.11, 'obv_2': 0.1, 'roc_2': 0.1, 'volume': 0.1}",5y,0.8529411764705882,-1.0,0.8529411764705882,"(165, 8)",Sell,binance,OSTBNB
86,0.9090909090909091,1d,0.04041,2018-06-01,"{'sod_14': 0.22, 'volume': 0.19, 'wr_14': 0.13, 'macd': 0.1, 'macdh': 0.1, 'roc_2': 0.09, 'rsi_14': 0.09, 'obv_2': 0.08}",5y,0.9090909090909091,-2.0,0.9090909090909091,"(160, 8)",Sell Strong,binance,BRDBNB
87,0.9375,1d,0.0001043,2018-06-01,"{'macd': 0.16, 'volume': 0.16, 'rsi_14': 0.14, 'roc_2': 0.12, 'obv_2': 0.11, 'wr_14': 0.11, 'macdh': 0.1, 'sod_14': 0.1}",5y,0.9375,-1.0,0.9375,"(155, 8)",Sell,binance,TRIGBTC
88,0.8636363636363636,1d,0.22487,2018-06-01,"{'macd': 0.19, 'sod_14': 0.16, 'rsi_14': 0.15, 'roc_2': 0.13, 'volume': 0.11, 'macdh': 0.1, 'obv_2': 0.08, 'wr_14': 0.07}",5y,0.8636363636363636,-1.0,0.8636363636363636,"(115, 8)",Sell,binance,AEBNB
89,0.6739130434782609,1d,0.00017967,2018-06-01,"{'volume': 0.16, 'macd': 0.15, 'sod_14': 0.14, 'roc_2': 0.13, 'rsi_14': 0.12, 'macdh': 0.11, 'obv_2': 0.1, 'wr_14': 0.09}",5y,0.6739130434782609,2.0,0.6739130434782609,"(211, 8)",Buy Strong,binance,ENJETH
90,0.7857142857142857,1d,0.02398,2018-06-01,"{'macd': 0.17, 'rsi_14': 0.16, 'volume': 0.13, 'macdh': 0.12, 'roc_2': 0.12, 'wr_14': 0.11, 'sod_14': 0.1, 'obv_2': 0.09}",5y,0.7857142857142857,2.0,0.7857142857142857,"(310, 8)",Buy Strong,binance,QTUMETH
91,0.7727272727272727,1d,5.564e-05,2018-06-01,"{'macd': 0.2, 'macdh': 0.17, 'volume': 0.14, 'sod_14': 0.13, 'rsi_14': 0.12, 'obv_2': 0.09, 'wr_14': 0.09, 'roc_2': 0.06}",5y,0.7727272727272727,-1.0,0.7727272727272727,"(204, 8)",Sell,binance,AMBBTC
92,0.9111111111111111,1d,13.8649,2018-06-01,"{'volume': 0.2, 'macd': 0.19, 'macdh': 0.14, 'sod_14': 0.11, 'obv_2': 0.1, 'rsi_14': 0.1, 'wr_14': 0.09, 'roc_2': 0.07}",5y,0.9111111111111111,1.0,0.9111111111111111,"(208, 8)",Buy,binance,BNBUSDT
93,0.8461538461538461,1d,2.925e-05,2018-06-01,"{'macdh': 0.19, 'sod_14': 0.15, 'macd': 0.14, 'volume': 0.14, 'wr_14': 0.13, 'rsi_14': 0.11, 'roc_2': 0.09, 'obv_2': 0.05}",5y,0.8461538461538461,2.0,0.8461538461538461,"(184, 8)",Buy Strong,binance,ADABTC
94,0.723404255319149,1d,1.322e-05,2018-06-01,"{'volume': 0.15, 'obv_2': 0.14, 'wr_14': 0.14, 'sod_14': 0.14, 'rsi_14': 0.12, 'macd': 0.11, 'macdh': 0.1, 'roc_2': 0.1}",5y,0.723404255319149,-2.0,0.723404255319149,"(216, 8)",Sell Strong,binance,YOYOBTC
95,0.8055555555555556,1d,0.00133367,2018-06-01,"{'macd': 0.21, 'rsi_14': 0.18, 'macdh': 0.14, 'obv_2': 0.14, 'wr_14': 0.09, 'sod_14': 0.09, 'volume': 0.08, 'roc_2': 0.07}",5y,0.8055555555555556,2.0,0.8055555555555556,"(172, 8)",Buy Strong,binance,WABIETH
96,0.8793103448275862,1d,0.00016769,2018-06-01,"{'volume': 0.19, 'obv_2': 0.15, 'macd': 0.14, 'macdh': 0.13, 'rsi_14': 0.13, 'wr_14': 0.1, 'roc_2': 0.08, 'sod_14': 0.08}",5y,0.8793103448275862,2.0,0.8793103448275862,"(262, 8)",Buy Strong,binance,ZRXBTC
97,0.8636363636363636,1d,0.09976,2018-06-01,"{'rsi_14': 0.21, 'macdh': 0.19, 'sod_14': 0.16, 'macd': 0.11, 'obv_2': 0.1, 'volume': 0.09, 'wr_14': 0.08, 'roc_2': 0.06}",5y,0.8636363636363636,-1.0,0.8636363636363636,"(205, 8)",Sell,binance,RDNBNB
98,0.7954545454545454,1d,0.00672,2018-06-01,"{'rsi_14': 0.19, 'macd': 0.17, 'obv_2': 0.13, 'volume': 0.13, 'macdh': 0.12, 'sod_14': 0.1, 'roc_2': 0.08, 'wr_14': 0.08}",5y,0.7954545454545454,-1.0,0.7954545454545454,"(206, 8)",Sell,binance,RCNBNB
99,0.6666666666666666,1d,0.00590244,2018-06-01,"{'volume': 0.16, 'rsi_14': 0.15, 'macdh': 0.14, 'macd': 0.13, 'sod_14': 0.13, 'obv_2': 0.11, 'wr_14': 0.1, 'roc_2': 0.09}",5y,0.6666666666666666,2.0,0.6666666666666666,"(207, 8)",Buy Strong,binance,VENETH
100,0.8055555555555556,1d,118.42,2018-06-01,"{'macd': 0.23, 'rsi_14': 0.21, 'volume': 0.13, 'macdh': 0.1, 'wr_14': 0.1, 'roc_2': 0.08, 'sod_14': 0.08, 'obv_2': 0.07}",5y,0.8055555555555556,2.0,0.8055555555555556,"(171, 8)",Buy Strong,binance,LTCUSDT
101,0.8363636363636363,1d,0.00019298,2018-06-01,"{'macd': 0.19, 'macdh': 0.17, 'volume': 0.15, 'sod_14': 0.13, 'rsi_14': 0.1, 'obv_2': 0.09, 'wr_14': 0.09, 'roc_2': 0.08}",5y,0.8363636363636363,-1.0,0.8363636363636363,"(249, 8)",Sell,binance,KNCBTC
102,0.7941176470588235,1d,0.002702,2018-06-01,"{'macd': 0.15, 'macdh': 0.14, 'roc_2': 0.13, 'rsi_14': 0.13, 'volume': 0.13, 'obv_2': 0.11, 'sod_14': 0.11, 'wr_14': 0.1}",5y,0.7941176470588235,-2.0,0.7941176470588235,"(299, 8)",Sell Strong,binance,GASBTC
103,0.7346938775510204,1d,0.041095,2018-06-01,"{'volume': 0.17, 'sod_14': 0.14, 'rsi_14': 0.13, 'macd': 0.12, 'macdh': 0.12, 'obv_2': 0.12, 'wr_14': 0.11, 'roc_2': 0.09}",5y,0.7346938775510204,2.0,0.7346938775510204,"(225, 8)",Buy Strong,binance,DASHBTC
104,0.8,1d,0.0005453,2018-06-01,"{'volume': 0.21, 'obv_2': 0.16, 'roc_2': 0.14, 'rsi_14': 0.12, 'wr_14': 0.11, 'macdh': 0.09, 'macd': 0.08, 'sod_14': 0.08}",5y,0.8,2.0,0.8,"(169, 8)",Buy Strong,binance,WAVESBTC
105,0.7368421052631579,1d,0.00011126,2018-06-01,"{'macdh': 0.16, 'rsi_14': 0.14, 'macd': 0.13, 'volume': 0.13, 'wr_14': 0.12, 'sod_14': 0.12, 'obv_2': 0.1, 'roc_2': 0.09}",5y,0.7368421052631579,2.0,0.7368421052631579,"(256, 8)",Buy Strong,binance,SNGLSETH
106,0.8372093023255814,1d,0.00015713,2018-06-01,"{'macd': 0.15, 'macdh': 0.14, 'rsi_14': 0.14, 'volume': 0.14, 'sod_14': 0.14, 'obv_2': 0.13, 'wr_14': 0.09, 'roc_2': 0.08}",5y,0.8372093023255814,-2.0,0.8372093023255814,"(199, 8)",Sell Strong,binance,ARNBTC
107,0.8208955223880597,1d,0.024448,2018-06-01,"{'macd': 0.22, 'rsi_14': 0.15, 'obv_2': 0.13, 'macdh': 0.12, 'volume': 0.11, 'roc_2': 0.09, 'wr_14': 0.09, 'sod_14': 0.08}",5y,0.8208955223880597,1.0,0.8208955223880597,"(297, 8)",Buy,binance,BNBETH
108,0.8048780487804879,1d,0.050738,2018-06-01,"{'macd': 0.19, 'rsi_14': 0.16, 'macdh': 0.13, 'volume': 0.13, 'obv_2': 0.12, 'sod_14': 0.11, 'wr_14': 0.1, 'roc_2': 0.07}",5y,0.8048780487804879,2.0,0.8048780487804879,"(192, 8)",Buy Strong,binance,XZCETH
109,0.7285714285714285,1d,0.02136,2018-06-01,"{'volume': 0.17, 'rsi_14': 0.16, 'macd': 0.15, 'sod_14': 0.13, 'obv_2': 0.12, 'macdh': 0.11, 'roc_2': 0.09, 'wr_14': 0.08}",5y,0.7285714285714285,2.0,0.7285714285714285,"(310, 8)",Buy Strong,binance,EOSETH
110,0.75,1d,9.959e-05,2018-06-01,"{'macd': 0.28, 'sod_14': 0.2, 'macdh': 0.12, 'rsi_14': 0.11, 'volume': 0.1, 'obv_2': 0.07, 'wr_14': 0.07, 'roc_2': 0.05}",5y,0.75,2.0,0.75,"(110, 8)",Buy Strong,binance,RPXETH
111,0.9130434782608695,1d,7.58e-06,2018-06-01,"{'volume': 0.19, 'rsi_14': 0.18, 'roc_2': 0.12, 'macdh': 0.11, 'wr_14': 0.11, 'sod_14': 0.11, 'obv_2': 0.1, 'macd': 0.07}",5y,0.9130434782608695,1.0,0.9130434782608695,"(214, 8)",Buy,binance,TRXBTC
112,0.8125,1d,0.0016443,2018-06-01,"{'macd': 0.16, 'sod_14': 0.14, 'macdh': 0.13, 'rsi_14': 0.13, 'obv_2': 0.12, 'volume': 0.12, 'wr_14': 0.12, 'roc_2': 0.08}",5y,0.8125,2.0,0.8125,"(283, 8)",Buy Strong,binance,ICNETH
113,0.6190476190476191,1d,0.019431,2018-06-01,"{'volume': 0.21, 'macd': 0.14, 'macdh': 0.14, 'roc_2': 0.11, 'sod_14': 0.11, 'obv_2': 0.1, 'wr_14': 0.1, 'rsi_14': 0.09}",5y,0.6190476190476191,-1.0,0.6190476190476191,"(279, 8)",Sell,binance,WTCETH
114,0.8048780487804879,1d,0.001144,2018-06-01,"{'rsi_14': 0.17, 'macd': 0.16, 'macdh': 0.16, 'volume': 0.13, 'sod_14': 0.12, 'obv_2': 0.1, 'roc_2': 0.08, 'wr_14': 0.08}",5y,0.8048780487804879,-1.0,0.8048780487804879,"(192, 8)",Sell,binance,LSKBTC
115,0.9090909090909091,1d,0.005474,2018-06-01,"{'macd': 0.26, 'sod_14': 0.16, 'rsi_14': 0.12, 'volume': 0.12, 'obv_2': 0.1, 'roc_2': 0.09, 'macdh': 0.08, 'wr_14': 0.07}",5y,0.9090909090909091,2.0,0.9090909090909091,"(115, 8)",Buy Strong,binance,AEETH
116,0.6470588235294118,1d,0.0002753,2018-06-01,"{'macd': 0.22, 'macdh': 0.15, 'rsi_14': 0.13, 'sod_14': 0.13, 'volume': 0.11, 'wr_14': 0.1, 'obv_2': 0.09, 'roc_2': 0.07}",5y,0.6470588235294118,2.0,0.6470588235294118,"(163, 8)",Buy Strong,binance,AIONBTC
117,0.8703703703703703,1d,0.003505,2018-06-01,"{'macd': 0.21, 'volume': 0.16, 'macdh': 0.13, 'rsi_14': 0.13, 'sod_14': 0.12, 'obv_2': 0.1, 'wr_14': 0.09, 'roc_2': 0.07}",5y,0.8703703703703703,2.0,0.8703703703703703,"(245, 8)",Buy Strong,binance,SALTETH
118,0.7619047619047619,1d,0.0004501,2018-06-01,"{'macd': 0.18, 'macdh': 0.14, 'sod_14': 0.14, 'volume': 0.13, 'rsi_14': 0.12, 'obv_2': 0.11, 'wr_14': 0.1, 'roc_2': 0.08}",5y,0.7619047619047619,1.0,0.7619047619047619,"(197, 8)",Buy,binance,GXSBTC
119,0.8695652173913043,1d,9.925e-05,2018-06-01,"{'volume': 0.21, 'obv_2': 0.17, 'rsi_14': 0.12, 'macd': 0.11, 'sod_14': 0.11, 'macdh': 0.1, 'wr_14': 0.1, 'roc_2': 0.09}",5y,0.8695652173913043,1.0,0.8695652173913043,"(214, 8)",Buy,binance,TRXETH
120,0.8627450980392157,1d,0.026784,2018-06-01,"{'macdh': 0.16, 'macd': 0.14, 'volume': 0.14, 'sod_14': 0.14, 'rsi_14': 0.13, 'obv_2': 0.1, 'roc_2': 0.1, 'wr_14': 0.1}",5y,0.8627450980392157,-1.0,0.8627450980392157,"(233, 8)",Sell,binance,ETCETH
121,0.9038461538461539,1d,0.00073753,2018-06-01,"{'macd': 0.21, 'rsi_14': 0.16, 'macdh': 0.15, 'volume': 0.13, 'obv_2': 0.1, 'wr_14': 0.09, 'sod_14': 0.09, 'roc_2': 0.06}",5y,0.9038461538461539,1.0,0.9038461538461539,"(235, 8)",Buy,binance,SUBETH
122,0.8518518518518519,1d,0.00326081,2018-06-01,"{'volume': 0.19, 'macd': 0.18, 'macdh': 0.14, 'rsi_14': 0.11, 'obv_2': 0.1, 'wr_14': 0.1, 'sod_14': 0.1, 'roc_2': 0.08}",5y,0.8518518518518519,2.0,0.8518518518518519,"(245, 8)",Buy Strong,binance,IOTAETH
123,0.7288135593220338,1d,0.001413,2018-06-01,"{'volume': 0.2, 'macd': 0.15, 'obv_2': 0.13, 'rsi_14': 0.13, 'sod_14': 0.12, 'macdh': 0.1, 'wr_14': 0.1, 'roc_2': 0.07}",5y,0.7288135593220338,2.0,0.7288135593220338,"(263, 8)",Buy Strong,binance,OMGBTC
124,0.7058823529411765,1d,0.00013208,2018-06-01,"{'macd': 0.22, 'macdh': 0.14, 'rsi_14': 0.13, 'volume': 0.12, 'obv_2': 0.11, 'sod_14': 0.11, 'wr_14': 0.09, 'roc_2': 0.08}",5y,0.7058823529411765,2.0,0.7058823529411765,"(232, 8)",Buy Strong,binance,MTHETH
125,0.6274509803921569,1d,0.002045,2018-06-01,"{'rsi_14': 0.16, 'macd': 0.14, 'sod_14': 0.14, 'obv_2': 0.13, 'macdh': 0.12, 'volume': 0.11, 'wr_14': 0.1, 'roc_2': 0.09}",5y,0.6274509803921569,2.0,0.6274509803921569,"(233, 8)",Buy Strong,binance,ETCBTC
126,0.6764705882352942,1d,3.105e-05,2018-06-01,"{'rsi_14': 0.16, 'obv_2': 0.15, 'volume': 0.15, 'macd': 0.11, 'macdh': 0.11, 'wr_14': 0.11, 'sod_14': 0.11, 'roc_2': 0.1}",5y,0.6764705882352942,-1.0,0.6764705882352942,"(166, 8)",Sell,binance,GTOBTC
127,0.6714285714285714,1d,0.00017485,2018-06-01,"{'volume': 0.17, 'macd': 0.15, 'macdh': 0.14, 'rsi_14': 0.14, 'sod_14': 0.14, 'obv_2': 0.11, 'roc_2': 0.08, 'wr_14': 0.08}",5y,0.6714285714285714,1.0,0.6714285714285714,"(310, 8)",Buy,binance,SNTETH
128,0.5952380952380952,1d,0.030312,2018-06-01,"{'volume': 0.18, 'macd': 0.17, 'macdh': 0.14, 'sod_14': 0.13, 'rsi_14': 0.11, 'obv_2': 0.1, 'roc_2': 0.09, 'wr_14': 0.08}",5y,0.5952380952380952,2.0,0.5952380952380952,"(198, 8)",Buy Strong,binance,GVTETH
129,0.78125,1d,5.321e-05,2018-06-01,"{'rsi_14': 0.21, 'volume': 0.2, 'obv_2': 0.12, 'sod_14': 0.12, 'macd': 0.1, 'roc_2': 0.1, 'wr_14': 0.08, 'macdh': 0.06}",5y,0.78125,2.0,0.78125,"(158, 8)",Buy Strong,binance,WINGSBTC
130,0.9090909090909091,1d,0.11314,2018-06-01,"{'macd': 0.27, 'rsi_14': 0.15, 'macdh': 0.11, 'volume': 0.11, 'obv_2': 0.1, 'wr_14': 0.09, 'sod_14': 0.09, 'roc_2': 0.08}",5y,0.9090909090909091,-2.0,0.9090909090909091,"(117, 8)",Sell Strong,binance,VIABNB
131,0.782608695652174,1d,0.004373,2018-06-01,"{'volume': 0.19, 'macd': 0.13, 'obv_2': 0.13, 'macdh': 0.12, 'rsi_14': 0.12, 'roc_2': 0.1, 'wr_14': 0.1, 'sod_14': 0.1}",5y,0.782608695652174,2.0,0.782608695652174,"(213, 8)",Buy Strong,binance,ARKETH
132,0.7045454545454546,1d,0.00052237,2018-06-01,"{'macd': 0.16, 'volume': 0.16, 'sod_14': 0.15, 'rsi_14': 0.14, 'macdh': 0.1, 'roc_2': 0.1, 'wr_14': 0.1, 'obv_2': 0.08}",5y,0.7045454545454546,-1.0,0.7045454545454546,"(205, 8)",Sell,binance,NULSBTC
133,0.7804878048780488,1d,1.012e-05,2018-06-01,"{'rsi_14': 0.19, 'macd': 0.15, 'macdh': 0.13, 'volume': 0.12, 'sod_14': 0.12, 'obv_2': 0.11, 'wr_14': 0.11, 'roc_2': 0.07}",5y,0.7804878048780488,1.0,0.7804878048780488,"(192, 8)",Buy,binance,TNTBTC
134,0.6304347826086957,1d,0.0002205,2018-06-01,"{'macdh': 0.2, 'macd': 0.18, 'rsi_14': 0.12, 'volume': 0.12, 'wr_14': 0.11, 'obv_2': 0.1, 'sod_14': 0.1, 'roc_2': 0.08}",5y,0.6304347826086957,2.0,0.6304347826086957,"(211, 8)",Buy Strong,binance,MODBTC
135,0.8695652173913043,1d,0.00013986,2018-06-01,"{'macd': 0.21, 'sod_14': 0.18, 'wr_14': 0.14, 'volume': 0.12, 'obv_2': 0.09, 'rsi_14': 0.09, 'macdh': 0.08, 'roc_2': 0.08}",5y,0.8695652173913043,-1.0,0.8695652173913043,"(122, 8)",Sell,binance,CHATETH
136,0.5909090909090909,1d,0.28101,2018-06-01,"{'macd': 0.17, 'volume': 0.17, 'rsi_14': 0.16, 'macdh': 0.12, 'sod_14': 0.11, 'obv_2': 0.1, 'wr_14': 0.09, 'roc_2': 0.08}",5y,0.5909090909090909,2.0,0.5909090909090909,"(206, 8)",Buy Strong,binance,NULSBNB
137,0.7878787878787878,1d,0.002643,2018-06-01,"{'macd': 0.25, 'sod_14': 0.16, 'volume': 0.14, 'rsi_14': 0.12, 'wr_14': 0.12, 'macdh': 0.09, 'obv_2': 0.08, 'roc_2': 0.05}",5y,0.7878787878787878,-1.0,0.7878787878787878,"(159, 8)",Sell,binance,EDOETH
138,0.8048780487804879,1d,9.623e-05,2018-06-01,"{'macd': 0.17, 'macdh': 0.17, 'rsi_14': 0.14, 'sod_14': 0.14, 'wr_14': 0.11, 'volume': 0.1, 'obv_2': 0.09, 'roc_2': 0.07}",5y,0.8048780487804879,2.0,0.8048780487804879,"(191, 8)",Buy Strong,binance,FUELETH
139,0.7878787878787878,1d,0.48313,2018-06-01,"{'macd': 0.19, 'rsi_14': 0.16, 'macdh': 0.14, 'roc_2': 0.11, 'sod_14': 0.11, 'volume': 0.1, 'wr_14': 0.1, 'obv_2': 0.09}",5y,0.7878787878787878,2.0,0.7878787878787878,"(159, 8)",Buy Strong,binance,MCOBNB
140,0.8275862068965517,1d,2.01e-05,2018-06-01,"{'rsi_14': 0.15, 'wr_14': 0.15, 'macd': 0.14, 'macdh': 0.14, 'volume': 0.14, 'sod_14': 0.12, 'obv_2': 0.09, 'roc_2': 0.07}",5y,0.8275862068965517,-1.0,0.8275862068965517,"(143, 8)",Sell,binance,VIBEBTC
141,0.782608695652174,1d,0.007084,2018-06-01,"{'rsi_14': 0.19, 'sod_14': 0.17, 'macd': 0.16, 'volume': 0.14, 'obv_2': 0.1, 'roc_2': 0.1, 'wr_14': 0.09, 'macdh': 0.05}",5y,0.782608695652174,-2.0,0.782608695652174,"(120, 8)",Sell Strong,binance,NANOETH
142,0.75,1d,0.02974,2018-06-01,"{'macd': 0.22, 'rsi_14': 0.15, 'macdh': 0.12, 'wr_14': 0.12, 'roc_2': 0.11, 'sod_14': 0.1, 'obv_2': 0.09, 'volume': 0.09}",5y,0.75,-2.0,0.75,"(204, 8)",Sell Strong,binance,AMBBNB
143,0.7105263157894737,1d,0.02296,2018-06-01,"{'sod_14': 0.18, 'macd': 0.15, 'macdh': 0.14, 'volume': 0.13, 'rsi_14': 0.12, 'wr_14': 0.12, 'roc_2': 0.09, 'obv_2': 0.07}",5y,0.7105263157894737,2.0,0.7105263157894737,"(179, 8)",Buy Strong,binance,CMTBNB
144,0.75,1d,0.00680309,2018-06-01,"{'macd': 0.2, 'macdh': 0.16, 'sod_14': 0.15, 'volume': 0.13, 'wr_14': 0.11, 'obv_2': 0.1, 'rsi_14': 0.08, 'roc_2': 0.07}",5y,0.75,-2.0,0.75,"(205, 8)",Sell Strong,binance,NULSETH
145,0.95,1d,0.0041,2018-06-01,"{'sod_14': 0.18, 'wr_14': 0.17, 'macd': 0.16, 'rsi_14': 0.14, 'macdh': 0.13, 'volume': 0.1, 'obv_2': 0.07, 'roc_2': 0.05}",5y,0.95,-1.0,0.95,"(110, 8)",Sell,binance,RPXBNB
146,0.6744186046511628,1d,0.03185,2018-06-01,"{'macdh': 0.16, 'macd': 0.14, 'volume': 0.14, 'obv_2': 0.13, 'rsi_14': 0.13, 'roc_2': 0.11, 'sod_14': 0.1, 'wr_14': 0.09}",5y,0.6744186046511628,2.0,0.6744186046511628,"(200, 8)",Buy Strong,binance,ZECBTC
147,0.8,1d,0.00034523,2018-06-01,"{'macd': 0.18, 'volume': 0.15, 'macdh': 0.14, 'rsi_14': 0.13, 'roc_2': 0.11, 'obv_2': 0.1, 'wr_14': 0.1, 'sod_14': 0.09}",5y,0.8,-2.0,0.8,"(248, 8)",Sell Strong,binance,SNMETH
148,0.8780487804878049,1d,7.36e-06,2018-06-01,"{'rsi_14': 0.18, 'roc_2': 0.14, 'sod_14': 0.14, 'wr_14': 0.13, 'macd': 0.12, 'obv_2': 0.1, 'volume': 0.1, 'macdh': 0.09}",5y,0.8780487804878049,1.0,0.8780487804878049,"(191, 8)",Buy,binance,FUELBTC
149,0.9090909090909091,1d,0.7965,2018-06-01,"{'macd': 0.25, 'rsi_14': 0.16, 'sod_14': 0.12, 'macdh': 0.1, 'obv_2': 0.1, 'volume': 0.1, 'roc_2': 0.09, 'wr_14': 0.08}",5y,0.9090909090909091,-1.0,0.9090909090909091,"(204, 8)",Sell,binance,WTCBNB
150,0.6744186046511628,1d,0.02229,2018-06-01,"{'sod_14': 0.17, 'volume': 0.15, 'macdh': 0.14, 'macd': 0.13, 'rsi_14': 0.13, 'obv_2': 0.09, 'roc_2': 0.09, 'wr_14': 0.09}",5y,0.6744186046511628,2.0,0.6744186046511628,"(200, 8)",Buy Strong,binance,BCPTBNB
151,0.8714285714285714,1d,0.00699,2018-06-01,"{'macdh': 0.23, 'sod_14': 0.21, 'macd': 0.12, 'wr_14': 0.11, 'roc_2': 0.1, 'obv_2': 0.08, 'rsi_14': 0.08, 'volume': 0.07}",5y,0.8714285714285714,2.0,0.8714285714285714,"(310, 8)",Buy Strong,binance,BNTETH
152,0.6818181818181818,1d,2.469e-05,2018-06-01,"{'macdh': 0.2, 'macd': 0.17, 'obv_2': 0.12, 'rsi_14': 0.12, 'sod_14': 0.11, 'volume': 0.1, 'roc_2': 0.09, 'wr_14': 0.09}",5y,0.6818181818181818,2.0,0.6818181818181818,"(204, 8)",Buy Strong,binance,DLTBTC
153,0.6086956521739131,1d,0.00011067,2018-06-01,"{'sod_14': 0.17, 'macd': 0.16, 'volume': 0.14, 'rsi_14': 0.13, 'obv_2': 0.12, 'wr_14': 0.1, 'macdh': 0.09, 'roc_2': 0.09}",5y,0.6086956521739131,1.0,0.6086956521739131,"(211, 8)",Buy,binance,STORJBTC
154,0.7872340425531915,1d,1.727e-05,2018-06-01,"{'rsi_14': 0.16, 'macd': 0.15, 'volume': 0.13, 'sod_14': 0.13, 'macdh': 0.12, 'obv_2': 0.12, 'wr_14': 0.1, 'roc_2': 0.09}",5y,0.7872340425531915,-2.0,0.7872340425531915,"(215, 8)",Sell Strong,binance,VIBBTC
155,0.7674418604651163,1d,0.41797,2018-06-01,"{'macdh': 0.17, 'rsi_14': 0.14, 'volume': 0.14, 'macd': 0.13, 'wr_14': 0.12, 'obv_2': 0.11, 'roc_2': 0.11, 'sod_14': 0.09}",5y,0.7674418604651163,2.0,0.7674418604651163,"(200, 8)",Buy Strong,binance,ZECETH
156,0.7538461538461538,1d,568.42,2018-06-01,"{'volume': 0.17, 'macd': 0.15, 'rsi_14': 0.13, 'obv_2': 0.12, 'sod_14': 0.12, 'wr_14': 0.11, 'macdh': 0.1, 'roc_2': 0.1}",5y,0.7538461538461538,-2.0,0.7538461538461538,"(289, 8)",Sell Strong,binance,ETHUSDT
157,0.7391304347826086,1d,0.0003335,2018-06-01,"{'macdh': 0.16, 'sod_14': 0.16, 'macd': 0.13, 'volume': 0.13, 'rsi_14': 0.12, 'wr_14': 0.12, 'obv_2': 0.1, 'roc_2': 0.09}",5y,0.7391304347826086,2.0,0.7391304347826086,"(213, 8)",Buy Strong,binance,ARKBTC
158,0.6176470588235294,1d,0.004715,2018-06-01,"{'macdh': 0.17, 'macd': 0.15, 'sod_14': 0.14, 'volume': 0.13, 'obv_2': 0.12, 'wr_14': 0.12, 'rsi_14': 0.11, 'roc_2': 0.08}",5y,0.6176470588235294,2.0,0.6176470588235294,"(166, 8)",Buy Strong,binance,ICXETH
159,0.9069767441860465,1d,0.02043,2018-06-01,"{'rsi_14': 0.19, 'macd': 0.18, 'macdh': 0.13, 'obv_2': 0.13, 'volume': 0.11, 'wr_14': 0.1, 'sod_14': 0.09, 'roc_2': 0.07}",5y,0.9069767441860465,-2.0,0.9069767441860465,"(201, 8)",Sell Strong,binance,BATBNB
160,0.6470588235294118,1d,0.00040589,2018-06-01,"{'macdh': 0.16, 'obv_2': 0.15, 'roc_2': 0.15, 'rsi_14': 0.15, 'macd': 0.11, 'sod_14': 0.11, 'volume': 0.09, 'wr_14': 0.08}",5y,0.6470588235294118,1.0,0.6470588235294118,"(166, 8)",Buy,binance,GTOETH
161,0.84375,1d,0.0001253,2018-06-01,"{'rsi_14': 0.2, 'sod_14': 0.17, 'volume': 0.14, 'obv_2': 0.13, 'macd': 0.1, 'roc_2': 0.1, 'wr_14': 0.09, 'macdh': 0.07}",5y,0.84375,-2.0,0.84375,"(157, 8)",Sell Strong,binance,NAVBTC
162,0.7804878048780488,1d,0.000133,2018-06-01,"{'rsi_14': 0.16, 'macd': 0.14, 'macdh': 0.14, 'volume': 0.14, 'wr_14': 0.12, 'sod_14': 0.11, 'roc_2': 0.1, 'obv_2': 0.09}",5y,0.7804878048780488,2.0,0.7804878048780488,"(192, 8)",Buy Strong,binance,TNTETH
163,0.8478260869565217,1d,8.207e-05,2018-06-01,"{'rsi_14': 0.17, 'sod_14': 0.15, 'macdh': 0.14, 'macd': 0.13, 'roc_2': 0.12, 'volume': 0.11, 'wr_14': 0.1, 'obv_2': 0.09}",5y,0.8478260869565217,2.0,0.8478260869565217,"(212, 8)",Buy Strong,binance,XRPBTC
164,0.7586206896551724,1d,0.007628,2018-06-01,"{'macdh': 0.15, 'volume': 0.15, 'macd': 0.14, 'sod_14': 0.14, 'rsi_14': 0.12, 'roc_2': 0.11, 'obv_2': 0.1, 'wr_14': 0.08}",5y,0.7586206896551724,2.0,0.7586206896551724,"(261, 8)",Buy Strong,binance,STRATETH
165,0.7272727272727273,1d,0.0024349,2018-06-01,"{'macd': 0.16, 'obv_2': 0.15, 'rsi_14': 0.13, 'volume': 0.13, 'sod_14': 0.13, 'macdh': 0.12, 'roc_2': 0.09, 'wr_14': 0.09}",5y,0.7272727272727273,2.0,0.7272727272727273,"(205, 8)",Buy Strong,binance,RDNETH
166,0.925,1d,0.22984,2018-06-01,"{'macdh': 0.18, 'volume': 0.15, 'wr_14': 0.14, 'macd': 0.13, 'obv_2': 0.12, 'roc_2': 0.09, 'rsi_14': 0.09, 'sod_14': 0.09}",5y,0.925,-2.0,0.925,"(187, 8)",Sell Strong,binance,DGDETH
167,0.8372093023255814,1d,4.16e-05,2018-06-01,"{'volume': 0.18, 'obv_2': 0.16, 'macd': 0.15, 'macdh': 0.11, 'roc_2': 0.11, 'rsi_14': 0.1, 'wr_14': 0.1, 'sod_14': 0.09}",5y,0.8372093023255814,2.0,0.8372093023255814,"(200, 8)",Buy Strong,binance,BCPTBTC
168,0.8205128205128205,1d,0.04361,2018-06-01,"{'rsi_14': 0.2, 'macdh': 0.16, 'wr_14': 0.15, 'macd': 0.14, 'volume': 0.1, 'sod_14': 0.09, 'obv_2': 0.08, 'roc_2': 0.08}",5y,0.8205128205128205,2.0,0.8205128205128205,"(185, 8)",Buy Strong,binance,ADXBNB
169,0.8055555555555556,1d,0.00442,2018-06-01,"{'macdh': 0.2, 'volume': 0.17, 'sod_14': 0.14, 'macd': 0.12, 'wr_14': 0.12, 'obv_2': 0.1, 'rsi_14': 0.1, 'roc_2': 0.07}",5y,0.8055555555555556,-2.0,0.8055555555555556,"(173, 8)",Sell Strong,binance,CNDBNB
170,0.6666666666666666,1d,0.000902,2018-06-01,"{'macd': 0.15, 'volume': 0.15, 'sod_14': 0.15, 'rsi_14': 0.14, 'macdh': 0.12, 'obv_2': 0.1, 'wr_14': 0.1, 'roc_2': 0.08}",5y,0.6666666666666666,-1.0,0.6666666666666666,"(282, 8)",Sell,binance,MCOBTC
171,0.8181818181818182,1d,0.01321,2018-06-01,"{'rsi_14': 0.21, 'macd': 0.17, 'sod_14': 0.12, 'roc_2': 0.11, 'wr_14': 0.11, 'macdh': 0.1, 'volume': 0.09, 'obv_2': 0.08}",5y,0.8181818181818182,-2.0,0.8181818181818182,"(204, 8)",Sell Strong,binance,DLTBNB
172,0.75,1d,0.0001631,2018-06-01,"{'macd': 0.18, 'macdh': 0.16, 'volume': 0.14, 'rsi_14': 0.13, 'sod_14': 0.12, 'wr_14': 0.1, 'obv_2': 0.09, 'roc_2': 0.08}",5y,0.75,2.0,0.75,"(206, 8)",Buy Strong,binance,RCNETH
173,0.5882352941176471,1d,0.0018397,2018-06-01,"{'obv_2': 0.15, 'macd': 0.13, 'macdh': 0.13, 'volume': 0.13, 'sod_14': 0.13, 'roc_2': 0.12, 'rsi_14': 0.12, 'wr_14': 0.09}",5y,0.5882352941176471,2.0,0.5882352941176471,"(163, 8)",Buy Strong,binance,ELFETH
174,0.782608695652174,1d,0.0003219,2018-06-01,"{'macdh': 0.17, 'sod_14': 0.16, 'macd': 0.14, 'rsi_14': 0.13, 'wr_14': 0.13, 'obv_2': 0.11, 'volume': 0.1, 'roc_2': 0.06}",5y,0.782608695652174,-2.0,0.782608695652174,"(121, 8)",Sell Strong,binance,STEEMBTC
175,0.8292682926829268,1d,3.65e-06,2018-06-01,"{'rsi_14': 0.17, 'volume': 0.15, 'sod_14': 0.15, 'macd': 0.13, 'obv_2': 0.13, 'wr_14': 0.11, 'roc_2': 0.08, 'macdh': 0.07}",5y,0.8292682926829268,1.0,0.8292682926829268,"(194, 8)",Buy,binance,POEBTC
176,0.8360655737704918,1d,0.001832,2018-06-01,"{'volume': 0.21, 'macdh': 0.14, 'obv_2': 0.14, 'sod_14': 0.13, 'rsi_14': 0.11, 'macd': 0.1, 'roc_2': 0.1, 'wr_14': 0.08}",5y,0.8360655737704918,-2.0,0.8360655737704918,"(271, 8)",Sell Strong,binance,QTUMBTC
177,0.7272727272727273,1d,0.00060382,2018-06-01,"{'rsi_14': 0.19, 'macd': 0.16, 'volume': 0.14, 'macdh': 0.13, 'sod_14': 0.12, 'obv_2': 0.11, 'wr_14': 0.08, 'roc_2': 0.07}",5y,0.7272727272727273,2.0,0.7272727272727273,"(247, 8)",Buy Strong,binance,LINKETH
178,0.6666666666666666,1d,0.0010314,2018-06-01,"{'macdh': 0.16, 'rsi_14': 0.15, 'obv_2': 0.13, 'sod_14': 0.13, 'macd': 0.12, 'volume': 0.11, 'wr_14': 0.11, 'roc_2': 0.08}",5y,0.6666666666666666,2.0,0.6666666666666666,"(162, 8)",Buy Strong,binance,NEBLBTC
179,0.8181818181818182,1d,2.637e-05,2018-06-01,"{'sod_14': 0.17, 'macdh': 0.16, 'macd': 0.14, 'wr_14': 0.13, 'rsi_14': 0.12, 'volume': 0.1, 'obv_2': 0.09, 'roc_2': 0.08}",5y,0.8181818181818182,-2.0,0.8181818181818182,"(248, 8)",Sell Strong,binance,SNMBTC
180,0.8611111111111112,1d,0.05425,2018-06-01,"{'macd': 0.21, 'rsi_14': 0.2, 'volume': 0.15, 'macdh': 0.12, 'wr_14': 0.1, 'roc_2': 0.08, 'sod_14': 0.08, 'obv_2': 0.06}",5y,0.8611111111111112,-2.0,0.8611111111111112,"(172, 8)",Sell Strong,binance,WABIBNB
181,0.8367346938775511,1d,0.53711,2018-06-01,"{'volume': 0.2, 'macd': 0.15, 'macdh': 0.15, 'wr_14': 0.13, 'sod_14': 0.12, 'rsi_14': 0.1, 'obv_2': 0.09, 'roc_2': 0.07}",5y,0.8367346938775511,2.0,0.8367346938775511,"(225, 8)",Buy Strong,binance,DASHETH
182,0.896551724137931,1d,0.0002641,2018-06-01,"{'macd': 0.17, 'rsi_14': 0.16, 'sod_14': 0.14, 'macdh': 0.13, 'volume': 0.13, 'obv_2': 0.1, 'wr_14': 0.1, 'roc_2': 0.06}",5y,0.896551724137931,2.0,0.896551724137931,"(143, 8)",Buy Strong,binance,VIBEETH
183,0.8333333333333334,1d,7.678e-05,2018-06-01,"{'macd': 0.17, 'volume': 0.16, 'macdh': 0.15, 'rsi_14': 0.14, 'sod_14': 0.12, 'obv_2': 0.11, 'roc_2': 0.08, 'wr_14': 0.08}",5y,0.8333333333333334,1.0,0.8333333333333334,"(222, 8)",Buy,binance,OAXBTC
184,0.7857142857142857,1d,0.00030798,2018-06-01,"{'macd': 0.15, 'obv_2': 0.15, 'wr_14': 0.13, 'macdh': 0.12, 'volume': 0.12, 'roc_2': 0.11, 'rsi_14': 0.11, 'sod_14': 0.11}",5y,0.7857142857142857,2.0,0.7857142857142857,"(253, 8)",Buy Strong,binance,BQXBTC
185,0.9583333333333334,1d,0.005778,2018-06-01,"{'rsi_14': 0.17, 'macdh': 0.16, 'volume': 0.16, 'macd': 0.13, 'wr_14': 0.11, 'sod_14': 0.1, 'obv_2': 0.09, 'roc_2': 0.07}",5y,0.9583333333333334,-1.0,0.9583333333333334,"(221, 8)",Sell,binance,BTGBTC
186,0.6071428571428571,1d,0.002809,2018-06-01,"{'sod_14': 0.21, 'volume': 0.17, 'obv_2': 0.14, 'macd': 0.1, 'macdh': 0.1, 'rsi_14': 0.1, 'wr_14': 0.1, 'roc_2': 0.09}",5y,0.6071428571428571,1.0,0.6071428571428571,"(141, 8)",Buy,binance,RLCETH
187,0.8,1d,4.92e-06,2018-06-01,"{'sod_14': 0.18, 'obv_2': 0.14, 'rsi_14': 0.14, 'volume': 0.14, 'roc_2': 0.11, 'macd': 0.1, 'wr_14': 0.1, 'macdh': 0.09}",5y,0.8,-2.0,0.8,"(169, 8)",Sell Strong,binance,TNBBTC
188,0.85,1d,0.017479,2018-06-01,"{'macd': 0.16, 'volume': 0.16, 'obv_2': 0.15, 'sod_14': 0.13, 'rsi_14': 0.12, 'macdh': 0.11, 'roc_2': 0.09, 'wr_14': 0.08}",5y,0.85,2.0,0.85,"(187, 8)",Buy Strong,binance,DGDBTC
189,0.7948717948717948,1d,0.0010683,2018-06-01,"{'macd': 0.19, 'volume': 0.15, 'rsi_14': 0.13, 'macdh': 0.11, 'obv_2': 0.11, 'wr_14': 0.11, 'sod_14': 0.11, 'roc_2': 0.1}",5y,0.7948717948717948,2.0,0.7948717948717948,"(185, 8)",Buy Strong,binance,ADXETH
190,0.7727272727272727,1d,983.3,2018-06-01,"{'macd': 0.2, 'macdh': 0.15, 'sod_14': 0.15, 'rsi_14': 0.13, 'volume': 0.12, 'wr_14': 0.1, 'obv_2': 0.08, 'roc_2': 0.08}",5y,0.7727272727272727,2.0,0.7727272727272727,"(203, 8)",Buy Strong,binance,BCCUSDT
191,0.8125,1d,0.05619,2018-06-01,"{'sod_14': 0.21, 'volume': 0.16, 'macdh': 0.15, 'rsi_14': 0.12, 'macd': 0.11, 'obv_2': 0.1, 'wr_14': 0.1, 'roc_2': 0.06}",5y,0.8125,-2.0,0.8125,"(155, 8)",Sell Strong,binance,TRIGBNB
192,0.7924528301886793,1d,0.00010317,2018-06-01,"{'macd': 0.18, 'volume': 0.18, 'macdh': 0.12, 'rsi_14': 0.12, 'wr_14': 0.12, 'sod_14': 0.11, 'obv_2': 0.09, 'roc_2': 0.08}",5y,0.7924528301886793,-2.0,0.7924528301886793,"(240, 8)",Sell Strong,binance,MDABTC
193,0.8367346938775511,1d,3.664e-05,2018-06-01,"{'macd': 0.17, 'macdh': 0.14, 'volume': 0.14, 'rsi_14': 0.13, 'wr_14': 0.13, 'sod_14': 0.12, 'obv_2': 0.1, 'roc_2': 0.07}",5y,0.8367346938775511,1.0,0.8367346938775511,"(226, 8)",Buy,binance,ASTBTC
194,0.6938775510204082,1d,0.0004809,2018-06-01,"{'macd': 0.22, 'rsi_14': 0.16, 'sod_14': 0.13, 'macdh': 0.12, 'volume': 0.11, 'wr_14': 0.1, 'obv_2': 0.09, 'roc_2': 0.07}",5y,0.6938775510204082,2.0,0.6938775510204082,"(226, 8)",Buy Strong,binance,ASTETH
195,0.825,1d,0.03398,2018-06-01,"{'macd': 0.18, 'sod_14': 0.16, 'macdh': 0.13, 'rsi_14': 0.12, 'volume': 0.12, 'roc_2': 0.11, 'obv_2': 0.09, 'wr_14': 0.09}",5y,0.825,2.0,0.825,"(190, 8)",Buy Strong,binance,BCDETH
196,0.8181818181818182,1d,6.064e-05,2018-06-01,"{'macdh': 0.16, 'sod_14': 0.16, 'volume': 0.15, 'macd': 0.14, 'rsi_14': 0.12, 'wr_14': 0.11, 'obv_2': 0.09, 'roc_2': 0.07}",5y,0.8181818181818182,-1.0,0.8181818181818182,"(247, 8)",Sell,binance,FUNETH
197,0.7391304347826086,1d,4.342e-05,2018-06-01,"{'volume': 0.18, 'sod_14': 0.18, 'macdh': 0.13, 'rsi_14': 0.13, 'macd': 0.11, 'obv_2': 0.1, 'wr_14': 0.1, 'roc_2': 0.08}",5y,0.7391304347826086,2.0,0.7391304347826086,"(213, 8)",Buy Strong,binance,POWRBTC
198,0.875,1d,0.07571,2018-06-01,"{'macdh': 0.24, 'volume': 0.19, 'sod_14': 0.16, 'rsi_14': 0.12, 'macd': 0.1, 'obv_2': 0.07, 'roc_2': 0.06, 'wr_14': 0.06}",5y,0.875,-1.0,0.875,"(221, 8)",Sell,binance,BTGETH
199,0.7727272727272727,1d,0.00018574,2018-06-01,"{'rsi_14': 0.17, 'volume': 0.15, 'macd': 0.14, 'macdh': 0.14, 'obv_2': 0.12, 'wr_14': 0.12, 'sod_14': 0.09, 'roc_2': 0.08}",5y,0.7727272727272727,-2.0,0.7727272727272727,"(205, 8)",Sell Strong,binance,RDNBTC
200,0.782608695652174,1d,0.17297,2018-06-01,"{'macd': 0.28, 'volume': 0.19, 'rsi_14': 0.12, 'sod_14': 0.1, 'macdh': 0.09, 'obv_2': 0.09, 'wr_14': 0.08, 'roc_2': 0.06}",5y,0.782608695652174,-1.0,0.782608695652174,"(121, 8)",Sell,binance,STEEMBNB
201,0.7380952380952381,1d,7.39e-05,2018-06-01,"{'volume': 0.19, 'macd': 0.14, 'rsi_14': 0.14, 'sod_14': 0.14, 'obv_2': 0.11, 'wr_14': 0.11, 'macdh': 0.1, 'roc_2': 0.06}",5y,0.7380952380952381,1.0,0.7380952380952381,"(198, 8)",Buy,binance,CDTETH
202,0.8947368421052632,1d,8.49e-06,2018-06-01,"{'volume': 0.17, 'rsi_14': 0.15, 'sod_14': 0.14, 'macd': 0.12, 'obv_2': 0.11, 'wr_14': 0.11, 'macdh': 0.1, 'roc_2': 0.08}",5y,0.8947368421052632,2.0,0.8947368421052632,"(256, 8)",Buy Strong,binance,SNGLSBTC
203,0.7941176470588235,1d,0.0003598,2018-06-01,"{'macdh': 0.18, 'macd': 0.16, 'volume': 0.14, 'sod_14': 0.14, 'obv_2': 0.13, 'rsi_14': 0.11, 'wr_14': 0.08, 'roc_2': 0.07}",5y,0.7941176470588235,1.0,0.7941176470588235,"(166, 8)",Buy,binance,ICXBTC
204,0.75,1d,0.00032375,2018-06-01,"{'macd': 0.2, 'macdh': 0.14, 'volume': 0.14, 'rsi_14': 0.12, 'sod_14': 0.12, 'wr_14': 0.1, 'obv_2': 0.09, 'roc_2': 0.08}",5y,0.75,2.0,0.75,"(204, 8)",Buy Strong,binance,DLTETH
205,0.6666666666666666,1d,7.562e-05,2018-06-01,"{'sod_14': 0.23, 'volume': 0.18, 'rsi_14': 0.13, 'macdh': 0.12, 'macd': 0.11, 'obv_2': 0.09, 'wr_14': 0.08, 'roc_2': 0.05}",5y,0.6666666666666666,-2.0,0.6666666666666666,"(160, 8)",Sell Strong,binance,BRDBTC
206,0.7636363636363637,1d,4.617e-05,2018-06-01,"{'sod_14': 0.16, 'macd': 0.15, 'volume': 0.15, 'rsi_14': 0.13, 'macdh': 0.11, 'obv_2': 0.11, 'wr_14': 0.11, 'roc_2': 0.08}",5y,0.7636363636363637,2.0,0.7636363636363637,"(247, 8)",Buy Strong,binance,LINKBTC
207,0.7083333333333334,1d,0.00012553,2018-06-01,"{'macd': 0.18, 'obv_2': 0.14, 'sod_14': 0.14, 'rsi_14': 0.13, 'volume': 0.13, 'macdh': 0.11, 'roc_2': 0.09, 'wr_14': 0.08}",5y,0.7083333333333334,2.0,0.7083333333333334,"(222, 8)",Buy Strong,binance,ICNBTC
208,0.78125,1d,0.001556,2018-06-01,"{'macd': 0.18, 'volume': 0.15, 'macdh': 0.14, 'rsi_14': 0.13, 'obv_2': 0.11, 'wr_14': 0.1, 'sod_14': 0.1, 'roc_2': 0.09}",5y,0.78125,-1.0,0.78125,"(156, 8)",Sell,binance,LUNBTC
209,0.7441860465116279,1d,0.00054246,2018-06-01,"{'macd': 0.19, 'macdh': 0.17, 'rsi_14': 0.14, 'wr_14': 0.11, 'sod_14': 0.11, 'obv_2': 0.1, 'volume': 0.09, 'roc_2': 0.08}",5y,0.7441860465116279,2.0,0.7441860465116279,"(200, 8)",Buy Strong,binance,BCPTETH
210,0.8235294117647058,1d,0.00027268,2018-06-01,"{'macd': 0.26, 'macdh': 0.17, 'rsi_14': 0.14, 'volume': 0.11, 'sod_14': 0.09, 'obv_2': 0.08, 'wr_14': 0.08, 'roc_2': 0.07}",5y,0.8235294117647058,2.0,0.8235294117647058,"(165, 8)",Buy Strong,binance,OSTETH
211,0.8444444444444444,1d,0.00711,2018-06-01,"{'macd': 0.2, 'rsi_14': 0.16, 'macdh': 0.15, 'sod_14': 0.15, 'volume': 0.1, 'obv_2': 0.09, 'roc_2': 0.08, 'wr_14': 0.06}",5y,0.8444444444444444,-1.0,0.8444444444444444,"(208, 8)",Sell,binance,YOYOBNB
212,0.7837837837837838,1d,3.84e-05,2018-06-01,"{'macdh': 0.22, 'macd': 0.15, 'rsi_14': 0.13, 'volume': 0.12, 'wr_14': 0.12, 'sod_14': 0.11, 'obv_2': 0.09, 'roc_2': 0.07}",5y,0.7837837837837838,-2.0,0.7837837837837838,"(176, 8)",Sell Strong,binance,XLMBTC
213,0.875,1d,0.00014282,2018-06-01,"{'rsi_14': 0.21, 'macd': 0.16, 'sod_14': 0.14, 'macdh': 0.13, 'obv_2': 0.1, 'wr_14': 0.1, 'roc_2': 0.08, 'volume': 0.08}",5y,0.875,2.0,0.875,"(219, 8)",Buy Strong,binance,EVXBTC
214,0.8275862068965517,1d,0.0021941,2018-06-01,"{'macd': 0.19, 'macdh': 0.13, 'rsi_14': 0.13, 'volume': 0.13, 'sod_14': 0.13, 'obv_2': 0.1, 'wr_14': 0.1, 'roc_2': 0.08}",5y,0.8275862068965517,1.0,0.8275862068965517,"(262, 8)",Buy,binance,ZRXETH
215,0.8214285714285714,1d,0.0002149,2018-06-01,"{'sod_14': 0.21, 'macd': 0.15, 'macdh': 0.14, 'wr_14': 0.13, 'volume': 0.11, 'rsi_14': 0.1, 'roc_2': 0.09, 'obv_2': 0.07}",5y,0.8214285714285714,-2.0,0.8214285714285714,"(141, 8)",Sell Strong,binance,RLCBTC
216,0.75,1d,5.621e-05,2018-06-01,"{'macdh': 0.18, 'macd': 0.16, 'volume': 0.14, 'rsi_14': 0.12, 'wr_14': 0.12, 'obv_2': 0.11, 'sod_14': 0.09, 'roc_2': 0.08}",5y,0.75,-1.0,0.75,"(235, 8)",Sell,binance,SUBBTC
217,0.7111111111111111,1d,0.2401,2018-06-01,"{'macdh': 0.18, 'macd': 0.17, 'sod_14': 0.13, 'obv_2': 0.12, 'rsi_14': 0.11, 'wr_14': 0.11, 'roc_2': 0.09, 'volume': 0.09}",5y,0.7111111111111111,-2.0,0.7111111111111111,"(208, 8)",Sell Strong,binance,VENBNB
218,0.8260869565217391,1d,0.00017344,2018-06-01,"{'sod_14': 0.23, 'macd': 0.17, 'macdh': 0.15, 'volume': 0.14, 'rsi_14': 0.1, 'obv_2': 0.08, 'wr_14': 0.07, 'roc_2': 0.06}",5y,0.8260869565217391,2.0,0.8260869565217391,"(212, 8)",Buy Strong,binance,YOYOETH
219,0.625,1d,0.00017706,2018-06-01,"{'obv_2': 0.17, 'macd': 0.13, 'volume': 0.13, 'roc_2': 0.12, 'rsi_14': 0.12, 'sod_14': 0.12, 'wr_14': 0.11, 'macdh': 0.1}",5y,0.625,1.0,0.625,"(190, 8)",Buy,binance,MANAETH
220,0.7,1d,0.0026,2018-06-01,"{'volume': 0.18, 'rsi_14': 0.17, 'macd': 0.15, 'macdh': 0.12, 'sod_14': 0.12, 'wr_14': 0.09, 'obv_2': 0.08, 'roc_2': 0.07}",5y,0.7,2.0,0.7,"(190, 8)",Buy Strong,binance,BCDBTC
221,0.8421052631578947,1d,0.00056177,2018-06-01,"{'rsi_14': 0.19, 'macd': 0.15, 'wr_14': 0.13, 'sod_14': 0.13, 'macdh': 0.12, 'obv_2': 0.09, 'roc_2': 0.09, 'volume': 0.09}",5y,0.8421052631578947,2.0,0.8421052631578947,"(179, 8)",Buy Strong,binance,CMTETH
222,0.717391304347826,1d,0.00107494,2018-06-01,"{'macd': 0.19, 'volume': 0.16, 'macdh': 0.13, 'rsi_14': 0.13, 'obv_2': 0.12, 'sod_14': 0.1, 'wr_14': 0.09, 'roc_2': 0.07}",5y,0.717391304347826,2.0,0.717391304347826,"(212, 8)",Buy Strong,binance,XRPETH
223,0.8222222222222222,1d,0.02327,2018-06-01,"{'sod_14': 0.22, 'rsi_14': 0.16, 'macdh': 0.14, 'macd': 0.12, 'volume': 0.11, 'wr_14': 0.1, 'obv_2': 0.08, 'roc_2': 0.07}",5y,0.8222222222222222,-2.0,0.8222222222222222,"(207, 8)",Sell Strong,binance,POWRBNB
224,0.75,1d,0.001368,2018-06-01,"{'macd': 0.18, 'rsi_14': 0.14, 'sod_14': 0.14, 'obv_2': 0.13, 'volume': 0.13, 'wr_14': 0.11, 'macdh': 0.1, 'roc_2': 0.07}",5y,0.75,2.0,0.75,"(155, 8)",Buy Strong,binance,TRIGETH
225,0.76,1d,0.27075,2018-06-01,"{'macd': 0.27, 'macdh': 0.15, 'wr_14': 0.13, 'sod_14': 0.11, 'rsi_14': 0.09, 'obv_2': 0.08, 'roc_2': 0.08, 'volume': 0.08}",5y,0.76,-1.0,0.76,"(130, 8)",Sell,binance,PIVXBNB
226,0.875,1d,0.06713,2018-06-01,"{'volume': 0.19, 'rsi_14': 0.18, 'macd': 0.17, 'wr_14': 0.11, 'sod_14': 0.11, 'macdh': 0.09, 'roc_2': 0.08, 'obv_2': 0.07}",5y,0.875,-1.0,0.875,"(157, 8)",Sell,binance,NAVBNB
227,0.6923076923076923,1d,0.00038338,2018-06-01,"{'obv_2': 0.18, 'sod_14': 0.15, 'macd': 0.14, 'volume': 0.14, 'macdh': 0.12, 'wr_14': 0.1, 'rsi_14': 0.09, 'roc_2': 0.08}",5y,0.6923076923076923,2.0,0.6923076923076923,"(184, 8)",Buy Strong,binance,ADAETH
228,0.717948717948718,1d,0.001634,2018-06-01,"{'macd': 0.17, 'volume': 0.16, 'wr_14': 0.16, 'sod_14': 0.14, 'obv_2': 0.11, 'macdh': 0.1, 'roc_2': 0.08, 'rsi_14': 0.08}",5y,0.717948717948718,-1.0,0.717948717948718,"(183, 8)",Sell,binance,PPTBTC
229,0.6086956521739131,1d,0.004227,2018-06-01,"{'macd': 0.2, 'volume': 0.17, 'sod_14': 0.15, 'wr_14': 0.13, 'rsi_14': 0.12, 'macdh': 0.1, 'obv_2': 0.07, 'roc_2': 0.07}",5y,0.6086956521739131,2.0,0.6086956521739131,"(121, 8)",Buy Strong,binance,STEEMETH
230,0.9333333333333333,1d,0.0259,2018-06-01,"{'rsi_14': 0.21, 'macdh': 0.16, 'volume': 0.14, 'macd': 0.13, 'sod_14': 0.12, 'obv_2': 0.09, 'wr_14': 0.08, 'roc_2': 0.06}",5y,0.9333333333333333,2.0,0.9333333333333333,"(148, 8)",Buy Strong,binance,APPCBNB
231,0.8113207547169812,1d,0.001352,2018-06-01,"{'macdh': 0.21, 'sod_14': 0.16, 'macd': 0.13, 'obv_2': 0.12, 'roc_2': 0.11, 'rsi_14': 0.11, 'volume': 0.09, 'wr_14': 0.07}",5y,0.8113207547169812,2.0,0.8113207547169812,"(240, 8)",Buy Strong,binance,MDAETH
232,0.7727272727272727,1d,0.27432,2018-06-01,"{'macd': 0.16, 'macdh': 0.15, 'volume': 0.15, 'sod_14': 0.15, 'obv_2': 0.12, 'rsi_14': 0.11, 'roc_2': 0.09, 'wr_14': 0.09}",5y,0.7727272727272727,2.0,0.7727272727272727,"(204, 8)",Buy Strong,binance,XMRETH
233,0.8421052631578947,1d,4.28e-05,2018-06-01,"{'macdh': 0.19, 'obv_2': 0.15, 'macd': 0.14, 'rsi_14': 0.13, 'sod_14': 0.11, 'wr_14': 0.1, 'roc_2': 0.09, 'volume': 0.09}",5y,0.8421052631578947,-1.0,0.8421052631578947,"(179, 8)",Sell,binance,CMTBTC
234,0.9130434782608695,1d,0.0005406,2018-06-01,"{'sod_14': 0.16, 'rsi_14': 0.14, 'macd': 0.13, 'macdh': 0.13, 'wr_14': 0.13, 'obv_2': 0.11, 'roc_2': 0.1, 'volume': 0.1}",5y,0.9130434782608695,2.0,0.9130434782608695,"(120, 8)",Buy Strong,binance,NANOBTC
235,0.8,1d,6.47e-05,2018-06-01,"{'volume': 0.17, 'macd': 0.15, 'rsi_14': 0.14, 'sod_14': 0.14, 'macdh': 0.11, 'wr_14': 0.11, 'obv_2': 0.1, 'roc_2': 0.07}",5y,0.8,2.0,0.8,"(169, 8)",Buy Strong,binance,TNBETH
236,0.8048780487804879,1d,0.003879,2018-06-01,"{'rsi_14': 0.16, 'macdh': 0.15, 'volume': 0.15, 'macd': 0.14, 'sod_14': 0.12, 'wr_14': 0.11, 'roc_2': 0.09, 'obv_2': 0.08}",5y,0.8048780487804879,-2.0,0.8048780487804879,"(192, 8)",Sell Strong,binance,XZCBTC
237,0.8125,1d,0.001643,2018-06-01,"{'macd': 0.18, 'rsi_14': 0.18, 'volume': 0.14, 'sod_14': 0.13, 'wr_14': 0.11, 'macdh': 0.09, 'obv_2': 0.09, 'roc_2': 0.08}",5y,0.8125,2.0,0.8125,"(157, 8)",Buy Strong,binance,NAVETH
238,0.8695652173913043,1d,1.067e-05,2018-06-01,"{'sod_14': 0.19, 'wr_14': 0.15, 'obv_2': 0.14, 'macd': 0.12, 'macdh': 0.11, 'rsi_14': 0.11, 'roc_2': 0.1, 'volume': 0.08}",5y,0.8695652173913043,-1.0,0.8695652173913043,"(122, 8)",Sell,binance,CHATBTC
239,0.8243243243243243,1d,0.0018671,2018-06-01,"{'sod_14': 0.17, 'macd': 0.16, 'macdh': 0.15, 'rsi_14': 0.12, 'volume': 0.12, 'obv_2': 0.11, 'roc_2': 0.1, 'wr_14': 0.08}",5y,0.8243243243243243,2.0,0.8243243243243243,"(323, 8)",Buy Strong,binance,BNBBTC
240,0.7272727272727273,1d,0.000213,2018-06-01,"{'sod_14': 0.21, 'macd': 0.17, 'wr_14': 0.13, 'macdh': 0.11, 'obv_2': 0.11, 'volume': 0.11, 'rsi_14': 0.09, 'roc_2': 0.06}",5y,0.7272727272727273,-2.0,0.7272727272727273,"(117, 8)",Sell Strong,binance,VIABTC
241,0.8181818181818182,1d,0.013508,2018-06-01,"{'macd': 0.17, 'rsi_14': 0.16, 'volume': 0.14, 'macdh': 0.13, 'wr_14': 0.12, 'sod_14': 0.11, 'obv_2': 0.09, 'roc_2': 0.09}",5y,0.8181818181818182,2.0,0.8181818181818182,"(162, 8)",Buy Strong,binance,NEBLETH
242,0.8205128205128205,1d,0.13328,2018-06-01,"{'macdh': 0.16, 'rsi_14': 0.16, 'wr_14': 0.16, 'macd': 0.14, 'roc_2': 0.13, 'obv_2': 0.1, 'volume': 0.08, 'sod_14': 0.07}",5y,0.8205128205128205,-1.0,0.8205128205128205,"(186, 8)",Sell,binance,IOTABNB
243,0.9375,1d,0.0018727,2018-06-01,"{'macd': 0.15, 'rsi_14': 0.15, 'sod_14': 0.15, 'macdh': 0.13, 'volume': 0.13, 'wr_14': 0.11, 'roc_2': 0.1, 'obv_2': 0.08}",5y,0.9375,2.0,0.9375,"(219, 8)",Buy Strong,binance,EVXETH
244,0.86,1d,0.00053454,2018-06-01,"{'macdh': 0.22, 'macd': 0.15, 'volume': 0.14, 'rsi_14': 0.12, 'sod_14': 0.11, 'obv_2': 0.1, 'wr_14': 0.1, 'roc_2': 0.07}",5y,0.86,-2.0,0.86,"(228, 8)",Sell Strong,binance,BNTBTC
245,0.6818181818181818,1d,0.00072796,2018-06-01,"{'macd': 0.18, 'macdh': 0.16, 'rsi_14': 0.13, 'roc_2': 0.12, 'volume': 0.12, 'wr_14': 0.11, 'sod_14': 0.11, 'obv_2': 0.09}",5y,0.6818181818181818,2.0,0.6818181818181818,"(204, 8)",Buy Strong,binance,AMBETH
246,0.7777777777777778,1d,0.004393,2018-06-01,"{'macd': 0.23, 'macdh': 0.15, 'rsi_14': 0.15, 'volume': 0.12, 'sod_14': 0.12, 'wr_14': 0.09, 'obv_2': 0.07, 'roc_2': 0.07}",5y,0.7777777777777778,2.0,0.7777777777777778,"(207, 8)",Buy Strong,binance,KMDETH
247,0.5,1d,0.00071584,2018-06-01,"{'macd': 0.24, 'volume': 0.14, 'rsi_14': 0.13, 'sod_14': 0.13, 'obv_2': 0.11, 'macdh': 0.09, 'wr_14': 0.09, 'roc_2': 0.07}",5y,0.5,2.0,0.5,"(116, 8)",Buy Strong,binance,BLZETH
248,0.6470588235294118,1d,0.19323,2018-06-01,"{'macd': 0.14, 'rsi_14': 0.14, 'volume': 0.14, 'sod_14': 0.14, 'macdh': 0.12, 'obv_2': 0.11, 'roc_2': 0.11, 'wr_14': 0.1}",5y,0.6470588235294118,2.0,0.6470588235294118,"(166, 8)",Buy Strong,binance,ICXBNB
249,0.7941176470588235,1d,0.01661,2018-06-01,"{'macd': 0.23, 'rsi_14': 0.15, 'macdh': 0.13, 'sod_14': 0.13, 'volume': 0.12, 'obv_2': 0.09, 'wr_14': 0.09, 'roc_2': 0.07}",5y,0.7941176470588235,2.0,0.7941176470588235,"(166, 8)",Buy Strong,binance,GTOBNB
250,0.8055555555555556,1d,0.00010151,2018-06-01,"{'macdh': 0.22, 'sod_14': 0.14, 'wr_14': 0.13, 'macd': 0.12, 'obv_2': 0.11, 'volume': 0.11, 'rsi_14': 0.09, 'roc_2': 0.08}",5y,0.8055555555555556,-1.0,0.8055555555555556,"(172, 8)",Sell,binance,WABIBTC
251,0.7592592592592593,1d,5.15e-06,2018-06-01,"{'obv_2': 0.19, 'roc_2': 0.16, 'volume': 0.15, 'sod_14': 0.15, 'rsi_14': 0.12, 'wr_14': 0.12, 'macd': 0.06, 'macdh': 0.05}",5y,0.7592592592592593,2.0,0.7592592592592593,"(243, 8)",Buy Strong,binance,XVGBTC
252,0.84375,1d,0.020344,2018-06-01,"{'macd': 0.19, 'volume': 0.15, 'rsi_14': 0.14, 'macdh': 0.13, 'sod_14': 0.12, 'obv_2': 0.11, 'roc_2': 0.09, 'wr_14': 0.07}",5y,0.84375,-1.0,0.84375,"(156, 8)",Sell,binance,LUNETH
253,0.7948717948717948,1d,8.155e-05,2018-06-01,"{'sod_14': 0.18, 'macd': 0.14, 'macdh': 0.13, 'rsi_14': 0.13, 'volume': 0.13, 'wr_14': 0.13, 'obv_2': 0.09, 'roc_2': 0.08}",5y,0.7948717948717948,2.0,0.7948717948717948,"(185, 8)",Buy Strong,binance,ADXBTC
254,0.7906976744186046,1d,0.00206363,2018-06-01,"{'macdh': 0.16, 'macd': 0.15, 'rsi_14': 0.15, 'sod_14': 0.14, 'volume': 0.11, 'wr_14': 0.11, 'obv_2': 0.09, 'roc_2': 0.08}",5y,0.7906976744186046,2.0,0.7906976744186046,"(199, 8)",Buy Strong,binance,ARNETH
255,0.8666666666666667,1d,4.805e-05,2018-06-01,"{'volume': 0.18, 'sod_14': 0.16, 'macd': 0.15, 'rsi_14': 0.14, 'obv_2': 0.13, 'roc_2': 0.09, 'wr_14': 0.08, 'macdh': 0.07}",5y,0.8666666666666667,2.0,0.8666666666666667,"(148, 8)",Buy Strong,binance,APPCBTC
256,0.7884615384615384,1d,0.000391,2018-06-01,"{'volume': 0.22, 'obv_2': 0.2, 'sod_14': 0.12, 'roc_2': 0.11, 'macdh': 0.09, 'rsi_14': 0.09, 'wr_14': 0.09, 'macd': 0.08}",5y,0.7884615384615384,2.0,0.7884615384615384,"(236, 8)",Buy Strong,binance,MTLBTC
257,0.7454545454545455,1d,0.0025255,2018-06-01,"{'macd': 0.19, 'volume': 0.14, 'sod_14': 0.14, 'macdh': 0.12, 'rsi_14': 0.12, 'obv_2': 0.1, 'roc_2': 0.1, 'wr_14': 0.09}",5y,0.7454545454545455,2.0,0.7454545454545455,"(249, 8)",Buy Strong,binance,KNCETH
258,0.7674418604651163,1d,3.753e-05,2018-06-01,"{'macdh': 0.2, 'rsi_14': 0.16, 'macd': 0.15, 'sod_14': 0.13, 'volume': 0.12, 'obv_2': 0.1, 'wr_14': 0.09, 'roc_2': 0.06}",5y,0.7674418604651163,-2.0,0.7674418604651163,"(201, 8)",Sell Strong,binance,BATBTC
259,0.8055555555555556,1d,8.51,2018-06-01,"{'macd': 0.22, 'macdh': 0.16, 'volume': 0.15, 'rsi_14': 0.14, 'obv_2': 0.09, 'sod_14': 0.09, 'wr_14': 0.08, 'roc_2': 0.07}",5y,0.8055555555555556,-1.0,0.8055555555555556,"(171, 8)",Sell,binance,LTCBNB
260,0.7727272727272727,1d,5.469e-05,2018-06-01,"{'volume': 0.22, 'obv_2': 0.16, 'wr_14': 0.13, 'macd': 0.12, 'macdh': 0.1, 'rsi_14': 0.1, 'sod_14': 0.1, 'roc_2': 0.06}",5y,0.7727272727272727,2.0,0.7727272727272727,"(116, 8)",Buy Strong,binance,BLZBTC
261,0.7254901960784313,1d,0.00026041,2018-06-01,"{'macd': 0.19, 'macdh': 0.15, 'volume': 0.15, 'obv_2': 0.12, 'sod_14': 0.12, 'roc_2': 0.09, 'rsi_14': 0.09, 'wr_14': 0.09}",5y,0.7254901960784313,-2.0,0.7254901960784313,"(232, 8)",Sell Strong,binance,ENGBTC
262,0.8378378378378378,1d,0.076392,2018-06-01,"{'macdh': 0.18, 'volume': 0.16, 'obv_2': 0.13, 'sod_14': 0.12, 'macd': 0.11, 'rsi_14': 0.11, 'wr_14': 0.1, 'roc_2': 0.09}",5y,0.8378378378378378,-2.0,0.8378378378378378,"(323, 8)",Sell Strong,binance,ETHBTC
263,0.7906976744186046,1d,0.00049185,2018-06-01,"{'rsi_14': 0.18, 'macd': 0.17, 'macdh': 0.15, 'sod_14': 0.13, 'volume': 0.12, 'roc_2': 0.1, 'obv_2': 0.08, 'wr_14': 0.08}",5y,0.7906976744186046,2.0,0.7906976744186046,"(201, 8)",Buy Strong,binance,BATETH
264,0.926829268292683,1d,2.094,2018-06-01,"{'wr_14': 0.24, 'macd': 0.19, 'macdh': 0.12, 'obv_2': 0.12, 'sod_14': 0.11, 'rsi_14': 0.1, 'volume': 0.1, 'roc_2': 0.04}",5y,0.926829268292683,-1.0,0.926829268292683,"(192, 8)",Sell,binance,XZCBNB
