,accuracy,close,date,features,precision,prediction,recall,shape,signal,symbol
0,0.8064516129032258,186.31,2018-05-18,"{'macd': 0.15, 'volume': 0.14, 'macdh': 0.13, 'rsi_14': 0.13, 'sod_14': 0.13, 'obv_2': 0.12, 'wr_14': 0.11, 'roc_2': 0.09}",0.8064516129032258,-1.0,0.8064516129032258,"(1304, 8)",Sell,AAPL
1,0.8,100.99,2018-05-18,"{'macd': 0.15, 'volume': 0.14, 'macdh': 0.13, 'rsi_14': 0.13, 'sod_14': 0.13, 'obv_2': 0.11, 'roc_2': 0.1, 'wr_14': 0.1}",0.8,-2.0,0.8,"(1304, 8)",Strong Sell,AXP
2,0.8064516129032258,351.23,2018-05-18,"{'macd': 0.16, 'sod_14': 0.15, 'rsi_14': 0.14, 'volume': 0.14, 'macdh': 0.12, 'obv_2': 0.11, 'wr_14': 0.1, 'roc_2': 0.09}",0.8064516129032258,-1.0,0.8064516129032258,"(1304, 8)",Sell,BA
3,0.7677419354838709,155.71,2018-05-18,"{'macd': 0.16, 'sod_14': 0.14, 'macdh': 0.13, 'obv_2': 0.12, 'rsi_14': 0.12, 'volume': 0.12, 'roc_2': 0.1, 'wr_14': 0.1}",0.7677419354838709,-2.0,0.7677419354838709,"(1303, 8)",Strong Sell,CAT
4,0.8129032258064516,43.21,2018-05-18,"{'macd': 0.15, 'rsi_14': 0.15, 'volume': 0.14, 'sod_14': 0.14, 'macdh': 0.13, 'obv_2': 0.11, 'wr_14': 0.1, 'roc_2': 0.09}",0.8129032258064516,-1.0,0.8129032258064516,"(1303, 8)",Sell,CSCO
5,0.7967741935483871,127.86,2018-05-18,"{'macd': 0.15, 'volume': 0.15, 'sod_14': 0.15, 'macdh': 0.12, 'rsi_14': 0.12, 'obv_2': 0.11, 'roc_2': 0.1, 'wr_14': 0.1}",0.7967741935483871,1.0,0.7967741935483871,"(1303, 8)",Buy,CVX
6,0.7193548387096774,103.93,2018-05-18,"{'macd': 0.16, 'rsi_14': 0.14, 'macdh': 0.13, 'volume': 0.13, 'sod_14': 0.13, 'wr_14': 0.11, 'obv_2': 0.1, 'roc_2': 0.09}",0.7193548387096774,2.0,0.7193548387096774,"(1303, 8)",Strong Buy,DIS
7,0.7774193548387097,14.97,2018-05-18,"{'macd': 0.16, 'rsi_14': 0.14, 'volume': 0.13, 'sod_14': 0.13, 'macdh': 0.12, 'obv_2': 0.12, 'wr_14': 0.11, 'roc_2': 0.09}",0.7774193548387097,-1.0,0.7774193548387097,"(1303, 8)",Sell,GE
8,0.7129032258064516,237.0,2018-05-18,"{'macd': 0.15, 'macdh': 0.14, 'rsi_14': 0.14, 'sod_14': 0.14, 'volume': 0.12, 'roc_2': 0.11, 'wr_14': 0.11, 'obv_2': 0.1}",0.7129032258064516,-2.0,0.7129032258064516,"(1303, 8)",Strong Sell,GS
9,0.7677419354838709,187.42,2018-05-18,"{'macd': 0.15, 'rsi_14': 0.14, 'sod_14': 0.14, 'volume': 0.13, 'macdh': 0.12, 'obv_2': 0.11, 'wr_14': 0.11, 'roc_2': 0.1}",0.7677419354838709,-2.0,0.7677419354838709,"(1303, 8)",Strong Sell,HD
10,0.7741935483870968,144.08,2018-05-18,"{'macd': 0.15, 'macdh': 0.15, 'rsi_14': 0.14, 'sod_14': 0.14, 'volume': 0.12, 'wr_14': 0.11, 'obv_2': 0.1, 'roc_2': 0.09}",0.7741935483870968,-1.0,0.7741935483870968,"(1303, 8)",Sell,IBM
11,0.7806451612903226,53.5,2018-05-18,"{'macd': 0.14, 'macdh': 0.14, 'sod_14': 0.14, 'rsi_14': 0.13, 'volume': 0.13, 'obv_2': 0.11, 'wr_14': 0.11, 'roc_2': 0.1}",0.7806451612903226,2.0,0.7806451612903226,"(1303, 8)",Strong Buy,INTC
12,0.7870967741935484,124.24,2018-05-18,"{'sod_14': 0.15, 'macd': 0.14, 'macdh': 0.13, 'rsi_14': 0.13, 'volume': 0.13, 'obv_2': 0.11, 'wr_14': 0.11, 'roc_2': 0.1}",0.7870967741935484,-1.0,0.7870967741935484,"(1303, 8)",Sell,JNJ
13,0.7483870967741936,111.13,2018-05-18,"{'macd': 0.15, 'volume': 0.14, 'sod_14': 0.14, 'rsi_14': 0.13, 'macdh': 0.12, 'obv_2': 0.12, 'wr_14': 0.11, 'roc_2': 0.1}",0.7483870967741936,1.0,0.7483870967741936,"(1303, 8)",Buy,JPM
14,0.7322580645161291,42.18,2018-05-18,"{'macd': 0.16, 'sod_14': 0.15, 'volume': 0.14, 'rsi_14': 0.13, 'macdh': 0.12, 'wr_14': 0.11, 'obv_2': 0.1, 'roc_2': 0.1}",0.7322580645161291,2.0,0.7322580645161291,"(1303, 8)",Strong Buy,KO
15,0.7645161290322581,160.98,2018-05-18,"{'macd': 0.16, 'rsi_14': 0.14, 'volume': 0.14, 'sod_14': 0.14, 'macdh': 0.13, 'wr_14': 0.11, 'obv_2': 0.1, 'roc_2': 0.08}",0.7645161290322581,2.0,0.7645161290322581,"(1303, 8)",Strong Buy,MCD
16,0.8258064516129032,198.96,2018-05-18,"{'sod_14': 0.15, 'macd': 0.14, 'macdh': 0.14, 'rsi_14': 0.14, 'volume': 0.12, 'obv_2': 0.11, 'wr_14': 0.1, 'roc_2': 0.09}",0.8258064516129032,2.0,0.8258064516129032,"(1303, 8)",Strong Buy,MMM
17,0.6806451612903226,59.14,2018-05-18,"{'sod_14': 0.16, 'macdh': 0.14, 'rsi_14': 0.13, 'wr_14': 0.13, 'macd': 0.12, 'obv_2': 0.12, 'volume': 0.12, 'roc_2': 0.1}",0.6806451612903226,-2.0,0.6806451612903226,"(1303, 8)",Strong Sell,MRK
18,0.7679738562091504,96.36,2018-05-18,"{'macd': 0.14, 'obv_2': 0.14, 'volume': 0.14, 'sod_14': 0.14, 'rsi_14': 0.13, 'macdh': 0.11, 'roc_2': 0.1, 'wr_14': 0.1}",0.7679738562091504,2.0,0.7679738562091504,"(1287, 8)",Strong Buy,MSFT
19,0.7838709677419354,71.32,2018-05-18,"{'macd': 0.15, 'rsi_14': 0.15, 'macdh': 0.14, 'sod_14': 0.14, 'volume': 0.13, 'obv_2': 0.1, 'roc_2': 0.1, 'wr_14': 0.1}",0.7838709677419354,-1.0,0.7838709677419354,"(1303, 8)",Sell,NKE
20,0.7225806451612903,35.64,2018-05-18,"{'rsi_14': 0.14, 'volume': 0.14, 'sod_14': 0.14, 'macd': 0.13, 'macdh': 0.13, 'obv_2': 0.11, 'wr_14': 0.11, 'roc_2': 0.1}",0.7225806451612903,1.0,0.7225806451612903,"(1303, 8)",Buy,PFE
21,0.7741935483870968,73.45,2018-05-18,"{'macd': 0.14, 'macdh': 0.14, 'sod_14': 0.14, 'rsi_14': 0.13, 'volume': 0.13, 'obv_2': 0.12, 'roc_2': 0.1, 'wr_14': 0.1}",0.7741935483870968,2.0,0.7741935483870968,"(1303, 8)",Strong Buy,PG
22,0.7677419354838709,129.85,2018-05-18,"{'macd': 0.16, 'macdh': 0.14, 'rsi_14': 0.14, 'volume': 0.13, 'sod_14': 0.13, 'wr_14': 0.11, 'obv_2': 0.1, 'roc_2': 0.09}",0.7677419354838709,-1.0,0.7677419354838709,"(1303, 8)",Sell,TRV
23,0.6967741935483871,244.64,2018-05-18,"{'macd': 0.16, 'sod_14': 0.15, 'rsi_14': 0.14, 'volume': 0.13, 'macdh': 0.12, 'obv_2': 0.11, 'wr_14': 0.1, 'roc_2': 0.09}",0.6967741935483871,1.0,0.6967741935483871,"(1303, 8)",Buy,UNH
24,0.7709677419354839,125.19,2018-05-18,"{'macd': 0.16, 'sod_14': 0.15, 'rsi_14': 0.14, 'macdh': 0.12, 'volume': 0.12, 'obv_2': 0.1, 'roc_2': 0.1, 'wr_14': 0.1}",0.7709677419354839,2.0,0.7709677419354839,"(1303, 8)",Strong Buy,UTX
25,0.7580645161290323,129.93,2018-05-18,"{'macd': 0.14, 'rsi_14': 0.14, 'sod_14': 0.14, 'macdh': 0.13, 'volume': 0.12, 'obv_2': 0.11, 'wr_14': 0.11, 'roc_2': 0.1}",0.7580645161290323,1.0,0.7580645161290323,"(1303, 8)",Buy,V
26,0.7483870967741936,47.74,2018-05-18,"{'macd': 0.16, 'sod_14': 0.15, 'macdh': 0.13, 'rsi_14': 0.13, 'obv_2': 0.12, 'volume': 0.12, 'roc_2': 0.1, 'wr_14': 0.1}",0.7483870967741936,-2.0,0.7483870967741936,"(1303, 8)",Strong Sell,VZ
27,0.8354838709677419,83.64,2018-05-18,"{'macd': 0.16, 'macdh': 0.14, 'rsi_14': 0.14, 'sod_14': 0.14, 'volume': 0.13, 'wr_14': 0.11, 'obv_2': 0.1, 'roc_2': 0.08}",0.8354838709677419,2.0,0.8354838709677419,"(1303, 8)",Strong Buy,WMT
28,0.7096774193548387,81.3,2018-05-18,"{'macd': 0.16, 'volume': 0.14, 'rsi_14': 0.13, 'sod_14': 0.13, 'macdh': 0.12, 'obv_2': 0.11, 'wr_14': 0.11, 'roc_2': 0.1}",0.7096774193548387,-2.0,0.7096774193548387,"(1303, 8)",Strong Sell,XOM
29,0.8258064516129032,4.14,2018-05-18,"{'volume': 0.15, 'macd': 0.14, 'sod_14': 0.14, 'rsi_14': 0.13, 'macdh': 0.12, 'obv_2': 0.11, 'wr_14': 0.11, 'roc_2': 0.09}",0.8258064516129032,1.0,0.8258064516129032,"(1303, 8)",Buy,III
30,0.7193548387096774,45.02,2018-05-18,"{'macd': 0.15, 'rsi_14': 0.14, 'volume': 0.14, 'sod_14': 0.14, 'macdh': 0.13, 'wr_14': 0.11, 'obv_2': 0.1, 'roc_2': 0.09}",0.7193548387096774,-1.0,0.7193548387096774,"(1304, 8)",Sell,ADM
31,0.7645161290322581,43.38,2018-05-18,"{'macd': 0.16, 'sod_14': 0.15, 'volume': 0.14, 'macdh': 0.13, 'rsi_14': 0.12, 'obv_2': 0.11, 'wr_14': 0.11, 'roc_2': 0.09}",0.7645161290322581,1.0,0.7645161290322581,"(1304, 8)",Buy,AAL
32,0.7451612903225806,6.87,2018-05-18,"{'volume': 0.16, 'macd': 0.15, 'macdh': 0.14, 'sod_14': 0.14, 'rsi_14': 0.12, 'obv_2': 0.1, 'wr_14': 0.1, 'roc_2': 0.09}",0.7451612903225806,1.0,0.7451612903225806,"(1304, 8)",Buy,AHT
33,0.7549019607843137,36.33,2018-05-18,"{'macd': 0.15, 'rsi_14': 0.14, 'sod_14': 0.14, 'macdh': 0.13, 'volume': 0.12, 'wr_14': 0.12, 'obv_2': 0.1, 'roc_2': 0.1}",0.7549019607843137,-2.0,0.7549019607843137,"(1287, 8)",Strong Sell,AZN
34,0.8064516129032258,351.23,2018-05-18,"{'macd': 0.16, 'sod_14': 0.15, 'rsi_14': 0.14, 'volume': 0.14, 'macdh': 0.12, 'obv_2': 0.11, 'wr_14': 0.1, 'roc_2': 0.09}",0.8064516129032258,-1.0,0.8064516129032258,"(1304, 8)",Sell,BA
35,0.7419354838709677,47.38,2018-05-18,"{'macd': 0.15, 'volume': 0.15, 'rsi_14': 0.13, 'sod_14': 0.13, 'macdh': 0.12, 'obv_2': 0.12, 'wr_14': 0.11, 'roc_2': 0.09}",0.7419354838709677,1.0,0.7419354838709677,"(1304, 8)",Buy,BP
36,0.7064516129032258,64.84,2018-05-18,"{'sod_14': 0.15, 'macd': 0.13, 'macdh': 0.13, 'volume': 0.13, 'rsi_14': 0.12, 'wr_14': 0.12, 'obv_2': 0.11, 'roc_2': 0.11}",0.7064516129032258,-2.0,0.7064516129032258,"(1303, 8)",Strong Sell,CCL
37,0.7580645161290323,49.27,2018-05-18,"{'sod_14': 0.15, 'macd': 0.14, 'macdh': 0.13, 'rsi_14': 0.13, 'volume': 0.13, 'obv_2': 0.11, 'wr_14': 0.11, 'roc_2': 0.1}",0.7580645161290323,-2.0,0.7580645161290323,"(1303, 8)",Strong Sell,CNA
38,0.7928802588996764,8.49,2018-05-18,"{'volume': 0.18, 'sod_14': 0.15, 'macd': 0.13, 'obv_2': 0.13, 'macdh': 0.12, 'rsi_14': 0.11, 'roc_2': 0.1, 'wr_14': 0.09}",0.7928802588996764,-1.0,0.7928802588996764,"(1302, 8)",Sell,CPG
39,0.7354838709677419,37.73,2018-05-18,"{'volume': 0.16, 'sod_14': 0.16, 'macd': 0.14, 'obv_2': 0.12, 'macdh': 0.11, 'rsi_14': 0.11, 'roc_2': 0.1, 'wr_14': 0.1}",0.7354838709677419,1.0,0.7354838709677419,"(1303, 8)",Buy,CRH
40,0.7266666666666667,131.37,2018-05-18,"{'sod_14': 0.16, 'volume': 0.15, 'macd': 0.14, 'macdh': 0.13, 'rsi_14': 0.12, 'wr_14': 0.11, 'obv_2': 0.1, 'roc_2': 0.1}",0.7266666666666667,1.0,0.7266666666666667,"(1264, 8)",Buy,EZJ
41,0.7645161290322581,108.25,2018-05-18,"{'macd': 0.15, 'macdh': 0.14, 'rsi_14': 0.14, 'sod_14': 0.14, 'volume': 0.12, 'wr_14': 0.11, 'obv_2': 0.1, 'roc_2': 0.1}",0.7645161290322581,1.0,0.7645161290322581,"(1303, 8)",Buy,EVR
42,0.7451612903225806,40.03,2018-05-18,"{'sod_14': 0.15, 'macd': 0.14, 'volume': 0.14, 'macdh': 0.13, 'rsi_14': 0.13, 'obv_2': 0.11, 'wr_14': 0.11, 'roc_2': 0.1}",0.7451612903225806,1.0,0.7451612903225806,"(1303, 8)",Buy,GSK
43,0.7709677419354839,3.96,2018-05-18,"{'macd': 0.16, 'volume': 0.15, 'macdh': 0.13, 'rsi_14': 0.13, 'sod_14': 0.12, 'obv_2': 0.11, 'roc_2': 0.1, 'wr_14': 0.1}",0.7709677419354839,-2.0,0.7709677419354839,"(1303, 8)",Strong Sell,HL
44,0.8258064516129032,12.25,2018-05-18,"{'sod_14': 0.15, 'macd': 0.14, 'rsi_14': 0.14, 'volume': 0.14, 'obv_2': 0.12, 'macdh': 0.11, 'wr_14': 0.11, 'roc_2': 0.09}",0.8258064516129032,-2.0,0.8258064516129032,"(1303, 8)",Strong Sell,INF
45,0.7870967741935484,65.23,2018-05-18,"{'macd': 0.17, 'sod_14': 0.15, 'rsi_14': 0.13, 'macdh': 0.12, 'volume': 0.11, 'wr_14': 0.11, 'obv_2': 0.1, 'roc_2': 0.1}",0.7870967741935484,-2.0,0.7870967741935484,"(1303, 8)",Strong Sell,IHG
46,0.7419354838709677,6.01,2018-05-18,"{'macd': 0.14, 'macdh': 0.14, 'volume': 0.14, 'rsi_14': 0.13, 'sod_14': 0.13, 'obv_2': 0.11, 'wr_14': 0.11, 'roc_2': 0.1}",0.7419354838709677,-1.0,0.7419354838709677,"(1303, 8)",Sell,IAG
47,0.7354838709677419,3.6,2018-05-18,"{'macd': 0.14, 'volume': 0.14, 'macdh': 0.13, 'sod_14': 0.13, 'obv_2': 0.12, 'rsi_14': 0.12, 'wr_14': 0.12, 'roc_2': 0.1}",0.7354838709677419,2.0,0.7354838709677419,"(1303, 8)",Strong Buy,JE
48,0.7774193548387097,12.72,2018-05-18,"{'macd': 0.16, 'volume': 0.15, 'macdh': 0.13, 'rsi_14': 0.13, 'sod_14': 0.13, 'obv_2': 0.12, 'wr_14': 0.1, 'roc_2': 0.09}",0.7774193548387097,1.0,0.7774193548387097,"(1303, 8)",Buy,LAND
49,0.7258064516129032,30.55,2018-05-18,"{'volume': 0.16, 'sod_14': 0.14, 'macd': 0.13, 'rsi_14': 0.13, 'macdh': 0.12, 'obv_2': 0.12, 'wr_14': 0.11, 'roc_2': 0.1}",0.7258064516129032,2.0,0.7258064516129032,"(1303, 8)",Strong Buy,MDC
50,0.7645161290322581,21.41,2018-05-18,"{'volume': 0.19, 'macd': 0.13, 'sod_14': 0.13, 'macdh': 0.12, 'obv_2': 0.12, 'rsi_14': 0.12, 'wr_14': 0.1, 'roc_2': 0.08}",0.7645161290322581,-1.0,0.7645161290322581,"(1303, 8)",Sell,MRO
51,0.761744966442953,26.4806,2018-05-18,"{'macd': 0.16, 'volume': 0.14, 'sod_14': 0.14, 'macdh': 0.13, 'rsi_14': 0.13, 'obv_2': 0.11, 'wr_14': 0.11, 'roc_2': 0.1}",0.761744966442953,-2.0,0.761744966442953,"(1258, 8)",Strong Sell,MCRO
52,0.667741935483871,4.83,2018-05-18,"{'macd': 0.15, 'sod_14': 0.15, 'macdh': 0.13, 'rsi_14': 0.13, 'volume': 0.13, 'wr_14': 0.12, 'obv_2': 0.1, 'roc_2': 0.09}",0.667741935483871,-2.0,0.667741935483871,"(1303, 8)",Strong Sell,NG
53,0.7161290322580646,102.43,2018-05-18,"{'macd': 0.15, 'volume': 0.14, 'sod_14': 0.14, 'rsi_14': 0.13, 'macdh': 0.12, 'obv_2': 0.12, 'roc_2': 0.1, 'wr_14': 0.1}",0.7161290322580646,1.0,0.7161290322580646,"(1303, 8)",Buy,PRU
54,0.7870967741935484,58.41,2018-05-18,"{'volume': 0.15, 'macd': 0.14, 'sod_14': 0.14, 'macdh': 0.13, 'rsi_14': 0.13, 'wr_14': 0.12, 'obv_2': 0.11, 'roc_2': 0.09}",0.7870967741935484,-1.0,0.7870967741935484,"(1303, 8)",Sell,RIO
55,0.7838709677419354,7.92,2018-05-18,"{'macd': 0.15, 'volume': 0.14, 'macdh': 0.13, 'sod_14': 0.13, 'obv_2': 0.12, 'rsi_14': 0.12, 'roc_2': 0.11, 'wr_14': 0.11}",0.7838709677419354,1.0,0.7838709677419354,"(1303, 8)",Buy,RBS
56,0.7870967741935484,1.38,2018-05-18,"{'macd': 0.15, 'sod_14': 0.15, 'macdh': 0.13, 'rsi_14': 0.13, 'volume': 0.13, 'obv_2': 0.11, 'roc_2': 0.1, 'wr_14': 0.1}",0.7870967741935484,1.0,0.7870967741935484,"(1303, 8)",Buy,SDR
57,0.793918918918919,9.125,2018-05-18,"{'volume': 0.16, 'macd': 0.14, 'sod_14': 0.14, 'rsi_14': 0.13, 'macdh': 0.12, 'obv_2': 0.1, 'roc_2': 0.1, 'wr_14': 0.1}",0.793918918918919,-1.0,0.793918918918919,"(1250, 8)",Sell,SVT
58,0.8290322580645161,29.62,2018-05-18,"{'macd': 0.15, 'sod_14': 0.15, 'rsi_14': 0.14, 'macdh': 0.13, 'volume': 0.13, 'wr_14': 0.11, 'obv_2': 0.09, 'roc_2': 0.09}",0.8290322580645161,1.0,0.8290322580645161,"(1303, 8)",Buy,SKY
59,0.8064516129032258,3.96,2018-05-18,"{'volume': 0.18, 'macd': 0.13, 'macdh': 0.13, 'obv_2': 0.12, 'rsi_14': 0.12, 'sod_14': 0.12, 'wr_14': 0.1, 'roc_2': 0.09}",0.8064516129032258,-2.0,0.8064516129032258,"(1303, 8)",Strong Sell,SN
60,0.7814569536423841,45.3,2018-05-18,"{'volume': 0.15, 'sod_14': 0.15, 'macd': 0.14, 'rsi_14': 0.13, 'macdh': 0.12, 'obv_2': 0.11, 'wr_14': 0.11, 'roc_2': 0.09}",0.7814569536423841,1.0,0.7814569536423841,"(1273, 8)",Buy,SMIN
61,0.7645161290322581,72.82,2018-05-18,"{'macd': 0.14, 'macdh': 0.14, 'rsi_14': 0.14, 'volume': 0.13, 'sod_14': 0.12, 'obv_2': 0.11, 'wr_14': 0.11, 'roc_2': 0.1}",0.7645161290322581,-1.0,0.7645161290322581,"(1303, 8)",Sell,TSCO
62,0.8096774193548387,26.41,2018-05-18,"{'macd': 0.15, 'sod_14': 0.15, 'macdh': 0.14, 'rsi_14': 0.14, 'volume': 0.13, 'obv_2': 0.11, 'wr_14': 0.11, 'roc_2': 0.09}",0.8096774193548387,1.0,0.8096774193548387,"(1303, 8)",Buy,VOD
63,0.7193548387096774,89.19,2018-05-18,"{'volume': 0.15, 'sod_14': 0.14, 'macd': 0.13, 'macdh': 0.12, 'rsi_14': 0.12, 'obv_2': 0.11, 'roc_2': 0.11, 'wr_14': 0.11}",0.7193548387096774,-2.0,0.7193548387096774,"(1303, 8)",Strong Sell,WPP
64,0.7741935483870968,46.74,2018-05-18,"{'volume': 0.16, 'macd': 0.15, 'sod_14': 0.14, 'macdh': 0.12, 'obv_2': 0.12, 'rsi_14': 0.12, 'wr_14': 0.1, 'roc_2': 0.09}",0.7741935483870968,2.0,0.7741935483870968,"(1303, 8)",Strong Buy,ALFA
65,0.8529411764705882,51.47,2018-05-18,"{'macd': 0.17, 'volume': 0.17, 'sod_14': 0.14, 'obv_2': 0.12, 'rsi_14': 0.12, 'macdh': 0.11, 'wr_14': 0.11, 'roc_2': 0.07}",0.8529411764705882,-2.0,0.8529411764705882,"(609, 8)",Strong Sell,AGR
66,0.8096774193548387,3.74,2018-05-18,"{'macd': 0.16, 'sod_14': 0.16, 'volume': 0.14, 'macdh': 0.13, 'rsi_14': 0.13, 'obv_2': 0.1, 'wr_14': 0.1, 'roc_2': 0.08}",0.8096774193548387,-1.0,0.8096774193548387,"(1304, 8)",Sell,AUTO
67,0.6741935483870968,36.15,2018-05-18,"{'macd': 0.14, 'macdh': 0.14, 'volume': 0.14, 'sod_14': 0.14, 'rsi_14': 0.13, 'obv_2': 0.12, 'roc_2': 0.1, 'wr_14': 0.1}",0.6741935483870968,1.0,0.6741935483870968,"(1304, 8)",Buy,BME
68,0.7741935483870968,29.4,2018-05-18,"{'macd': 0.15, 'macdh': 0.14, 'rsi_14': 0.14, 'volume': 0.14, 'sod_14': 0.12, 'obv_2': 0.11, 'wr_14': 0.11, 'roc_2': 0.08}",0.7741935483870968,-2.0,0.7741935483870968,"(1304, 8)",Strong Sell,BAB
69,0.8,78.25,2018-05-18,"{'macd': 0.15, 'sod_14': 0.15, 'macdh': 0.14, 'rsi_14': 0.14, 'wr_14': 0.12, 'volume': 0.11, 'obv_2': 0.1, 'roc_2': 0.09}",0.8,1.0,0.8,"(1304, 8)",Buy,BBY
70,0.7935483870967742,2.69,2018-05-18,"{'macd': 0.15, 'volume': 0.15, 'sod_14': 0.14, 'rsi_14': 0.13, 'macdh': 0.12, 'obv_2': 0.11, 'roc_2': 0.1, 'wr_14': 0.1}",0.7935483870967742,1.0,0.7935483870967742,"(1304, 8)",Buy,BTG
71,0.6666666666666666,27.6225,2018-05-18,"{'sod_14': 0.15, 'volume': 0.14, 'macd': 0.13, 'obv_2': 0.12, 'roc_2': 0.12, 'rsi_14': 0.12, 'macdh': 0.11, 'wr_14': 0.11}",0.6666666666666666,-1.0,0.6666666666666666,"(1290, 8)",Sell,CPI
72,0.8489932885906041,20.64,2018-05-18,"{'macd': 0.17, 'volume': 0.17, 'rsi_14': 0.14, 'sod_14': 0.13, 'obv_2': 0.11, 'wr_14': 0.11, 'macdh': 0.1, 'roc_2': 0.08}",0.8489932885906041,-2.0,0.8489932885906041,"(1256, 8)",Strong Sell,CTY
73,0.6989966555183946,47.31,2018-03-19,"{'sod_14': 0.14, 'macd': 0.13, 'macdh': 0.13, 'rsi_14': 0.13, 'volume': 0.13, 'obv_2': 0.12, 'wr_14': 0.11, 'roc_2': 0.1}",0.6989966555183946,-2.0,0.6989966555183946,"(1260, 8)",Strong Sell,CBG
74,0.7516129032258064,17.51,2018-05-18,"{'macd': 0.17, 'macdh': 0.14, 'rsi_14': 0.13, 'volume': 0.13, 'sod_14': 0.13, 'obv_2': 0.11, 'roc_2': 0.1, 'wr_14': 0.1}",0.7516129032258064,-1.0,0.7516129032258064,"(1303, 8)",Sell,CLI
75,0.7348993288590604,21.5,2018-03-08,"{'sod_14': 0.17, 'volume': 0.15, 'macd': 0.13, 'macdh': 0.13, 'obv_2': 0.12, 'rsi_14': 0.12, 'wr_14': 0.1, 'roc_2': 0.09}",0.7348993288590604,-1.0,0.7348993288590604,"(1258, 8)",Sell,CCC
76,0.7322580645161291,10.89,2018-05-18,"{'rsi_14': 0.15, 'macd': 0.14, 'volume': 0.13, 'sod_14': 0.13, 'macdh': 0.12, 'obv_2': 0.12, 'wr_14': 0.11, 'roc_2': 0.1}",0.7322580645161291,-1.0,0.7322580645161291,"(1303, 8)",Sell,GLO
77,0.7193548387096774,90.08,2018-05-18,"{'rsi_14': 0.15, 'macd': 0.14, 'macdh': 0.13, 'sod_14': 0.13, 'volume': 0.12, 'obv_2': 0.11, 'wr_14': 0.11, 'roc_2': 0.1}",0.7193548387096774,2.0,0.7193548387096774,"(1303, 8)",Strong Buy,DLN
78,0.7225806451612903,25.97,2018-05-18,"{'volume': 0.15, 'macd': 0.14, 'macdh': 0.13, 'rsi_14': 0.13, 'sod_14': 0.13, 'obv_2': 0.11, 'wr_14': 0.11, 'roc_2': 0.1}",0.7225806451612903,-1.0,0.7225806451612903,"(1303, 8)",Sell,ETO
79,0.762962962962963,35.54,2018-05-18,"{'macd': 0.16, 'rsi_14': 0.15, 'sod_14': 0.13, 'macdh': 0.12, 'volume': 0.12, 'wr_14': 0.12, 'obv_2': 0.11, 'roc_2': 0.09}",0.762962962962963,1.0,0.762962962962963,"(1145, 8)",Buy,ESNT
80,0.6730769230769231,22.04,2018-05-18,"{'macd': 0.19, 'rsi_14': 0.18, 'macdh': 0.14, 'sod_14': 0.12, 'wr_14': 0.11, 'obv_2': 0.09, 'roc_2': 0.08, 'volume': 0.08}",0.6730769230769231,2.0,0.6730769230769231,"(273, 8)",Strong Buy,ERM
81,0.7379310344827587,22.06,2018-05-18,"{'volume': 0.18, 'macd': 0.13, 'sod_14': 0.13, 'obv_2': 0.12, 'rsi_14': 0.12, 'macdh': 0.11, 'wr_14': 0.11, 'roc_2': 0.1}",0.7379310344827587,-2.0,0.7379310344827587,"(643, 8)",Strong Sell,FCPT
82,0.7387096774193549,50.03,2018-05-18,"{'macd': 0.14, 'macdh': 0.13, 'rsi_14': 0.13, 'volume': 0.13, 'sod_14': 0.13, 'wr_14': 0.12, 'obv_2': 0.11, 'roc_2': 0.1}",0.7387096774193549,-2.0,0.7387096774193549,"(1303, 8)",Strong Sell,FDM
83,0.7741935483870968,3.73,2018-05-18,"{'macd': 0.15, 'volume': 0.14, 'macdh': 0.13, 'rsi_14': 0.13, 'sod_14': 0.13, 'wr_14': 0.11, 'obv_2': 0.1, 'roc_2': 0.1}",0.7741935483870968,2.0,0.7741935483870968,"(1303, 8)",Strong Buy,FGP
84,0.8076923076923077,31.25,2018-05-18,"{'sod_14': 0.17, 'macd': 0.15, 'rsi_14': 0.14, 'volume': 0.13, 'macdh': 0.11, 'obv_2': 0.11, 'wr_14': 0.11, 'roc_2': 0.09}",0.8076923076923077,2.0,0.8076923076923077,"(584, 8)",Strong Buy,GCP
85,0.7741935483870968,0.7047,2018-05-18,"{'macd': 0.15, 'rsi_14': 0.14, 'macdh': 0.13, 'volume': 0.13, 'sod_14': 0.13, 'obv_2': 0.11, 'wr_14': 0.11, 'roc_2': 0.09}",0.7741935483870968,1.0,0.7741935483870968,"(1303, 8)",Buy,GSS
86,0.7580645161290323,10.65,2018-05-18,"{'macd': 0.16, 'sod_14': 0.14, 'rsi_14': 0.13, 'volume': 0.13, 'macdh': 0.12, 'obv_2': 0.11, 'wr_14': 0.11, 'roc_2': 0.1}",0.7580645161290323,1.0,0.7580645161290323,"(1303, 8)",Buy,GPOR
87,0.7451612903225806,42.7053,2018-05-18,"{'volume': 0.15, 'macd': 0.14, 'sod_14': 0.14, 'macdh': 0.12, 'obv_2': 0.12, 'rsi_14': 0.12, 'wr_14': 0.11, 'roc_2': 0.1}",0.7451612903225806,-1.0,0.7451612903225806,"(1303, 8)",Sell,GRI
88,0.8064516129032258,3.4,2018-05-18,"{'macd': 0.15, 'volume': 0.15, 'rsi_14': 0.14, 'sod_14': 0.14, 'macdh': 0.13, 'obv_2': 0.11, 'roc_2': 0.09, 'wr_14': 0.09}",0.8064516129032258,2.0,0.8064516129032258,"(1303, 8)",Strong Buy,GNC
89,0.8413461538461539,17.71,2018-05-18,"{'volume': 0.22, 'sod_14': 0.15, 'macd': 0.14, 'rsi_14': 0.14, 'macdh': 0.09, 'obv_2': 0.09, 'wr_14': 0.09, 'roc_2': 0.08}",0.8413461538461539,1.0,0.8413461538461539,"(896, 8)",Buy,GNK
90,0.7096774193548387,88.71,2018-05-18,"{'macd': 0.15, 'macdh': 0.14, 'volume': 0.14, 'rsi_14': 0.13, 'sod_14': 0.13, 'obv_2': 0.11, 'wr_14': 0.11, 'roc_2': 0.09}",0.7096774193548387,-1.0,0.7096774193548387,"(1303, 8)",Sell,HAS
91,0.8,58.74,2018-05-18,"{'macdh': 0.16, 'macd': 0.15, 'rsi_14': 0.14, 'sod_14': 0.13, 'volume': 0.12, 'wr_14': 0.11, 'obv_2': 0.1, 'roc_2': 0.09}",0.8,2.0,0.8,"(1303, 8)",Strong Buy,HRI
92,0.7419354838709677,1.44,2018-05-18,"{'macd': 0.17, 'volume': 0.15, 'macdh': 0.14, 'sod_14': 0.14, 'rsi_14': 0.13, 'obv_2': 0.1, 'wr_14': 0.09, 'roc_2': 0.08}",0.7419354838709677,-1.0,0.7419354838709677,"(1303, 8)",Sell,IMI
93,0.6935483870967742,190.54,2018-05-18,"{'macd': 0.14, 'macdh': 0.14, 'sod_14': 0.14, 'volume': 0.13, 'wr_14': 0.12, 'obv_2': 0.11, 'roc_2': 0.11, 'rsi_14': 0.11}",0.6935483870967742,-2.0,0.6935483870967742,"(1303, 8)",Strong Sell,INTU
94,0.7362637362637363,28.85,2018-05-18,"{'volume': 0.17, 'macd': 0.16, 'macdh': 0.12, 'obv_2': 0.12, 'rsi_14': 0.12, 'sod_14': 0.12, 'wr_14': 0.1, 'roc_2': 0.09}",0.7362637362637363,-2.0,0.7362637362637363,"(1156, 8)",Strong Sell,IPO
95,0.8468085106382979,35.71,2018-05-18,"{'volume': 0.15, 'macd': 0.14, 'macdh': 0.14, 'sod_14': 0.14, 'rsi_14': 0.13, 'obv_2': 0.12, 'wr_14': 0.1, 'roc_2': 0.08}",0.8468085106382979,2.0,0.8468085106382979,"(1006, 8)",Strong Buy,JD
96,0.632258064516129,30.68,2018-05-18,"{'macd': 0.15, 'macdh': 0.14, 'rsi_14': 0.13, 'sod_14': 0.13, 'volume': 0.12, 'wr_14': 0.12, 'obv_2': 0.11, 'roc_2': 0.11}",0.632258064516129,1.0,0.632258064516129,"(1303, 8)",Buy,KIE
97,0.7258064516129032,32.3,2018-05-18,"{'macd': 0.17, 'sod_14': 0.14, 'macdh': 0.13, 'rsi_14': 0.13, 'volume': 0.13, 'wr_14': 0.11, 'obv_2': 0.1, 'roc_2': 0.1}",0.7258064516129032,-2.0,0.7258064516129032,"(1303, 8)",Strong Sell,MCS
98,0.7193548387096774,20.81,2018-05-18,"{'volume': 0.16, 'macd': 0.14, 'sod_14': 0.14, 'rsi_14': 0.13, 'macdh': 0.12, 'obv_2': 0.11, 'roc_2': 0.1, 'wr_14': 0.1}",0.7193548387096774,-2.0,0.7193548387096774,"(1303, 8)",Strong Sell,MRC
99,0.7516556291390728,12.68,2018-05-18,"{'sod_14': 0.16, 'macdh': 0.15, 'macd': 0.14, 'rsi_14': 0.12, 'volume': 0.12, 'wr_14': 0.12, 'obv_2': 0.1, 'roc_2': 0.08}",0.7516556291390728,2.0,0.7516556291390728,"(1274, 8)",Strong Buy,MAB
100,0.7903225806451613,12.4,2018-05-18,"{'macd': 0.15, 'rsi_14': 0.14, 'volume': 0.13, 'sod_14': 0.13, 'macdh': 0.12, 'obv_2': 0.12, 'wr_14': 0.11, 'roc_2': 0.09}",0.7903225806451613,1.0,0.7903225806451613,"(1303, 8)",Buy,MYI
101,0.7666666666666667,41.12,2018-05-18,"{'volume': 0.17, 'macd': 0.16, 'rsi_14': 0.13, 'wr_14': 0.12, 'sod_14': 0.12, 'macdh': 0.11, 'obv_2': 0.1, 'roc_2': 0.09}",0.7666666666666667,1.0,0.7666666666666667,"(1265, 8)",Buy,OSB
102,0.7032258064516129,24.26,2018-05-18,"{'volume': 0.15, 'sod_14': 0.15, 'macd': 0.14, 'macdh': 0.13, 'rsi_14': 0.12, 'roc_2': 0.11, 'obv_2': 0.1, 'wr_14': 0.1}",0.7032258064516129,2.0,0.7032258064516129,"(1303, 8)",Strong Buy,PIN
103,0.7161290322580646,48.0,2018-05-18,"{'macd': 0.14, 'volume': 0.14, 'sod_14': 0.14, 'macdh': 0.13, 'rsi_14': 0.13, 'obv_2': 0.12, 'wr_14': 0.11, 'roc_2': 0.09}",0.7161290322580646,1.0,0.7161290322580646,"(1303, 8)",Buy,PAG
104,0.7774193548387097,35.85,2018-05-18,"{'macd': 0.18, 'rsi_14': 0.13, 'volume': 0.13, 'sod_14': 0.13, 'macdh': 0.12, 'wr_14': 0.11, 'obv_2': 0.1, 'roc_2': 0.09}",0.7774193548387097,2.0,0.7774193548387097,"(1303, 8)",Strong Buy,PETS
105,0.6870967741935484,58.8,2018-05-18,"{'macd': 0.14, 'volume': 0.14, 'macdh': 0.13, 'rsi_14': 0.13, 'sod_14': 0.13, 'obv_2': 0.12, 'wr_14': 0.12, 'roc_2': 0.09}",0.6870967741935484,2.0,0.6870967741935484,"(1303, 8)",Strong Buy,PFG
106,0.7870967741935484,10.01,2018-05-18,"{'macd': 0.16, 'sod_14': 0.15, 'macdh': 0.13, 'rsi_14': 0.12, 'volume': 0.12, 'wr_14': 0.12, 'obv_2': 0.11, 'roc_2': 0.09}",0.7870967741935484,2.0,0.7870967741935484,"(1303, 8)",Strong Buy,PZC
107,0.7516129032258064,15.45,2018-05-18,"{'macd': 0.16, 'macdh': 0.14, 'rsi_14': 0.14, 'sod_14': 0.14, 'volume': 0.11, 'wr_14': 0.11, 'obv_2': 0.1, 'roc_2': 0.09}",0.7516129032258064,-1.0,0.7516129032258064,"(1303, 8)",Sell,RDI
108,0.4146341463414634,18.36,2018-05-18,"{'macd': 0.16, 'obv_2': 0.14, 'sod_14': 0.14, 'macdh': 0.13, 'roc_2': 0.12, 'volume': 0.12, 'wr_14': 0.11, 'rsi_14': 0.09}",0.4146341463414634,-2.0,0.4146341463414634,"(229, 8)",Strong Sell,SAFE
109,0.8,35.85,2018-05-18,"{'macd': 0.15, 'volume': 0.14, 'sod_14': 0.14, 'rsi_14': 0.13, 'macdh': 0.12, 'obv_2': 0.11, 'wr_14': 0.11, 'roc_2': 0.1}",0.8,-1.0,0.8,"(1303, 8)",Sell,SNN
110,0.7857142857142857,28.18,2018-05-18,"{'macd': 0.15, 'sod_14': 0.15, 'volume': 0.14, 'macdh': 0.13, 'rsi_14': 0.13, 'wr_14': 0.11, 'obv_2': 0.1, 'roc_2': 0.09}",0.7857142857142857,-1.0,0.7857142857142857,"(1295, 8)",Sell,SDP
111,0.7766990291262136,18.69,2018-05-18,"{'sod_14': 0.15, 'macd': 0.14, 'volume': 0.14, 'rsi_14': 0.13, 'macdh': 0.12, 'obv_2': 0.11, 'wr_14': 0.11, 'roc_2': 0.09}",0.7766990291262136,1.0,0.7766990291262136,"(1300, 8)",Buy,SCIN
112,0.8028846153846154,7.47,2018-05-18,"{'macd': 0.17, 'rsi_14': 0.15, 'volume': 0.14, 'sod_14': 0.14, 'macdh': 0.11, 'wr_14': 0.11, 'obv_2': 0.1, 'roc_2': 0.08}",0.8028846153846154,-1.0,0.8028846153846154,"(897, 8)",Sell,SNR
113,0.7870967741935484,69.39,2018-05-18,"{'macd': 0.16, 'sod_14': 0.15, 'macdh': 0.14, 'volume': 0.14, 'rsi_14': 0.13, 'obv_2': 0.1, 'wr_14': 0.1, 'roc_2': 0.08}",0.7870967741935484,-1.0,0.7870967741935484,"(1303, 8)",Sell,SHI
114,0.7692307692307693,0.3803,2018-05-18,"{'rsi_14': 0.17, 'volume': 0.16, 'macd': 0.14, 'obv_2': 0.12, 'sod_14': 0.11, 'macdh': 0.1, 'roc_2': 0.1, 'wr_14': 0.1}",0.7692307692307693,2.0,0.7692307692307693,"(585, 8)",Strong Buy,SPI
115,0.7838709677419354,44.01,2018-05-18,"{'macd': 0.18, 'rsi_14': 0.14, 'volume': 0.14, 'sod_14': 0.13, 'macdh': 0.12, 'obv_2': 0.11, 'wr_14': 0.1, 'roc_2': 0.09}",0.7838709677419354,-1.0,0.7838709677419354,"(1303, 8)",Sell,SMP
116,0.7207792207792207,23.2,2018-05-18,"{'macd': 0.15, 'macdh': 0.15, 'sod_14': 0.14, 'rsi_14': 0.13, 'volume': 0.13, 'wr_14': 0.11, 'obv_2': 0.1, 'roc_2': 0.1}",0.7207792207792207,1.0,0.7207792207792207,"(1298, 8)",Buy,SGC
117,0.8419354838709677,1.9,2018-05-18,"{'volume': 0.15, 'macd': 0.14, 'sod_14': 0.14, 'macdh': 0.13, 'obv_2': 0.12, 'rsi_14': 0.12, 'wr_14': 0.12, 'roc_2': 0.08}",0.8419354838709677,1.0,0.8419354838709677,"(1303, 8)",Buy,SYNC
118,0.7774193548387097,30.3,2018-05-18,"{'macdh': 0.15, 'volume': 0.15, 'sod_14': 0.14, 'macd': 0.13, 'rsi_14': 0.13, 'obv_2': 0.11, 'wr_14': 0.1, 'roc_2': 0.09}",0.7774193548387097,-2.0,0.7774193548387097,"(1303, 8)",Strong Sell,SYNT
119,0.76,43.47,2018-05-18,"{'volume': 0.18, 'macdh': 0.13, 'obv_2': 0.13, 'sod_14': 0.13, 'macd': 0.12, 'rsi_14': 0.12, 'roc_2': 0.1, 'wr_14': 0.09}",0.76,-2.0,0.76,"(1264, 8)",Strong Sell,TEP
120,0.8,11.33,2018-05-18,"{'volume': 0.17, 'macd': 0.14, 'macdh': 0.14, 'rsi_14': 0.13, 'sod_14': 0.13, 'obv_2': 0.11, 'roc_2': 0.09, 'wr_14': 0.09}",0.8,-2.0,0.8,"(1303, 8)",Strong Sell,TCAP
121,0.7774193548387097,2.7,2018-05-18,"{'macd': 0.15, 'volume': 0.15, 'macdh': 0.14, 'rsi_14': 0.14, 'sod_14': 0.12, 'obv_2': 0.11, 'roc_2': 0.1, 'wr_14': 0.1}",0.7774193548387097,-2.0,0.7774193548387097,"(1304, 8)",Strong Sell,BBOX
122,0.861244019138756,17.7858,2018-05-18,"{'sod_14': 0.16, 'volume': 0.15, 'macd': 0.13, 'rsi_14': 0.13, 'macdh': 0.12, 'obv_2': 0.11, 'roc_2': 0.1, 'wr_14': 0.1}",0.861244019138756,-2.0,0.861244019138756,"(900, 8)",Strong Sell,UBM
123,0.8209459459459459,16.52,2018-05-18,"{'volume': 0.16, 'macd': 0.15, 'sod_14': 0.15, 'macdh': 0.12, 'rsi_14': 0.12, 'obv_2': 0.11, 'wr_14': 0.1, 'roc_2': 0.09}",0.8209459459459459,-1.0,0.8209459459459459,"(1250, 8)",Sell,ULE
124,0.7903225806451613,28.15,2018-05-18,"{'volume': 0.15, 'sod_14': 0.15, 'macd': 0.14, 'macdh': 0.13, 'rsi_14': 0.13, 'obv_2': 0.12, 'wr_14': 0.11, 'roc_2': 0.09}",0.7903225806451613,-2.0,0.7903225806451613,"(1303, 8)",Strong Sell,UTG
125,0.86,0.155,2018-03-26,"{'macd': 0.17, 'sod_14': 0.15, 'macdh': 0.14, 'rsi_14': 0.14, 'volume': 0.12, 'obv_2': 0.1, 'wr_14': 0.1, 'roc_2': 0.08}",0.86,-1.0,0.86,"(1265, 8)",Sell,WG
126,0.7096774193548387,71.99,2018-05-18,"{'macd': 0.16, 'macdh': 0.14, 'rsi_14': 0.13, 'volume': 0.13, 'sod_14': 0.13, 'obv_2': 0.11, 'wr_14': 0.11, 'roc_2': 0.1}",0.7096774193548387,2.0,0.7096774193548387,"(1304, 8)",Strong Buy,ATVI
127,0.6903225806451613,238.09,2018-05-18,"{'macd': 0.17, 'macdh': 0.14, 'rsi_14': 0.14, 'sod_14': 0.13, 'volume': 0.12, 'wr_14': 0.11, 'obv_2': 0.1, 'roc_2': 0.09}",0.6903225806451613,2.0,0.6903225806451613,"(1304, 8)",Strong Buy,ADBE
128,0.7,121.07,2018-05-18,"{'macd': 0.15, 'volume': 0.14, 'rsi_14': 0.13, 'sod_14': 0.13, 'macdh': 0.12, 'obv_2': 0.11, 'roc_2': 0.11, 'wr_14': 0.11}",0.7,-1.0,0.7,"(1304, 8)",Sell,ALXN
129,0.7903225806451613,298.0,2018-05-18,"{'macd': 0.18, 'rsi_14': 0.15, 'macdh': 0.13, 'wr_14': 0.12, 'sod_14': 0.12, 'volume': 0.11, 'obv_2': 0.1, 'roc_2': 0.1}",0.7903225806451613,-2.0,0.7903225806451613,"(1304, 8)",Strong Sell,ALGN
130,0.7183673469387755,1066.36,2018-05-18,"{'macd': 0.17, 'macdh': 0.13, 'rsi_14': 0.13, 'volume': 0.13, 'sod_14': 0.13, 'obv_2': 0.11, 'wr_14': 0.11, 'roc_2': 0.09}",0.7183673469387755,1.0,0.7183673469387755,"(1045, 8)",Buy,GOOG
131,0.7645161290322581,1069.64,2018-05-18,"{'macd': 0.18, 'rsi_14': 0.14, 'macdh': 0.13, 'sod_14': 0.13, 'volume': 0.12, 'obv_2': 0.1, 'wr_14': 0.1, 'roc_2': 0.09}",0.7645161290322581,1.0,0.7645161290322581,"(1303, 8)",Buy,GOOGL
132,0.7612903225806451,1574.37,2018-05-18,"{'sod_14': 0.16, 'macd': 0.14, 'volume': 0.14, 'macdh': 0.13, 'rsi_14': 0.13, 'obv_2': 0.11, 'wr_14': 0.1, 'roc_2': 0.09}",0.7612903225806451,2.0,0.7612903225806451,"(1304, 8)",Strong Buy,AMZN
133,0.7645161290322581,43.38,2018-05-18,"{'macd': 0.16, 'sod_14': 0.15, 'volume': 0.14, 'macdh': 0.13, 'rsi_14': 0.12, 'obv_2': 0.11, 'wr_14': 0.11, 'roc_2': 0.09}",0.7645161290322581,1.0,0.7645161290322581,"(1304, 8)",Buy,AAL
134,0.7,176.3,2018-05-18,"{'macd': 0.16, 'rsi_14': 0.14, 'sod_14': 0.13, 'macdh': 0.12, 'volume': 0.12, 'obv_2': 0.11, 'wr_14': 0.11, 'roc_2': 0.1}",0.7,2.0,0.7,"(1304, 8)",Strong Buy,AMGN
135,0.7451612903225806,94.88,2018-05-18,"{'macd': 0.15, 'rsi_14': 0.14, 'volume': 0.13, 'sod_14': 0.13, 'macdh': 0.12, 'obv_2': 0.11, 'roc_2': 0.11, 'wr_14': 0.11}",0.7451612903225806,-1.0,0.7451612903225806,"(1304, 8)",Sell,ADI
136,0.8064516129032258,186.31,2018-05-18,"{'macd': 0.15, 'volume': 0.14, 'macdh': 0.13, 'rsi_14': 0.13, 'sod_14': 0.13, 'obv_2': 0.12, 'wr_14': 0.11, 'roc_2': 0.09}",0.8064516129032258,-1.0,0.8064516129032258,"(1304, 8)",Sell,AAPL
137,0.7612903225806451,49.51,2018-05-18,"{'macd': 0.15, 'macdh': 0.14, 'rsi_14': 0.14, 'sod_14': 0.13, 'volume': 0.12, 'obv_2': 0.11, 'roc_2': 0.11, 'wr_14': 0.11}",0.7612903225806451,-2.0,0.7612903225806451,"(1304, 8)",Strong Sell,AMAT
138,0.6870967741935484,197.34,2018-05-18,"{'macd': 0.16, 'rsi_14': 0.14, 'sod_14': 0.14, 'macdh': 0.13, 'volume': 0.12, 'obv_2': 0.11, 'wr_14': 0.11, 'roc_2': 0.1}",0.6870967741935484,-1.0,0.6870967741935484,"(1304, 8)",Sell,ASML
139,0.7548387096774194,138.85,2018-05-18,"{'macd': 0.16, 'sod_14': 0.15, 'macdh': 0.14, 'rsi_14': 0.12, 'volume': 0.12, 'obv_2': 0.11, 'wr_14': 0.11, 'roc_2': 0.09}",0.7548387096774194,1.0,0.7548387096774194,"(1304, 8)",Buy,ADSK
140,0.7096774193548387,128.91,2018-05-18,"{'macd': 0.16, 'rsi_14': 0.14, 'macdh': 0.13, 'volume': 0.13, 'sod_14': 0.13, 'wr_14': 0.11, 'obv_2': 0.1, 'roc_2': 0.1}",0.7096774193548387,2.0,0.7096774193548387,"(1304, 8)",Strong Buy,ADP
141,0.7580645161290323,253.01,2018-05-18,"{'macd': 0.16, 'sod_14': 0.15, 'rsi_14': 0.14, 'macdh': 0.13, 'volume': 0.13, 'obv_2': 0.1, 'wr_14': 0.1, 'roc_2': 0.09}",0.7580645161290323,-2.0,0.7580645161290323,"(1304, 8)",Strong Sell,BIDU
142,0.7,280.4,2018-05-18,"{'macd': 0.14, 'macdh': 0.13, 'volume': 0.13, 'sod_14': 0.13, 'roc_2': 0.12, 'rsi_14': 0.12, 'wr_14': 0.12, 'obv_2': 0.11}",0.7,-2.0,0.7,"(1304, 8)",Strong Sell,BIIB
143,0.7516129032258064,88.88,2018-05-18,"{'macd': 0.15, 'macdh': 0.14, 'sod_14': 0.14, 'rsi_14': 0.13, 'volume': 0.12, 'obv_2': 0.11, 'roc_2': 0.1, 'wr_14': 0.1}",0.7516129032258064,2.0,0.7516129032258064,"(1303, 8)",Strong Buy,BMRN
144,0.8064516129032258,2066.34,2018-05-18,"{'macd': 0.15, 'rsi_14': 0.15, 'macdh': 0.14, 'sod_14': 0.14, 'volume': 0.13, 'obv_2': 0.1, 'wr_14': 0.1, 'roc_2': 0.09}",0.8064516129032258,-1.0,0.8064516129032258,"(1304, 8)",Sell,BKNG
145,0.7129032258064516,235.99,2018-05-18,"{'macd': 0.15, 'macdh': 0.14, 'rsi_14': 0.14, 'volume': 0.13, 'sod_14': 0.13, 'wr_14': 0.12, 'obv_2': 0.1, 'roc_2': 0.1}",0.7129032258064516,-2.0,0.7129032258064516,"(1304, 8)",Strong Sell,AVGO
146,0.7225806451612903,35.17,2018-05-18,"{'sod_14': 0.16, 'macd': 0.14, 'volume': 0.14, 'macdh': 0.13, 'rsi_14': 0.12, 'obv_2': 0.11, 'wr_14': 0.11, 'roc_2': 0.1}",0.7225806451612903,1.0,0.7225806451612903,"(1303, 8)",Buy,CA
147,0.7387096774193549,41.8,2018-05-18,"{'sod_14': 0.16, 'macd': 0.14, 'volume': 0.14, 'macdh': 0.13, 'rsi_14': 0.12, 'obv_2': 0.11, 'wr_14': 0.11, 'roc_2': 0.1}",0.7387096774193549,2.0,0.7387096774193549,"(1303, 8)",Strong Buy,CDNS
148,0.7483870967741936,78.37,2018-05-18,"{'macdh': 0.15, 'macd': 0.14, 'sod_14': 0.14, 'rsi_14': 0.13, 'volume': 0.13, 'obv_2': 0.11, 'wr_14': 0.11, 'roc_2': 0.09}",0.7483870967741936,2.0,0.7483870967741936,"(1303, 8)",Strong Buy,CELG
149,0.7741935483870968,61.34,2018-05-18,"{'macd': 0.15, 'rsi_14': 0.14, 'sod_14': 0.14, 'macdh': 0.13, 'volume': 0.13, 'obv_2': 0.11, 'roc_2': 0.1, 'wr_14': 0.1}",0.7741935483870968,2.0,0.7741935483870968,"(1303, 8)",Strong Buy,CERN
150,0.7645161290322581,270.17,2018-05-18,"{'macd': 0.16, 'rsi_14': 0.14, 'volume': 0.14, 'macdh': 0.13, 'sod_14': 0.12, 'obv_2': 0.11, 'roc_2': 0.1, 'wr_14': 0.1}",0.7645161290322581,1.0,0.7645161290322581,"(1303, 8)",Buy,CHTR
151,0.7290322580645161,95.68,2018-05-18,"{'macd': 0.15, 'sod_14': 0.15, 'macdh': 0.13, 'rsi_14': 0.13, 'volume': 0.12, 'wr_14': 0.12, 'obv_2': 0.11, 'roc_2': 0.1}",0.7290322580645161,1.0,0.7290322580645161,"(1303, 8)",Buy,CHKP
152,0.7129032258064516,182.85,2018-05-18,"{'macd': 0.18, 'macdh': 0.13, 'rsi_14': 0.13, 'sod_14': 0.13, 'volume': 0.12, 'obv_2': 0.11, 'wr_14': 0.11, 'roc_2': 0.1}",0.7129032258064516,1.0,0.7129032258064516,"(1303, 8)",Buy,CTAS
153,0.8129032258064516,43.21,2018-05-18,"{'macd': 0.15, 'rsi_14': 0.15, 'volume': 0.14, 'sod_14': 0.14, 'macdh': 0.13, 'obv_2': 0.11, 'wr_14': 0.1, 'roc_2': 0.09}",0.8129032258064516,-1.0,0.8129032258064516,"(1303, 8)",Sell,CSCO
154,0.7225806451612903,105.34,2018-05-18,"{'macd': 0.15, 'macdh': 0.14, 'sod_14': 0.14, 'rsi_14': 0.13, 'volume': 0.13, 'wr_14': 0.11, 'obv_2': 0.1, 'roc_2': 0.1}",0.7225806451612903,-2.0,0.7225806451612903,"(1303, 8)",Strong Sell,CTXS
155,0.7741935483870968,76.04,2018-05-18,"{'volume': 0.16, 'macd': 0.14, 'rsi_14': 0.14, 'sod_14': 0.14, 'macdh': 0.12, 'obv_2': 0.11, 'wr_14': 0.1, 'roc_2': 0.08}",0.7741935483870968,-1.0,0.7741935483870968,"(1303, 8)",Sell,CTSH
156,0.7322580645161291,32.72,2018-05-18,"{'macd': 0.15, 'macdh': 0.14, 'rsi_14': 0.14, 'volume': 0.13, 'sod_14': 0.13, 'obv_2': 0.11, 'roc_2': 0.1, 'wr_14': 0.1}",0.7322580645161291,-2.0,0.7322580645161291,"(1303, 8)",Strong Sell,CMCSA
157,0.7838709677419354,198.96,2018-05-18,"{'macd': 0.17, 'sod_14': 0.15, 'macdh': 0.13, 'rsi_14': 0.13, 'volume': 0.12, 'wr_14': 0.11, 'obv_2': 0.1, 'roc_2': 0.09}",0.7838709677419354,-2.0,0.7838709677419354,"(1303, 8)",Strong Sell,COST
158,0.7225806451612903,63.76,2018-05-18,"{'macd': 0.14, 'macdh': 0.14, 'rsi_14': 0.14, 'sod_14': 0.14, 'volume': 0.13, 'obv_2': 0.11, 'wr_14': 0.11, 'roc_2': 0.1}",0.7225806451612903,2.0,0.7225806451612903,"(1303, 8)",Strong Buy,CSX
159,0.7806451612903226,43.09,2018-05-18,"{'macd': 0.15, 'macdh': 0.15, 'sod_14': 0.15, 'rsi_14': 0.12, 'volume': 0.12, 'wr_14': 0.12, 'obv_2': 0.1, 'roc_2': 0.09}",0.7806451612903226,-2.0,0.7806451612903226,"(1303, 8)",Strong Sell,CTRP
160,0.7903225806451613,47.5,2018-05-18,"{'macd': 0.15, 'volume': 0.14, 'sod_14': 0.14, 'macdh': 0.13, 'rsi_14': 0.13, 'obv_2': 0.11, 'wr_14': 0.11, 'roc_2': 0.09}",0.7903225806451613,2.0,0.7903225806451613,"(1303, 8)",Strong Buy,XRAY
161,0.7161290322580646,32.35,2018-05-18,"{'macd': 0.15, 'volume': 0.15, 'macdh': 0.14, 'rsi_14': 0.13, 'sod_14': 0.13, 'obv_2': 0.11, 'wr_14': 0.11, 'roc_2': 0.09}",0.7161290322580646,-2.0,0.7161290322580646,"(1303, 8)",Strong Sell,DISH
162,0.7838709677419354,93.1,2018-05-18,"{'macd': 0.16, 'sod_14': 0.15, 'macdh': 0.14, 'volume': 0.14, 'rsi_14': 0.12, 'obv_2': 0.11, 'wr_14': 0.1, 'roc_2': 0.09}",0.7838709677419354,-1.0,0.7838709677419354,"(1303, 8)",Sell,DLTR
163,0.7,38.32,2018-05-18,"{'sod_14': 0.17, 'macd': 0.14, 'rsi_14': 0.14, 'macdh': 0.13, 'volume': 0.12, 'obv_2': 0.11, 'wr_14': 0.11, 'roc_2': 0.1}",0.7,2.0,0.7,"(1303, 8)",Strong Buy,EBAY
164,0.7645161290322581,132.0,2018-05-18,"{'macd': 0.17, 'macdh': 0.14, 'sod_14': 0.14, 'rsi_14': 0.13, 'volume': 0.12, 'wr_14': 0.11, 'obv_2': 0.1, 'roc_2': 0.09}",0.7645161290322581,-2.0,0.7645161290322581,"(1303, 8)",Strong Sell,EA
165,0.8,115.07,2018-05-18,"{'macd': 0.14, 'macdh': 0.14, 'sod_14': 0.14, 'rsi_14': 0.13, 'volume': 0.13, 'wr_14': 0.11, 'obv_2': 0.1, 'roc_2': 0.1}",0.8,-2.0,0.8,"(1303, 8)",Strong Sell,EXPE
166,0.7225806451612903,75.65,2018-05-18,"{'macd': 0.15, 'rsi_14': 0.14, 'macdh': 0.13, 'sod_14': 0.13, 'volume': 0.12, 'wr_14': 0.12, 'obv_2': 0.11, 'roc_2': 0.1}",0.7225806451612903,2.0,0.7225806451612903,"(1303, 8)",Strong Buy,ESRX
167,0.7222222222222222,182.68,2018-05-18,"{'macd': 0.15, 'volume': 0.15, 'rsi_14': 0.14, 'sod_14': 0.13, 'macdh': 0.12, 'obv_2': 0.11, 'wr_14': 0.1, 'roc_2': 0.09}",0.7222222222222222,-1.0,0.7222222222222222,"(1287, 8)",Sell,FB
168,0.7322580645161291,52.76,2018-05-18,"{'macd': 0.17, 'macdh': 0.14, 'rsi_14': 0.13, 'volume': 0.13, 'sod_14': 0.12, 'obv_2': 0.11, 'wr_14': 0.1, 'roc_2': 0.09}",0.7322580645161291,2.0,0.7322580645161291,"(1303, 8)",Strong Buy,FAST
169,0.6774193548387096,72.98,2018-05-18,"{'macd': 0.15, 'macdh': 0.14, 'rsi_14': 0.13, 'volume': 0.13, 'wr_14': 0.12, 'sod_14': 0.12, 'obv_2': 0.11, 'roc_2': 0.1}",0.6774193548387096,-1.0,0.6774193548387096,"(1303, 8)",Sell,FISV
170,0.7580645161290323,68.02,2018-05-18,"{'macd': 0.14, 'volume': 0.14, 'macdh': 0.13, 'rsi_14': 0.13, 'sod_14': 0.13, 'obv_2': 0.12, 'wr_14': 0.11, 'roc_2': 0.1}",0.7580645161290323,1.0,0.7580645161290323,"(1303, 8)",Buy,GILD
171,0.7096774193548387,88.71,2018-05-18,"{'macd': 0.15, 'macdh': 0.14, 'volume': 0.14, 'rsi_14': 0.13, 'sod_14': 0.13, 'obv_2': 0.11, 'wr_14': 0.11, 'roc_2': 0.09}",0.7096774193548387,-1.0,0.7096774193548387,"(1303, 8)",Sell,HAS
172,0.7387096774193549,71.94,2018-05-18,"{'macd': 0.17, 'sod_14': 0.14, 'rsi_14': 0.13, 'volume': 0.13, 'macdh': 0.12, 'obv_2': 0.11, 'wr_14': 0.11, 'roc_2': 0.1}",0.7387096774193549,-1.0,0.7387096774193549,"(1303, 8)",Sell,HSIC
173,0.7548387096774194,38.82,2018-05-18,"{'volume': 0.15, 'sod_14': 0.15, 'macd': 0.13, 'rsi_14': 0.13, 'macdh': 0.12, 'obv_2': 0.11, 'wr_14': 0.11, 'roc_2': 0.1}",0.7548387096774194,-2.0,0.7548387096774194,"(1303, 8)",Strong Sell,HOLX
174,0.832258064516129,200.76,2018-05-18,"{'macd': 0.16, 'macdh': 0.14, 'sod_14': 0.14, 'rsi_14': 0.13, 'volume': 0.13, 'wr_14': 0.11, 'obv_2': 0.09, 'roc_2': 0.09}",0.832258064516129,-2.0,0.832258064516129,"(1303, 8)",Strong Sell,IDXX
175,0.7967741935483871,269.67,2018-05-18,"{'macd': 0.16, 'rsi_14': 0.14, 'volume': 0.14, 'sod_14': 0.14, 'macdh': 0.13, 'obv_2': 0.11, 'wr_14': 0.1, 'roc_2': 0.08}",0.7967741935483871,-1.0,0.7967741935483871,"(1303, 8)",Sell,ILMN
176,0.7774193548387097,67.83,2018-05-18,"{'macd': 0.16, 'macdh': 0.14, 'volume': 0.14, 'rsi_14': 0.13, 'sod_14': 0.13, 'obv_2': 0.11, 'wr_14': 0.1, 'roc_2': 0.09}",0.7774193548387097,-1.0,0.7774193548387097,"(1303, 8)",Sell,INCY
177,0.7806451612903226,53.5,2018-05-18,"{'macd': 0.14, 'macdh': 0.14, 'sod_14': 0.14, 'rsi_14': 0.13, 'volume': 0.13, 'obv_2': 0.11, 'wr_14': 0.11, 'roc_2': 0.1}",0.7806451612903226,2.0,0.7806451612903226,"(1303, 8)",Strong Buy,INTC
178,0.6935483870967742,190.54,2018-05-18,"{'macd': 0.14, 'macdh': 0.14, 'sod_14': 0.14, 'volume': 0.13, 'wr_14': 0.12, 'obv_2': 0.11, 'roc_2': 0.11, 'rsi_14': 0.11}",0.6935483870967742,-2.0,0.6935483870967742,"(1303, 8)",Strong Sell,INTU
179,0.8,458.79,2018-05-18,"{'macd': 0.15, 'volume': 0.15, 'sod_14': 0.14, 'macdh': 0.13, 'rsi_14': 0.13, 'obv_2': 0.11, 'roc_2': 0.1, 'wr_14': 0.1}",0.8,1.0,0.8,"(1303, 8)",Buy,ISRG
180,0.7806451612903226,126.86,2018-05-18,"{'macd': 0.15, 'sod_14': 0.15, 'macdh': 0.13, 'volume': 0.13, 'rsi_14': 0.12, 'obv_2': 0.11, 'wr_14': 0.11, 'roc_2': 0.1}",0.7806451612903226,1.0,0.7806451612903226,"(1303, 8)",Buy,JBHT
181,0.8468085106382979,35.71,2018-05-18,"{'volume': 0.15, 'macd': 0.14, 'macdh': 0.14, 'sod_14': 0.14, 'rsi_14': 0.13, 'obv_2': 0.12, 'wr_14': 0.1, 'roc_2': 0.08}",0.8468085106382979,2.0,0.8468085106382979,"(1006, 8)",Strong Buy,JD
182,0.8129032258064516,109.39,2018-05-18,"{'macd': 0.15, 'macdh': 0.14, 'rsi_14': 0.13, 'volume': 0.13, 'sod_14': 0.13, 'obv_2': 0.11, 'wr_14': 0.11, 'roc_2': 0.1}",0.8129032258064516,-1.0,0.8129032258064516,"(1303, 8)",Sell,KLAC
183,0.7483870967741936,195.49,2018-05-18,"{'macd': 0.15, 'sod_14': 0.14, 'macdh': 0.13, 'rsi_14': 0.13, 'volume': 0.13, 'obv_2': 0.12, 'wr_14': 0.1, 'roc_2': 0.09}",0.7483870967741936,-2.0,0.7483870967741936,"(1303, 8)",Strong Sell,LRCX
184,0.7870967741935484,29.22,2018-05-18,"{'sod_14': 0.15, 'macd': 0.14, 'volume': 0.14, 'macdh': 0.12, 'obv_2': 0.12, 'rsi_14': 0.12, 'wr_14': 0.11, 'roc_2': 0.1}",0.7870967741935484,2.0,0.7870967741935484,"(1303, 8)",Strong Buy,LBTYA
185,0.8,28.46,2018-05-18,"{'macd': 0.15, 'sod_14': 0.15, 'macdh': 0.13, 'volume': 0.13, 'obv_2': 0.12, 'rsi_14': 0.12, 'wr_14': 0.11, 'roc_2': 0.1}",0.8,-2.0,0.8,"(1303, 8)",Strong Sell,LBTYK
186,0.7645161290322581,138.52,2018-05-18,"{'macd': 0.14, 'macdh': 0.14, 'rsi_14': 0.14, 'sod_14': 0.14, 'volume': 0.13, 'wr_14': 0.11, 'obv_2': 0.1, 'roc_2': 0.1}",0.7645161290322581,-2.0,0.7645161290322581,"(1303, 8)",Strong Sell,MAR
187,0.7838709677419354,57.93,2018-05-18,"{'sod_14': 0.16, 'macd': 0.14, 'macdh': 0.13, 'rsi_14': 0.13, 'volume': 0.12, 'wr_14': 0.11, 'obv_2': 0.1, 'roc_2': 0.1}",0.7838709677419354,2.0,0.7838709677419354,"(1303, 8)",Strong Buy,MXIM
188,0.8387096774193549,295.37,2018-05-18,"{'macd': 0.16, 'macdh': 0.14, 'rsi_14': 0.14, 'sod_14': 0.14, 'volume': 0.13, 'obv_2': 0.11, 'wr_14': 0.1, 'roc_2': 0.09}",0.8387096774193549,2.0,0.8387096774193549,"(1303, 8)",Strong Buy,MELI
189,0.7225806451612903,92.8,2018-05-18,"{'volume': 0.14, 'macd': 0.13, 'macdh': 0.13, 'obv_2': 0.13, 'rsi_14': 0.13, 'sod_14': 0.13, 'roc_2': 0.11, 'wr_14': 0.1}",0.7225806451612903,-2.0,0.7225806451612903,"(1303, 8)",Strong Sell,MCHP
190,0.8225806451612904,53.39,2018-05-18,"{'macd': 0.19, 'rsi_14': 0.15, 'macdh': 0.13, 'volume': 0.13, 'sod_14': 0.11, 'obv_2': 0.1, 'wr_14': 0.1, 'roc_2': 0.08}",0.8225806451612904,-2.0,0.8225806451612904,"(1303, 8)",Strong Sell,MU
191,0.7679738562091504,96.36,2018-05-18,"{'macd': 0.14, 'obv_2': 0.14, 'volume': 0.14, 'sod_14': 0.14, 'rsi_14': 0.13, 'macdh': 0.11, 'roc_2': 0.1, 'wr_14': 0.1}",0.7679738562091504,2.0,0.7679738562091504,"(1287, 8)",Strong Buy,MSFT
192,0.7451612903225806,39.65,2018-05-18,"{'macd': 0.15, 'rsi_14': 0.13, 'volume': 0.13, 'sod_14': 0.13, 'macdh': 0.12, 'obv_2': 0.12, 'wr_14': 0.11, 'roc_2': 0.1}",0.7451612903225806,1.0,0.7451612903225806,"(1303, 8)",Buy,MDLZ
193,0.8161290322580645,49.47,2018-05-18,"{'volume': 0.16, 'macd': 0.15, 'sod_14': 0.14, 'macdh': 0.13, 'rsi_14': 0.13, 'obv_2': 0.1, 'wr_14': 0.1, 'roc_2': 0.08}",0.8161290322580645,-1.0,0.8161290322580645,"(1303, 8)",Sell,MNST
194,0.7548387096774194,39.66,2018-05-18,"{'macd': 0.16, 'macdh': 0.14, 'rsi_14': 0.13, 'volume': 0.13, 'sod_14': 0.13, 'obv_2': 0.11, 'wr_14': 0.11, 'roc_2': 0.1}",0.7548387096774194,-1.0,0.7548387096774194,"(1303, 8)",Sell,MYL
195,0.8032258064516129,246.33,2018-05-18,"{'macd': 0.17, 'rsi_14': 0.14, 'volume': 0.14, 'sod_14': 0.14, 'macdh': 0.11, 'obv_2': 0.11, 'wr_14': 0.1, 'roc_2': 0.08}",0.8032258064516129,2.0,0.8032258064516129,"(1303, 8)",Strong Buy,NTES
196,0.7709677419354839,324.18,2018-05-18,"{'volume': 0.16, 'macd': 0.14, 'macdh': 0.13, 'rsi_14': 0.13, 'sod_14': 0.12, 'obv_2': 0.11, 'wr_14': 0.11, 'roc_2': 0.09}",0.7709677419354839,-1.0,0.7709677419354839,"(1303, 8)",Sell,NFLX
197,0.8354838709677419,245.94,2018-05-18,"{'macd': 0.2, 'macdh': 0.14, 'volume': 0.13, 'rsi_14': 0.12, 'sod_14': 0.12, 'obv_2': 0.1, 'roc_2': 0.1, 'wr_14': 0.09}",0.8354838709677419,1.0,0.8354838709677419,"(1303, 8)",Buy,NVDA
198,0.7548387096774194,272.09,2018-05-18,"{'macd': 0.17, 'macdh': 0.13, 'volume': 0.13, 'sod_14': 0.13, 'rsi_14': 0.12, 'obv_2': 0.11, 'wr_14': 0.11, 'roc_2': 0.1}",0.7548387096774194,-2.0,0.7548387096774194,"(1303, 8)",Strong Sell,ORLY
199,0.6548387096774193,65.01,2018-05-18,"{'macd': 0.15, 'sod_14': 0.14, 'macdh': 0.13, 'rsi_14': 0.13, 'volume': 0.12, 'wr_14': 0.12, 'obv_2': 0.11, 'roc_2': 0.1}",0.6548387096774193,-1.0,0.6548387096774193,"(1303, 8)",Sell,PCAR
200,0.7290322580645161,64.82,2018-05-18,"{'macd': 0.16, 'sod_14': 0.14, 'macdh': 0.13, 'obv_2': 0.12, 'rsi_14': 0.12, 'volume': 0.12, 'wr_14': 0.11, 'roc_2': 0.1}",0.7290322580645161,-2.0,0.7290322580645161,"(1303, 8)",Strong Sell,PAYX
201,0.793939393939394,80.79,2018-05-18,"{'rsi_14': 0.18, 'macd': 0.16, 'sod_14': 0.14, 'volume': 0.12, 'macdh': 0.11, 'obv_2': 0.1, 'wr_14': 0.1, 'roc_2': 0.09}",0.793939393939394,-1.0,0.793939393939394,"(725, 8)",Sell,PYPL
202,0.7193548387096774,57.51,2018-05-18,"{'macd': 0.16, 'rsi_14': 0.14, 'sod_14': 0.14, 'macdh': 0.13, 'volume': 0.12, 'obv_2': 0.11, 'roc_2': 0.11, 'wr_14': 0.1}",0.7193548387096774,-2.0,0.7193548387096774,"(1303, 8)",Strong Sell,QCOM
203,0.8,22.6,2018-05-18,"{'macd': 0.15, 'macdh': 0.14, 'sod_14': 0.14, 'volume': 0.13, 'rsi_14': 0.12, 'obv_2': 0.11, 'wr_14': 0.11, 'roc_2': 0.1}",0.8,-1.0,0.8,"(1303, 8)",Sell,QRTEA
204,0.7354838709677419,301.81,2018-05-18,"{'macd': 0.16, 'macdh': 0.15, 'sod_14': 0.14, 'rsi_14': 0.12, 'volume': 0.12, 'obv_2': 0.1, 'roc_2': 0.1, 'wr_14': 0.1}",0.7354838709677419,1.0,0.7354838709677419,"(1303, 8)",Buy,REGN
205,0.7612903225806451,82.47,2018-05-18,"{'macd': 0.15, 'rsi_14': 0.15, 'macdh': 0.14, 'sod_14': 0.14, 'volume': 0.12, 'wr_14': 0.12, 'obv_2': 0.1, 'roc_2': 0.08}",0.7612903225806451,-2.0,0.7612903225806451,"(1303, 8)",Strong Sell,ROST
206,0.8193548387096774,56.31,2018-05-18,"{'macd': 0.15, 'sod_14': 0.15, 'volume': 0.14, 'rsi_14': 0.13, 'macdh': 0.12, 'obv_2': 0.11, 'wr_14': 0.11, 'roc_2': 0.09}",0.8193548387096774,-2.0,0.8193548387096774,"(1303, 8)",Strong Sell,STX
207,0.7935483870967742,169.61,2018-05-18,"{'volume': 0.18, 'macd': 0.13, 'obv_2': 0.13, 'sod_14': 0.13, 'rsi_14': 0.12, 'macdh': 0.11, 'wr_14': 0.1, 'roc_2': 0.09}",0.7935483870967742,1.0,0.7935483870967742,"(1303, 8)",Buy,SHPG
208,0.7645161290322581,6.97,2018-05-18,"{'macd': 0.15, 'macdh': 0.14, 'volume': 0.14, 'sod_14': 0.14, 'rsi_14': 0.12, 'obv_2': 0.11, 'wr_14': 0.11, 'roc_2': 0.1}",0.7645161290322581,-1.0,0.7645161290322581,"(1303, 8)",Sell,SIRI
209,0.7451612903225806,98.49,2018-05-18,"{'macd': 0.15, 'macdh': 0.15, 'volume': 0.15, 'rsi_14': 0.13, 'sod_14': 0.13, 'wr_14': 0.11, 'obv_2': 0.1, 'roc_2': 0.08}",0.7451612903225806,-2.0,0.7451612903225806,"(1303, 8)",Strong Sell,SWKS
210,0.7387096774193549,57.16,2018-05-18,"{'macd': 0.16, 'sod_14': 0.16, 'rsi_14': 0.15, 'macdh': 0.13, 'volume': 0.12, 'wr_14': 0.11, 'obv_2': 0.1, 'roc_2': 0.08}",0.7387096774193549,1.0,0.7387096774193549,"(1303, 8)",Buy,SBUX
211,0.8258064516129032,22.19,2018-05-18,"{'volume': 0.17, 'macd': 0.13, 'macdh': 0.13, 'rsi_14': 0.13, 'obv_2': 0.12, 'sod_14': 0.12, 'roc_2': 0.1, 'wr_14': 0.09}",0.8258064516129032,-1.0,0.8258064516129032,"(1303, 8)",Sell,SYMC
212,0.7354838709677419,89.25,2018-05-18,"{'macd': 0.15, 'sod_14': 0.15, 'macdh': 0.13, 'volume': 0.13, 'rsi_14': 0.12, 'obv_2': 0.11, 'wr_14': 0.11, 'roc_2': 0.1}",0.7354838709677419,2.0,0.7354838709677419,"(1303, 8)",Strong Buy,SNPS
213,0.7417218543046358,56.93,2018-05-18,"{'macd': 0.15, 'macdh': 0.14, 'rsi_14': 0.14, 'sod_14': 0.14, 'volume': 0.13, 'obv_2': 0.1, 'wr_14': 0.1, 'roc_2': 0.09}",0.7417218543046358,-1.0,0.7417218543046358,"(1273, 8)",Sell,TMUS
214,0.7322580645161291,115.81,2018-05-18,"{'macd': 0.15, 'macdh': 0.15, 'rsi_14': 0.13, 'volume': 0.12, 'sod_14': 0.12, 'obv_2': 0.11, 'wr_14': 0.11, 'roc_2': 0.1}",0.7322580645161291,2.0,0.7322580645161291,"(1303, 8)",Strong Buy,TTWO
215,0.7612903225806451,276.82,2018-05-18,"{'rsi_14': 0.16, 'macd': 0.14, 'sod_14': 0.14, 'volume': 0.13, 'macdh': 0.12, 'obv_2': 0.11, 'roc_2': 0.1, 'wr_14': 0.1}",0.7612903225806451,1.0,0.7612903225806451,"(1303, 8)",Buy,TSLA
216,0.7612903225806451,110.54,2018-05-18,"{'macd': 0.15, 'macdh': 0.14, 'rsi_14': 0.13, 'sod_14': 0.13, 'volume': 0.12, 'obv_2': 0.11, 'roc_2': 0.11, 'wr_14': 0.11}",0.7612903225806451,2.0,0.7612903225806451,"(1303, 8)",Strong Buy,TXN
217,0.7878787878787878,56.79,2018-05-18,"{'macd': 0.16, 'sod_14': 0.16, 'rsi_14': 0.14, 'volume': 0.14, 'macdh': 0.12, 'wr_14': 0.12, 'obv_2': 0.09, 'roc_2': 0.08}",0.7878787878787878,-2.0,0.7878787878787878,"(725, 8)",Strong Sell,KHC
218,0.7925170068027211,37.27,2018-05-18,"{'sod_14': 0.18, 'macd': 0.13, 'macdh': 0.13, 'volume': 0.13, 'rsi_14': 0.12, 'obv_2': 0.11, 'roc_2': 0.1, 'wr_14': 0.1}",0.7925170068027211,1.0,0.7925170068027211,"(1239, 8)",Buy,FOX
219,0.7414965986394558,37.66,2018-05-18,"{'sod_14': 0.16, 'macd': 0.14, 'volume': 0.14, 'macdh': 0.13, 'rsi_14': 0.13, 'obv_2': 0.11, 'wr_14': 0.1, 'roc_2': 0.09}",0.7414965986394558,-2.0,0.7414965986394558,"(1239, 8)",Strong Sell,FOXA
220,0.8,255.59,2018-05-18,"{'macd': 0.17, 'macdh': 0.14, 'volume': 0.14, 'rsi_14': 0.13, 'sod_14': 0.12, 'obv_2': 0.11, 'wr_14': 0.11, 'roc_2': 0.08}",0.8,-1.0,0.8,"(1303, 8)",Sell,ULTA
221,0.6612903225806451,106.31,2018-05-18,"{'sod_14': 0.16, 'macd': 0.15, 'rsi_14': 0.13, 'volume': 0.13, 'macdh': 0.12, 'obv_2': 0.11, 'wr_14': 0.11, 'roc_2': 0.1}",0.6612903225806451,-1.0,0.6612903225806451,"(1303, 8)",Sell,VRSK
222,0.7580645161290323,157.24,2018-05-18,"{'macd': 0.14, 'macdh': 0.14, 'volume': 0.14, 'rsi_14': 0.13, 'sod_14': 0.13, 'obv_2': 0.11, 'wr_14': 0.11, 'roc_2': 0.1}",0.7580645161290323,1.0,0.7580645161290323,"(1303, 8)",Buy,VRTX
223,0.8096774193548387,26.41,2018-05-18,"{'macd': 0.15, 'sod_14': 0.15, 'macdh': 0.14, 'rsi_14': 0.14, 'volume': 0.13, 'obv_2': 0.11, 'wr_14': 0.11, 'roc_2': 0.09}",0.8096774193548387,1.0,0.8096774193548387,"(1303, 8)",Buy,VOD
224,0.7225806451612903,64.34,2018-05-18,"{'macd': 0.14, 'macdh': 0.13, 'rsi_14': 0.13, 'volume': 0.13, 'sod_14': 0.13, 'obv_2': 0.12, 'wr_14': 0.12, 'roc_2': 0.1}",0.7225806451612903,-1.0,0.7225806451612903,"(1303, 8)",Sell,WBA
225,0.7290322580645161,84.75,2018-05-18,"{'macd': 0.16, 'sod_14': 0.15, 'macdh': 0.14, 'rsi_14': 0.14, 'volume': 0.13, 'obv_2': 0.1, 'wr_14': 0.1, 'roc_2': 0.09}",0.7290322580645161,1.0,0.7290322580645161,"(1303, 8)",Buy,WDC
226,0.6741935483870968,134.48,2018-05-18,"{'sod_14': 0.15, 'volume': 0.14, 'macd': 0.13, 'rsi_14': 0.13, 'macdh': 0.12, 'obv_2': 0.12, 'wr_14': 0.12, 'roc_2': 0.09}",0.6741935483870968,-2.0,0.6741935483870968,"(1303, 8)",Strong Sell,WDAY
227,0.7935483870967742,189.03,2018-05-18,"{'macd': 0.18, 'macdh': 0.14, 'rsi_14': 0.14, 'volume': 0.13, 'sod_14': 0.12, 'obv_2': 0.1, 'wr_14': 0.1, 'roc_2': 0.08}",0.7935483870967742,1.0,0.7935483870967742,"(1303, 8)",Buy,WYNN
228,0.7935483870967742,71.23,2018-05-18,"{'macd': 0.15, 'sod_14': 0.15, 'macdh': 0.14, 'rsi_14': 0.13, 'obv_2': 0.11, 'volume': 0.11, 'wr_14': 0.11, 'roc_2': 0.1}",0.7935483870967742,1.0,0.7935483870967742,"(1303, 8)",Buy,XLNX
229,0.7354838709677419,18.89,2018-05-18,"{'macd': 0.17, 'macdh': 0.13, 'rsi_14': 0.13, 'volume': 0.13, 'sod_14': 0.13, 'obv_2': 0.11, 'wr_14': 0.11, 'roc_2': 0.1}",0.7354838709677419,-2.0,0.7354838709677419,"(1304, 8)",Strong Sell,AGNC
230,0.7419354838709677,121.37,2018-05-18,"{'rsi_14': 0.14, 'sod_14': 0.14, 'macd': 0.13, 'macdh': 0.12, 'obv_2': 0.12, 'volume': 0.12, 'wr_14': 0.12, 'roc_2': 0.11}",0.7419354838709677,-2.0,0.7419354838709677,"(1304, 8)",Strong Sell,ANAT
231,0.7580645161290323,13.76,2018-05-18,"{'macd': 0.15, 'sod_14': 0.15, 'volume': 0.14, 'macdh': 0.13, 'rsi_14': 0.13, 'obv_2': 0.11, 'wr_14': 0.11, 'roc_2': 0.09}",0.7580645161290323,-1.0,0.7580645161290323,"(1304, 8)",Sell,AFSI
232,0.7741935483870968,78.67,2018-05-18,"{'macd': 0.16, 'rsi_14': 0.14, 'volume': 0.14, 'sod_14': 0.13, 'macdh': 0.12, 'obv_2': 0.11, 'wr_14': 0.11, 'roc_2': 0.1}",0.7741935483870968,1.0,0.7741935483870968,"(1304, 8)",Buy,ACGL
233,0.7967741935483871,48.48,2018-05-18,"{'volume': 0.17, 'macd': 0.16, 'macdh': 0.13, 'rsi_14': 0.13, 'sod_14': 0.13, 'obv_2': 0.1, 'wr_14': 0.1, 'roc_2': 0.09}",0.7967741935483871,1.0,0.7967741935483871,"(1303, 8)",Buy,OZRK
234,0.7129032258064516,58.11,2018-05-18,"{'macd': 0.15, 'volume': 0.15, 'macdh': 0.13, 'sod_14': 0.13, 'obv_2': 0.12, 'rsi_14': 0.12, 'roc_2': 0.1, 'wr_14': 0.1}",0.7129032258064516,-2.0,0.7129032258064516,"(1304, 8)",Strong Sell,BANR
235,0.7483870967741936,12.24,2018-05-18,"{'macd': 0.15, 'rsi_14': 0.14, 'macdh': 0.13, 'volume': 0.13, 'sod_14': 0.13, 'obv_2': 0.11, 'wr_14': 0.11, 'roc_2': 0.1}",0.7483870967741936,-2.0,0.7483870967741936,"(1304, 8)",Strong Sell,BGCP
236,0.8,41.69,2018-05-18,"{'macd': 0.16, 'macdh': 0.15, 'volume': 0.14, 'sod_14': 0.14, 'rsi_14': 0.12, 'obv_2': 0.11, 'wr_14': 0.1, 'roc_2': 0.08}",0.8,-1.0,0.8,"(1304, 8)",Sell,BOFI
237,0.7193548387096774,104.13,2018-05-18,"{'volume': 0.15, 'macd': 0.14, 'macdh': 0.14, 'sod_14': 0.13, 'rsi_14': 0.12, 'obv_2': 0.11, 'wr_14': 0.11, 'roc_2': 0.09}",0.7193548387096774,2.0,0.7193548387096774,"(1304, 8)",Strong Buy,BOKF
238,0.918918918918919,47.18,2018-05-18,"{'macd': 0.22, 'volume': 0.16, 'sod_14': 0.16, 'wr_14': 0.11, 'macdh': 0.1, 'obv_2': 0.1, 'rsi_14': 0.1, 'roc_2': 0.06}",0.918918918918919,2.0,0.918918918918919,"(213, 8)",Strong Buy,BHF
239,0.7193548387096774,13.1,2018-05-18,"{'macd': 0.15, 'macdh': 0.14, 'rsi_14': 0.14, 'volume': 0.14, 'sod_14': 0.13, 'obv_2': 0.11, 'wr_14': 0.1, 'roc_2': 0.09}",0.7193548387096774,2.0,0.7193548387096774,"(1303, 8)",Strong Buy,CFFN
240,0.6838709677419355,42.04,2018-05-18,"{'macd': 0.14, 'volume': 0.14, 'sod_14': 0.14, 'macdh': 0.12, 'rsi_14': 0.12, 'wr_14': 0.12, 'obv_2': 0.11, 'roc_2': 0.1}",0.6838709677419355,-1.0,0.6838709677419355,"(1303, 8)",Sell,CATY
241,0.7258064516129032,106.56,2018-05-18,"{'macd': 0.16, 'rsi_14': 0.15, 'macdh': 0.13, 'volume': 0.13, 'sod_14': 0.13, 'obv_2': 0.11, 'roc_2': 0.1, 'wr_14': 0.09}",0.7258064516129032,1.0,0.7258064516129032,"(1303, 8)",Buy,CBOE
242,0.7516129032258064,55.96,2018-05-18,"{'volume': 0.16, 'macd': 0.13, 'macdh': 0.13, 'rsi_14': 0.13, 'obv_2': 0.12, 'sod_14': 0.12, 'wr_14': 0.11, 'roc_2': 0.09}",0.7516129032258064,1.0,0.7516129032258064,"(1303, 8)",Buy,CHFC
243,0.757085020242915,15.05,2018-05-18,"{'macd': 0.16, 'sod_14': 0.15, 'macdh': 0.14, 'rsi_14': 0.14, 'volume': 0.12, 'wr_14': 0.11, 'obv_2': 0.09, 'roc_2': 0.09}",0.757085020242915,1.0,0.757085020242915,"(1051, 8)",Buy,CMCT
244,0.7483870967741936,70.73,2018-05-18,"{'macd': 0.16, 'macdh': 0.14, 'rsi_14': 0.13, 'sod_14': 0.13, 'volume': 0.12, 'obv_2': 0.11, 'wr_14': 0.11, 'roc_2': 0.1}",0.7483870967741936,1.0,0.7483870967741936,"(1303, 8)",Buy,CINF
245,0.7419354838709677,159.78,2018-05-18,"{'macdh': 0.15, 'macd': 0.14, 'volume': 0.13, 'sod_14': 0.13, 'rsi_14': 0.12, 'obv_2': 0.11, 'roc_2': 0.11, 'wr_14': 0.11}",0.7419354838709677,-1.0,0.7419354838709677,"(1303, 8)",Sell,CME
246,0.7548387096774194,76.4,2018-05-18,"{'macd': 0.16, 'sod_14': 0.14, 'macdh': 0.13, 'rsi_14': 0.13, 'volume': 0.13, 'wr_14': 0.11, 'obv_2': 0.1, 'roc_2': 0.1}",0.7548387096774194,-2.0,0.7548387096774194,"(1303, 8)",Strong Sell,CIGI
247,0.7290322580645161,42.68,2018-05-18,"{'macd': 0.16, 'macdh': 0.15, 'sod_14': 0.13, 'rsi_14': 0.12, 'wr_14': 0.12, 'roc_2': 0.11, 'volume': 0.11, 'obv_2': 0.1}",0.7290322580645161,2.0,0.7290322580645161,"(1303, 8)",Strong Buy,COLB
248,0.7258064516129032,64.59,2018-05-18,"{'macd': 0.14, 'macdh': 0.14, 'rsi_14': 0.14, 'sod_14': 0.14, 'volume': 0.12, 'obv_2': 0.11, 'wr_14': 0.11, 'roc_2': 0.1}",0.7258064516129032,-2.0,0.7258064516129032,"(1303, 8)",Strong Sell,CBSH
249,0.8096774193548387,352.06,2018-05-18,"{'volume': 0.15, 'sod_14': 0.15, 'macdh': 0.14, 'macd': 0.13, 'obv_2': 0.12, 'rsi_14': 0.12, 'wr_14': 0.1, 'roc_2': 0.09}",0.8096774193548387,2.0,0.8096774193548387,"(1303, 8)",Strong Buy,CACC
250,0.7322580645161291,23.14,2018-05-18,"{'macd': 0.15, 'macdh': 0.14, 'rsi_14': 0.13, 'sod_14': 0.13, 'volume': 0.12, 'obv_2': 0.11, 'roc_2': 0.11, 'wr_14': 0.11}",0.7322580645161291,-1.0,0.7322580645161291,"(1303, 8)",Sell,CVBF
251,0.7935483870967742,52.14,2018-05-18,"{'macd': 0.15, 'rsi_14': 0.14, 'volume': 0.14, 'sod_14': 0.14, 'macdh': 0.12, 'obv_2': 0.12, 'wr_14': 0.1, 'roc_2': 0.09}",0.7935483870967742,1.0,0.7935483870967742,"(1303, 8)",Buy,CONE
252,0.7290322580645161,64.66,2018-05-18,"{'macd': 0.16, 'rsi_14': 0.14, 'macdh': 0.13, 'volume': 0.13, 'sod_14': 0.13, 'wr_14': 0.11, 'obv_2': 0.1, 'roc_2': 0.1}",0.7290322580645161,1.0,0.7290322580645161,"(1303, 8)",Buy,ETFC
253,0.7516129032258064,70.48,2018-05-18,"{'macd': 0.14, 'rsi_14': 0.14, 'macdh': 0.13, 'volume': 0.13, 'sod_14': 0.13, 'roc_2': 0.11, 'wr_14': 0.11, 'obv_2': 0.1}",0.7516129032258064,-2.0,0.7516129032258064,"(1303, 8)",Strong Sell,EWBC
254,0.7483870967741936,212.2,2018-05-18,"{'macd': 0.17, 'macdh': 0.13, 'rsi_14': 0.13, 'sod_14': 0.13, 'volume': 0.12, 'obv_2': 0.11, 'roc_2': 0.11, 'wr_14': 0.1}",0.7483870967741936,2.0,0.7483870967741936,"(1303, 8)",Strong Buy,ESGR
255,0.8096774193548387,385.86,2018-05-18,"{'macd': 0.15, 'volume': 0.14, 'sod_14': 0.14, 'macdh': 0.13, 'rsi_14': 0.13, 'wr_14': 0.12, 'obv_2': 0.1, 'roc_2': 0.09}",0.8096774193548387,-2.0,0.8096774193548387,"(1303, 8)",Strong Sell,EQIX
256,0.7161290322580646,111.75,2018-05-18,"{'volume': 0.15, 'macdh': 0.14, 'sod_14': 0.14, 'macd': 0.13, 'rsi_14': 0.13, 'obv_2': 0.11, 'wr_14': 0.11, 'roc_2': 0.1}",0.7161290322580646,-2.0,0.7161290322580646,"(1303, 8)",Strong Sell,ERIE
257,0.7612903225806451,33.56,2018-05-18,"{'macd': 0.15, 'sod_14': 0.14, 'macdh': 0.13, 'volume': 0.13, 'rsi_14': 0.12, 'wr_14': 0.12, 'obv_2': 0.11, 'roc_2': 0.11}",0.7612903225806451,1.0,0.7612903225806451,"(1303, 8)",Buy,FITB
258,0.7838709677419354,44.6,2018-05-18,"{'sod_14': 0.15, 'rsi_14': 0.14, 'volume': 0.14, 'macd': 0.13, 'macdh': 0.13, 'wr_14': 0.11, 'obv_2': 0.1, 'roc_2': 0.1}",0.7838709677419354,-1.0,0.7838709677419354,"(1303, 8)",Sell,FNGN
259,0.7,449.95,2018-05-18,"{'sod_14': 0.15, 'macd': 0.14, 'volume': 0.14, 'rsi_14': 0.13, 'macdh': 0.12, 'obv_2': 0.12, 'roc_2': 0.1, 'wr_14': 0.1}",0.7,-2.0,0.7,"(1303, 8)",Strong Sell,FCNCA
260,0.6935483870967742,31.65,2018-05-18,"{'macd': 0.15, 'macdh': 0.14, 'rsi_14': 0.13, 'volume': 0.13, 'sod_14': 0.13, 'obv_2': 0.11, 'wr_14': 0.11, 'roc_2': 0.1}",0.6935483870967742,-1.0,0.6935483870967742,"(1303, 8)",Sell,FFBC
261,0.7709677419354839,52.6,2018-05-18,"{'macd': 0.15, 'rsi_14': 0.14, 'sod_14': 0.14, 'macdh': 0.13, 'volume': 0.13, 'obv_2': 0.11, 'wr_14': 0.11, 'roc_2': 0.09}",0.7709677419354839,-1.0,0.7709677419354839,"(1303, 8)",Sell,FFIN
262,0.8041237113402062,28.32,2018-05-18,"{'macd': 0.18, 'rsi_14': 0.15, 'volume': 0.15, 'macdh': 0.12, 'obv_2': 0.11, 'wr_14': 0.1, 'sod_14': 0.1, 'roc_2': 0.09}",0.8041237113402062,-1.0,0.8041237113402062,"(451, 8)",Sell,FHB
263,0.7419354838709677,25.38,2018-05-18,"{'volume': 0.15, 'rsi_14': 0.14, 'macd': 0.13, 'macdh': 0.12, 'sod_14': 0.12, 'obv_2': 0.11, 'roc_2': 0.11, 'wr_14': 0.11}",0.7419354838709677,-2.0,0.7419354838709677,"(1303, 8)",Strong Sell,FMBI
264,0.695906432748538,70.71,2018-05-18,"{'macd': 0.16, 'volume': 0.15, 'rsi_14': 0.14, 'wr_14': 0.12, 'sod_14': 0.12, 'macdh': 0.11, 'obv_2': 0.11, 'roc_2': 0.1}",0.695906432748538,-2.0,0.695906432748538,"(748, 8)",Strong Sell,FSV
265,0.7,17.3,2018-05-18,"{'macd': 0.15, 'rsi_14': 0.14, 'macdh': 0.13, 'sod_14': 0.13, 'volume': 0.12, 'obv_2': 0.11, 'roc_2': 0.11, 'wr_14': 0.11}",0.7,1.0,0.7,"(1303, 8)",Buy,FULT
266,0.7976190476190477,34.58,2018-05-18,"{'macd': 0.17, 'sod_14': 0.15, 'volume': 0.14, 'macdh': 0.13, 'rsi_14': 0.12, 'obv_2': 0.1, 'roc_2': 0.09, 'wr_14': 0.09}",0.7976190476190477,-1.0,0.7976190476190477,"(1072, 8)",Sell,GLPI
267,0.7774193548387097,39.37,2018-05-18,"{'macd': 0.15, 'macdh': 0.14, 'rsi_14': 0.14, 'sod_14': 0.14, 'volume': 0.12, 'wr_14': 0.11, 'obv_2': 0.1, 'roc_2': 0.1}",0.7774193548387097,-2.0,0.7774193548387097,"(1303, 8)",Strong Sell,GBCI
268,0.7806451612903226,51.8,2018-05-18,"{'macd': 0.14, 'rsi_14': 0.14, 'sod_14': 0.14, 'macdh': 0.13, 'volume': 0.13, 'wr_14': 0.12, 'obv_2': 0.11, 'roc_2': 0.09}",0.7806451612903226,1.0,0.7806451612903226,"(1303, 8)",Buy,HBHC
269,0.7354260089686099,73.72,2018-05-18,"{'sod_14': 0.15, 'macd': 0.13, 'macdh': 0.13, 'volume': 0.13, 'rsi_14': 0.12, 'obv_2': 0.11, 'roc_2': 0.11, 'wr_14': 0.11}",0.7354260089686099,1.0,0.7354260089686099,"(958, 8)",Buy,HQY
270,0.6838709677419355,23.44,2018-05-18,"{'volume': 0.17, 'sod_14': 0.14, 'macd': 0.13, 'macdh': 0.12, 'obv_2': 0.12, 'rsi_14': 0.12, 'wr_14': 0.11, 'roc_2': 0.09}",0.6838709677419355,-1.0,0.6838709677419355,"(1303, 8)",Sell,HOMB
271,0.7354838709677419,15.12,2018-05-18,"{'macd': 0.16, 'volume': 0.14, 'sod_14': 0.14, 'rsi_14': 0.13, 'macdh': 0.12, 'obv_2': 0.11, 'wr_14': 0.11, 'roc_2': 0.1}",0.7354838709677419,2.0,0.7354838709677419,"(1303, 8)",Strong Buy,HBAN
272,0.7580645161290323,79.45,2018-05-18,"{'sod_14': 0.16, 'macd': 0.15, 'volume': 0.14, 'macdh': 0.12, 'rsi_14': 0.12, 'obv_2': 0.11, 'roc_2': 0.1, 'wr_14': 0.1}",0.7580645161290323,-1.0,0.7580645161290323,"(1303, 8)",Sell,IBKC
273,0.7922077922077922,51.43,2018-05-18,"{'macd': 0.16, 'volume': 0.14, 'sod_14': 0.14, 'macdh': 0.13, 'rsi_14': 0.13, 'wr_14': 0.11, 'obv_2': 0.1, 'roc_2': 0.09}",0.7922077922077922,1.0,0.7922077922077922,"(987, 8)",Buy,INFO
274,0.6193548387096774,74.85,2018-05-18,"{'macd': 0.14, 'sod_14': 0.14, 'macdh': 0.13, 'rsi_14': 0.13, 'obv_2': 0.12, 'volume': 0.12, 'roc_2': 0.11, 'wr_14': 0.11}",0.6193548387096774,-2.0,0.6193548387096774,"(1303, 8)",Strong Sell,INDB
275,0.8129032258064516,77.6,2018-05-18,"{'macd': 0.16, 'rsi_14': 0.16, 'macdh': 0.13, 'volume': 0.13, 'sod_14': 0.12, 'wr_14': 0.11, 'obv_2': 0.1, 'roc_2': 0.09}",0.8129032258064516,1.0,0.8129032258064516,"(1303, 8)",Buy,IBKR
276,0.6838709677419355,42.8,2018-05-18,"{'macd': 0.16, 'rsi_14': 0.14, 'macdh': 0.13, 'volume': 0.13, 'sod_14': 0.12, 'obv_2': 0.11, 'roc_2': 0.1, 'wr_14': 0.1}",0.6838709677419355,-1.0,0.6838709677419355,"(1303, 8)",Sell,IBOC
277,0.6935483870967742,13.54,2018-05-18,"{'volume': 0.17, 'macd': 0.14, 'macdh': 0.14, 'sod_14': 0.13, 'rsi_14': 0.12, 'obv_2': 0.11, 'roc_2': 0.1, 'wr_14': 0.1}",0.6935483870967742,-2.0,0.6935483870967742,"(1303, 8)",Strong Sell,ISBC
278,0.7677419354838709,68.38,2018-05-18,"{'macd': 0.17, 'volume': 0.15, 'sod_14': 0.14, 'macdh': 0.13, 'rsi_14': 0.13, 'obv_2': 0.1, 'wr_14': 0.1, 'roc_2': 0.08}",0.7677419354838709,-1.0,0.7677419354838709,"(1303, 8)",Sell,LAMR
279,0.7516129032258064,43.51,2018-05-18,"{'macd': 0.15, 'macdh': 0.14, 'rsi_14': 0.14, 'sod_14': 0.13, 'volume': 0.12, 'wr_14': 0.11, 'obv_2': 0.1, 'roc_2': 0.09}",0.7516129032258064,2.0,0.7516129032258064,"(1303, 8)",Strong Buy,LTXB
280,0.8357487922705314,70.95,2018-05-18,"{'volume': 0.17, 'macd': 0.14, 'macdh': 0.13, 'rsi_14': 0.12, 'sod_14': 0.12, 'obv_2': 0.11, 'roc_2': 0.1, 'wr_14': 0.1}",0.8357487922705314,1.0,0.8357487922705314,"(891, 8)",Buy,LBRDK
281,0.8129032258064516,70.47,2018-05-18,"{'macd': 0.15, 'sod_14': 0.15, 'rsi_14': 0.13, 'macdh': 0.12, 'volume': 0.12, 'obv_2': 0.11, 'wr_14': 0.11, 'roc_2': 0.1}",0.8129032258064516,-1.0,0.8129032258064516,"(1303, 8)",Sell,LPLA
282,0.7838709677419354,204.72,2018-05-18,"{'macd': 0.17, 'rsi_14': 0.14, 'sod_14': 0.14, 'macdh': 0.13, 'volume': 0.12, 'obv_2': 0.11, 'wr_14': 0.11, 'roc_2': 0.09}",0.7838709677419354,-1.0,0.7838709677419354,"(1303, 8)",Sell,MKTX
283,0.6935483870967742,43.65,2018-05-18,"{'volume': 0.15, 'macd': 0.14, 'obv_2': 0.13, 'rsi_14': 0.13, 'macdh': 0.12, 'sod_14': 0.12, 'wr_14': 0.11, 'roc_2': 0.1}",0.6935483870967742,2.0,0.6935483870967742,"(1303, 8)",Strong Buy,MBFI
284,0.7387096774193549,90.07,2018-05-18,"{'volume': 0.14, 'macd': 0.13, 'macdh': 0.13, 'obv_2': 0.13, 'rsi_14': 0.13, 'sod_14': 0.13, 'roc_2': 0.1, 'wr_14': 0.1}",0.7387096774193549,-2.0,0.7387096774193549,"(1303, 8)",Strong Sell,NDAQ
285,0.7609561752988048,26.45,2018-05-18,"{'macd': 0.15, 'sod_14': 0.15, 'rsi_14': 0.14, 'volume': 0.14, 'macdh': 0.11, 'wr_14': 0.11, 'obv_2': 0.1, 'roc_2': 0.09}",0.7609561752988048,-1.0,0.7609561752988048,"(1070, 8)",Sell,NGHC
286,0.8049792531120332,14.07,2018-05-18,"{'sod_14': 0.15, 'macd': 0.14, 'macdh': 0.14, 'volume': 0.14, 'rsi_14': 0.12, 'obv_2': 0.11, 'wr_14': 0.11, 'roc_2': 0.09}",0.8049792531120332,-1.0,0.8049792531120332,"(1030, 8)",Sell,NAVI
287,0.6935483870967742,38.1,2018-05-18,"{'macd': 0.15, 'macdh': 0.14, 'rsi_14': 0.14, 'volume': 0.13, 'sod_14': 0.13, 'obv_2': 0.12, 'wr_14': 0.11, 'roc_2': 0.09}",0.6935483870967742,2.0,0.6935483870967742,"(1303, 8)",Strong Buy,NBTB
288,0.7161290322580646,107.82,2018-05-18,"{'macd': 0.15, 'macdh': 0.14, 'rsi_14': 0.14, 'sod_14': 0.13, 'obv_2': 0.11, 'volume': 0.11, 'wr_14': 0.11, 'roc_2': 0.1}",0.7161290322580646,2.0,0.7161290322580646,"(1303, 8)",Strong Buy,NTRS
289,0.6967741935483871,16.95,2018-05-18,"{'macd': 0.15, 'macdh': 0.15, 'sod_14': 0.14, 'rsi_14': 0.13, 'volume': 0.13, 'obv_2': 0.11, 'wr_14': 0.11, 'roc_2': 0.1}",0.6967741935483871,-1.0,0.6967741935483871,"(1303, 8)",Sell,NWBI
290,0.7387096774193549,17.85,2018-05-18,"{'macd': 0.14, 'rsi_14': 0.14, 'volume': 0.14, 'macdh': 0.12, 'obv_2': 0.12, 'sod_14': 0.12, 'wr_14': 0.11, 'roc_2': 0.1}",0.7387096774193549,-2.0,0.7387096774193549,"(1303, 8)",Strong Sell,ONB
291,0.7516129032258064,53.87,2018-05-18,"{'volume': 0.17, 'macd': 0.13, 'macdh': 0.13, 'rsi_14': 0.13, 'sod_14': 0.13, 'obv_2': 0.11, 'wr_14': 0.11, 'roc_2': 0.1}",0.7516129032258064,-1.0,0.7516129032258064,"(1303, 8)",Sell,PACW
292,0.7129032258064516,18.63,2018-05-18,"{'macd': 0.15, 'sod_14': 0.15, 'macdh': 0.13, 'rsi_14': 0.13, 'volume': 0.13, 'obv_2': 0.11, 'wr_14': 0.11, 'roc_2': 0.1}",0.7129032258064516,1.0,0.7129032258064516,"(1303, 8)",Buy,PBCT
293,0.7774193548387097,66.55,2018-05-18,"{'volume': 0.15, 'sod_14': 0.14, 'macd': 0.13, 'macdh': 0.13, 'obv_2': 0.12, 'rsi_14': 0.12, 'wr_14': 0.11, 'roc_2': 0.1}",0.7774193548387097,-2.0,0.7774193548387097,"(1303, 8)",Strong Sell,PNFP
294,0.7806451612903226,46.77,2018-05-18,"{'macd': 0.15, 'sod_14': 0.14, 'macdh': 0.13, 'rsi_14': 0.13, 'volume': 0.13, 'obv_2': 0.11, 'wr_14': 0.11, 'roc_2': 0.1}",0.7806451612903226,-2.0,0.7806451612903226,"(1304, 8)",Strong Sell,BPOP
295,0.7290322580645161,48.3,2018-05-18,"{'macdh': 0.15, 'macd': 0.14, 'volume': 0.14, 'sod_14': 0.13, 'rsi_14': 0.12, 'obv_2': 0.11, 'wr_14': 0.11, 'roc_2': 0.1}",0.7290322580645161,-1.0,0.7290322580645161,"(1303, 8)",Sell,PCH
296,0.7193548387096774,39.9,2018-05-18,"{'macd': 0.15, 'rsi_14': 0.14, 'volume': 0.14, 'macdh': 0.13, 'sod_14': 0.13, 'obv_2': 0.12, 'wr_14': 0.1, 'roc_2': 0.09}",0.7193548387096774,-2.0,0.7193548387096774,"(1303, 8)",Strong Sell,PRAA
297,0.6870967741935484,58.8,2018-05-18,"{'macd': 0.14, 'volume': 0.14, 'macdh': 0.13, 'rsi_14': 0.13, 'sod_14': 0.13, 'obv_2': 0.12, 'wr_14': 0.12, 'roc_2': 0.09}",0.6870967741935484,2.0,0.6870967741935484,"(1303, 8)",Strong Buy,PFG
298,0.6838709677419355,47.1,2018-05-18,"{'sod_14': 0.15, 'macd': 0.14, 'rsi_14': 0.13, 'volume': 0.13, 'macdh': 0.12, 'obv_2': 0.11, 'roc_2': 0.11, 'wr_14': 0.11}",0.6838709677419355,-2.0,0.6838709677419355,"(1303, 8)",Strong Sell,RNST
299,0.6903225806451613,17.16,2018-05-18,"{'volume': 0.16, 'rsi_14': 0.14, 'sod_14': 0.14, 'macd': 0.13, 'macdh': 0.13, 'obv_2': 0.11, 'wr_14': 0.11, 'roc_2': 0.09}",0.6903225806451613,-2.0,0.6903225806451613,"(1303, 8)",Strong Sell,ROIC
300,0.7516129032258064,19.13,2018-05-18,"{'volume': 0.17, 'rsi_14': 0.14, 'macd': 0.13, 'macdh': 0.13, 'sod_14': 0.13, 'obv_2': 0.11, 'wr_14': 0.11, 'roc_2': 0.09}",0.7516129032258064,-2.0,0.7516129032258064,"(1303, 8)",Strong Sell,SBRA
301,0.7419354838709677,157.69,2018-05-18,"{'macd': 0.15, 'macdh': 0.14, 'volume': 0.14, 'sod_14': 0.14, 'rsi_14': 0.13, 'obv_2': 0.12, 'wr_14': 0.1, 'roc_2': 0.09}",0.7419354838709677,-2.0,0.7419354838709677,"(1303, 8)",Strong Sell,SBAC
302,0.7225806451612903,65.15,2018-05-18,"{'macd': 0.16, 'macdh': 0.14, 'rsi_14': 0.13, 'sod_14': 0.13, 'volume': 0.12, 'obv_2': 0.11, 'wr_14': 0.11, 'roc_2': 0.1}",0.7225806451612903,2.0,0.7225806451612903,"(1303, 8)",Strong Buy,SEIC
303,0.7064516129032258,56.1,2018-05-18,"{'macd': 0.14, 'macdh': 0.14, 'rsi_14': 0.14, 'volume': 0.13, 'sod_14': 0.13, 'wr_14': 0.12, 'roc_2': 0.11, 'obv_2': 0.1}",0.7064516129032258,2.0,0.7064516129032258,"(1303, 8)",Strong Buy,SIGI
304,0.8396624472573839,43.18,2018-05-18,"{'macd': 0.17, 'sod_14': 0.15, 'macdh': 0.13, 'rsi_14': 0.12, 'volume': 0.12, 'obv_2': 0.11, 'roc_2': 0.1, 'wr_14': 0.1}",0.8396624472573839,-1.0,0.8396624472573839,"(1012, 8)",Sell,SFBS
305,0.7903225806451613,129.31,2018-05-18,"{'volume': 0.17, 'macd': 0.15, 'macdh': 0.13, 'sod_14': 0.13, 'rsi_14': 0.12, 'obv_2': 0.11, 'wr_14': 0.1, 'roc_2': 0.08}",0.7903225806451613,1.0,0.7903225806451613,"(1303, 8)",Buy,SBNY
306,0.7774193548387097,31.1,2018-05-18,"{'volume': 0.15, 'sod_14': 0.15, 'macd': 0.14, 'macdh': 0.12, 'obv_2': 0.12, 'rsi_14': 0.12, 'wr_14': 0.11, 'roc_2': 0.09}",0.7774193548387097,-2.0,0.7774193548387097,"(1303, 8)",Strong Sell,SFNC
307,0.7548387096774194,11.49,2018-05-18,"{'rsi_14': 0.16, 'macdh': 0.14, 'sod_14': 0.14, 'macd': 0.13, 'volume': 0.12, 'obv_2': 0.1, 'wr_14': 0.1, 'roc_2': 0.09}",0.7548387096774194,2.0,0.7548387096774194,"(1303, 8)",Strong Buy,SLM
308,0.6967741935483871,88.7,2018-05-18,"{'macdh': 0.16, 'macd': 0.14, 'sod_14': 0.14, 'volume': 0.13, 'rsi_14': 0.12, 'wr_14': 0.11, 'obv_2': 0.1, 'roc_2': 0.09}",0.6967741935483871,-2.0,0.6967741935483871,"(1303, 8)",Strong Sell,SSB
309,0.7709677419354839,321.78,2018-05-18,"{'volume': 0.16, 'macd': 0.15, 'macdh': 0.13, 'sod_14': 0.13, 'obv_2': 0.12, 'rsi_14': 0.12, 'roc_2': 0.1, 'wr_14': 0.1}",0.7709677419354839,1.0,0.7709677419354839,"(1303, 8)",Buy,SIVB
310,0.7290322580645161,120.59,2018-05-18,"{'sod_14': 0.15, 'macd': 0.14, 'macdh': 0.13, 'rsi_14': 0.13, 'volume': 0.12, 'wr_14': 0.12, 'obv_2': 0.11, 'roc_2': 0.1}",0.7290322580645161,-2.0,0.7290322580645161,"(1303, 8)",Strong Sell,TROW
311,0.7806451612903226,60.69,2018-05-18,"{'macd': 0.15, 'rsi_14': 0.14, 'sod_14': 0.14, 'macdh': 0.13, 'volume': 0.13, 'obv_2': 0.11, 'wr_14': 0.11, 'roc_2': 0.09}",0.7806451612903226,2.0,0.7806451612903226,"(1304, 8)",Strong Buy,AMTD
312,0.7870967741935484,99.1,2018-05-18,"{'macd': 0.15, 'macdh': 0.14, 'volume': 0.14, 'sod_14': 0.14, 'rsi_14': 0.13, 'obv_2': 0.11, 'wr_14': 0.1, 'roc_2': 0.09}",0.7870967741935484,-1.0,0.7870967741935484,"(1303, 8)",Sell,TCBI
313,0.7032258064516129,15.24,2018-05-18,"{'macd': 0.16, 'volume': 0.15, 'sod_14': 0.15, 'macdh': 0.12, 'rsi_14': 0.12, 'obv_2': 0.11, 'roc_2': 0.1, 'wr_14': 0.1}",0.7032258064516129,-1.0,0.7032258064516129,"(1303, 8)",Sell,TFSL
314,0.7096774193548387,58.75,2018-05-18,"{'macd': 0.15, 'macdh': 0.14, 'rsi_14': 0.14, 'volume': 0.13, 'sod_14': 0.13, 'wr_14': 0.11, 'obv_2': 0.1, 'roc_2': 0.1}",0.7096774193548387,1.0,0.7096774193548387,"(1303, 8)",Buy,NAVG
315,0.6870967741935484,32.4,2018-05-18,"{'macd': 0.14, 'volume': 0.14, 'sod_14': 0.14, 'macdh': 0.13, 'rsi_14': 0.13, 'obv_2': 0.11, 'wr_14': 0.11, 'roc_2': 0.1}",0.6870967741935484,-1.0,0.6870967741935484,"(1303, 8)",Sell,TRMK
316,0.6903225806451613,78.66,2018-05-18,"{'macd': 0.14, 'sod_14': 0.14, 'macdh': 0.13, 'volume': 0.13, 'obv_2': 0.12, 'rsi_14': 0.12, 'wr_14': 0.11, 'roc_2': 0.1}",0.6903225806451613,-2.0,0.6903225806451613,"(1303, 8)",Strong Sell,UMBF
317,0.7064516129032258,23.65,2018-05-18,"{'volume': 0.15, 'sod_14': 0.15, 'macd': 0.14, 'macdh': 0.12, 'rsi_14': 0.12, 'obv_2': 0.11, 'wr_14': 0.11, 'roc_2': 0.09}",0.7064516129032258,-2.0,0.7064516129032258,"(1303, 8)",Strong Sell,UMPQ
318,0.7548387096774194,35.9,2018-05-18,"{'macd': 0.16, 'volume': 0.14, 'sod_14': 0.14, 'macdh': 0.13, 'rsi_14': 0.13, 'wr_14': 0.11, 'obv_2': 0.1, 'roc_2': 0.1}",0.7548387096774194,-2.0,0.7548387096774194,"(1303, 8)",Strong Sell,UBSI
319,0.7677419354838709,33.16,2018-05-18,"{'volume': 0.16, 'macdh': 0.14, 'macd': 0.13, 'rsi_14': 0.13, 'sod_14': 0.13, 'obv_2': 0.11, 'wr_14': 0.11, 'roc_2': 0.1}",0.7677419354838709,-1.0,0.7677419354838709,"(1303, 8)",Sell,UCBI
320,0.7415730337078652,20.04,2018-05-18,"{'macd': 0.16, 'rsi_14': 0.14, 'volume': 0.14, 'sod_14': 0.13, 'macdh': 0.12, 'obv_2': 0.11, 'wr_14': 0.1, 'roc_2': 0.09}",0.7415730337078652,1.0,0.7415730337078652,"(778, 8)",Buy,UNIT
321,0.7451612903225806,32.2,2018-05-18,"{'macd': 0.15, 'volume': 0.14, 'sod_14': 0.14, 'macdh': 0.13, 'rsi_14': 0.13, 'wr_14': 0.11, 'obv_2': 0.1, 'roc_2': 0.1}",0.7451612903225806,2.0,0.7451612903225806,"(1303, 8)",Strong Buy,WAFD
322,0.7064516129032258,57.27,2018-05-18,"{'macd': 0.16, 'volume': 0.15, 'rsi_14': 0.13, 'sod_14': 0.12, 'macdh': 0.11, 'obv_2': 0.11, 'roc_2': 0.11, 'wr_14': 0.11}",0.7064516129032258,2.0,0.7064516129032258,"(1303, 8)",Strong Buy,WABC
323,0.6992481203007519,154.31,2018-05-18,"{'macd': 0.18, 'volume': 0.16, 'sod_14': 0.14, 'macdh': 0.13, 'rsi_14': 0.12, 'wr_14': 0.1, 'obv_2': 0.09, 'roc_2': 0.08}",0.6992481203007519,2.0,0.6992481203007519,"(598, 8)",Strong Buy,WLTW
324,0.6870967741935484,94.05,2018-05-18,"{'macd': 0.16, 'rsi_14': 0.14, 'sod_14': 0.14, 'macdh': 0.13, 'volume': 0.12, 'roc_2': 0.11, 'obv_2': 0.1, 'wr_14': 0.1}",0.6870967741935484,1.0,0.6870967741935484,"(1303, 8)",Buy,WTFC
325,0.7709677419354839,11.59,2018-05-18,"{'macd': 0.17, 'volume': 0.16, 'sod_14': 0.14, 'rsi_14': 0.13, 'macdh': 0.12, 'wr_14': 0.1, 'obv_2': 0.09, 'roc_2': 0.08}",0.7709677419354839,1.0,0.7709677419354839,"(1303, 8)",Buy,WETF
326,0.8161290322580645,51.66,2018-05-18,"{'macd': 0.18, 'macdh': 0.15, 'rsi_14': 0.15, 'volume': 0.14, 'sod_14': 0.11, 'obv_2': 0.1, 'wr_14': 0.1, 'roc_2': 0.08}",0.8161290322580645,2.0,0.8161290322580645,"(1303, 8)",Strong Buy,ZG
327,0.7645161290322581,57.77,2018-05-18,"{'macd': 0.15, 'sod_14': 0.15, 'macdh': 0.14, 'volume': 0.14, 'obv_2': 0.11, 'rsi_14': 0.11, 'roc_2': 0.1, 'wr_14': 0.1}",0.7645161290322581,1.0,0.7645161290322581,"(1303, 8)",Buy,ZION
