,(-1) close,(-1) date,accuracy,close,date,features,precision,prediction,recall,shape,signal,symbol
0,67.37,2018-05-08,0.8448844884488449,68.06,2018-02-07,"{'sod_14': 0.21, 'macd': 0.14, 'rsi_14': 0.14, 'macdh': 0.13, 'wr_14': 0.11, 'volume': 0.1, 'obv_2': 0.09, 'roc_2': 0.09}",0.8448844884488449,1.0,0.8448844884488449,"(1296, 8)",Buy,A
1,29.93,2018-05-08,0.8118811881188119,31.1332,2018-02-07,"{'macd': 0.16, 'macdh': 0.14, 'rsi_14': 0.14, 'sod_14': 0.13, 'volume': 0.12, 'obv_2': 0.11, 'wr_14': 0.11, 'roc_2': 0.09}",0.8118811881188119,1.0,0.8118811881188119,"(1296, 8)",Buy,BAC
2,28.6,2018-05-08,0.8693181818181818,29.79,2018-02-07,"{'macd': 0.16, 'rsi_14': 0.14, 'volume': 0.14, 'macdh': 0.12, 'obv_2': 0.12, 'wr_14': 0.12, 'sod_14': 0.12, 'roc_2': 0.09}",0.8693181818181818,-1.0,0.8693181818181818,"(787, 8)",Sell,CLLS
3,142.07,2018-05-08,0.8646864686468647,161.44,2018-02-07,"{'macd': 0.17, 'sod_14': 0.17, 'rsi_14': 0.14, 'volume': 0.12, 'macdh': 0.11, 'obv_2': 0.1, 'wr_14': 0.1, 'roc_2': 0.09}",0.8646864686468647,1.0,0.8646864686468647,"(1295, 8)",Buy,DE
4,33.46,2018-05-08,0.9344262295081968,36.67,2018-02-07,"{'volume': 0.28, 'macdh': 0.19, 'macd': 0.17, 'rsi_14': 0.11, 'sod_14': 0.09, 'obv_2': 0.07, 'wr_14': 0.06, 'roc_2': 0.03}",0.9344262295081968,-1.0,0.9344262295081968,"(570, 8)",Sell,EDIT
5,21.96,2018-05-08,0.9357142857142857,21.086,2018-02-07,"{'rsi_14': 0.19, 'volume': 0.16, 'sod_14': 0.15, 'obv_2': 0.14, 'roc_2': 0.12, 'macdh': 0.1, 'macd': 0.07, 'wr_14': 0.06}",0.9357142857142857,1.0,0.9357142857142857,"(643, 8)",Buy,HPQ
6,56.76,2018-05-08,0.8481848184818482,55.3956,2018-02-07,"{'sod_14': 0.17, 'macdh': 0.14, 'volume': 0.14, 'macd': 0.12, 'rsi_14': 0.12, 'obv_2': 0.11, 'roc_2': 0.1, 'wr_14': 0.1}",0.8481848184818482,1.0,0.8481848184818482,"(1295, 8)",Buy,MRK
7,48.57,2018-05-08,0.9108910891089109,42.01,2018-02-07,"{'macd': 0.23, 'rsi_14': 0.18, 'volume': 0.16, 'macdh': 0.12, 'obv_2': 0.09, 'sod_14': 0.09, 'wr_14': 0.08, 'roc_2': 0.06}",0.9108910891089109,1.0,0.9108910891089109,"(1295, 8)",Buy,MU
8,326.89,2018-05-08,0.9405940594059405,264.56,2018-02-07,"{'volume': 0.21, 'obv_2': 0.16, 'macd': 0.12, 'rsi_14': 0.12, 'wr_14': 0.12, 'sod_14': 0.11, 'macdh': 0.1, 'roc_2': 0.08}",0.9405940594059405,1.0,0.9405940594059405,"(1295, 8)",Buy,NFLX
9,329.27,2018-05-08,0.966996699669967,336.566,2018-02-07,"{'macd': 0.24, 'rsi_14': 0.14, 'macdh': 0.12, 'obv_2': 0.12, 'sod_14': 0.11, 'volume': 0.1, 'wr_14': 0.09, 'roc_2': 0.08}",0.966996699669967,1.0,0.966996699669967,"(1295, 8)",Buy,NOC
10,22.24,2018-05-08,0.8867924528301887,25.65,2018-02-07,"{'macdh': 0.19, 'macd': 0.13, 'wr_14': 0.13, 'rsi_14': 0.12, 'volume': 0.12, 'sod_14': 0.12, 'obv_2': 0.11, 'roc_2': 0.07}",0.8867924528301887,1.0,0.8867924528301887,"(505, 8)",Buy,NTLA
11,75.72,2018-05-08,0.8679245283018868,75.59,2018-02-07,"{'sod_14': 0.19, 'macd': 0.17, 'rsi_14': 0.15, 'volume': 0.14, 'obv_2': 0.1, 'wr_14': 0.09, 'macdh': 0.08, 'roc_2': 0.07}",0.8679245283018868,1.0,0.8679245283018868,"(717, 8)",Buy,PYPL
12,285.86,2018-05-08,0.8811881188118812,334.61,2018-02-07,"{'macd': 0.24, 'macdh': 0.15, 'rsi_14': 0.13, 'volume': 0.11, 'sod_14': 0.11, 'obv_2': 0.09, 'wr_14': 0.09, 'roc_2': 0.08}",0.8811881188118812,1.0,0.8811881188118812,"(1295, 8)",Buy,REGN
13,14.65,2018-05-08,0.8448844884488449,22.1,2018-02-07,"{'volume': 0.17, 'macdh': 0.14, 'macd': 0.13, 'rsi_14': 0.13, 'sod_14': 0.13, 'obv_2': 0.12, 'wr_14': 0.1, 'roc_2': 0.09}",0.8448844884488449,1.0,0.8448844884488449,"(1295, 8)",Buy,SGMO
