,accuracy,close,date,features,precision,prediction,recall,shape,signal,symbol
0,0.6967741935483871,64.84,2018-05-22,"{'macd': 0.15, 'sod_14': 0.15, 'macdh': 0.14, 'rsi_14': 0.13, 'volume': 0.12, 'wr_14': 0.11, 'obv_2': 0.1, 'roc_2': 0.1}",0.6967741935483871,-1.0,0.6967741935483871,"(1306, 8)",Sell,A
1,0.7774193548387097,42.88,2018-05-22,"{'macd': 0.15, 'macdh': 0.14, 'volume': 0.14, 'sod_14': 0.14, 'rsi_14': 0.13, 'wr_14': 0.11, 'obv_2': 0.1, 'roc_2': 0.09}",0.7774193548387097,1.0,0.7774193548387097,"(1306, 8)",Buy,AAL
2,0.7967741935483871,187.16,2018-05-22,"{'macd': 0.15, 'volume': 0.15, 'macdh': 0.13, 'sod_14': 0.13, 'obv_2': 0.12, 'rsi_14': 0.12, 'wr_14': 0.11, 'roc_2': 0.09}",0.7967741935483871,-1.0,0.7967741935483871,"(1306, 8)",Sell,AAPL
3,0.7709677419354839,79.65,2018-05-22,"{'macd': 0.16, 'macdh': 0.13, 'rsi_14': 0.13, 'volume': 0.13, 'sod_14': 0.13, 'obv_2': 0.11, 'wr_14': 0.11, 'roc_2': 0.1}",0.7709677419354839,1.0,0.7709677419354839,"(1306, 8)",Buy,ACGL
4,0.7548387096774194,238.79,2018-05-22,"{'macd': 0.16, 'rsi_14': 0.15, 'macdh': 0.14, 'sod_14': 0.13, 'volume': 0.12, 'wr_14': 0.11, 'obv_2': 0.1, 'roc_2': 0.09}",0.7548387096774194,1.0,0.7548387096774194,"(1306, 8)",Buy,ADBE
5,0.7419354838709677,95.71,2018-05-22,"{'macd': 0.15, 'rsi_14': 0.13, 'volume': 0.13, 'sod_14': 0.13, 'macdh': 0.12, 'obv_2': 0.12, 'wr_14': 0.11, 'roc_2': 0.1}",0.7419354838709677,-1.0,0.7419354838709677,"(1306, 8)",Sell,ADI
6,0.7483870967741936,44.91,2018-05-22,"{'macd': 0.15, 'rsi_14': 0.14, 'volume': 0.14, 'sod_14': 0.14, 'macdh': 0.13, 'obv_2': 0.11, 'wr_14': 0.11, 'roc_2': 0.09}",0.7483870967741936,-2.0,0.7483870967741936,"(1306, 8)",Sell Strong,ADM
7,0.7096774193548387,128.38,2018-05-22,"{'macd': 0.15, 'rsi_14': 0.14, 'volume': 0.14, 'macdh': 0.13, 'sod_14': 0.13, 'obv_2': 0.11, 'wr_14': 0.11, 'roc_2': 0.1}",0.7096774193548387,-2.0,0.7096774193548387,"(1306, 8)",Sell Strong,ADP
8,0.7419354838709677,136.71,2018-05-22,"{'macd': 0.16, 'sod_14': 0.14, 'macdh': 0.13, 'rsi_14': 0.12, 'volume': 0.12, 'obv_2': 0.11, 'wr_14': 0.11, 'roc_2': 0.09}",0.7419354838709677,1.0,0.7419354838709677,"(1306, 8)",Buy,ADSK
9,0.7580645161290323,13.77,2018-05-22,"{'sod_14': 0.15, 'macd': 0.14, 'volume': 0.14, 'macdh': 0.13, 'rsi_14': 0.13, 'wr_14': 0.11, 'obv_2': 0.1, 'roc_2': 0.09}",0.7580645161290323,-1.0,0.7580645161290323,"(1306, 8)",Sell,AFSI
10,0.7516129032258064,19.11,2018-05-22,"{'macd': 0.18, 'macdh': 0.13, 'volume': 0.13, 'sod_14': 0.13, 'rsi_14': 0.12, 'wr_14': 0.11, 'obv_2': 0.1, 'roc_2': 0.1}",0.7516129032258064,-1.0,0.7516129032258064,"(1306, 8)",Sell,AGNC
11,0.8321167883211679,51.6,2018-05-22,"{'macd': 0.17, 'volume': 0.15, 'rsi_14': 0.14, 'sod_14': 0.13, 'obv_2': 0.12, 'macdh': 0.11, 'wr_14': 0.1, 'roc_2': 0.08}",0.8321167883211679,-1.0,0.8321167883211679,"(611, 8)",Sell,AGR
12,0.7709677419354839,7.0,2018-05-22,"{'volume': 0.16, 'macd': 0.15, 'sod_14': 0.14, 'macdh': 0.13, 'rsi_14': 0.13, 'wr_14': 0.11, 'obv_2': 0.1, 'roc_2': 0.09}",0.7709677419354839,-1.0,0.7709677419354839,"(1306, 8)",Sell,AHT
13,0.8032258064516129,46.95,2018-05-22,"{'volume': 0.17, 'macd': 0.15, 'rsi_14': 0.13, 'sod_14': 0.13, 'macdh': 0.12, 'obv_2': 0.12, 'wr_14': 0.1, 'roc_2': 0.09}",0.8032258064516129,1.0,0.8032258064516129,"(1305, 8)",Buy,ALFA
14,0.7774193548387097,297.86,2018-05-22,"{'macd': 0.18, 'rsi_14': 0.15, 'macdh': 0.13, 'sod_14': 0.12, 'volume': 0.11, 'wr_14': 0.11, 'obv_2': 0.1, 'roc_2': 0.1}",0.7774193548387097,-2.0,0.7774193548387097,"(1306, 8)",Sell Strong,ALGN
15,0.7064516129032258,119.01,2018-05-22,"{'macd': 0.15, 'volume': 0.14, 'macdh': 0.13, 'rsi_14': 0.13, 'sod_14': 0.13, 'obv_2': 0.11, 'wr_14': 0.11, 'roc_2': 0.1}",0.7064516129032258,1.0,0.7064516129032258,"(1306, 8)",Buy,ALXN
16,0.7548387096774194,50.25,2018-05-22,"{'macd': 0.15, 'macdh': 0.13, 'rsi_14': 0.13, 'sod_14': 0.13, 'volume': 0.12, 'obv_2': 0.11, 'roc_2': 0.11, 'wr_14': 0.11}",0.7548387096774194,-2.0,0.7548387096774194,"(1306, 8)",Sell Strong,AMAT
17,0.7096774193548387,178.36,2018-05-22,"{'macd': 0.15, 'rsi_14': 0.15, 'sod_14': 0.13, 'macdh': 0.12, 'volume': 0.12, 'obv_2': 0.11, 'wr_14': 0.11, 'roc_2': 0.1}",0.7096774193548387,-1.0,0.7096774193548387,"(1306, 8)",Sell,AMGN
18,0.7741935483870968,61.33,2018-05-22,"{'macd': 0.14, 'rsi_14': 0.14, 'sod_14': 0.14, 'macdh': 0.13, 'volume': 0.13, 'obv_2': 0.11, 'wr_14': 0.11, 'roc_2': 0.1}",0.7741935483870968,2.0,0.7741935483870968,"(1306, 8)",Buy Strong,AMTD
19,0.7645161290322581,1581.4,2018-05-22,"{'sod_14': 0.17, 'macd': 0.14, 'volume': 0.14, 'macdh': 0.13, 'rsi_14': 0.13, 'obv_2': 0.1, 'wr_14': 0.1, 'roc_2': 0.09}",0.7645161290322581,2.0,0.7645161290322581,"(1306, 8)",Buy Strong,AMZN
20,0.7645161290322581,1581.4,2018-05-22,"{'sod_14': 0.17, 'macd': 0.14, 'volume': 0.14, 'macdh': 0.13, 'rsi_14': 0.13, 'obv_2': 0.1, 'wr_14': 0.1, 'roc_2': 0.09}",0.7645161290322581,2.0,0.7645161290322581,"(1306, 8)",Buy Strong,AMZN
21,0.7161290322580646,121.35,2018-05-22,"{'rsi_14': 0.15, 'sod_14': 0.14, 'macd': 0.13, 'macdh': 0.12, 'obv_2': 0.12, 'volume': 0.12, 'wr_14': 0.11, 'roc_2': 0.1}",0.7161290322580646,-2.0,0.7161290322580646,"(1306, 8)",Sell Strong,ANAT
22,0.7161290322580646,202.54,2018-05-22,"{'macd': 0.15, 'sod_14': 0.15, 'macdh': 0.13, 'rsi_14': 0.13, 'volume': 0.12, 'obv_2': 0.11, 'wr_14': 0.11, 'roc_2': 0.1}",0.7161290322580646,-1.0,0.7161290322580646,"(1306, 8)",Sell,ASML
23,0.7290322580645161,71.35,2018-05-22,"{'macd': 0.16, 'macdh': 0.14, 'rsi_14': 0.13, 'volume': 0.13, 'sod_14': 0.13, 'obv_2': 0.11, 'roc_2': 0.1, 'wr_14': 0.1}",0.7290322580645161,2.0,0.7290322580645161,"(1306, 8)",Buy Strong,ATVI
24,0.8161290322580645,3.68,2018-05-22,"{'macd': 0.16, 'sod_14': 0.15, 'rsi_14': 0.14, 'volume': 0.14, 'macdh': 0.13, 'wr_14': 0.1, 'obv_2': 0.09, 'roc_2': 0.08}",0.8161290322580645,-1.0,0.8161290322580645,"(1306, 8)",Sell,AUTO
25,0.7322580645161291,238.49,2018-05-22,"{'macd': 0.15, 'macdh': 0.14, 'rsi_14': 0.14, 'volume': 0.14, 'sod_14': 0.13, 'wr_14': 0.11, 'obv_2': 0.1, 'roc_2': 0.1}",0.7322580645161291,-2.0,0.7322580645161291,"(1306, 8)",Sell Strong,AVGO
26,0.7838709677419354,102.7,2018-05-22,"{'macd': 0.15, 'volume': 0.15, 'macdh': 0.14, 'sod_14': 0.13, 'rsi_14': 0.12, 'obv_2': 0.11, 'roc_2': 0.1, 'wr_14': 0.09}",0.7838709677419354,-2.0,0.7838709677419354,"(1306, 8)",Sell Strong,AXP
27,0.7156862745098039,37.05,2018-05-22,"{'macd': 0.15, 'macdh': 0.14, 'sod_14': 0.14, 'rsi_14': 0.13, 'volume': 0.12, 'wr_14': 0.12, 'obv_2': 0.1, 'roc_2': 0.09}",0.7156862745098039,-2.0,0.7156862745098039,"(1289, 8)",Sell Strong,AZN
28,0.7967741935483871,355.02,2018-05-22,"{'macd': 0.16, 'sod_14': 0.15, 'rsi_14': 0.14, 'macdh': 0.13, 'volume': 0.13, 'obv_2': 0.11, 'wr_14': 0.1, 'roc_2': 0.09}",0.7967741935483871,-2.0,0.7967741935483871,"(1306, 8)",Sell Strong,BA
29,0.7548387096774194,29.3,2018-05-22,"{'macd': 0.14, 'macdh': 0.14, 'rsi_14': 0.14, 'volume': 0.14, 'wr_14': 0.12, 'sod_14': 0.12, 'obv_2': 0.11, 'roc_2': 0.09}",0.7548387096774194,-2.0,0.7548387096774194,"(1306, 8)",Sell Strong,BAB
30,0.8325581395348837,195.87,2018-05-22,"{'rsi_14': 0.17, 'volume': 0.15, 'macd': 0.14, 'macdh': 0.13, 'obv_2': 0.12, 'sod_14': 0.12, 'roc_2': 0.09, 'wr_14': 0.09}",0.8325581395348837,-2.0,0.8325581395348837,"(925, 8)",Sell Strong,BABA
31,0.7903225806451613,30.89,2018-05-22,"{'macd': 0.17, 'macdh': 0.14, 'sod_14': 0.14, 'rsi_14': 0.13, 'volume': 0.13, 'obv_2': 0.1, 'wr_14': 0.1, 'roc_2': 0.09}",0.7903225806451613,-1.0,0.7903225806451613,"(1306, 8)",Sell,BAC
32,0.667741935483871,59.74,2018-05-22,"{'macd': 0.15, 'volume': 0.15, 'macdh': 0.13, 'sod_14': 0.13, 'obv_2': 0.12, 'rsi_14': 0.12, 'roc_2': 0.1, 'wr_14': 0.1}",0.667741935483871,-2.0,0.667741935483871,"(1306, 8)",Sell Strong,BANR
33,0.7548387096774194,2.55,2018-05-22,"{'macd': 0.15, 'volume': 0.15, 'rsi_14': 0.14, 'macdh': 0.13, 'sod_14': 0.12, 'obv_2': 0.11, 'wr_14': 0.1, 'roc_2': 0.09}",0.7548387096774194,-2.0,0.7548387096774194,"(1306, 8)",Sell Strong,BBOX
34,0.7806451612903226,75.47,2018-05-22,"{'macd': 0.15, 'sod_14': 0.15, 'macdh': 0.14, 'rsi_14': 0.14, 'wr_14': 0.12, 'volume': 0.11, 'obv_2': 0.1, 'roc_2': 0.09}",0.7806451612903226,-2.0,0.7806451612903226,"(1306, 8)",Sell Strong,BBY
35,0.7451612903225806,12.05,2018-05-22,"{'macd': 0.16, 'rsi_14': 0.14, 'sod_14': 0.14, 'volume': 0.13, 'macdh': 0.12, 'obv_2': 0.11, 'wr_14': 0.11, 'roc_2': 0.1}",0.7451612903225806,-2.0,0.7451612903225806,"(1306, 8)",Sell Strong,BGCP
36,0.868421052631579,47.7,2018-05-22,"{'macd': 0.2, 'volume': 0.18, 'sod_14': 0.13, 'rsi_14': 0.12, 'macdh': 0.11, 'obv_2': 0.11, 'wr_14': 0.1, 'roc_2': 0.07}",0.868421052631579,2.0,0.868421052631579,"(215, 8)",Buy Strong,BHF
37,0.7483870967741936,239.97,2018-05-22,"{'macd': 0.15, 'sod_14': 0.15, 'macdh': 0.14, 'rsi_14': 0.13, 'volume': 0.13, 'wr_14': 0.11, 'obv_2': 0.1, 'roc_2': 0.1}",0.7483870967741936,-1.0,0.7483870967741936,"(1306, 8)",Sell,BIDU
38,0.6870967741935484,279.69,2018-05-22,"{'macd': 0.14, 'sod_14': 0.14, 'macdh': 0.13, 'rsi_14': 0.13, 'volume': 0.13, 'wr_14': 0.12, 'obv_2': 0.11, 'roc_2': 0.11}",0.6870967741935484,-2.0,0.6870967741935484,"(1306, 8)",Sell Strong,BIIB
39,0.7483870967741936,2077.19,2018-05-22,"{'macd': 0.16, 'rsi_14': 0.15, 'volume': 0.14, 'macdh': 0.13, 'sod_14': 0.13, 'obv_2': 0.1, 'wr_14': 0.1, 'roc_2': 0.09}",0.7483870967741936,1.0,0.7483870967741936,"(1306, 8)",Buy,BKNG
40,0.6870967741935484,36.39,2018-05-22,"{'macd': 0.14, 'volume': 0.14, 'sod_14': 0.14, 'macdh': 0.13, 'obv_2': 0.13, 'rsi_14': 0.12, 'roc_2': 0.1, 'wr_14': 0.1}",0.6870967741935484,1.0,0.6870967741935484,"(1306, 8)",Buy,BME
41,0.7322580645161291,87.61,2018-05-22,"{'macd': 0.16, 'macdh': 0.14, 'sod_14': 0.14, 'rsi_14': 0.13, 'volume': 0.12, 'wr_14': 0.11, 'obv_2': 0.1, 'roc_2': 0.1}",0.7322580645161291,-1.0,0.7322580645161291,"(1305, 8)",Sell,BMRN
42,0.8258064516129032,40.8,2018-05-22,"{'macd': 0.15, 'macdh': 0.15, 'volume': 0.14, 'rsi_14': 0.13, 'sod_14': 0.13, 'wr_14': 0.11, 'obv_2': 0.1, 'roc_2': 0.09}",0.8258064516129032,1.0,0.8258064516129032,"(1306, 8)",Buy,BOFI
43,0.7290322580645161,104.8,2018-05-22,"{'macd': 0.15, 'volume': 0.15, 'macdh': 0.14, 'rsi_14': 0.13, 'sod_14': 0.13, 'obv_2': 0.11, 'wr_14': 0.11, 'roc_2': 0.08}",0.7290322580645161,-2.0,0.7290322580645161,"(1306, 8)",Sell Strong,BOKF
44,0.7419354838709677,47.09,2018-05-22,"{'macd': 0.15, 'volume': 0.15, 'obv_2': 0.13, 'rsi_14': 0.13, 'sod_14': 0.13, 'macdh': 0.12, 'wr_14': 0.11, 'roc_2': 0.09}",0.7419354838709677,1.0,0.7419354838709677,"(1306, 8)",Buy,BP
45,0.7645161290322581,47.24,2018-05-22,"{'macd': 0.15, 'volume': 0.14, 'macdh': 0.13, 'rsi_14': 0.13, 'sod_14': 0.13, 'obv_2': 0.11, 'wr_14': 0.11, 'roc_2': 0.1}",0.7645161290322581,-2.0,0.7645161290322581,"(1306, 8)",Sell Strong,BPOP
46,0.7870967741935484,2.63,2018-05-22,"{'macd': 0.15, 'volume': 0.14, 'sod_14': 0.14, 'rsi_14': 0.13, 'macdh': 0.12, 'obv_2': 0.11, 'roc_2': 0.1, 'wr_14': 0.1}",0.7870967741935484,1.0,0.7870967741935484,"(1306, 8)",Buy,BTG
47,0.6935483870967742,71.08,2018-05-22,"{'macd': 0.15, 'macdh': 0.13, 'volume': 0.13, 'sod_14': 0.13, 'obv_2': 0.12, 'rsi_14': 0.12, 'wr_14': 0.12, 'roc_2': 0.1}",0.6935483870967742,2.0,0.6935483870967742,"(1306, 8)",Buy Strong,C
48,0.7354838709677419,35.28,2018-05-22,"{'sod_14': 0.15, 'macd': 0.14, 'macdh': 0.13, 'volume': 0.13, 'rsi_14': 0.12, 'obv_2': 0.11, 'wr_14': 0.11, 'roc_2': 0.1}",0.7354838709677419,-1.0,0.7354838709677419,"(1305, 8)",Sell,CA
49,0.8064516129032258,363.06,2018-05-22,"{'volume': 0.15, 'sod_14': 0.15, 'macdh': 0.14, 'macd': 0.13, 'obv_2': 0.12, 'rsi_14': 0.12, 'wr_14': 0.1, 'roc_2': 0.09}",0.8064516129032258,2.0,0.8064516129032258,"(1305, 8)",Buy Strong,CACC
50,0.7774193548387097,156.2,2018-05-22,"{'macd': 0.16, 'volume': 0.14, 'sod_14': 0.14, 'macdh': 0.13, 'rsi_14': 0.13, 'obv_2': 0.1, 'roc_2': 0.1, 'wr_14': 0.1}",0.7774193548387097,-2.0,0.7774193548387097,"(1305, 8)",Sell Strong,CAT
51,0.7032258064516129,42.96,2018-05-22,"{'macd': 0.14, 'volume': 0.14, 'sod_14': 0.14, 'macdh': 0.13, 'rsi_14': 0.13, 'wr_14': 0.12, 'obv_2': 0.11, 'roc_2': 0.1}",0.7032258064516129,-1.0,0.7032258064516129,"(1305, 8)",Sell,CATY
52,0.6989966555183946,47.31,2018-03-19,"{'sod_14': 0.14, 'macd': 0.13, 'macdh': 0.13, 'rsi_14': 0.13, 'volume': 0.13, 'obv_2': 0.12, 'wr_14': 0.11, 'roc_2': 0.1}",0.6989966555183946,-2.0,0.6989966555183946,"(1260, 8)",Sell Strong,CBG
53,0.7709677419354839,104.44,2018-05-22,"{'macd': 0.16, 'rsi_14': 0.15, 'macdh': 0.13, 'volume': 0.13, 'sod_14': 0.12, 'obv_2': 0.11, 'roc_2': 0.1, 'wr_14': 0.1}",0.7709677419354839,2.0,0.7709677419354839,"(1305, 8)",Buy Strong,CBOE
54,0.7225806451612903,65.49,2018-05-22,"{'macdh': 0.15, 'sod_14': 0.15, 'macd': 0.14, 'rsi_14': 0.13, 'volume': 0.12, 'obv_2': 0.11, 'wr_14': 0.11, 'roc_2': 0.1}",0.7225806451612903,-2.0,0.7225806451612903,"(1305, 8)",Sell Strong,CBSH
55,0.7348993288590604,21.5,2018-03-08,"{'sod_14': 0.17, 'volume': 0.15, 'macd': 0.13, 'macdh': 0.13, 'obv_2': 0.12, 'rsi_14': 0.12, 'wr_14': 0.1, 'roc_2': 0.09}",0.7348993288590604,-1.0,0.7348993288590604,"(1258, 8)",Sell,CCC
56,0.6903225806451613,65.05,2018-05-22,"{'sod_14': 0.14, 'macd': 0.13, 'macdh': 0.13, 'obv_2': 0.12, 'rsi_14': 0.12, 'volume': 0.12, 'wr_14': 0.12, 'roc_2': 0.11}",0.6903225806451613,-2.0,0.6903225806451613,"(1305, 8)",Sell Strong,CCL
57,0.7193548387096774,42.05,2018-05-22,"{'sod_14': 0.16, 'macd': 0.15, 'volume': 0.15, 'macdh': 0.12, 'rsi_14': 0.12, 'wr_14': 0.11, 'obv_2': 0.1, 'roc_2': 0.09}",0.7193548387096774,2.0,0.7193548387096774,"(1305, 8)",Buy Strong,CDNS
58,0.7322580645161291,76.61,2018-05-22,"{'macd': 0.15, 'macdh': 0.15, 'sod_14': 0.14, 'rsi_14': 0.13, 'volume': 0.13, 'obv_2': 0.1, 'wr_14': 0.1, 'roc_2': 0.09}",0.7322580645161291,-2.0,0.7322580645161291,"(1305, 8)",Sell Strong,CELG
59,0.7774193548387097,59.72,2018-05-22,"{'macd': 0.15, 'sod_14': 0.15, 'rsi_14': 0.14, 'volume': 0.14, 'macdh': 0.13, 'obv_2': 0.12, 'wr_14': 0.1, 'roc_2': 0.09}",0.7774193548387097,-2.0,0.7774193548387097,"(1305, 8)",Sell Strong,CERN
60,0.7451612903225806,13.15,2018-05-22,"{'macd': 0.16, 'macdh': 0.14, 'volume': 0.14, 'rsi_14': 0.13, 'sod_14': 0.13, 'obv_2': 0.1, 'wr_14': 0.1, 'roc_2': 0.09}",0.7451612903225806,2.0,0.7451612903225806,"(1305, 8)",Buy Strong,CFFN
61,0.7677419354838709,58.2,2018-05-22,"{'volume': 0.16, 'macd': 0.13, 'macdh': 0.13, 'sod_14': 0.13, 'obv_2': 0.12, 'rsi_14': 0.12, 'wr_14': 0.11, 'roc_2': 0.1}",0.7677419354838709,-1.0,0.7677419354838709,"(1305, 8)",Sell,CHFC
62,0.7,96.34,2018-05-22,"{'sod_14': 0.15, 'macd': 0.14, 'rsi_14': 0.13, 'volume': 0.13, 'macdh': 0.12, 'wr_14': 0.12, 'obv_2': 0.11, 'roc_2': 0.1}",0.7,-1.0,0.7,"(1305, 8)",Sell,CHKP
63,0.7161290322580646,267.66,2018-05-22,"{'macd': 0.16, 'volume': 0.14, 'macdh': 0.13, 'rsi_14': 0.13, 'sod_14': 0.13, 'obv_2': 0.11, 'roc_2': 0.1, 'wr_14': 0.1}",0.7161290322580646,1.0,0.7161290322580646,"(1305, 8)",Buy,CHTR
64,0.7580645161290323,76.2,2018-05-22,"{'macd': 0.16, 'sod_14': 0.14, 'macdh': 0.13, 'rsi_14': 0.13, 'volume': 0.13, 'obv_2': 0.11, 'roc_2': 0.1, 'wr_14': 0.1}",0.7580645161290323,-2.0,0.7580645161290323,"(1305, 8)",Sell Strong,CIGI
65,0.7548387096774194,71.45,2018-05-22,"{'macd': 0.16, 'macdh': 0.14, 'sod_14': 0.13, 'rsi_14': 0.12, 'volume': 0.12, 'obv_2': 0.11, 'roc_2': 0.11, 'wr_14': 0.1}",0.7548387096774194,1.0,0.7548387096774194,"(1305, 8)",Buy,CINF
66,0.7935483870967742,17.92,2018-05-22,"{'macd': 0.17, 'sod_14': 0.14, 'macdh': 0.13, 'rsi_14': 0.13, 'volume': 0.13, 'obv_2': 0.11, 'roc_2': 0.1, 'wr_14': 0.1}",0.7935483870967742,-2.0,0.7935483870967742,"(1305, 8)",Sell Strong,CLI
67,0.7868852459016393,30.56,2018-05-22,"{'macd': 0.16, 'macdh': 0.14, 'sod_14': 0.14, 'volume': 0.13, 'rsi_14': 0.12, 'obv_2': 0.11, 'wr_14': 0.11, 'roc_2': 0.1}",0.7868852459016393,2.0,0.7868852459016393,"(797, 8)",Buy Strong,CLLS
68,0.7225806451612903,32.51,2018-05-22,"{'macd': 0.15, 'macdh': 0.14, 'rsi_14': 0.14, 'volume': 0.13, 'sod_14': 0.13, 'obv_2': 0.12, 'roc_2': 0.1, 'wr_14': 0.1}",0.7225806451612903,-1.0,0.7225806451612903,"(1305, 8)",Sell,CMCSA
69,0.7611336032388664,14.8,2018-05-22,"{'macd': 0.16, 'sod_14': 0.15, 'macdh': 0.14, 'rsi_14': 0.13, 'volume': 0.13, 'wr_14': 0.11, 'obv_2': 0.09, 'roc_2': 0.09}",0.7611336032388664,1.0,0.7611336032388664,"(1053, 8)",Buy,CMCT
70,0.7387096774193549,160.86,2018-05-22,"{'macd': 0.15, 'macdh': 0.14, 'volume': 0.13, 'sod_14': 0.13, 'obv_2': 0.12, 'rsi_14': 0.12, 'roc_2': 0.11, 'wr_14': 0.11}",0.7387096774193549,1.0,0.7387096774193549,"(1305, 8)",Buy,CME
71,0.7580645161290323,49.06,2018-05-22,"{'sod_14': 0.15, 'rsi_14': 0.14, 'volume': 0.14, 'macdh': 0.13, 'macd': 0.12, 'obv_2': 0.11, 'wr_14': 0.11, 'roc_2': 0.1}",0.7580645161290323,-2.0,0.7580645161290323,"(1305, 8)",Sell Strong,CNA
72,0.7322580645161291,43.45,2018-05-22,"{'macd': 0.16, 'macdh': 0.15, 'sod_14': 0.14, 'rsi_14': 0.12, 'roc_2': 0.11, 'volume': 0.11, 'wr_14': 0.11, 'obv_2': 0.1}",0.7322580645161291,-1.0,0.7322580645161291,"(1305, 8)",Sell,COLB
73,0.8096774193548387,51.64,2018-05-22,"{'macd': 0.15, 'rsi_14': 0.14, 'volume': 0.14, 'sod_14': 0.14, 'obv_2': 0.12, 'macdh': 0.11, 'wr_14': 0.1, 'roc_2': 0.09}",0.8096774193548387,2.0,0.8096774193548387,"(1305, 8)",Buy Strong,CONE
74,0.7580645161290323,198.97,2018-05-22,"{'macd': 0.16, 'sod_14': 0.15, 'macdh': 0.13, 'rsi_14': 0.12, 'volume': 0.12, 'wr_14': 0.12, 'obv_2': 0.11, 'roc_2': 0.09}",0.7580645161290323,-2.0,0.7580645161290323,"(1305, 8)",Sell Strong,COST
75,0.8064516129032258,8.46,2018-05-22,"{'volume': 0.18, 'sod_14': 0.15, 'macd': 0.13, 'macdh': 0.12, 'obv_2': 0.12, 'rsi_14': 0.11, 'roc_2': 0.1, 'wr_14': 0.09}",0.8064516129032258,-1.0,0.8064516129032258,"(1304, 8)",Sell,CPG
76,0.6514657980456026,27.65,2018-05-22,"{'volume': 0.14, 'sod_14': 0.14, 'macd': 0.13, 'macdh': 0.12, 'obv_2': 0.12, 'roc_2': 0.12, 'rsi_14': 0.12, 'wr_14': 0.11}",0.6514657980456026,-1.0,0.6514657980456026,"(1292, 8)",Sell,CPI
77,0.7387096774193549,37.76,2018-05-22,"{'sod_14': 0.16, 'macd': 0.15, 'volume': 0.15, 'macdh': 0.12, 'obv_2': 0.12, 'rsi_14': 0.11, 'roc_2': 0.1, 'wr_14': 0.1}",0.7387096774193549,-1.0,0.7387096774193549,"(1305, 8)",Sell,CRH
78,0.7774193548387097,43.65,2018-05-22,"{'macd': 0.15, 'rsi_14': 0.15, 'volume': 0.14, 'sod_14': 0.14, 'macdh': 0.13, 'obv_2': 0.11, 'wr_14': 0.11, 'roc_2': 0.09}",0.7774193548387097,-2.0,0.7774193548387097,"(1305, 8)",Sell Strong,CSCO
79,0.7225806451612903,63.47,2018-05-22,"{'macd': 0.14, 'macdh': 0.14, 'rsi_14': 0.14, 'sod_14': 0.14, 'volume': 0.13, 'wr_14': 0.11, 'obv_2': 0.1, 'roc_2': 0.1}",0.7225806451612903,2.0,0.7225806451612903,"(1305, 8)",Buy Strong,CSX
80,0.7,180.87,2018-05-22,"{'macd': 0.17, 'macdh': 0.14, 'rsi_14': 0.13, 'sod_14': 0.13, 'volume': 0.12, 'obv_2': 0.1, 'roc_2': 0.1, 'wr_14': 0.1}",0.7,1.0,0.7,"(1305, 8)",Buy,CTAS
81,0.7612903225806451,43.44,2018-05-22,"{'macd': 0.15, 'sod_14': 0.15, 'macdh': 0.14, 'rsi_14': 0.12, 'volume': 0.12, 'wr_14': 0.12, 'obv_2': 0.1, 'roc_2': 0.09}",0.7612903225806451,-2.0,0.7612903225806451,"(1305, 8)",Sell Strong,CTRP
82,0.7451612903225806,75.24,2018-05-22,"{'volume': 0.16, 'macd': 0.14, 'rsi_14': 0.14, 'sod_14': 0.14, 'macdh': 0.12, 'obv_2': 0.11, 'wr_14': 0.1, 'roc_2': 0.09}",0.7451612903225806,-1.0,0.7451612903225806,"(1305, 8)",Sell,CTSH
83,0.7806451612903226,105.41,2018-05-22,"{'macd': 0.15, 'rsi_14': 0.15, 'macdh': 0.14, 'volume': 0.13, 'sod_14': 0.13, 'obv_2': 0.11, 'wr_14': 0.11, 'roc_2': 0.09}",0.7806451612903226,-2.0,0.7806451612903226,"(1305, 8)",Sell Strong,CTXS
84,0.8154362416107382,20.68,2018-05-22,"{'macd': 0.17, 'volume': 0.17, 'rsi_14': 0.14, 'sod_14': 0.13, 'obv_2': 0.11, 'macdh': 0.1, 'wr_14': 0.1, 'roc_2': 0.08}",0.8154362416107382,-2.0,0.8154362416107382,"(1258, 8)",Sell Strong,CTY
85,0.7032258064516129,23.6,2018-05-22,"{'macd': 0.16, 'macdh': 0.15, 'rsi_14': 0.13, 'volume': 0.12, 'sod_14': 0.12, 'obv_2': 0.11, 'wr_14': 0.11, 'roc_2': 0.1}",0.7032258064516129,-1.0,0.7032258064516129,"(1305, 8)",Sell,CVBF
86,0.8096774193548387,128.23,2018-05-22,"{'macd': 0.15, 'volume': 0.15, 'sod_14': 0.15, 'macdh': 0.13, 'rsi_14': 0.12, 'obv_2': 0.11, 'roc_2': 0.1, 'wr_14': 0.1}",0.8096774193548387,-2.0,0.8096774193548387,"(1305, 8)",Sell Strong,CVX
87,0.7580645161290323,155.09,2018-05-22,"{'macd': 0.15, 'macdh': 0.14, 'rsi_14': 0.14, 'sod_14': 0.14, 'volume': 0.13, 'obv_2': 0.1, 'roc_2': 0.1, 'wr_14': 0.1}",0.7580645161290323,2.0,0.7580645161290323,"(1305, 8)",Buy Strong,DE
88,0.7580645161290323,104.07,2018-05-22,"{'macd': 0.16, 'rsi_14': 0.14, 'sod_14': 0.14, 'macdh': 0.13, 'volume': 0.13, 'obv_2': 0.1, 'roc_2': 0.1, 'wr_14': 0.1}",0.7580645161290323,2.0,0.7580645161290323,"(1305, 8)",Buy Strong,DIS
89,0.7645161290322581,31.97,2018-05-22,"{'macd': 0.15, 'macdh': 0.15, 'volume': 0.15, 'rsi_14': 0.13, 'sod_14': 0.13, 'obv_2': 0.1, 'wr_14': 0.1, 'roc_2': 0.08}",0.7645161290322581,-2.0,0.7645161290322581,"(1305, 8)",Sell Strong,DISH
90,0.7258064516129032,90.46,2018-05-22,"{'rsi_14': 0.15, 'macd': 0.13, 'macdh': 0.13, 'sod_14': 0.13, 'obv_2': 0.12, 'volume': 0.12, 'wr_14': 0.12, 'roc_2': 0.1}",0.7258064516129032,2.0,0.7258064516129032,"(1305, 8)",Buy Strong,DLN
91,0.7935483870967742,93.59,2018-05-22,"{'macd': 0.15, 'macdh': 0.14, 'sod_14': 0.14, 'rsi_14': 0.13, 'volume': 0.13, 'obv_2': 0.11, 'wr_14': 0.11, 'roc_2': 0.09}",0.7935483870967742,-2.0,0.7935483870967742,"(1305, 8)",Sell Strong,DLTR
92,0.7451612903225806,132.18,2018-05-22,"{'macd': 0.17, 'macdh': 0.14, 'sod_14': 0.14, 'rsi_14': 0.13, 'obv_2': 0.11, 'volume': 0.11, 'wr_14': 0.11, 'roc_2': 0.09}",0.7451612903225806,-1.0,0.7451612903225806,"(1305, 8)",Sell,EA
93,0.6806451612903226,37.77,2018-05-22,"{'sod_14': 0.16, 'macd': 0.14, 'macdh': 0.13, 'rsi_14': 0.13, 'volume': 0.12, 'obv_2': 0.11, 'wr_14': 0.11, 'roc_2': 0.1}",0.6806451612903226,2.0,0.6806451612903226,"(1305, 8)",Buy Strong,EBAY
94,0.8294573643410853,34.16,2018-05-22,"{'volume': 0.2, 'macd': 0.15, 'rsi_14': 0.13, 'macdh': 0.12, 'obv_2': 0.12, 'sod_14': 0.11, 'roc_2': 0.09, 'wr_14': 0.09}",0.8294573643410853,2.0,0.8294573643410853,"(580, 8)",Buy Strong,EDIT
95,0.7903225806451613,383.19,2018-05-22,"{'macd': 0.16, 'volume': 0.14, 'sod_14': 0.14, 'rsi_14': 0.13, 'macdh': 0.12, 'wr_14': 0.12, 'obv_2': 0.11, 'roc_2': 0.09}",0.7903225806451613,-2.0,0.7903225806451613,"(1305, 8)",Sell Strong,EQIX
96,0.7225806451612903,113.78,2018-05-22,"{'macdh': 0.14, 'volume': 0.14, 'sod_14': 0.14, 'macd': 0.13, 'rsi_14': 0.12, 'wr_14': 0.12, 'obv_2': 0.11, 'roc_2': 0.1}",0.7225806451612903,-1.0,0.7225806451612903,"(1305, 8)",Sell,ERIE
97,0.7547169811320755,22.2599,2018-05-22,"{'macd': 0.21, 'rsi_14': 0.17, 'macdh': 0.12, 'wr_14': 0.11, 'sod_14': 0.11, 'obv_2': 0.1, 'roc_2': 0.1, 'volume': 0.09}",0.7547169811320755,-1.0,0.7547169811320755,"(275, 8)",Sell,ERM
98,0.7451612903225806,211.0,2018-05-22,"{'macd': 0.17, 'macdh': 0.13, 'rsi_14': 0.13, 'sod_14': 0.13, 'volume': 0.12, 'obv_2': 0.11, 'roc_2': 0.1, 'wr_14': 0.1}",0.7451612903225806,2.0,0.7451612903225806,"(1305, 8)",Buy Strong,ESGR
99,0.7306273062730627,35.4,2018-05-22,"{'macd': 0.15, 'rsi_14': 0.14, 'macdh': 0.13, 'volume': 0.13, 'sod_14': 0.13, 'wr_14': 0.12, 'obv_2': 0.1, 'roc_2': 0.09}",0.7306273062730627,1.0,0.7306273062730627,"(1147, 8)",Buy,ESNT
100,0.7483870967741936,77.75,2018-05-22,"{'macd': 0.15, 'rsi_14': 0.14, 'macdh': 0.13, 'sod_14': 0.13, 'obv_2': 0.12, 'volume': 0.12, 'wr_14': 0.11, 'roc_2': 0.1}",0.7483870967741936,2.0,0.7483870967741936,"(1305, 8)",Buy Strong,ESRX
101,0.7290322580645161,65.71,2018-05-22,"{'macd': 0.15, 'rsi_14': 0.14, 'volume': 0.14, 'macdh': 0.13, 'sod_14': 0.13, 'wr_14': 0.11, 'obv_2': 0.1, 'roc_2': 0.1}",0.7290322580645161,-1.0,0.7290322580645161,"(1305, 8)",Sell,ETFC
102,0.7161290322580646,26.13,2018-05-22,"{'volume': 0.15, 'macd': 0.14, 'rsi_14': 0.13, 'sod_14': 0.13, 'macdh': 0.12, 'wr_14': 0.12, 'obv_2': 0.11, 'roc_2': 0.1}",0.7161290322580646,-1.0,0.7161290322580646,"(1305, 8)",Sell,ETO
103,0.7419354838709677,111.1,2018-05-22,"{'macd': 0.15, 'sod_14': 0.15, 'macdh': 0.14, 'rsi_14': 0.14, 'volume': 0.12, 'wr_14': 0.11, 'obv_2': 0.1, 'roc_2': 0.1}",0.7419354838709677,2.0,0.7419354838709677,"(1305, 8)",Buy Strong,EVR
104,0.7290322580645161,71.86,2018-05-22,"{'macd': 0.14, 'volume': 0.14, 'sod_14': 0.14, 'macdh': 0.13, 'rsi_14': 0.13, 'obv_2': 0.11, 'roc_2': 0.11, 'wr_14': 0.11}",0.7290322580645161,-2.0,0.7290322580645161,"(1305, 8)",Sell Strong,EWBC
105,0.7677419354838709,116.29,2018-05-22,"{'macd': 0.14, 'macdh': 0.14, 'sod_14': 0.14, 'rsi_14': 0.13, 'volume': 0.13, 'obv_2': 0.11, 'wr_14': 0.11, 'roc_2': 0.1}",0.7677419354838709,1.0,0.7677419354838709,"(1305, 8)",Buy,EXPE
106,0.7466666666666667,131.37,2018-05-22,"{'sod_14': 0.16, 'volume': 0.15, 'macd': 0.14, 'macdh': 0.12, 'rsi_14': 0.12, 'obv_2': 0.1, 'roc_2': 0.1, 'wr_14': 0.1}",0.7466666666666667,1.0,0.7466666666666667,"(1266, 8)",Buy,EZJ
107,0.7580645161290323,52.7,2018-05-22,"{'macd': 0.17, 'macdh': 0.15, 'rsi_14': 0.13, 'volume': 0.13, 'sod_14': 0.12, 'wr_14': 0.11, 'obv_2': 0.1, 'roc_2': 0.1}",0.7580645161290323,1.0,0.7580645161290323,"(1305, 8)",Buy,FAST
108,0.7189542483660131,183.8,2018-05-22,"{'macd': 0.15, 'rsi_14': 0.15, 'volume': 0.14, 'sod_14': 0.14, 'macdh': 0.11, 'obv_2': 0.1, 'roc_2': 0.1, 'wr_14': 0.1}",0.7189542483660131,-1.0,0.7189542483660131,"(1289, 8)",Sell,FB
109,0.7258064516129032,451.5,2018-05-22,"{'sod_14': 0.15, 'macd': 0.14, 'volume': 0.14, 'macdh': 0.12, 'obv_2': 0.12, 'rsi_14': 0.12, 'roc_2': 0.1, 'wr_14': 0.1}",0.7258064516129032,-2.0,0.7258064516129032,"(1305, 8)",Sell Strong,FCNCA
110,0.8,22.2,2018-05-22,"{'volume': 0.19, 'macd': 0.13, 'rsi_14': 0.13, 'sod_14': 0.13, 'obv_2': 0.12, 'macdh': 0.11, 'roc_2': 0.1, 'wr_14': 0.1}",0.8,-2.0,0.8,"(645, 8)",Sell Strong,FCPT
111,0.7451612903225806,50.135,2018-05-22,"{'macd': 0.15, 'rsi_14': 0.14, 'macdh': 0.13, 'volume': 0.13, 'sod_14': 0.13, 'wr_14': 0.12, 'obv_2': 0.1, 'roc_2': 0.1}",0.7451612903225806,-1.0,0.7451612903225806,"(1305, 8)",Sell,FDM
112,0.6806451612903226,32.3,2018-05-22,"{'macd': 0.16, 'macdh': 0.14, 'rsi_14': 0.13, 'volume': 0.13, 'sod_14': 0.13, 'obv_2': 0.11, 'wr_14': 0.11, 'roc_2': 0.1}",0.6806451612903226,-2.0,0.6806451612903226,"(1305, 8)",Sell Strong,FFBC
113,0.7677419354838709,53.3,2018-05-22,"{'macd': 0.15, 'rsi_14': 0.14, 'sod_14': 0.14, 'macdh': 0.13, 'volume': 0.13, 'obv_2': 0.11, 'roc_2': 0.1, 'wr_14': 0.1}",0.7677419354838709,-1.0,0.7677419354838709,"(1305, 8)",Sell,FFIN
114,0.7387096774193549,3.68,2018-05-22,"{'macd': 0.15, 'volume': 0.14, 'macdh': 0.13, 'rsi_14': 0.13, 'sod_14': 0.13, 'wr_14': 0.11, 'obv_2': 0.1, 'roc_2': 0.09}",0.7387096774193549,2.0,0.7387096774193549,"(1305, 8)",Buy Strong,FGP
115,0.8041237113402062,28.88,2018-05-22,"{'rsi_14': 0.17, 'macd': 0.16, 'volume': 0.15, 'macdh': 0.14, 'obv_2': 0.11, 'wr_14': 0.1, 'sod_14': 0.1, 'roc_2': 0.08}",0.8041237113402062,-1.0,0.8041237113402062,"(453, 8)",Sell,FHB
116,0.6741935483870968,71.66,2018-05-22,"{'macd': 0.15, 'macdh': 0.13, 'rsi_14': 0.13, 'volume': 0.13, 'sod_14': 0.13, 'wr_14': 0.12, 'obv_2': 0.11, 'roc_2': 0.1}",0.6741935483870968,1.0,0.6741935483870968,"(1305, 8)",Buy,FISV
117,0.7225806451612903,31.89,2018-05-22,"{'sod_14': 0.15, 'macd': 0.14, 'macdh': 0.13, 'rsi_14': 0.13, 'volume': 0.13, 'obv_2': 0.11, 'wr_14': 0.11, 'roc_2': 0.1}",0.7225806451612903,-2.0,0.7225806451612903,"(1305, 8)",Sell Strong,FITB
118,0.7225806451612903,26.43,2018-05-22,"{'volume': 0.15, 'macd': 0.14, 'rsi_14': 0.14, 'macdh': 0.12, 'sod_14': 0.12, 'obv_2': 0.11, 'wr_14': 0.11, 'roc_2': 0.1}",0.7225806451612903,-2.0,0.7225806451612903,"(1305, 8)",Sell Strong,FMBI
119,0.7774193548387097,44.6,2018-05-22,"{'sod_14': 0.15, 'rsi_14': 0.14, 'volume': 0.14, 'macd': 0.13, 'macdh': 0.13, 'wr_14': 0.11, 'obv_2': 0.1, 'roc_2': 0.09}",0.7774193548387097,1.0,0.7774193548387097,"(1305, 8)",Buy,FNGN
120,0.8027210884353742,37.74,2018-05-22,"{'sod_14': 0.18, 'macd': 0.13, 'macdh': 0.13, 'volume': 0.13, 'rsi_14': 0.12, 'obv_2': 0.11, 'wr_14': 0.11, 'roc_2': 0.1}",0.8027210884353742,1.0,0.8027210884353742,"(1241, 8)",Buy,FOX
121,0.8061224489795918,38.16,2018-05-22,"{'sod_14': 0.15, 'macd': 0.14, 'rsi_14': 0.14, 'volume': 0.13, 'macdh': 0.12, 'obv_2': 0.11, 'wr_14': 0.11, 'roc_2': 0.1}",0.8061224489795918,-2.0,0.8061224489795918,"(1241, 8)",Sell Strong,FOXA
122,0.7774193548387097,69.99,2018-05-22,"{'macd': 0.15, 'volume': 0.14, 'macdh': 0.13, 'sod_14': 0.13, 'rsi_14': 0.12, 'wr_14': 0.11, 'obv_2': 0.1, 'roc_2': 0.1}",0.7774193548387097,2.0,0.7774193548387097,"(1305, 8)",Buy Strong,FSLR
123,0.7076023391812866,71.2,2018-05-22,"{'macd': 0.15, 'rsi_14': 0.15, 'volume': 0.15, 'sod_14': 0.12, 'macdh': 0.11, 'wr_14': 0.11, 'obv_2': 0.1, 'roc_2': 0.1}",0.7076023391812866,-2.0,0.7076023391812866,"(750, 8)",Sell Strong,FSV
124,0.7161290322580646,17.85,2018-05-22,"{'macd': 0.15, 'rsi_14': 0.15, 'macdh': 0.13, 'volume': 0.12, 'sod_14': 0.12, 'obv_2': 0.11, 'roc_2': 0.11, 'wr_14': 0.11}",0.7161290322580646,1.0,0.7161290322580646,"(1305, 8)",Buy,FULT
125,0.7612903225806451,40.25,2018-05-22,"{'macd': 0.14, 'macdh': 0.14, 'rsi_14': 0.14, 'sod_14': 0.14, 'volume': 0.13, 'obv_2': 0.11, 'wr_14': 0.11, 'roc_2': 0.1}",0.7612903225806451,1.0,0.7612903225806451,"(1305, 8)",Buy,GBCI
126,0.8,30.8,2018-05-22,"{'sod_14': 0.16, 'macd': 0.14, 'rsi_14': 0.13, 'volume': 0.13, 'macdh': 0.12, 'obv_2': 0.11, 'wr_14': 0.11, 'roc_2': 0.1}",0.8,2.0,0.8,"(586, 8)",Buy Strong,GCP
127,0.7580645161290323,15.29,2018-05-22,"{'macd': 0.16, 'volume': 0.14, 'rsi_14': 0.13, 'sod_14': 0.13, 'macdh': 0.12, 'obv_2': 0.12, 'wr_14': 0.1, 'roc_2': 0.09}",0.7580645161290323,-1.0,0.7580645161290323,"(1305, 8)",Sell,GE
128,0.7548387096774194,67.83,2018-05-22,"{'macd': 0.15, 'volume': 0.14, 'macdh': 0.13, 'rsi_14': 0.13, 'sod_14': 0.13, 'obv_2': 0.12, 'roc_2': 0.1, 'wr_14': 0.1}",0.7548387096774194,1.0,0.7548387096774194,"(1305, 8)",Buy,GILD
129,0.7548387096774194,10.87,2018-05-22,"{'rsi_14': 0.15, 'macd': 0.14, 'volume': 0.14, 'macdh': 0.13, 'sod_14': 0.13, 'obv_2': 0.11, 'wr_14': 0.11, 'roc_2': 0.09}",0.7548387096774194,-1.0,0.7548387096774194,"(1305, 8)",Sell,GLO
130,0.7738095238095238,34.6,2018-05-22,"{'macd': 0.17, 'sod_14': 0.15, 'volume': 0.14, 'macdh': 0.13, 'rsi_14': 0.13, 'obv_2': 0.1, 'roc_2': 0.09, 'wr_14': 0.09}",0.7738095238095238,-1.0,0.7738095238095238,"(1074, 8)",Sell,GLPI
131,0.8032258064516129,3.39,2018-05-22,"{'macd': 0.15, 'rsi_14': 0.15, 'volume': 0.14, 'sod_14': 0.14, 'macdh': 0.12, 'obv_2': 0.11, 'wr_14': 0.1, 'roc_2': 0.09}",0.8032258064516129,-1.0,0.8032258064516129,"(1305, 8)",Sell,GNC
132,0.8365384615384616,18.75,2018-05-22,"{'volume': 0.21, 'sod_14': 0.15, 'macd': 0.14, 'rsi_14': 0.14, 'macdh': 0.1, 'obv_2': 0.1, 'wr_14': 0.09, 'roc_2': 0.07}",0.8365384615384616,1.0,0.8365384615384616,"(898, 8)",Buy,GNK
133,0.7560975609756098,1069.73,2018-05-22,"{'macd': 0.17, 'macdh': 0.13, 'rsi_14': 0.13, 'volume': 0.13, 'sod_14': 0.12, 'wr_14': 0.11, 'obv_2': 0.1, 'roc_2': 0.1}",0.7560975609756098,1.0,0.7560975609756098,"(1047, 8)",Buy,GOOG
134,0.7774193548387097,1075.31,2018-05-22,"{'macd': 0.17, 'rsi_14': 0.14, 'sod_14': 0.14, 'macdh': 0.13, 'volume': 0.12, 'obv_2': 0.11, 'wr_14': 0.1, 'roc_2': 0.09}",0.7774193548387097,1.0,0.7774193548387097,"(1305, 8)",Buy,GOOGL
135,0.7741935483870968,10.65,2018-05-22,"{'macd': 0.16, 'volume': 0.14, 'sod_14': 0.14, 'rsi_14': 0.13, 'macdh': 0.12, 'obv_2': 0.11, 'wr_14': 0.11, 'roc_2': 0.1}",0.7741935483870968,1.0,0.7741935483870968,"(1305, 8)",Buy,GPOR
136,0.7258064516129032,42.99,2018-05-22,"{'volume': 0.15, 'macd': 0.14, 'sod_14': 0.14, 'macdh': 0.12, 'obv_2': 0.12, 'rsi_14': 0.12, 'wr_14': 0.11, 'roc_2': 0.1}",0.7258064516129032,-1.0,0.7258064516129032,"(1305, 8)",Sell,GRI
137,0.6967741935483871,238.0,2018-05-22,"{'macd': 0.15, 'macdh': 0.14, 'rsi_14': 0.14, 'volume': 0.13, 'sod_14': 0.13, 'wr_14': 0.11, 'obv_2': 0.1, 'roc_2': 0.1}",0.6967741935483871,1.0,0.6967741935483871,"(1305, 8)",Buy,GS
138,0.7516129032258064,40.33,2018-05-22,"{'sod_14': 0.15, 'macd': 0.14, 'volume': 0.14, 'macdh': 0.13, 'rsi_14': 0.13, 'obv_2': 0.11, 'wr_14': 0.11, 'roc_2': 0.1}",0.7516129032258064,1.0,0.7516129032258064,"(1305, 8)",Buy,GSK
139,0.7645161290322581,0.699,2018-05-22,"{'macd': 0.15, 'rsi_14': 0.15, 'volume': 0.14, 'sod_14': 0.14, 'macdh': 0.12, 'obv_2': 0.11, 'roc_2': 0.1, 'wr_14': 0.1}",0.7645161290322581,1.0,0.7645161290322581,"(1305, 8)",Buy,GSS
140,0.7096774193548387,87.56,2018-05-22,"{'macd': 0.15, 'macdh': 0.14, 'volume': 0.14, 'rsi_14': 0.13, 'sod_14': 0.13, 'wr_14': 0.11, 'obv_2': 0.1, 'roc_2': 0.09}",0.7096774193548387,-2.0,0.7096774193548387,"(1305, 8)",Sell Strong,HAS
141,0.7,15.36,2018-05-22,"{'macd': 0.16, 'volume': 0.14, 'rsi_14': 0.13, 'sod_14': 0.13, 'macdh': 0.12, 'obv_2': 0.11, 'wr_14': 0.11, 'roc_2': 0.1}",0.7,2.0,0.7,"(1305, 8)",Buy Strong,HBAN
142,0.7709677419354839,52.5,2018-05-22,"{'macd': 0.15, 'rsi_14': 0.14, 'sod_14': 0.14, 'macdh': 0.13, 'volume': 0.13, 'wr_14': 0.12, 'obv_2': 0.11, 'roc_2': 0.08}",0.7709677419354839,-1.0,0.7709677419354839,"(1305, 8)",Sell,HBHC
143,0.7806451612903226,186.87,2018-05-22,"{'macd': 0.14, 'rsi_14': 0.14, 'volume': 0.14, 'sod_14': 0.14, 'macdh': 0.13, 'obv_2': 0.11, 'wr_14': 0.11, 'roc_2': 0.09}",0.7806451612903226,-2.0,0.7806451612903226,"(1305, 8)",Sell Strong,HD
144,0.7322580645161291,3.93,2018-05-22,"{'macd': 0.16, 'volume': 0.15, 'rsi_14': 0.14, 'macdh': 0.13, 'sod_14': 0.12, 'obv_2': 0.11, 'wr_14': 0.1, 'roc_2': 0.09}",0.7322580645161291,-2.0,0.7322580645161291,"(1305, 8)",Sell Strong,HL
145,0.7516129032258064,38.89,2018-05-22,"{'volume': 0.15, 'sod_14': 0.15, 'macd': 0.13, 'rsi_14': 0.13, 'macdh': 0.12, 'obv_2': 0.12, 'roc_2': 0.1, 'wr_14': 0.1}",0.7516129032258064,-2.0,0.7516129032258064,"(1305, 8)",Sell Strong,HOLX
146,0.7129032258064516,23.59,2018-05-22,"{'volume': 0.16, 'sod_14': 0.15, 'macd': 0.13, 'macdh': 0.13, 'rsi_14': 0.13, 'wr_14': 0.11, 'obv_2': 0.1, 'roc_2': 0.09}",0.7129032258064516,1.0,0.7129032258064516,"(1305, 8)",Buy,HOMB
147,0.7210884353741497,22.07,2018-05-22,"{'macd': 0.15, 'rsi_14': 0.14, 'volume': 0.14, 'macdh': 0.13, 'obv_2': 0.12, 'sod_14': 0.12, 'wr_14': 0.11, 'roc_2': 0.09}",0.7210884353741497,-2.0,0.7210884353741497,"(653, 8)",Sell Strong,HPQ
148,0.71875,74.86,2018-05-22,"{'sod_14': 0.14, 'macd': 0.13, 'macdh': 0.13, 'rsi_14': 0.13, 'volume': 0.13, 'obv_2': 0.12, 'wr_14': 0.11, 'roc_2': 0.1}",0.71875,1.0,0.71875,"(960, 8)",Buy,HQY
149,0.8161290322580645,57.43,2018-05-22,"{'macd': 0.15, 'macdh': 0.15, 'rsi_14': 0.14, 'sod_14': 0.13, 'volume': 0.12, 'wr_14': 0.11, 'obv_2': 0.1, 'roc_2': 0.09}",0.8161290322580645,-2.0,0.8161290322580645,"(1305, 8)",Sell Strong,HRI
150,0.7354838709677419,71.3,2018-05-22,"{'macd': 0.17, 'rsi_14': 0.14, 'sod_14': 0.14, 'macdh': 0.12, 'volume': 0.12, 'wr_14': 0.11, 'obv_2': 0.1, 'roc_2': 0.1}",0.7354838709677419,-1.0,0.7354838709677419,"(1305, 8)",Sell,HSIC
151,0.7645161290322581,5.95,2018-05-22,"{'macd': 0.14, 'volume': 0.14, 'macdh': 0.13, 'rsi_14': 0.13, 'sod_14': 0.13, 'obv_2': 0.11, 'roc_2': 0.11, 'wr_14': 0.11}",0.7645161290322581,-1.0,0.7645161290322581,"(1305, 8)",Sell,IAG
152,0.7741935483870968,81.15,2018-05-22,"{'sod_14': 0.16, 'volume': 0.15, 'macd': 0.14, 'macdh': 0.12, 'rsi_14': 0.12, 'obv_2': 0.11, 'wr_14': 0.1, 'roc_2': 0.09}",0.7741935483870968,-2.0,0.7741935483870968,"(1305, 8)",Sell Strong,IBKC
153,0.8032258064516129,78.73,2018-05-22,"{'macd': 0.16, 'rsi_14': 0.16, 'macdh': 0.13, 'volume': 0.13, 'sod_14': 0.12, 'obv_2': 0.11, 'wr_14': 0.1, 'roc_2': 0.09}",0.8032258064516129,1.0,0.8032258064516129,"(1305, 8)",Buy,IBKR
154,0.7612903225806451,145.09,2018-05-22,"{'macd': 0.15, 'macdh': 0.15, 'rsi_14': 0.14, 'sod_14': 0.14, 'volume': 0.12, 'obv_2': 0.11, 'wr_14': 0.11, 'roc_2': 0.09}",0.7612903225806451,-2.0,0.7612903225806451,"(1305, 8)",Sell Strong,IBM
155,0.7032258064516129,43.925,2018-05-22,"{'macd': 0.15, 'macdh': 0.13, 'rsi_14': 0.13, 'volume': 0.13, 'sod_14': 0.13, 'obv_2': 0.11, 'wr_14': 0.11, 'roc_2': 0.1}",0.7032258064516129,-1.0,0.7032258064516129,"(1305, 8)",Sell,IBOC
156,0.8290322580645161,199.99,2018-05-22,"{'macd': 0.16, 'macdh': 0.14, 'rsi_14': 0.14, 'sod_14': 0.14, 'volume': 0.13, 'wr_14': 0.11, 'obv_2': 0.09, 'roc_2': 0.09}",0.8290322580645161,-2.0,0.8290322580645161,"(1305, 8)",Sell Strong,IDXX
157,0.7806451612903226,65.56,2018-05-22,"{'macd': 0.17, 'sod_14': 0.15, 'macdh': 0.13, 'rsi_14': 0.13, 'obv_2': 0.11, 'volume': 0.11, 'wr_14': 0.11, 'roc_2': 0.09}",0.7806451612903226,-1.0,0.7806451612903226,"(1305, 8)",Sell,IHG
158,0.7903225806451613,4.09,2018-05-22,"{'volume': 0.15, 'sod_14': 0.15, 'macd': 0.14, 'macdh': 0.13, 'rsi_14': 0.13, 'obv_2': 0.11, 'wr_14': 0.11, 'roc_2': 0.1}",0.7903225806451613,1.0,0.7903225806451613,"(1305, 8)",Buy,III
159,0.7322580645161291,270.8,2018-05-22,"{'macd': 0.16, 'rsi_14': 0.14, 'volume': 0.14, 'sod_14': 0.14, 'macdh': 0.13, 'wr_14': 0.11, 'obv_2': 0.1, 'roc_2': 0.08}",0.7322580645161291,-1.0,0.7322580645161291,"(1305, 8)",Sell,ILMN
160,0.7903225806451613,1.38,2018-05-22,"{'macd': 0.18, 'macdh': 0.14, 'volume': 0.14, 'rsi_14': 0.13, 'sod_14': 0.13, 'obv_2': 0.1, 'wr_14': 0.1, 'roc_2': 0.08}",0.7903225806451613,1.0,0.7903225806451613,"(1305, 8)",Buy,IMI
161,0.7741935483870968,66.56,2018-05-22,"{'macd': 0.16, 'volume': 0.14, 'sod_14': 0.14, 'macdh': 0.13, 'rsi_14': 0.13, 'obv_2': 0.11, 'wr_14': 0.1, 'roc_2': 0.09}",0.7741935483870968,1.0,0.7741935483870968,"(1305, 8)",Buy,INCY
162,0.6645161290322581,77.0,2018-05-22,"{'macd': 0.15, 'macdh': 0.14, 'sod_14': 0.13, 'obv_2': 0.12, 'rsi_14': 0.12, 'volume': 0.12, 'wr_14': 0.11, 'roc_2': 0.1}",0.6645161290322581,-2.0,0.6645161290322581,"(1305, 8)",Sell Strong,INDB
163,0.8354838709677419,12.37,2018-05-22,"{'macd': 0.15, 'sod_14': 0.15, 'rsi_14': 0.14, 'volume': 0.13, 'macdh': 0.12, 'obv_2': 0.12, 'wr_14': 0.11, 'roc_2': 0.09}",0.8354838709677419,-2.0,0.8354838709677419,"(1305, 8)",Sell Strong,INF
164,0.8528138528138528,51.27,2018-05-22,"{'macd': 0.16, 'macdh': 0.14, 'volume': 0.14, 'sod_14': 0.14, 'rsi_14': 0.13, 'obv_2': 0.1, 'roc_2': 0.1, 'wr_14': 0.1}",0.8528138528138528,1.0,0.8528138528138528,"(989, 8)",Buy,INFO
165,0.8129032258064516,54.45,2018-05-22,"{'sod_14': 0.15, 'macd': 0.14, 'macdh': 0.14, 'rsi_14': 0.13, 'volume': 0.13, 'obv_2': 0.11, 'wr_14': 0.11, 'roc_2': 0.1}",0.8129032258064516,-2.0,0.8129032258064516,"(1305, 8)",Sell Strong,INTC
166,0.7096774193548387,190.54,2018-05-22,"{'macd': 0.15, 'sod_14': 0.15, 'macdh': 0.14, 'rsi_14': 0.12, 'volume': 0.12, 'roc_2': 0.11, 'wr_14': 0.11, 'obv_2': 0.1}",0.7096774193548387,-1.0,0.7096774193548387,"(1305, 8)",Sell,INTU
167,0.7435897435897436,28.998,2018-05-22,"{'macd': 0.16, 'volume': 0.16, 'sod_14': 0.13, 'macdh': 0.12, 'obv_2': 0.12, 'rsi_14': 0.12, 'wr_14': 0.11, 'roc_2': 0.09}",0.7435897435897436,1.0,0.7435897435897436,"(1158, 8)",Buy,IPO
168,0.7064516129032258,13.7,2018-05-22,"{'volume': 0.18, 'macdh': 0.14, 'macd': 0.13, 'rsi_14': 0.12, 'sod_14': 0.12, 'obv_2': 0.11, 'roc_2': 0.1, 'wr_14': 0.09}",0.7064516129032258,-2.0,0.7064516129032258,"(1305, 8)",Sell Strong,ISBC
169,0.7870967741935484,454.61,2018-05-22,"{'macd': 0.16, 'volume': 0.15, 'rsi_14': 0.13, 'sod_14': 0.13, 'macdh': 0.12, 'obv_2': 0.11, 'wr_14': 0.11, 'roc_2': 0.1}",0.7870967741935484,1.0,0.7870967741935484,"(1305, 8)",Buy,ISRG
170,0.6903225806451613,124.65,2018-05-22,"{'macd': 0.15, 'sod_14': 0.15, 'macdh': 0.13, 'volume': 0.13, 'rsi_14': 0.12, 'obv_2': 0.11, 'wr_14': 0.11, 'roc_2': 0.1}",0.6903225806451613,1.0,0.6903225806451613,"(1305, 8)",Buy,JBHT
171,0.8008474576271186,36.36,2018-05-22,"{'volume': 0.16, 'sod_14': 0.15, 'macd': 0.14, 'macdh': 0.13, 'rsi_14': 0.13, 'obv_2': 0.11, 'wr_14': 0.09, 'roc_2': 0.08}",0.8008474576271186,2.0,0.8008474576271186,"(1008, 8)",Buy Strong,JD
172,0.7290322580645161,3.69,2018-05-22,"{'macd': 0.14, 'volume': 0.14, 'rsi_14': 0.13, 'sod_14': 0.13, 'macdh': 0.12, 'obv_2': 0.12, 'wr_14': 0.12, 'roc_2': 0.1}",0.7290322580645161,2.0,0.7290322580645161,"(1305, 8)",Buy Strong,JE
173,0.7870967741935484,122.91,2018-05-22,"{'macd': 0.15, 'sod_14': 0.15, 'volume': 0.14, 'macdh': 0.13, 'rsi_14': 0.13, 'obv_2': 0.11, 'wr_14': 0.11, 'roc_2': 0.1}",0.7870967741935484,-1.0,0.7870967741935484,"(1305, 8)",Sell,JNJ
174,0.7096774193548387,113.01,2018-05-22,"{'macd': 0.15, 'sod_14': 0.14, 'rsi_14': 0.13, 'volume': 0.13, 'macdh': 0.12, 'obv_2': 0.12, 'wr_14': 0.11, 'roc_2': 0.1}",0.7096774193548387,2.0,0.7096774193548387,"(1305, 8)",Buy Strong,JPM
175,0.7469879518072289,56.58,2018-05-22,"{'macd': 0.16, 'sod_14': 0.15, 'rsi_14': 0.14, 'volume': 0.14, 'macdh': 0.12, 'wr_14': 0.11, 'obv_2': 0.09, 'roc_2': 0.09}",0.7469879518072289,2.0,0.7469879518072289,"(727, 8)",Buy Strong,KHC
176,0.6516129032258065,31.06,2018-05-22,"{'macd': 0.14, 'rsi_14': 0.14, 'macdh': 0.13, 'sod_14': 0.13, 'volume': 0.12, 'obv_2': 0.11, 'roc_2': 0.11, 'wr_14': 0.11}",0.6516129032258065,-1.0,0.6516129032258065,"(1305, 8)",Sell,KIE
177,0.8096774193548387,113.62,2018-05-22,"{'macd': 0.16, 'macdh': 0.14, 'volume': 0.13, 'sod_14': 0.13, 'rsi_14': 0.12, 'obv_2': 0.11, 'wr_14': 0.11, 'roc_2': 0.1}",0.8096774193548387,-1.0,0.8096774193548387,"(1305, 8)",Sell,KLAC
178,0.6838709677419355,42.25,2018-05-22,"{'macd': 0.16, 'sod_14': 0.15, 'volume': 0.14, 'rsi_14': 0.13, 'macdh': 0.12, 'wr_14': 0.11, 'obv_2': 0.1, 'roc_2': 0.1}",0.6838709677419355,2.0,0.6838709677419355,"(1305, 8)",Buy Strong,KO
179,0.7322580645161291,68.28,2018-05-22,"{'macd': 0.18, 'volume': 0.15, 'sod_14': 0.14, 'macdh': 0.13, 'rsi_14': 0.13, 'obv_2': 0.1, 'wr_14': 0.09, 'roc_2': 0.08}",0.7322580645161291,1.0,0.7322580645161291,"(1305, 8)",Buy,LAMR
180,0.8,12.68,2018-05-22,"{'macd': 0.16, 'volume': 0.14, 'macdh': 0.13, 'rsi_14': 0.13, 'sod_14': 0.13, 'obv_2': 0.12, 'wr_14': 0.1, 'roc_2': 0.09}",0.8,-1.0,0.8,"(1305, 8)",Sell,LAND
181,0.8115942028985508,70.69,2018-05-22,"{'volume': 0.16, 'macd': 0.14, 'macdh': 0.14, 'rsi_14': 0.13, 'sod_14': 0.12, 'obv_2': 0.11, 'roc_2': 0.1, 'wr_14': 0.1}",0.8115942028985508,-1.0,0.8115942028985508,"(893, 8)",Sell,LBRDK
182,0.7548387096774194,29.06,2018-05-22,"{'macd': 0.15, 'sod_14': 0.15, 'volume': 0.14, 'macdh': 0.12, 'obv_2': 0.12, 'rsi_14': 0.12, 'roc_2': 0.1, 'wr_14': 0.1}",0.7548387096774194,2.0,0.7548387096774194,"(1305, 8)",Buy Strong,LBTYA
183,0.8064516129032258,28.3,2018-05-22,"{'macd': 0.16, 'sod_14': 0.15, 'macdh': 0.13, 'volume': 0.13, 'rsi_14': 0.12, 'obv_2': 0.11, 'wr_14': 0.11, 'roc_2': 0.1}",0.8064516129032258,-2.0,0.8064516129032258,"(1305, 8)",Sell Strong,LBTYK
184,0.7258064516129032,317.13,2018-05-22,"{'macd': 0.16, 'volume': 0.15, 'obv_2': 0.13, 'rsi_14': 0.13, 'macdh': 0.12, 'sod_14': 0.11, 'roc_2': 0.1, 'wr_14': 0.1}",0.7258064516129032,1.0,0.7258064516129032,"(1305, 8)",Buy,LMT
185,0.7935483870967742,72.22,2018-05-22,"{'sod_14': 0.16, 'macd': 0.15, 'rsi_14': 0.14, 'macdh': 0.12, 'volume': 0.12, 'obv_2': 0.11, 'wr_14': 0.11, 'roc_2': 0.1}",0.7935483870967742,-1.0,0.7935483870967742,"(1305, 8)",Sell,LPLA
186,0.7677419354838709,202.98,2018-05-22,"{'macd': 0.15, 'macdh': 0.14, 'rsi_14': 0.14, 'volume': 0.13, 'sod_14': 0.13, 'obv_2': 0.11, 'wr_14': 0.11, 'roc_2': 0.09}",0.7677419354838709,-2.0,0.7677419354838709,"(1305, 8)",Sell Strong,LRCX
187,0.7774193548387097,43.74,2018-05-22,"{'macd': 0.15, 'macdh': 0.14, 'rsi_14': 0.14, 'sod_14': 0.14, 'volume': 0.12, 'wr_14': 0.12, 'obv_2': 0.1, 'roc_2': 0.1}",0.7774193548387097,-2.0,0.7774193548387097,"(1305, 8)",Sell Strong,LTXB
188,0.7354838709677419,191.62,2018-05-22,"{'macd': 0.15, 'volume': 0.15, 'macdh': 0.13, 'rsi_14': 0.13, 'sod_14': 0.13, 'obv_2': 0.12, 'roc_2': 0.09, 'wr_14': 0.09}",0.7354838709677419,-1.0,0.7354838709677419,"(1305, 8)",Sell,MA
189,0.7392739273927392,12.65,2018-05-22,"{'sod_14': 0.16, 'macd': 0.15, 'macdh': 0.15, 'rsi_14': 0.12, 'volume': 0.12, 'obv_2': 0.11, 'wr_14': 0.11, 'roc_2': 0.08}",0.7392739273927392,2.0,0.7392739273927392,"(1276, 8)",Buy Strong,MAB
190,0.7709677419354839,137.78,2018-05-22,"{'macdh': 0.15, 'macd': 0.14, 'rsi_14': 0.14, 'sod_14': 0.14, 'volume': 0.13, 'obv_2': 0.11, 'roc_2': 0.1, 'wr_14': 0.1}",0.7709677419354839,-2.0,0.7709677419354839,"(1305, 8)",Sell Strong,MAR
191,0.7096774193548387,50.95,2018-05-22,"{'macd': 0.14, 'rsi_14': 0.14, 'volume': 0.14, 'macdh': 0.12, 'obv_2': 0.12, 'sod_14': 0.12, 'wr_14': 0.11, 'roc_2': 0.1}",0.7096774193548387,1.0,0.7096774193548387,"(1305, 8)",Buy,MBFI
192,0.8,159.45,2018-05-22,"{'macd': 0.16, 'volume': 0.14, 'sod_14': 0.14, 'macdh': 0.13, 'rsi_14': 0.13, 'wr_14': 0.11, 'obv_2': 0.1, 'roc_2': 0.09}",0.8,2.0,0.8,"(1305, 8)",Buy Strong,MCD
193,0.7,94.33,2018-05-22,"{'macdh': 0.14, 'volume': 0.14, 'macd': 0.13, 'obv_2': 0.13, 'rsi_14': 0.12, 'sod_14': 0.12, 'wr_14': 0.11, 'roc_2': 0.1}",0.7,-2.0,0.7,"(1305, 8)",Sell Strong,MCHP
194,0.7792642140468228,26.53,2018-05-21,"{'macd': 0.15, 'rsi_14': 0.14, 'sod_14': 0.14, 'volume': 0.13, 'macdh': 0.12, 'obv_2': 0.11, 'wr_14': 0.1, 'roc_2': 0.09}",0.7792642140468228,-2.0,0.7792642140468228,"(1259, 8)",Sell Strong,MCRO
195,0.6838709677419355,32.15,2018-05-22,"{'macd': 0.17, 'macdh': 0.13, 'rsi_14': 0.13, 'volume': 0.13, 'sod_14': 0.13, 'wr_14': 0.11, 'obv_2': 0.1, 'roc_2': 0.1}",0.6838709677419355,2.0,0.6838709677419355,"(1305, 8)",Buy Strong,MCS
196,0.7483870967741936,30.19,2018-05-22,"{'volume': 0.15, 'sod_14': 0.14, 'macd': 0.13, 'rsi_14': 0.13, 'macdh': 0.12, 'obv_2': 0.12, 'wr_14': 0.11, 'roc_2': 0.1}",0.7483870967741936,-2.0,0.7483870967741936,"(1305, 8)",Sell Strong,MDC
197,0.7354838709677419,39.43,2018-05-22,"{'macd': 0.14, 'macdh': 0.13, 'rsi_14': 0.13, 'volume': 0.13, 'sod_14': 0.13, 'obv_2': 0.12, 'roc_2': 0.11, 'wr_14': 0.11}",0.7354838709677419,1.0,0.7354838709677419,"(1305, 8)",Buy,MDLZ
198,0.7870967741935484,294.76,2018-05-22,"{'macd': 0.16, 'sod_14': 0.15, 'rsi_14': 0.14, 'macdh': 0.13, 'volume': 0.12, 'obv_2': 0.11, 'roc_2': 0.1, 'wr_14': 0.1}",0.7870967741935484,-1.0,0.7870967741935484,"(1305, 8)",Sell,MELI
199,0.7774193548387097,210.31,2018-05-22,"{'macd': 0.17, 'macdh': 0.14, 'rsi_14': 0.14, 'sod_14': 0.13, 'volume': 0.12, 'wr_14': 0.11, 'obv_2': 0.1, 'roc_2': 0.09}",0.7774193548387097,-1.0,0.7774193548387097,"(1305, 8)",Sell,MKTX
200,0.7548387096774194,198.97,2018-05-22,"{'macdh': 0.15, 'sod_14': 0.15, 'macd': 0.14, 'rsi_14': 0.13, 'volume': 0.13, 'obv_2': 0.11, 'roc_2': 0.1, 'wr_14': 0.1}",0.7548387096774194,1.0,0.7548387096774194,"(1305, 8)",Buy,MMM
201,0.8258064516129032,49.68,2018-05-22,"{'volume': 0.17, 'macd': 0.15, 'sod_14': 0.14, 'macdh': 0.13, 'rsi_14': 0.13, 'obv_2': 0.1, 'wr_14': 0.1, 'roc_2': 0.09}",0.8258064516129032,-1.0,0.8258064516129032,"(1305, 8)",Sell,MNST
202,0.7161290322580646,20.81,2018-05-22,"{'volume': 0.16, 'sod_14': 0.14, 'macd': 0.13, 'rsi_14': 0.13, 'macdh': 0.12, 'obv_2': 0.12, 'roc_2': 0.1, 'wr_14': 0.1}",0.7161290322580646,-2.0,0.7161290322580646,"(1305, 8)",Sell Strong,MRC
203,0.7,58.45,2018-05-22,"{'sod_14': 0.15, 'macd': 0.13, 'macdh': 0.13, 'rsi_14': 0.13, 'volume': 0.13, 'wr_14': 0.12, 'obv_2': 0.11, 'roc_2': 0.1}",0.7,-2.0,0.7,"(1305, 8)",Sell Strong,MRK
204,0.7806451612903226,21.54,2018-05-22,"{'volume': 0.18, 'sod_14': 0.14, 'macd': 0.13, 'obv_2': 0.13, 'rsi_14': 0.13, 'macdh': 0.12, 'roc_2': 0.09, 'wr_14': 0.09}",0.7806451612903226,-1.0,0.7806451612903226,"(1305, 8)",Sell,MRO
205,0.7287581699346405,97.5,2018-05-22,"{'macd': 0.14, 'volume': 0.14, 'sod_14': 0.14, 'obv_2': 0.13, 'rsi_14': 0.13, 'macdh': 0.11, 'roc_2': 0.1, 'wr_14': 0.1}",0.7287581699346405,-1.0,0.7287581699346405,"(1289, 8)",Sell,MSFT
206,0.7612903225806451,59.03,2018-05-22,"{'macd': 0.2, 'rsi_14': 0.16, 'macdh': 0.13, 'volume': 0.13, 'sod_14': 0.12, 'obv_2': 0.1, 'wr_14': 0.1, 'roc_2': 0.08}",0.7612903225806451,-2.0,0.7612903225806451,"(1305, 8)",Sell Strong,MU
207,0.7354838709677419,58.48,2018-05-22,"{'sod_14': 0.17, 'macd': 0.13, 'macdh': 0.13, 'rsi_14': 0.13, 'volume': 0.13, 'obv_2': 0.11, 'wr_14': 0.11, 'roc_2': 0.1}",0.7354838709677419,1.0,0.7354838709677419,"(1305, 8)",Buy,MXIM
208,0.7677419354838709,12.38,2018-05-22,"{'macd': 0.15, 'rsi_14': 0.14, 'volume': 0.14, 'macdh': 0.13, 'sod_14': 0.13, 'obv_2': 0.12, 'wr_14': 0.1, 'roc_2': 0.09}",0.7677419354838709,1.0,0.7677419354838709,"(1305, 8)",Buy,MYI
209,0.7870967741935484,39.21,2018-05-22,"{'macd': 0.15, 'macdh': 0.14, 'rsi_14': 0.14, 'sod_14': 0.14, 'volume': 0.13, 'obv_2': 0.11, 'wr_14': 0.11, 'roc_2': 0.09}",0.7870967741935484,-1.0,0.7870967741935484,"(1305, 8)",Sell,MYL
210,0.7290322580645161,59.6,2018-05-22,"{'macd': 0.15, 'macdh': 0.14, 'rsi_14': 0.14, 'volume': 0.13, 'sod_14': 0.13, 'wr_14': 0.11, 'obv_2': 0.1, 'roc_2': 0.09}",0.7290322580645161,1.0,0.7290322580645161,"(1305, 8)",Buy,NAVG
211,0.8223140495867769,14.41,2018-05-22,"{'sod_14': 0.15, 'macdh': 0.14, 'volume': 0.14, 'macd': 0.13, 'rsi_14': 0.13, 'obv_2': 0.11, 'roc_2': 0.1, 'wr_14': 0.1}",0.8223140495867769,1.0,0.8223140495867769,"(1032, 8)",Buy,NAVI
212,0.7516129032258064,38.59,2018-05-22,"{'macd': 0.14, 'macdh': 0.14, 'rsi_14': 0.14, 'volume': 0.14, 'sod_14': 0.14, 'obv_2': 0.11, 'wr_14': 0.11, 'roc_2': 0.09}",0.7516129032258064,2.0,0.7516129032258064,"(1305, 8)",Buy Strong,NBTB
213,0.7225806451612903,91.51,2018-05-22,"{'volume': 0.14, 'macd': 0.13, 'macdh': 0.13, 'rsi_14': 0.13, 'sod_14': 0.13, 'obv_2': 0.12, 'roc_2': 0.1, 'wr_14': 0.1}",0.7225806451612903,-2.0,0.7225806451612903,"(1305, 8)",Sell Strong,NDAQ
214,0.7935483870967742,331.62,2018-05-22,"{'volume': 0.16, 'macd': 0.14, 'macdh': 0.13, 'obv_2': 0.12, 'rsi_14': 0.12, 'sod_14': 0.12, 'wr_14': 0.11, 'roc_2': 0.09}",0.7935483870967742,-1.0,0.7935483870967742,"(1305, 8)",Sell,NFLX
215,0.6645161290322581,4.58,2018-05-22,"{'sod_14': 0.15, 'macd': 0.14, 'macdh': 0.13, 'volume': 0.13, 'rsi_14': 0.12, 'obv_2': 0.11, 'wr_14': 0.11, 'roc_2': 0.1}",0.6645161290322581,2.0,0.6645161290322581,"(1305, 8)",Buy Strong,NG
216,0.7896825396825397,26.98,2018-05-22,"{'macd': 0.15, 'sod_14': 0.15, 'rsi_14': 0.14, 'volume': 0.14, 'wr_14': 0.12, 'macdh': 0.11, 'obv_2': 0.11, 'roc_2': 0.08}",0.7896825396825397,-1.0,0.7896825396825397,"(1072, 8)",Sell,NGHC
217,0.7774193548387097,71.31,2018-05-22,"{'macd': 0.15, 'macdh': 0.14, 'rsi_14': 0.14, 'sod_14': 0.14, 'volume': 0.12, 'obv_2': 0.11, 'wr_14': 0.1, 'roc_2': 0.09}",0.7774193548387097,-2.0,0.7774193548387097,"(1305, 8)",Sell Strong,NKE
218,0.7258064516129032,324.5,2018-05-22,"{'macd': 0.15, 'sod_14': 0.15, 'macdh': 0.14, 'volume': 0.14, 'rsi_14': 0.12, 'obv_2': 0.11, 'wr_14': 0.11, 'roc_2': 0.09}",0.7258064516129032,-1.0,0.7258064516129032,"(1305, 8)",Sell,NOC
219,0.8032258064516129,235.38,2018-05-22,"{'macd': 0.17, 'rsi_14': 0.15, 'volume': 0.14, 'sod_14': 0.13, 'macdh': 0.12, 'obv_2': 0.11, 'wr_14': 0.1, 'roc_2': 0.08}",0.8032258064516129,2.0,0.8032258064516129,"(1305, 8)",Buy Strong,NTES
220,0.7699115044247787,24.58,2018-05-22,"{'volume': 0.15, 'macdh': 0.13, 'rsi_14': 0.13, 'sod_14': 0.13, 'macd': 0.12, 'obv_2': 0.12, 'wr_14': 0.12, 'roc_2': 0.1}",0.7699115044247787,-1.0,0.7699115044247787,"(515, 8)",Sell,NTLA
221,0.7193548387096774,108.43,2018-05-22,"{'macd': 0.15, 'macdh': 0.14, 'rsi_14': 0.14, 'sod_14': 0.14, 'obv_2': 0.12, 'volume': 0.12, 'wr_14': 0.11, 'roc_2': 0.1}",0.7193548387096774,2.0,0.7193548387096774,"(1305, 8)",Buy Strong,NTRS
222,0.7806451612903226,242.7,2018-05-22,"{'macd': 0.2, 'macdh': 0.14, 'volume': 0.13, 'rsi_14': 0.12, 'sod_14': 0.12, 'obv_2': 0.1, 'roc_2': 0.09, 'wr_14': 0.09}",0.7806451612903226,1.0,0.7806451612903226,"(1305, 8)",Buy,NVDA
223,0.7387096774193549,17.17,2018-05-22,"{'macdh': 0.15, 'macd': 0.14, 'sod_14': 0.14, 'volume': 0.13, 'rsi_14': 0.12, 'wr_14': 0.12, 'obv_2': 0.11, 'roc_2': 0.1}",0.7387096774193549,-1.0,0.7387096774193549,"(1305, 8)",Sell,NWBI
224,0.6838709677419355,18.2,2018-05-22,"{'macd': 0.15, 'volume': 0.15, 'rsi_14': 0.14, 'macdh': 0.12, 'obv_2': 0.12, 'sod_14': 0.12, 'wr_14': 0.11, 'roc_2': 0.1}",0.6838709677419355,-2.0,0.6838709677419355,"(1305, 8)",Sell Strong,ONB
225,0.7483870967741936,46.37,2018-05-22,"{'macd': 0.14, 'macdh': 0.13, 'rsi_14': 0.13, 'volume': 0.13, 'sod_14': 0.13, 'wr_14': 0.12, 'obv_2': 0.11, 'roc_2': 0.11}",0.7483870967741936,2.0,0.7483870967741936,"(1303, 8)",Buy Strong,ORCL
226,0.7645161290322581,267.45,2018-05-22,"{'macd': 0.16, 'macdh': 0.14, 'rsi_14': 0.13, 'volume': 0.13, 'sod_14': 0.13, 'obv_2': 0.11, 'wr_14': 0.11, 'roc_2': 0.1}",0.7645161290322581,-1.0,0.7645161290322581,"(1305, 8)",Sell,ORLY
227,0.7641196013289037,41.48,2018-05-22,"{'macd': 0.16, 'volume': 0.15, 'rsi_14': 0.13, 'macdh': 0.12, 'sod_14': 0.12, 'obv_2': 0.11, 'wr_14': 0.11, 'roc_2': 0.09}",0.7641196013289037,1.0,0.7641196013289037,"(1267, 8)",Buy,OSB
228,0.8,48.93,2018-05-22,"{'volume': 0.17, 'macd': 0.16, 'macdh': 0.13, 'rsi_14': 0.13, 'sod_14': 0.12, 'obv_2': 0.11, 'wr_14': 0.1, 'roc_2': 0.09}",0.8,1.0,0.8,"(1305, 8)",Buy,OZRK
229,0.7709677419354839,54.37,2018-05-22,"{'volume': 0.17, 'macd': 0.14, 'macdh': 0.14, 'rsi_14': 0.13, 'sod_14': 0.13, 'wr_14': 0.11, 'obv_2': 0.1, 'roc_2': 0.09}",0.7709677419354839,-2.0,0.7709677419354839,"(1305, 8)",Sell Strong,PACW
230,0.7580645161290323,47.8,2018-05-22,"{'macd': 0.14, 'volume': 0.14, 'sod_14': 0.14, 'macdh': 0.12, 'obv_2': 0.12, 'rsi_14': 0.12, 'wr_14': 0.11, 'roc_2': 0.1}",0.7580645161290323,-1.0,0.7580645161290323,"(1305, 8)",Sell,PAG
231,0.7419354838709677,65.42,2018-05-22,"{'macd': 0.16, 'sod_14': 0.14, 'macdh': 0.12, 'obv_2': 0.12, 'rsi_14': 0.12, 'volume': 0.12, 'wr_14': 0.11, 'roc_2': 0.1}",0.7419354838709677,1.0,0.7419354838709677,"(1305, 8)",Buy,PAYX
232,0.7193548387096774,19.02,2018-05-22,"{'macd': 0.15, 'sod_14': 0.14, 'macdh': 0.13, 'rsi_14': 0.13, 'volume': 0.13, 'obv_2': 0.11, 'roc_2': 0.1, 'wr_14': 0.1}",0.7193548387096774,1.0,0.7193548387096774,"(1305, 8)",Buy,PBCT
233,0.6645161290322581,65.74,2018-05-22,"{'macd': 0.15, 'sod_14': 0.14, 'macdh': 0.13, 'rsi_14': 0.13, 'volume': 0.13, 'obv_2': 0.11, 'wr_14': 0.11, 'roc_2': 0.1}",0.6645161290322581,-1.0,0.6645161290322581,"(1305, 8)",Sell,PCAR
234,0.7258064516129032,49.9,2018-05-22,"{'macdh': 0.16, 'volume': 0.14, 'macd': 0.13, 'sod_14': 0.13, 'rsi_14': 0.12, 'obv_2': 0.11, 'wr_14': 0.11, 'roc_2': 0.1}",0.7258064516129032,1.0,0.7258064516129032,"(1305, 8)",Buy,PCH
235,0.8,36.8,2018-05-22,"{'macd': 0.17, 'rsi_14': 0.14, 'macdh': 0.13, 'volume': 0.13, 'sod_14': 0.13, 'wr_14': 0.11, 'obv_2': 0.1, 'roc_2': 0.09}",0.8,2.0,0.8,"(1305, 8)",Buy Strong,PETS
236,0.6806451612903226,35.72,2018-05-22,"{'macd': 0.14, 'volume': 0.14, 'sod_14': 0.14, 'macdh': 0.13, 'rsi_14': 0.13, 'obv_2': 0.11, 'wr_14': 0.11, 'roc_2': 0.1}",0.6806451612903226,1.0,0.6806451612903226,"(1305, 8)",Buy,PFE
237,0.7161290322580646,59.96,2018-05-22,"{'macd': 0.14, 'rsi_14': 0.14, 'volume': 0.14, 'macdh': 0.13, 'sod_14': 0.13, 'wr_14': 0.12, 'obv_2': 0.11, 'roc_2': 0.09}",0.7161290322580646,-1.0,0.7161290322580646,"(1305, 8)",Sell,PFG
238,0.8096774193548387,74.03,2018-05-22,"{'macd': 0.15, 'macdh': 0.14, 'sod_14': 0.14, 'rsi_14': 0.13, 'volume': 0.13, 'obv_2': 0.11, 'roc_2': 0.1, 'wr_14': 0.1}",0.8096774193548387,-2.0,0.8096774193548387,"(1305, 8)",Sell Strong,PG
239,0.6967741935483871,24.18,2018-05-22,"{'sod_14': 0.15, 'macd': 0.14, 'volume': 0.14, 'macdh': 0.13, 'rsi_14': 0.12, 'obv_2': 0.11, 'roc_2': 0.1, 'wr_14': 0.1}",0.6967741935483871,2.0,0.6967741935483871,"(1305, 8)",Buy Strong,PIN
240,0.7419354838709677,68.05,2018-05-22,"{'volume': 0.16, 'macd': 0.14, 'macdh': 0.14, 'sod_14': 0.14, 'rsi_14': 0.12, 'obv_2': 0.11, 'wr_14': 0.1, 'roc_2': 0.09}",0.7419354838709677,-1.0,0.7419354838709677,"(1305, 8)",Sell,PNFP
241,0.7709677419354839,39.9,2018-05-22,"{'macd': 0.15, 'rsi_14': 0.14, 'volume': 0.14, 'macdh': 0.13, 'sod_14': 0.13, 'obv_2': 0.11, 'wr_14': 0.11, 'roc_2': 0.09}",0.7709677419354839,1.0,0.7709677419354839,"(1305, 8)",Buy,PRAA
242,0.7161290322580646,101.96,2018-05-22,"{'macd': 0.15, 'sod_14': 0.15, 'rsi_14': 0.13, 'volume': 0.13, 'macdh': 0.12, 'obv_2': 0.12, 'roc_2': 0.1, 'wr_14': 0.1}",0.7161290322580646,1.0,0.7161290322580646,"(1305, 8)",Buy,PRU
243,0.7469879518072289,80.62,2018-05-22,"{'rsi_14': 0.19, 'macd': 0.15, 'sod_14': 0.14, 'volume': 0.13, 'macdh': 0.12, 'wr_14': 0.11, 'obv_2': 0.09, 'roc_2': 0.09}",0.7469879518072289,-1.0,0.7469879518072289,"(727, 8)",Sell,PYPL
244,0.7354838709677419,10.06,2018-05-22,"{'macd': 0.16, 'sod_14': 0.15, 'macdh': 0.13, 'rsi_14': 0.12, 'volume': 0.12, 'wr_14': 0.12, 'obv_2': 0.11, 'roc_2': 0.09}",0.7354838709677419,2.0,0.7354838709677419,"(1305, 8)",Buy Strong,PZC
245,0.7387096774193549,57.39,2018-05-22,"{'macd': 0.16, 'rsi_14': 0.14, 'sod_14': 0.14, 'macdh': 0.13, 'volume': 0.12, 'obv_2': 0.11, 'wr_14': 0.11, 'roc_2': 0.1}",0.7387096774193549,-2.0,0.7387096774193549,"(1305, 8)",Sell Strong,QCOM
246,0.8013245033112583,19.03,2018-05-22,"{'rsi_14': 0.15, 'macd': 0.14, 'volume': 0.14, 'sod_14': 0.13, 'macdh': 0.12, 'wr_14': 0.11, 'obv_2': 0.1, 'roc_2': 0.1}",0.8013245033112583,2.0,0.8013245033112583,"(1273, 8)",Buy Strong,QIWI
247,0.7419354838709677,22.0,2018-05-22,"{'macd': 0.15, 'macdh': 0.14, 'volume': 0.14, 'sod_14': 0.14, 'rsi_14': 0.13, 'wr_14': 0.11, 'obv_2': 0.1, 'roc_2': 0.09}",0.7419354838709677,1.0,0.7419354838709677,"(1305, 8)",Buy,QRTEA
248,0.7645161290322581,8.04,2018-05-22,"{'macd': 0.15, 'volume': 0.14, 'macdh': 0.13, 'sod_14': 0.13, 'obv_2': 0.12, 'rsi_14': 0.12, 'roc_2': 0.1, 'wr_14': 0.1}",0.7645161290322581,1.0,0.7645161290322581,"(1305, 8)",Buy,RBS
249,0.7290322580645161,15.35,2018-05-22,"{'macd': 0.15, 'sod_14': 0.15, 'macdh': 0.14, 'rsi_14': 0.14, 'volume': 0.12, 'wr_14': 0.11, 'obv_2': 0.1, 'roc_2': 0.09}",0.7290322580645161,-1.0,0.7290322580645161,"(1305, 8)",Sell,RDI
250,0.7129032258064516,294.68,2018-05-22,"{'macd': 0.16, 'macdh': 0.14, 'sod_14': 0.14, 'rsi_14': 0.12, 'volume': 0.12, 'obv_2': 0.11, 'roc_2': 0.1, 'wr_14': 0.1}",0.7129032258064516,2.0,0.7129032258064516,"(1305, 8)",Buy Strong,REGN
251,0.7645161290322581,58.96,2018-05-22,"{'macd': 0.15, 'volume': 0.14, 'sod_14': 0.14, 'macdh': 0.12, 'rsi_14': 0.12, 'wr_14': 0.12, 'obv_2': 0.11, 'roc_2': 0.1}",0.7645161290322581,-1.0,0.7645161290322581,"(1305, 8)",Sell,RIO
252,0.667741935483871,48.1,2018-05-22,"{'macd': 0.14, 'sod_14': 0.14, 'macdh': 0.13, 'rsi_14': 0.13, 'volume': 0.13, 'obv_2': 0.11, 'roc_2': 0.11, 'wr_14': 0.11}",0.667741935483871,-2.0,0.667741935483871,"(1305, 8)",Sell Strong,RNST
253,0.7064516129032258,17.67,2018-05-22,"{'volume': 0.16, 'rsi_14': 0.14, 'macd': 0.13, 'macdh': 0.13, 'sod_14': 0.13, 'obv_2': 0.12, 'wr_14': 0.11, 'roc_2': 0.09}",0.7064516129032258,-2.0,0.7064516129032258,"(1305, 8)",Sell Strong,ROIC
254,0.7967741935483871,82.34,2018-05-22,"{'macd': 0.15, 'macdh': 0.14, 'rsi_14': 0.14, 'sod_14': 0.14, 'volume': 0.12, 'wr_14': 0.12, 'obv_2': 0.1, 'roc_2': 0.08}",0.7967741935483871,2.0,0.7967741935483871,"(1305, 8)",Buy Strong,ROST
255,0.5952380952380952,18.39,2018-05-22,"{'macd': 0.15, 'macdh': 0.14, 'obv_2': 0.14, 'sod_14': 0.13, 'volume': 0.12, 'roc_2': 0.11, 'rsi_14': 0.11, 'wr_14': 0.11}",0.5952380952380952,-2.0,0.5952380952380952,"(231, 8)",Sell Strong,SAFE
256,0.7548387096774194,157.29,2018-05-22,"{'macd': 0.14, 'volume': 0.14, 'sod_14': 0.14, 'macdh': 0.13, 'rsi_14': 0.13, 'obv_2': 0.11, 'roc_2': 0.1, 'wr_14': 0.1}",0.7548387096774194,-2.0,0.7548387096774194,"(1305, 8)",Sell Strong,SBAC
257,0.7709677419354839,132.02,2018-05-22,"{'volume': 0.17, 'macd': 0.15, 'sod_14': 0.14, 'macdh': 0.13, 'rsi_14': 0.12, 'obv_2': 0.11, 'wr_14': 0.1, 'roc_2': 0.08}",0.7709677419354839,1.0,0.7709677419354839,"(1305, 8)",Buy,SBNY
258,0.7677419354838709,19.67,2018-05-22,"{'volume': 0.17, 'rsi_14': 0.14, 'macd': 0.13, 'macdh': 0.13, 'sod_14': 0.13, 'obv_2': 0.11, 'wr_14': 0.11, 'roc_2': 0.09}",0.7677419354838709,-2.0,0.7677419354838709,"(1305, 8)",Sell Strong,SBRA
259,0.7419354838709677,56.96,2018-05-22,"{'macd': 0.16, 'sod_14': 0.16, 'rsi_14': 0.15, 'macdh': 0.12, 'volume': 0.12, 'wr_14': 0.11, 'obv_2': 0.1, 'roc_2': 0.09}",0.7419354838709677,1.0,0.7419354838709677,"(1305, 8)",Buy,SBUX
260,0.7799352750809061,18.7522,2018-05-22,"{'volume': 0.15, 'sod_14': 0.15, 'macd': 0.14, 'rsi_14': 0.13, 'macdh': 0.12, 'obv_2': 0.11, 'wr_14': 0.11, 'roc_2': 0.09}",0.7799352750809061,2.0,0.7799352750809061,"(1302, 8)",Buy Strong,SCIN
261,0.7597402597402597,27.45,2018-05-22,"{'sod_14': 0.15, 'macd': 0.14, 'volume': 0.14, 'macdh': 0.13, 'rsi_14': 0.12, 'obv_2': 0.11, 'wr_14': 0.11, 'roc_2': 0.09}",0.7597402597402597,-1.0,0.7597402597402597,"(1297, 8)",Sell,SDP
262,0.7419354838709677,1.69,2018-05-22,"{'macd': 0.15, 'sod_14': 0.15, 'macdh': 0.13, 'rsi_14': 0.13, 'volume': 0.13, 'obv_2': 0.11, 'roc_2': 0.1, 'wr_14': 0.1}",0.7419354838709677,1.0,0.7419354838709677,"(1305, 8)",Buy,SDR
263,0.7290322580645161,65.46,2018-05-22,"{'macd': 0.15, 'macdh': 0.14, 'rsi_14': 0.14, 'volume': 0.13, 'sod_14': 0.13, 'obv_2': 0.11, 'wr_14': 0.11, 'roc_2': 0.1}",0.7290322580645161,2.0,0.7290322580645161,"(1305, 8)",Buy Strong,SEIC
264,0.7932489451476793,43.67,2018-05-22,"{'macd': 0.17, 'sod_14': 0.15, 'volume': 0.13, 'macdh': 0.12, 'rsi_14': 0.12, 'obv_2': 0.11, 'roc_2': 0.1, 'wr_14': 0.1}",0.7932489451476793,-2.0,0.7932489451476793,"(1014, 8)",Sell Strong,SFBS
265,0.7451612903225806,31.5,2018-05-22,"{'volume': 0.15, 'sod_14': 0.15, 'macd': 0.14, 'macdh': 0.12, 'obv_2': 0.12, 'rsi_14': 0.12, 'wr_14': 0.11, 'roc_2': 0.09}",0.7451612903225806,-2.0,0.7451612903225806,"(1305, 8)",Sell Strong,SFNC
266,0.7216828478964401,23.17,2018-05-22,"{'macdh': 0.15, 'macd': 0.14, 'rsi_14': 0.13, 'volume': 0.13, 'sod_14': 0.13, 'obv_2': 0.11, 'wr_14': 0.11, 'roc_2': 0.1}",0.7216828478964401,-1.0,0.7216828478964401,"(1300, 8)",Sell,SGC
267,0.7612903225806451,15.65,2018-05-22,"{'macd': 0.15, 'rsi_14': 0.14, 'sod_14': 0.14, 'macdh': 0.13, 'volume': 0.13, 'obv_2': 0.11, 'wr_14': 0.1, 'roc_2': 0.09}",0.7612903225806451,1.0,0.7612903225806451,"(1305, 8)",Buy,SGMO
268,0.7903225806451613,71.29,2018-05-22,"{'macd': 0.17, 'sod_14': 0.15, 'volume': 0.14, 'macdh': 0.13, 'rsi_14': 0.12, 'obv_2': 0.1, 'wr_14': 0.1, 'roc_2': 0.08}",0.7903225806451613,-2.0,0.7903225806451613,"(1305, 8)",Sell Strong,SHI
269,0.8064516129032258,169.89,2018-05-22,"{'volume': 0.18, 'macd': 0.14, 'sod_14': 0.13, 'macdh': 0.12, 'obv_2': 0.12, 'rsi_14': 0.11, 'wr_14': 0.11, 'roc_2': 0.09}",0.8064516129032258,-1.0,0.8064516129032258,"(1305, 8)",Sell,SHPG
270,0.6612903225806451,56.3,2018-05-22,"{'macd': 0.14, 'macdh': 0.14, 'rsi_14': 0.14, 'volume': 0.13, 'sod_14': 0.13, 'roc_2': 0.11, 'wr_14': 0.11, 'obv_2': 0.1}",0.6612903225806451,2.0,0.6612903225806451,"(1305, 8)",Buy Strong,SIGI
271,0.7612903225806451,6.94,2018-05-22,"{'macd': 0.14, 'macdh': 0.14, 'volume': 0.14, 'sod_14': 0.14, 'rsi_14': 0.13, 'obv_2': 0.11, 'roc_2': 0.1, 'wr_14': 0.1}",0.7612903225806451,-1.0,0.7612903225806451,"(1305, 8)",Sell,SIRI
272,0.7870967741935484,324.31,2018-05-22,"{'macd': 0.15, 'volume': 0.15, 'macdh': 0.13, 'sod_14': 0.13, 'rsi_14': 0.12, 'obv_2': 0.11, 'wr_14': 0.11, 'roc_2': 0.09}",0.7870967741935484,1.0,0.7870967741935484,"(1305, 8)",Buy,SIVB
273,0.8290322580645161,28.73,2018-05-22,"{'macd': 0.15, 'sod_14': 0.15, 'rsi_14': 0.14, 'macdh': 0.13, 'volume': 0.13, 'wr_14': 0.11, 'roc_2': 0.1, 'obv_2': 0.09}",0.8290322580645161,1.0,0.8290322580645161,"(1305, 8)",Buy,SKY
274,0.7645161290322581,11.82,2018-05-22,"{'rsi_14': 0.16, 'macd': 0.14, 'macdh': 0.14, 'sod_14': 0.14, 'volume': 0.12, 'wr_14': 0.11, 'obv_2': 0.1, 'roc_2': 0.1}",0.7645161290322581,2.0,0.7645161290322581,"(1305, 8)",Buy Strong,SLM
275,0.7821782178217822,44.91,2018-05-22,"{'volume': 0.16, 'sod_14': 0.15, 'macd': 0.14, 'macdh': 0.12, 'rsi_14': 0.12, 'obv_2': 0.11, 'wr_14': 0.11, 'roc_2': 0.08}",0.7821782178217822,1.0,0.7821782178217822,"(1275, 8)",Buy,SMIN
276,0.8161290322580645,44.33,2018-05-22,"{'macd': 0.18, 'rsi_14': 0.14, 'macdh': 0.13, 'volume': 0.13, 'sod_14': 0.13, 'obv_2': 0.11, 'wr_14': 0.1, 'roc_2': 0.08}",0.8161290322580645,1.0,0.8161290322580645,"(1305, 8)",Buy,SMP
277,0.8032258064516129,4.08,2018-05-22,"{'volume': 0.18, 'macd': 0.14, 'macdh': 0.13, 'rsi_14': 0.13, 'obv_2': 0.12, 'wr_14': 0.11, 'sod_14': 0.11, 'roc_2': 0.09}",0.8032258064516129,-2.0,0.8032258064516129,"(1305, 8)",Sell Strong,SN
278,0.8096774193548387,35.82,2018-05-22,"{'macd': 0.15, 'sod_14': 0.15, 'volume': 0.14, 'macdh': 0.12, 'rsi_14': 0.12, 'obv_2': 0.11, 'wr_14': 0.11, 'roc_2': 0.09}",0.8096774193548387,-1.0,0.8096774193548387,"(1305, 8)",Sell,SNN
279,0.7580645161290323,89.27,2018-05-22,"{'sod_14': 0.15, 'macd': 0.14, 'volume': 0.14, 'macdh': 0.13, 'rsi_14': 0.12, 'wr_14': 0.11, 'obv_2': 0.1, 'roc_2': 0.1}",0.7580645161290323,2.0,0.7580645161290323,"(1305, 8)",Buy Strong,SNPS
280,0.8373205741626795,7.64,2018-05-22,"{'macd': 0.16, 'rsi_14': 0.15, 'volume': 0.15, 'sod_14': 0.14, 'macdh': 0.11, 'wr_14': 0.11, 'obv_2': 0.1, 'roc_2': 0.08}",0.8373205741626795,-1.0,0.8373205741626795,"(899, 8)",Sell,SNR
281,0.7938931297709924,0.411854,2018-05-22,"{'volume': 0.18, 'rsi_14': 0.15, 'macd': 0.14, 'obv_2': 0.13, 'sod_14': 0.12, 'roc_2': 0.1, 'macdh': 0.09, 'wr_14': 0.09}",0.7938931297709924,2.0,0.7938931297709924,"(587, 8)",Buy Strong,SPI
282,0.7258064516129032,90.35,2018-05-22,"{'macdh': 0.15, 'macd': 0.14, 'volume': 0.14, 'sod_14': 0.14, 'rsi_14': 0.12, 'wr_14': 0.11, 'obv_2': 0.1, 'roc_2': 0.09}",0.7258064516129032,-2.0,0.7258064516129032,"(1305, 8)",Sell Strong,SSB
283,0.7870967741935484,58.01,2018-05-22,"{'sod_14': 0.15, 'macd': 0.14, 'volume': 0.14, 'macdh': 0.13, 'rsi_14': 0.13, 'wr_14': 0.12, 'obv_2': 0.11, 'roc_2': 0.09}",0.7870967741935484,1.0,0.7870967741935484,"(1305, 8)",Buy,STX
284,0.7744107744107744,9.25,2018-05-22,"{'macd': 0.15, 'volume': 0.15, 'sod_14': 0.14, 'rsi_14': 0.13, 'macdh': 0.12, 'obv_2': 0.1, 'roc_2': 0.1, 'wr_14': 0.1}",0.7744107744107744,-1.0,0.7744107744107744,"(1252, 8)",Sell,SVT
285,0.7709677419354839,100.04,2018-05-22,"{'macd': 0.15, 'macdh': 0.15, 'volume': 0.15, 'rsi_14': 0.14, 'sod_14': 0.13, 'wr_14': 0.11, 'obv_2': 0.1, 'roc_2': 0.08}",0.7709677419354839,-2.0,0.7709677419354839,"(1305, 8)",Sell Strong,SWKS
286,0.7967741935483871,21.37,2018-05-22,"{'volume': 0.17, 'macd': 0.14, 'rsi_14': 0.14, 'macdh': 0.12, 'obv_2': 0.12, 'sod_14': 0.12, 'roc_2': 0.1, 'wr_14': 0.09}",0.7967741935483871,-1.0,0.7967741935483871,"(1305, 8)",Sell,SYMC
287,0.7741935483870968,1.95,2018-05-22,"{'macd': 0.15, 'volume': 0.15, 'sod_14': 0.15, 'macdh': 0.14, 'rsi_14': 0.12, 'obv_2': 0.11, 'wr_14': 0.11, 'roc_2': 0.08}",0.7741935483870968,-2.0,0.7741935483870968,"(1305, 8)",Sell Strong,SYNC
288,0.7870967741935484,31.38,2018-05-22,"{'volume': 0.15, 'macd': 0.14, 'macdh': 0.14, 'rsi_14': 0.13, 'sod_14': 0.13, 'obv_2': 0.11, 'wr_14': 0.1, 'roc_2': 0.09}",0.7870967741935484,-2.0,0.7870967741935484,"(1305, 8)",Sell Strong,SYNT
289,0.7677419354838709,11.33,2018-05-22,"{'volume': 0.17, 'macd': 0.14, 'macdh': 0.14, 'rsi_14': 0.13, 'sod_14': 0.13, 'obv_2': 0.11, 'wr_14': 0.1, 'roc_2': 0.08}",0.7677419354838709,-2.0,0.7677419354838709,"(1305, 8)",Sell Strong,TCAP
290,0.7709677419354839,100.4,2018-05-22,"{'macd': 0.15, 'macdh': 0.14, 'volume': 0.14, 'rsi_14': 0.13, 'sod_14': 0.13, 'obv_2': 0.11, 'wr_14': 0.11, 'roc_2': 0.09}",0.7709677419354839,-2.0,0.7709677419354839,"(1305, 8)",Sell Strong,TCBI
291,0.7419354838709677,9.3,2018-05-22,"{'sod_14': 0.16, 'macd': 0.14, 'macdh': 0.13, 'rsi_14': 0.12, 'volume': 0.12, 'obv_2': 0.11, 'wr_14': 0.11, 'roc_2': 0.1}",0.7419354838709677,2.0,0.7419354838709677,"(1305, 8)",Buy Strong,TEF
292,0.73,44.65,2018-05-22,"{'volume': 0.18, 'macdh': 0.13, 'obv_2': 0.13, 'sod_14': 0.13, 'macd': 0.12, 'rsi_14': 0.12, 'roc_2': 0.1, 'wr_14': 0.1}",0.73,-1.0,0.73,"(1266, 8)",Sell,TEP
293,0.7322580645161291,15.39,2018-05-22,"{'macd': 0.16, 'sod_14': 0.16, 'volume': 0.15, 'macdh': 0.12, 'rsi_14': 0.12, 'obv_2': 0.11, 'roc_2': 0.1, 'wr_14': 0.09}",0.7322580645161291,-1.0,0.7322580645161291,"(1305, 8)",Sell,TFSL
294,0.7326732673267327,57.18,2018-05-22,"{'macd': 0.15, 'macdh': 0.14, 'rsi_14': 0.14, 'sod_14': 0.14, 'volume': 0.13, 'obv_2': 0.1, 'wr_14': 0.1, 'roc_2': 0.09}",0.7326732673267327,-1.0,0.7326732673267327,"(1275, 8)",Sell,TMUS
295,0.7129032258064516,32.96,2018-05-22,"{'macd': 0.14, 'rsi_14': 0.14, 'sod_14': 0.14, 'macdh': 0.13, 'volume': 0.13, 'wr_14': 0.12, 'obv_2': 0.11, 'roc_2': 0.1}",0.7129032258064516,1.0,0.7129032258064516,"(1305, 8)",Buy,TRMK
296,0.7193548387096774,122.66,2018-05-22,"{'sod_14': 0.15, 'macd': 0.14, 'macdh': 0.13, 'rsi_14': 0.13, 'volume': 0.12, 'obv_2': 0.11, 'roc_2': 0.11, 'wr_14': 0.11}",0.7193548387096774,-2.0,0.7193548387096774,"(1305, 8)",Sell Strong,TROW
297,0.7516129032258064,131.42,2018-05-22,"{'macd': 0.16, 'macdh': 0.14, 'rsi_14': 0.14, 'volume': 0.13, 'sod_14': 0.12, 'obv_2': 0.1, 'wr_14': 0.1, 'roc_2': 0.09}",0.7516129032258064,1.0,0.7516129032258064,"(1305, 8)",Buy,TRV
298,0.7322580645161291,73.69,2018-05-22,"{'macdh': 0.15, 'macd': 0.14, 'rsi_14': 0.14, 'volume': 0.13, 'obv_2': 0.12, 'sod_14': 0.12, 'wr_14': 0.11, 'roc_2': 0.1}",0.7322580645161291,-1.0,0.7322580645161291,"(1305, 8)",Sell,TSCO
299,0.7838709677419354,275.01,2018-05-22,"{'rsi_14': 0.16, 'macd': 0.14, 'sod_14': 0.14, 'volume': 0.13, 'macdh': 0.12, 'obv_2': 0.11, 'roc_2': 0.1, 'wr_14': 0.1}",0.7838709677419354,1.0,0.7838709677419354,"(1305, 8)",Buy,TSLA
300,0.7225806451612903,113.24,2018-05-22,"{'macd': 0.15, 'macdh': 0.15, 'rsi_14': 0.13, 'sod_14': 0.13, 'volume': 0.12, 'obv_2': 0.11, 'wr_14': 0.11, 'roc_2': 0.1}",0.7225806451612903,-2.0,0.7225806451612903,"(1305, 8)",Sell Strong,TTWO
301,0.7732342007434945,32.86,2018-05-22,"{'macd': 0.21, 'macdh': 0.14, 'rsi_14': 0.12, 'volume': 0.12, 'sod_14': 0.12, 'roc_2': 0.1, 'wr_14': 0.1, 'obv_2': 0.09}",0.7732342007434945,2.0,0.7732342007434945,"(1142, 8)",Buy Strong,TWTR
302,0.7580645161290323,110.86,2018-05-22,"{'macd': 0.15, 'macdh': 0.15, 'rsi_14': 0.13, 'volume': 0.13, 'sod_14': 0.13, 'obv_2': 0.11, 'wr_14': 0.11, 'roc_2': 0.1}",0.7580645161290323,2.0,0.7580645161290323,"(1305, 8)",Buy Strong,TXN
303,0.861244019138756,17.7858,2018-05-18,"{'sod_14': 0.16, 'volume': 0.15, 'macd': 0.13, 'rsi_14': 0.13, 'macdh': 0.12, 'obv_2': 0.11, 'roc_2': 0.1, 'wr_14': 0.1}",0.861244019138756,-2.0,0.861244019138756,"(900, 8)",Sell Strong,UBM
304,0.7612903225806451,37.1,2018-05-22,"{'macd': 0.16, 'volume': 0.15, 'sod_14': 0.14, 'macdh': 0.13, 'rsi_14': 0.13, 'obv_2': 0.1, 'roc_2': 0.1, 'wr_14': 0.1}",0.7612903225806451,-1.0,0.7612903225806451,"(1305, 8)",Sell,UBSI
305,0.7258064516129032,33.41,2018-05-22,"{'volume': 0.16, 'macdh': 0.14, 'macd': 0.13, 'rsi_14': 0.13, 'sod_14': 0.13, 'obv_2': 0.11, 'wr_14': 0.11, 'roc_2': 0.09}",0.7258064516129032,-1.0,0.7258064516129032,"(1305, 8)",Sell,UCBI
306,0.8080808080808081,16.5,2018-05-22,"{'volume': 0.17, 'sod_14': 0.16, 'macd': 0.15, 'rsi_14': 0.12, 'macdh': 0.11, 'obv_2': 0.11, 'wr_14': 0.1, 'roc_2': 0.09}",0.8080808080808081,-2.0,0.8080808080808081,"(1252, 8)",Sell Strong,ULE
307,0.7870967741935484,252.69,2018-05-22,"{'macd': 0.17, 'macdh': 0.14, 'volume': 0.14, 'rsi_14': 0.13, 'sod_14': 0.12, 'obv_2': 0.11, 'wr_14': 0.11, 'roc_2': 0.08}",0.7870967741935484,-1.0,0.7870967741935484,"(1305, 8)",Sell,ULTA
308,0.6935483870967742,79.09,2018-05-22,"{'macd': 0.14, 'macdh': 0.14, 'sod_14': 0.14, 'volume': 0.13, 'obv_2': 0.12, 'rsi_14': 0.12, 'wr_14': 0.11, 'roc_2': 0.1}",0.6935483870967742,1.0,0.6935483870967742,"(1305, 8)",Buy,UMBF
309,0.7096774193548387,24.0,2018-05-22,"{'volume': 0.15, 'sod_14': 0.15, 'macd': 0.14, 'macdh': 0.12, 'rsi_14': 0.12, 'obv_2': 0.11, 'wr_14': 0.11, 'roc_2': 0.09}",0.7096774193548387,1.0,0.7096774193548387,"(1305, 8)",Buy,UMPQ
310,0.7161290322580646,245.18,2018-05-22,"{'macd': 0.15, 'sod_14': 0.15, 'rsi_14': 0.13, 'volume': 0.13, 'macdh': 0.12, 'obv_2': 0.11, 'roc_2': 0.1, 'wr_14': 0.1}",0.7161290322580646,1.0,0.7161290322580646,"(1305, 8)",Buy,UNH
311,0.770949720670391,20.09,2018-05-22,"{'macd': 0.16, 'volume': 0.15, 'rsi_14': 0.14, 'sod_14': 0.13, 'macdh': 0.12, 'obv_2': 0.11, 'wr_14': 0.1, 'roc_2': 0.09}",0.770949720670391,1.0,0.770949720670391,"(780, 8)",Buy,UNIT
312,0.7677419354838709,28.17,2018-05-22,"{'sod_14': 0.15, 'macd': 0.14, 'volume': 0.14, 'macdh': 0.13, 'rsi_14': 0.12, 'obv_2': 0.11, 'wr_14': 0.11, 'roc_2': 0.09}",0.7677419354838709,2.0,0.7677419354838709,"(1305, 8)",Buy Strong,UTG
313,0.7870967741935484,127.87,2018-05-22,"{'macd': 0.16, 'sod_14': 0.15, 'rsi_14': 0.14, 'macdh': 0.12, 'volume': 0.12, 'obv_2': 0.11, 'roc_2': 0.1, 'wr_14': 0.1}",0.7870967741935484,2.0,0.7870967741935484,"(1305, 8)",Buy Strong,UTX
314,0.7483870967741936,130.71,2018-05-22,"{'macd': 0.15, 'rsi_14': 0.14, 'sod_14': 0.14, 'macdh': 0.13, 'volume': 0.12, 'obv_2': 0.11, 'wr_14': 0.11, 'roc_2': 0.1}",0.7483870967741936,1.0,0.7483870967741936,"(1305, 8)",Buy,V
315,0.7677419354838709,26.94,2018-05-22,"{'macd': 0.15, 'sod_14': 0.15, 'macdh': 0.14, 'rsi_14': 0.13, 'volume': 0.13, 'obv_2': 0.11, 'wr_14': 0.1, 'roc_2': 0.09}",0.7677419354838709,-1.0,0.7677419354838709,"(1305, 8)",Sell,VOD
316,0.6741935483870968,105.65,2018-05-22,"{'sod_14': 0.16, 'macd': 0.15, 'volume': 0.13, 'macdh': 0.12, 'obv_2': 0.12, 'rsi_14': 0.12, 'roc_2': 0.1, 'wr_14': 0.1}",0.6741935483870968,-1.0,0.6741935483870968,"(1305, 8)",Sell,VRSK
317,0.7483870967741936,156.28,2018-05-22,"{'macdh': 0.14, 'volume': 0.14, 'macd': 0.13, 'rsi_14': 0.13, 'sod_14': 0.13, 'obv_2': 0.11, 'wr_14': 0.11, 'roc_2': 0.1}",0.7483870967741936,-2.0,0.7483870967741936,"(1305, 8)",Sell Strong,VRTX
318,0.7483870967741936,48.81,2018-05-22,"{'macd': 0.16, 'sod_14': 0.15, 'rsi_14': 0.13, 'macdh': 0.12, 'obv_2': 0.12, 'volume': 0.12, 'roc_2': 0.1, 'wr_14': 0.1}",0.7483870967741936,-1.0,0.7483870967741936,"(1305, 8)",Sell,VZ
319,0.6903225806451613,57.78,2018-05-22,"{'macd': 0.16, 'volume': 0.14, 'rsi_14': 0.13, 'macdh': 0.12, 'sod_14': 0.12, 'obv_2': 0.11, 'wr_14': 0.11, 'roc_2': 0.1}",0.6903225806451613,2.0,0.6903225806451613,"(1305, 8)",Buy Strong,WABC
320,0.7322580645161291,32.9,2018-05-22,"{'sod_14': 0.15, 'macd': 0.14, 'macdh': 0.14, 'volume': 0.14, 'rsi_14': 0.12, 'wr_14': 0.11, 'obv_2': 0.1, 'roc_2': 0.1}",0.7322580645161291,1.0,0.7322580645161291,"(1305, 8)",Buy,WAFD
321,0.7322580645161291,64.23,2018-05-22,"{'macd': 0.14, 'macdh': 0.14, 'volume': 0.14, 'sod_14': 0.13, 'obv_2': 0.12, 'rsi_14': 0.12, 'wr_14': 0.11, 'roc_2': 0.1}",0.7322580645161291,1.0,0.7322580645161291,"(1305, 8)",Buy,WBA
322,0.7,130.35,2018-05-22,"{'sod_14': 0.15, 'macd': 0.14, 'rsi_14': 0.13, 'volume': 0.13, 'macdh': 0.12, 'obv_2': 0.12, 'wr_14': 0.12, 'roc_2': 0.09}",0.7,-2.0,0.7,"(1305, 8)",Sell Strong,WDAY
323,0.7516129032258064,87.87,2018-05-22,"{'macd': 0.16, 'sod_14': 0.15, 'rsi_14': 0.14, 'volume': 0.14, 'macdh': 0.13, 'obv_2': 0.1, 'wr_14': 0.1, 'roc_2': 0.09}",0.7516129032258064,-1.0,0.7516129032258064,"(1305, 8)",Sell,WDC
324,0.7645161290322581,11.33,2018-05-22,"{'macd': 0.17, 'volume': 0.15, 'rsi_14': 0.14, 'sod_14': 0.14, 'macdh': 0.12, 'obv_2': 0.1, 'wr_14': 0.1, 'roc_2': 0.08}",0.7645161290322581,1.0,0.7645161290322581,"(1305, 8)",Buy,WETF
325,0.86,0.155,2018-03-26,"{'macd': 0.17, 'sod_14': 0.15, 'macdh': 0.14, 'rsi_14': 0.14, 'volume': 0.12, 'obv_2': 0.1, 'wr_14': 0.1, 'roc_2': 0.08}",0.86,-1.0,0.86,"(1265, 8)",Sell,WG
326,0.6865671641791045,155.88,2018-05-22,"{'macd': 0.18, 'volume': 0.15, 'sod_14': 0.14, 'macdh': 0.12, 'rsi_14': 0.12, 'wr_14': 0.11, 'obv_2': 0.1, 'roc_2': 0.09}",0.6865671641791045,-2.0,0.6865671641791045,"(600, 8)",Sell Strong,WLTW
327,0.8161290322580645,83.37,2018-05-22,"{'macd': 0.16, 'macdh': 0.14, 'rsi_14': 0.14, 'volume': 0.14, 'sod_14': 0.14, 'wr_14': 0.11, 'obv_2': 0.1, 'roc_2': 0.08}",0.8161290322580645,-2.0,0.8161290322580645,"(1305, 8)",Sell Strong,WMT
328,0.7258064516129032,91.42,2018-05-22,"{'volume': 0.15, 'sod_14': 0.14, 'macd': 0.13, 'macdh': 0.12, 'obv_2': 0.12, 'rsi_14': 0.12, 'roc_2': 0.11, 'wr_14': 0.11}",0.7258064516129032,-2.0,0.7258064516129032,"(1305, 8)",Sell Strong,WPP
329,0.7,96.81,2018-05-22,"{'macd': 0.16, 'sod_14': 0.14, 'macdh': 0.13, 'rsi_14': 0.13, 'volume': 0.12, 'roc_2': 0.11, 'obv_2': 0.1, 'wr_14': 0.1}",0.7,-1.0,0.7,"(1305, 8)",Sell,WTFC
330,0.832258064516129,193.88,2018-05-22,"{'macd': 0.18, 'macdh': 0.14, 'rsi_14': 0.14, 'volume': 0.13, 'sod_14': 0.12, 'obv_2': 0.11, 'wr_14': 0.1, 'roc_2': 0.08}",0.832258064516129,1.0,0.832258064516129,"(1305, 8)",Buy,WYNN
331,0.8032258064516129,71.67,2018-05-22,"{'macd': 0.15, 'macdh': 0.14, 'sod_14': 0.14, 'rsi_14': 0.13, 'volume': 0.12, 'obv_2': 0.11, 'wr_14': 0.11, 'roc_2': 0.1}",0.8032258064516129,-2.0,0.8032258064516129,"(1305, 8)",Sell Strong,XLNX
332,0.7516129032258064,81.64,2018-05-22,"{'macd': 0.16, 'rsi_14': 0.13, 'volume': 0.13, 'sod_14': 0.13, 'macdh': 0.12, 'obv_2': 0.12, 'wr_14': 0.11, 'roc_2': 0.1}",0.7516129032258064,1.0,0.7516129032258064,"(1305, 8)",Buy,XOM
333,0.7258064516129032,47.25,2018-05-22,"{'macd': 0.16, 'macdh': 0.14, 'rsi_14': 0.14, 'volume': 0.14, 'sod_14': 0.13, 'obv_2': 0.11, 'wr_14': 0.1, 'roc_2': 0.09}",0.7258064516129032,2.0,0.7258064516129032,"(1305, 8)",Buy Strong,XRAY
334,0.7967741935483871,51.69,2018-05-22,"{'macd': 0.18, 'macdh': 0.15, 'rsi_14': 0.14, 'volume': 0.14, 'obv_2': 0.1, 'wr_14': 0.1, 'sod_14': 0.1, 'roc_2': 0.08}",0.7967741935483871,-1.0,0.7967741935483871,"(1305, 8)",Sell,ZG
335,0.7290322580645161,58.54,2018-05-22,"{'sod_14': 0.15, 'macd': 0.14, 'macdh': 0.14, 'volume': 0.14, 'rsi_14': 0.12, 'obv_2': 0.11, 'roc_2': 0.11, 'wr_14': 0.1}",0.7290322580645161,1.0,0.7290322580645161,"(1305, 8)",Buy,ZION
