,accuracy,close,date,features,precision,prediction,recall,shape,signal,symbol
0,0.782608695652174,65.55,2018-05-21,"{'sod_14': 0.16, 'macd': 0.14, 'rsi_14': 0.14, 'macdh': 0.13, 'volume': 0.13, 'wr_14': 0.11, 'obv_2': 0.1, 'roc_2': 0.1}",0.782608695652174,-1.0,0.782608695652174,"(1305, 8)",Sell,A
1,0.8060200668896321,44.28,2018-05-21,"{'macd': 0.16, 'volume': 0.15, 'sod_14': 0.14, 'macdh': 0.13, 'rsi_14': 0.12, 'obv_2': 0.11, 'wr_14': 0.11, 'roc_2': 0.09}",0.8060200668896321,1.0,0.8060200668896321,"(1305, 8)",Buy,AAL
2,0.7926421404682275,187.63,2018-05-21,"{'volume': 0.17, 'macd': 0.14, 'macdh': 0.14, 'rsi_14': 0.12, 'sod_14': 0.12, 'obv_2': 0.11, 'wr_14': 0.11, 'roc_2': 0.08}",0.7926421404682275,-2.0,0.7926421404682275,"(1305, 8)",Sell Strong,AAPL
3,0.8160535117056856,79.6,2018-05-21,"{'rsi_14': 0.16, 'macd': 0.14, 'volume': 0.14, 'sod_14': 0.14, 'macdh': 0.13, 'obv_2': 0.11, 'wr_14': 0.11, 'roc_2': 0.08}",0.8160535117056856,1.0,0.8160535117056856,"(1305, 8)",Buy,ACGL
4,0.705685618729097,238.1,2018-05-21,"{'macd': 0.15, 'sod_14': 0.15, 'macdh': 0.13, 'rsi_14': 0.13, 'volume': 0.13, 'obv_2': 0.11, 'wr_14': 0.11, 'roc_2': 0.1}",0.705685618729097,2.0,0.705685618729097,"(1305, 8)",Buy Strong,ADBE
5,0.6923076923076923,95.3,2018-05-21,"{'macd': 0.15, 'volume': 0.15, 'sod_14': 0.14, 'macdh': 0.13, 'rsi_14': 0.13, 'obv_2': 0.11, 'wr_14': 0.1, 'roc_2': 0.09}",0.6923076923076923,2.0,0.6923076923076923,"(1305, 8)",Buy Strong,ADI
6,0.7658862876254181,45.17,2018-05-21,"{'volume': 0.15, 'macd': 0.14, 'rsi_14': 0.14, 'sod_14': 0.14, 'macdh': 0.13, 'obv_2': 0.11, 'wr_14': 0.11, 'roc_2': 0.09}",0.7658862876254181,-1.0,0.7658862876254181,"(1305, 8)",Sell,ADM
7,0.7090301003344481,128.84,2018-05-21,"{'macd': 0.16, 'sod_14': 0.14, 'rsi_14': 0.13, 'volume': 0.13, 'macdh': 0.12, 'obv_2': 0.11, 'wr_14': 0.11, 'roc_2': 0.1}",0.7090301003344481,-2.0,0.7090301003344481,"(1305, 8)",Sell Strong,ADP
8,0.6956521739130435,137.67,2018-05-21,"{'sod_14': 0.15, 'macd': 0.14, 'macdh': 0.14, 'rsi_14': 0.13, 'volume': 0.13, 'obv_2': 0.11, 'wr_14': 0.11, 'roc_2': 0.09}",0.6956521739130435,-2.0,0.6956521739130435,"(1305, 8)",Sell Strong,ADSK
9,0.8394648829431438,13.84,2018-05-21,"{'macd': 0.15, 'volume': 0.15, 'sod_14': 0.14, 'macdh': 0.13, 'obv_2': 0.11, 'rsi_14': 0.11, 'wr_14': 0.11, 'roc_2': 0.09}",0.8394648829431438,-2.0,0.8394648829431438,"(1305, 8)",Sell Strong,AFSI
10,0.7558528428093646,19.1,2018-05-21,"{'macd': 0.16, 'sod_14': 0.15, 'macdh': 0.14, 'rsi_14': 0.13, 'volume': 0.13, 'obv_2': 0.1, 'wr_14': 0.1, 'roc_2': 0.08}",0.7558528428093646,-2.0,0.7558528428093646,"(1305, 8)",Sell Strong,AGNC
11,0.776,51.75,2018-05-21,"{'volume': 0.17, 'sod_14': 0.17, 'macd': 0.13, 'obv_2': 0.13, 'rsi_14': 0.12, 'macdh': 0.11, 'wr_14': 0.1, 'roc_2': 0.07}",0.776,-2.0,0.776,"(610, 8)",Sell Strong,AGR
12,0.7658862876254181,6.99,2018-05-21,"{'macd': 0.14, 'volume': 0.14, 'macdh': 0.13, 'rsi_14': 0.13, 'sod_14': 0.13, 'obv_2': 0.11, 'roc_2': 0.11, 'wr_14': 0.11}",0.7658862876254181,-1.0,0.7658862876254181,"(1305, 8)",Sell,AHT
13,0.7892976588628763,46.92,2018-05-21,"{'volume': 0.2, 'sod_14': 0.14, 'macd': 0.13, 'obv_2': 0.13, 'macdh': 0.12, 'rsi_14': 0.1, 'wr_14': 0.1, 'roc_2': 0.08}",0.7892976588628763,2.0,0.7892976588628763,"(1304, 8)",Buy Strong,ALFA
14,0.7725752508361204,302.46,2018-05-21,"{'macd': 0.17, 'macdh': 0.14, 'sod_14': 0.14, 'rsi_14': 0.13, 'volume': 0.12, 'obv_2': 0.11, 'wr_14': 0.1, 'roc_2': 0.09}",0.7725752508361204,-1.0,0.7725752508361204,"(1305, 8)",Sell,ALGN
15,0.7123745819397993,119.37,2018-05-21,"{'macd': 0.17, 'volume': 0.15, 'macdh': 0.14, 'sod_14': 0.13, 'rsi_14': 0.12, 'obv_2': 0.11, 'wr_14': 0.1, 'roc_2': 0.09}",0.7123745819397993,-2.0,0.7123745819397993,"(1305, 8)",Sell Strong,ALXN
16,0.7759197324414716,50.0,2018-05-21,"{'macd': 0.17, 'macdh': 0.14, 'rsi_14': 0.14, 'volume': 0.13, 'sod_14': 0.12, 'obv_2': 0.1, 'wr_14': 0.1, 'roc_2': 0.09}",0.7759197324414716,2.0,0.7759197324414716,"(1305, 8)",Buy Strong,AMAT
17,0.6655518394648829,176.47,2018-05-21,"{'macd': 0.14, 'macdh': 0.14, 'sod_14': 0.14, 'rsi_14': 0.13, 'volume': 0.12, 'obv_2': 0.11, 'wr_14': 0.11, 'roc_2': 0.1}",0.6655518394648829,1.0,0.6655518394648829,"(1305, 8)",Buy,AMGN
18,0.7391304347826086,60.97,2018-05-21,"{'macd': 0.16, 'sod_14': 0.14, 'macdh': 0.13, 'rsi_14': 0.13, 'volume': 0.12, 'obv_2': 0.11, 'wr_14': 0.11, 'roc_2': 0.09}",0.7391304347826086,-1.0,0.7391304347826086,"(1305, 8)",Sell,AMTD
19,0.7591973244147158,1585.46,2018-05-21,"{'macd': 0.15, 'sod_14': 0.15, 'rsi_14': 0.13, 'volume': 0.13, 'macdh': 0.12, 'obv_2': 0.11, 'wr_14': 0.11, 'roc_2': 0.09}",0.7591973244147158,-2.0,0.7591973244147158,"(1305, 8)",Sell Strong,AMZN
20,0.7591973244147158,1585.46,2018-05-21,"{'macd': 0.15, 'sod_14': 0.15, 'rsi_14': 0.13, 'volume': 0.13, 'macdh': 0.12, 'obv_2': 0.11, 'wr_14': 0.11, 'roc_2': 0.09}",0.7591973244147158,-2.0,0.7591973244147158,"(1305, 8)",Sell Strong,AMZN
21,0.7759197324414716,122.0,2018-05-21,"{'volume': 0.14, 'sod_14': 0.14, 'macd': 0.13, 'rsi_14': 0.13, 'macdh': 0.12, 'obv_2': 0.12, 'wr_14': 0.11, 'roc_2': 0.1}",0.7759197324414716,2.0,0.7759197324414716,"(1305, 8)",Buy Strong,ANAT
22,0.7424749163879598,202.51,2018-05-21,"{'sod_14': 0.16, 'macd': 0.14, 'macdh': 0.13, 'rsi_14': 0.13, 'volume': 0.12, 'wr_14': 0.12, 'obv_2': 0.1, 'roc_2': 0.09}",0.7424749163879598,1.0,0.7424749163879598,"(1305, 8)",Buy,ASML
23,0.7491638795986622,71.45,2018-05-21,"{'macd': 0.18, 'macdh': 0.15, 'rsi_14': 0.13, 'volume': 0.13, 'sod_14': 0.12, 'obv_2': 0.11, 'wr_14': 0.1, 'roc_2': 0.09}",0.7491638795986622,2.0,0.7491638795986622,"(1305, 8)",Buy Strong,ATVI
24,0.8160535117056856,3.77,2018-05-21,"{'volume': 0.17, 'sod_14': 0.15, 'macd': 0.14, 'rsi_14': 0.14, 'macdh': 0.13, 'obv_2': 0.1, 'wr_14': 0.1, 'roc_2': 0.08}",0.8160535117056856,-2.0,0.8160535117056856,"(1305, 8)",Sell Strong,AUTO
25,0.7357859531772575,239.05,2018-05-21,"{'macd': 0.16, 'macdh': 0.16, 'sod_14': 0.14, 'volume': 0.13, 'rsi_14': 0.12, 'obv_2': 0.1, 'wr_14': 0.1, 'roc_2': 0.09}",0.7357859531772575,-2.0,0.7357859531772575,"(1305, 8)",Sell Strong,AVGO
26,0.842809364548495,102.04,2018-05-21,"{'macd': 0.17, 'macdh': 0.14, 'rsi_14': 0.14, 'volume': 0.14, 'sod_14': 0.12, 'obv_2': 0.11, 'roc_2': 0.1, 'wr_14': 0.1}",0.842809364548495,-1.0,0.842809364548495,"(1305, 8)",Sell,AXP
27,0.752542372881356,36.79,2018-05-21,"{'rsi_14': 0.15, 'macd': 0.14, 'sod_14': 0.14, 'macdh': 0.13, 'volume': 0.13, 'obv_2': 0.12, 'wr_14': 0.11, 'roc_2': 0.09}",0.752542372881356,-2.0,0.752542372881356,"(1288, 8)",Sell Strong,AZN
28,0.8795986622073578,363.92,2018-05-21,"{'macd': 0.17, 'sod_14': 0.16, 'rsi_14': 0.14, 'volume': 0.14, 'macdh': 0.13, 'obv_2': 0.09, 'wr_14': 0.09, 'roc_2': 0.07}",0.8795986622073578,-1.0,0.8795986622073578,"(1305, 8)",Sell,BA
29,0.842809364548495,29.28,2018-05-21,"{'macd': 0.16, 'rsi_14': 0.14, 'volume': 0.14, 'sod_14': 0.14, 'macdh': 0.13, 'wr_14': 0.11, 'obv_2': 0.1, 'roc_2': 0.09}",0.842809364548495,-2.0,0.842809364548495,"(1305, 8)",Sell Strong,BAB
30,0.8235294117647058,197.64,2018-05-21,"{'volume': 0.2, 'macd': 0.15, 'rsi_14': 0.14, 'macdh': 0.13, 'sod_14': 0.12, 'obv_2': 0.11, 'wr_14': 0.09, 'roc_2': 0.07}",0.8235294117647058,-1.0,0.8235294117647058,"(924, 8)",Sell,BABA
31,0.7993311036789298,30.55,2018-05-21,"{'macd': 0.15, 'sod_14': 0.15, 'macdh': 0.14, 'rsi_14': 0.14, 'volume': 0.12, 'obv_2': 0.11, 'wr_14': 0.1, 'roc_2': 0.09}",0.7993311036789298,1.0,0.7993311036789298,"(1305, 8)",Buy,BAC
32,0.7391304347826086,59.11,2018-05-21,"{'macd': 0.16, 'macdh': 0.14, 'volume': 0.14, 'rsi_14': 0.13, 'sod_14': 0.12, 'obv_2': 0.1, 'roc_2': 0.1, 'wr_14': 0.1}",0.7391304347826086,-2.0,0.7391304347826086,"(1305, 8)",Sell Strong,BANR
33,0.7859531772575251,2.4,2018-05-21,"{'volume': 0.16, 'macd': 0.14, 'rsi_14': 0.14, 'sod_14': 0.14, 'macdh': 0.13, 'obv_2': 0.11, 'roc_2': 0.1, 'wr_14': 0.09}",0.7859531772575251,-2.0,0.7859531772575251,"(1305, 8)",Sell Strong,BBOX
34,0.7424749163879598,78.3,2018-05-21,"{'macd': 0.17, 'rsi_14': 0.14, 'volume': 0.14, 'macdh': 0.13, 'sod_14': 0.13, 'obv_2': 0.11, 'wr_14': 0.1, 'roc_2': 0.09}",0.7424749163879598,-1.0,0.7424749163879598,"(1305, 8)",Sell,BBY
35,0.7525083612040134,12.25,2018-05-21,"{'macd': 0.16, 'sod_14': 0.15, 'macdh': 0.14, 'rsi_14': 0.13, 'volume': 0.11, 'wr_14': 0.11, 'obv_2': 0.1, 'roc_2': 0.1}",0.7525083612040134,1.0,0.7525083612040134,"(1305, 8)",Buy,BGCP
36,0.7692307692307693,47.59,2018-05-21,"{'volume': 0.21, 'obv_2': 0.18, 'macd': 0.12, 'rsi_14': 0.11, 'sod_14': 0.11, 'macdh': 0.1, 'wr_14': 0.09, 'roc_2': 0.08}",0.7692307692307693,1.0,0.7692307692307693,"(214, 8)",Buy,BHF
37,0.7591973244147158,240.51,2018-05-21,"{'macd': 0.17, 'macdh': 0.14, 'volume': 0.14, 'sod_14': 0.14, 'rsi_14': 0.13, 'obv_2': 0.1, 'wr_14': 0.1, 'roc_2': 0.09}",0.7591973244147158,-2.0,0.7591973244147158,"(1305, 8)",Sell Strong,BIDU
38,0.7290969899665551,277.67,2018-05-21,"{'macd': 0.16, 'volume': 0.14, 'sod_14': 0.14, 'macdh': 0.12, 'rsi_14': 0.12, 'obv_2': 0.11, 'wr_14': 0.11, 'roc_2': 0.1}",0.7290969899665551,1.0,0.7290969899665551,"(1305, 8)",Buy,BIIB
39,0.8160535117056856,2071.56,2018-05-21,"{'macd': 0.16, 'rsi_14': 0.16, 'macdh': 0.14, 'sod_14': 0.13, 'volume': 0.12, 'wr_14': 0.11, 'obv_2': 0.09, 'roc_2': 0.09}",0.8160535117056856,1.0,0.8160535117056856,"(1305, 8)",Buy,BKNG
40,0.7157190635451505,35.82,2018-05-21,"{'volume': 0.16, 'sod_14': 0.15, 'macd': 0.13, 'macdh': 0.13, 'rsi_14': 0.13, 'obv_2': 0.11, 'wr_14': 0.1, 'roc_2': 0.09}",0.7157190635451505,1.0,0.7157190635451505,"(1305, 8)",Buy,BME
41,0.745819397993311,89.36,2018-05-21,"{'macd': 0.15, 'macdh': 0.14, 'rsi_14': 0.14, 'sod_14': 0.14, 'volume': 0.13, 'wr_14': 0.11, 'obv_2': 0.1, 'roc_2': 0.1}",0.745819397993311,-2.0,0.745819397993311,"(1304, 8)",Sell Strong,BMRN
42,0.8127090301003345,41.95,2018-05-21,"{'macd': 0.17, 'volume': 0.15, 'sod_14': 0.14, 'macdh': 0.13, 'rsi_14': 0.13, 'obv_2': 0.1, 'wr_14': 0.1, 'roc_2': 0.08}",0.8127090301003345,2.0,0.8127090301003345,"(1305, 8)",Buy Strong,BOFI
43,0.7658862876254181,105.26,2018-05-21,"{'volume': 0.17, 'macd': 0.15, 'macdh': 0.15, 'rsi_14': 0.12, 'sod_14': 0.12, 'obv_2': 0.11, 'wr_14': 0.09, 'roc_2': 0.08}",0.7658862876254181,-1.0,0.7658862876254181,"(1305, 8)",Sell,BOKF
44,0.725752508361204,47.79,2018-05-21,"{'volume': 0.15, 'macd': 0.14, 'rsi_14': 0.14, 'obv_2': 0.13, 'sod_14': 0.13, 'macdh': 0.12, 'roc_2': 0.1, 'wr_14': 0.1}",0.725752508361204,1.0,0.725752508361204,"(1305, 8)",Buy,BP
45,0.7090301003344481,47.29,2018-05-21,"{'sod_14': 0.16, 'macd': 0.14, 'volume': 0.14, 'macdh': 0.13, 'obv_2': 0.12, 'rsi_14': 0.12, 'wr_14': 0.11, 'roc_2': 0.09}",0.7090301003344481,-2.0,0.7090301003344481,"(1305, 8)",Sell Strong,BPOP
46,0.7692307692307693,2.61,2018-05-21,"{'volume': 0.18, 'sod_14': 0.14, 'macd': 0.13, 'macdh': 0.12, 'rsi_14': 0.12, 'obv_2': 0.11, 'wr_14': 0.1, 'roc_2': 0.09}",0.7692307692307693,2.0,0.7692307692307693,"(1305, 8)",Buy Strong,BTG
47,0.7190635451505016,70.43,2018-05-21,"{'macdh': 0.14, 'volume': 0.14, 'macd': 0.13, 'rsi_14': 0.13, 'sod_14': 0.13, 'obv_2': 0.12, 'wr_14': 0.11, 'roc_2': 0.09}",0.7190635451505016,2.0,0.7190635451505016,"(1305, 8)",Buy Strong,C
48,0.7157190635451505,35.5,2018-05-21,"{'macd': 0.14, 'volume': 0.14, 'macdh': 0.13, 'rsi_14': 0.13, 'sod_14': 0.13, 'obv_2': 0.12, 'wr_14': 0.11, 'roc_2': 0.1}",0.7157190635451505,-1.0,0.7157190635451505,"(1304, 8)",Sell,CA
49,0.8193979933110368,358.29,2018-05-21,"{'macd': 0.14, 'macdh': 0.14, 'volume': 0.14, 'sod_14': 0.14, 'rsi_14': 0.12, 'obv_2': 0.11, 'wr_14': 0.11, 'roc_2': 0.1}",0.8193979933110368,2.0,0.8193979933110368,"(1304, 8)",Buy Strong,CACC
50,0.7692307692307693,158.92,2018-05-21,"{'macd': 0.16, 'rsi_14': 0.14, 'volume': 0.13, 'sod_14': 0.13, 'macdh': 0.12, 'obv_2': 0.11, 'wr_14': 0.11, 'roc_2': 0.1}",0.7692307692307693,2.0,0.7692307692307693,"(1304, 8)",Buy Strong,CAT
51,0.6923076923076923,42.73,2018-05-21,"{'macd': 0.15, 'macdh': 0.15, 'rsi_14': 0.14, 'volume': 0.13, 'sod_14': 0.13, 'obv_2': 0.12, 'wr_14': 0.11, 'roc_2': 0.09}",0.6923076923076923,-1.0,0.6923076923076923,"(1304, 8)",Sell,CATY
52,0.7465277777777778,47.31,2018-03-19,"{'macd': 0.14, 'volume': 0.14, 'macdh': 0.13, 'sod_14': 0.13, 'obv_2': 0.12, 'rsi_14': 0.12, 'wr_14': 0.12, 'roc_2': 0.09}",0.7465277777777778,-2.0,0.7465277777777778,"(1260, 8)",Sell Strong,CBG
53,0.7926421404682275,106.49,2018-05-21,"{'macd': 0.17, 'volume': 0.15, 'macdh': 0.13, 'rsi_14': 0.13, 'sod_14': 0.13, 'obv_2': 0.1, 'wr_14': 0.09, 'roc_2': 0.08}",0.7926421404682275,2.0,0.7926421404682275,"(1304, 8)",Buy Strong,CBOE
54,0.7090301003344481,65.4,2018-05-21,"{'macd': 0.14, 'macdh': 0.14, 'volume': 0.14, 'sod_14': 0.14, 'rsi_14': 0.12, 'obv_2': 0.11, 'wr_14': 0.11, 'roc_2': 0.1}",0.7090301003344481,-2.0,0.7090301003344481,"(1304, 8)",Sell Strong,CBSH
55,0.7247386759581882,21.5,2018-03-08,"{'sod_14': 0.16, 'macd': 0.13, 'macdh': 0.13, 'rsi_14': 0.13, 'volume': 0.13, 'obv_2': 0.12, 'wr_14': 0.11, 'roc_2': 0.09}",0.7247386759581882,2.0,0.7247386759581882,"(1258, 8)",Buy Strong,CCC
56,0.7993311036789298,64.77,2018-05-21,"{'sod_14': 0.16, 'macd': 0.14, 'rsi_14': 0.14, 'macdh': 0.13, 'wr_14': 0.12, 'volume': 0.11, 'obv_2': 0.09, 'roc_2': 0.09}",0.7993311036789298,-2.0,0.7993311036789298,"(1304, 8)",Sell Strong,CCL
57,0.7692307692307693,42.01,2018-05-21,"{'volume': 0.18, 'macd': 0.13, 'macdh': 0.13, 'sod_14': 0.13, 'obv_2': 0.11, 'rsi_14': 0.11, 'roc_2': 0.1, 'wr_14': 0.1}",0.7692307692307693,-2.0,0.7692307692307693,"(1304, 8)",Sell Strong,CDNS
58,0.7692307692307693,74.69,2018-05-21,"{'macd': 0.16, 'macdh': 0.15, 'sod_14': 0.15, 'rsi_14': 0.14, 'volume': 0.12, 'wr_14': 0.1, 'obv_2': 0.09, 'roc_2': 0.09}",0.7692307692307693,2.0,0.7692307692307693,"(1304, 8)",Buy Strong,CELG
59,0.7892976588628763,60.75,2018-05-21,"{'macd': 0.15, 'macdh': 0.15, 'volume': 0.14, 'sod_14': 0.14, 'rsi_14': 0.12, 'obv_2': 0.11, 'wr_14': 0.1, 'roc_2': 0.09}",0.7892976588628763,2.0,0.7892976588628763,"(1304, 8)",Buy Strong,CERN
60,0.7290969899665551,13.14,2018-05-21,"{'macd': 0.18, 'macdh': 0.16, 'sod_14': 0.14, 'rsi_14': 0.13, 'volume': 0.13, 'obv_2': 0.1, 'roc_2': 0.09, 'wr_14': 0.09}",0.7290969899665551,-1.0,0.7290969899665551,"(1304, 8)",Sell,CFFN
61,0.745819397993311,57.31,2018-05-21,"{'volume': 0.16, 'macdh': 0.15, 'macd': 0.14, 'sod_14': 0.14, 'rsi_14': 0.13, 'obv_2': 0.11, 'wr_14': 0.1, 'roc_2': 0.09}",0.745819397993311,1.0,0.745819397993311,"(1304, 8)",Buy,CHFC
62,0.7324414715719063,96.97,2018-05-21,"{'macd': 0.15, 'macdh': 0.14, 'rsi_14': 0.14, 'sod_14': 0.14, 'volume': 0.12, 'wr_14': 0.11, 'obv_2': 0.1, 'roc_2': 0.09}",0.7324414715719063,-1.0,0.7324414715719063,"(1304, 8)",Sell,CHKP
63,0.802675585284281,266.55,2018-05-21,"{'macd': 0.17, 'volume': 0.14, 'macdh': 0.13, 'rsi_14': 0.13, 'sod_14': 0.13, 'obv_2': 0.11, 'wr_14': 0.1, 'roc_2': 0.08}",0.802675585284281,-2.0,0.802675585284281,"(1304, 8)",Sell Strong,CHTR
64,0.7993311036789298,77.15,2018-05-21,"{'macd': 0.17, 'macdh': 0.14, 'volume': 0.14, 'rsi_14': 0.13, 'sod_14': 0.13, 'obv_2': 0.1, 'roc_2': 0.09, 'wr_14': 0.09}",0.7993311036789298,-2.0,0.7993311036789298,"(1304, 8)",Sell Strong,CIGI
65,0.705685618729097,71.29,2018-05-21,"{'macd': 0.15, 'macdh': 0.15, 'rsi_14': 0.13, 'volume': 0.13, 'sod_14': 0.13, 'obv_2': 0.11, 'wr_14': 0.11, 'roc_2': 0.1}",0.705685618729097,1.0,0.705685618729097,"(1304, 8)",Buy,CINF
66,0.7090301003344481,17.87,2018-05-21,"{'macd': 0.16, 'volume': 0.14, 'sod_14': 0.14, 'rsi_14': 0.13, 'macdh': 0.12, 'obv_2': 0.11, 'roc_2': 0.11, 'wr_14': 0.1}",0.7090301003344481,1.0,0.7090301003344481,"(1304, 8)",Buy,CLI
67,0.7441860465116279,29.69,2018-05-21,"{'macd': 0.16, 'volume': 0.14, 'sod_14': 0.14, 'macdh': 0.13, 'rsi_14': 0.13, 'wr_14': 0.11, 'obv_2': 0.1, 'roc_2': 0.09}",0.7441860465116279,1.0,0.7441860465116279,"(796, 8)",Buy,CLLS
68,0.7290969899665551,32.34,2018-05-21,"{'macdh': 0.15, 'macd': 0.14, 'rsi_14': 0.13, 'volume': 0.13, 'sod_14': 0.13, 'obv_2': 0.11, 'wr_14': 0.11, 'roc_2': 0.1}",0.7290969899665551,-2.0,0.7290969899665551,"(1304, 8)",Sell Strong,CMCSA
69,0.7923728813559322,14.75,2018-05-21,"{'sod_14': 0.16, 'macd': 0.15, 'rsi_14': 0.15, 'macdh': 0.14, 'volume': 0.13, 'wr_14': 0.1, 'obv_2': 0.09, 'roc_2': 0.09}",0.7923728813559322,2.0,0.7923728813559322,"(1052, 8)",Buy Strong,CMCT
70,0.7157190635451505,161.38,2018-05-21,"{'macd': 0.15, 'sod_14': 0.14, 'macdh': 0.13, 'rsi_14': 0.13, 'volume': 0.13, 'obv_2': 0.11, 'wr_14': 0.11, 'roc_2': 0.09}",0.7157190635451505,1.0,0.7157190635451505,"(1304, 8)",Buy,CME
71,0.7692307692307693,49.27,2018-05-21,"{'volume': 0.15, 'macdh': 0.14, 'sod_14': 0.14, 'macd': 0.13, 'rsi_14': 0.13, 'obv_2': 0.12, 'wr_14': 0.1, 'roc_2': 0.09}",0.7692307692307693,-1.0,0.7692307692307693,"(1304, 8)",Sell,CNA
72,0.7290969899665551,43.05,2018-05-21,"{'macd': 0.16, 'macdh': 0.14, 'sod_14': 0.14, 'rsi_14': 0.13, 'volume': 0.12, 'obv_2': 0.11, 'roc_2': 0.1, 'wr_14': 0.1}",0.7290969899665551,1.0,0.7290969899665551,"(1304, 8)",Buy,COLB
73,0.8127090301003345,52.67,2018-05-21,"{'volume': 0.16, 'macd': 0.15, 'rsi_14': 0.15, 'macdh': 0.13, 'sod_14': 0.12, 'obv_2': 0.1, 'wr_14': 0.1, 'roc_2': 0.08}",0.8127090301003345,-2.0,0.8127090301003345,"(1304, 8)",Sell Strong,CONE
74,0.7625418060200669,199.62,2018-05-21,"{'macd': 0.17, 'macdh': 0.14, 'sod_14': 0.14, 'rsi_14': 0.13, 'volume': 0.12, 'wr_14': 0.11, 'obv_2': 0.1, 'roc_2': 0.08}",0.7625418060200669,-2.0,0.7625418060200669,"(1304, 8)",Sell Strong,COST
75,0.8561872909698997,8.61,2018-05-21,"{'volume': 0.2, 'sod_14': 0.15, 'macd': 0.13, 'macdh': 0.12, 'obv_2': 0.12, 'rsi_14': 0.12, 'roc_2': 0.08, 'wr_14': 0.08}",0.8561872909698997,1.0,0.8561872909698997,"(1303, 8)",Buy,CPG
76,0.7094594594594594,27.67,2018-05-21,"{'macd': 0.14, 'macdh': 0.14, 'sod_14': 0.14, 'volume': 0.13, 'rsi_14': 0.12, 'obv_2': 0.11, 'roc_2': 0.11, 'wr_14': 0.11}",0.7094594594594594,-1.0,0.7094594594594594,"(1291, 8)",Sell,CPI
77,0.7625418060200669,37.99,2018-05-21,"{'sod_14': 0.17, 'volume': 0.15, 'macd': 0.13, 'macdh': 0.12, 'rsi_14': 0.12, 'obv_2': 0.11, 'wr_14': 0.1, 'roc_2': 0.09}",0.7625418060200669,1.0,0.7625418060200669,"(1304, 8)",Buy,CRH
78,0.802675585284281,43.75,2018-05-21,"{'volume': 0.15, 'sod_14': 0.15, 'macd': 0.14, 'macdh': 0.13, 'rsi_14': 0.13, 'obv_2': 0.11, 'wr_14': 0.1, 'roc_2': 0.09}",0.802675585284281,-1.0,0.802675585284281,"(1304, 8)",Sell,CSCO
79,0.7123745819397993,64.01,2018-05-21,"{'macd': 0.16, 'macdh': 0.14, 'rsi_14': 0.14, 'sod_14': 0.14, 'volume': 0.13, 'obv_2': 0.11, 'wr_14': 0.11, 'roc_2': 0.09}",0.7123745819397993,-1.0,0.7123745819397993,"(1304, 8)",Sell,CSX
80,0.7391304347826086,183.43,2018-05-21,"{'macd': 0.15, 'volume': 0.14, 'sod_14': 0.14, 'macdh': 0.13, 'rsi_14': 0.13, 'wr_14': 0.12, 'obv_2': 0.1, 'roc_2': 0.1}",0.7391304347826086,1.0,0.7391304347826086,"(1304, 8)",Buy,CTAS
81,0.7859531772575251,42.98,2018-05-21,"{'macd': 0.16, 'macdh': 0.14, 'volume': 0.14, 'sod_14': 0.14, 'obv_2': 0.11, 'rsi_14': 0.11, 'wr_14': 0.11, 'roc_2': 0.09}",0.7859531772575251,1.0,0.7859531772575251,"(1304, 8)",Buy,CTRP
82,0.7658862876254181,75.75,2018-05-21,"{'volume': 0.17, 'macd': 0.14, 'rsi_14': 0.14, 'macdh': 0.13, 'sod_14': 0.12, 'obv_2': 0.11, 'wr_14': 0.11, 'roc_2': 0.08}",0.7658862876254181,-1.0,0.7658862876254181,"(1304, 8)",Sell,CTSH
83,0.7558528428093646,105.56,2018-05-21,"{'macd': 0.14, 'sod_14': 0.14, 'macdh': 0.13, 'rsi_14': 0.13, 'volume': 0.13, 'obv_2': 0.12, 'wr_14': 0.11, 'roc_2': 0.1}",0.7558528428093646,-1.0,0.7558528428093646,"(1304, 8)",Sell,CTXS
84,0.8745644599303136,20.68,2018-05-21,"{'volume': 0.18, 'macd': 0.15, 'rsi_14': 0.15, 'macdh': 0.12, 'obv_2': 0.11, 'sod_14': 0.11, 'wr_14': 0.1, 'roc_2': 0.09}",0.8745644599303136,-1.0,0.8745644599303136,"(1257, 8)",Sell,CTY
85,0.7023411371237458,23.48,2018-05-21,"{'macd': 0.17, 'macdh': 0.16, 'rsi_14': 0.13, 'volume': 0.13, 'sod_14': 0.12, 'obv_2': 0.1, 'roc_2': 0.1, 'wr_14': 0.1}",0.7023411371237458,1.0,0.7023411371237458,"(1304, 8)",Buy,CVBF
86,0.7792642140468228,129.37,2018-05-21,"{'volume': 0.16, 'macd': 0.14, 'macdh': 0.13, 'rsi_14': 0.13, 'sod_14': 0.13, 'obv_2': 0.12, 'wr_14': 0.11, 'roc_2': 0.09}",0.7792642140468228,-2.0,0.7792642140468228,"(1304, 8)",Sell Strong,CVX
87,0.7725752508361204,158.33,2018-05-21,"{'macd': 0.16, 'macdh': 0.14, 'sod_14': 0.14, 'rsi_14': 0.13, 'volume': 0.13, 'obv_2': 0.1, 'wr_14': 0.1, 'roc_2': 0.09}",0.7725752508361204,2.0,0.7725752508361204,"(1304, 8)",Buy Strong,DE
88,0.782608695652174,104.06,2018-05-21,"{'macd': 0.17, 'macdh': 0.15, 'rsi_14': 0.15, 'sod_14': 0.14, 'wr_14': 0.11, 'obv_2': 0.1, 'volume': 0.1, 'roc_2': 0.09}",0.782608695652174,2.0,0.782608695652174,"(1304, 8)",Buy Strong,DIS
89,0.7959866220735786,31.84,2018-05-21,"{'macd': 0.17, 'volume': 0.15, 'macdh': 0.13, 'rsi_14': 0.13, 'sod_14': 0.13, 'obv_2': 0.1, 'wr_14': 0.1, 'roc_2': 0.08}",0.7959866220735786,-2.0,0.7959866220735786,"(1304, 8)",Sell Strong,DISH
90,0.7290969899665551,90.71,2018-05-21,"{'rsi_14': 0.15, 'macd': 0.14, 'sod_14': 0.14, 'macdh': 0.13, 'volume': 0.13, 'obv_2': 0.11, 'wr_14': 0.11, 'roc_2': 0.1}",0.7290969899665551,1.0,0.7290969899665551,"(1304, 8)",Buy,DLN
91,0.8294314381270903,93.82,2018-05-21,"{'sod_14': 0.15, 'macd': 0.14, 'macdh': 0.14, 'rsi_14': 0.14, 'volume': 0.13, 'obv_2': 0.11, 'wr_14': 0.11, 'roc_2': 0.09}",0.8294314381270903,-2.0,0.8294314381270903,"(1304, 8)",Sell Strong,DLTR
92,0.7692307692307693,132.91,2018-05-21,"{'macd': 0.17, 'macdh': 0.14, 'sod_14': 0.14, 'rsi_14': 0.13, 'volume': 0.12, 'wr_14': 0.11, 'obv_2': 0.1, 'roc_2': 0.09}",0.7692307692307693,-2.0,0.7692307692307693,"(1304, 8)",Sell Strong,EA
93,0.7525083612040134,38.29,2018-05-21,"{'macd': 0.15, 'volume': 0.14, 'sod_14': 0.14, 'macdh': 0.13, 'rsi_14': 0.12, 'obv_2': 0.11, 'wr_14': 0.11, 'roc_2': 0.1}",0.7525083612040134,2.0,0.7525083612040134,"(1304, 8)",Buy Strong,EBAY
94,0.864406779661017,33.38,2018-05-21,"{'volume': 0.22, 'macd': 0.18, 'macdh': 0.13, 'rsi_14': 0.13, 'obv_2': 0.1, 'sod_14': 0.1, 'wr_14': 0.08, 'roc_2': 0.06}",0.864406779661017,2.0,0.864406779661017,"(579, 8)",Buy Strong,EDIT
95,0.7290969899665551,386.47,2018-05-21,"{'volume': 0.17, 'macd': 0.15, 'sod_14': 0.13, 'macdh': 0.12, 'obv_2': 0.12, 'rsi_14': 0.12, 'wr_14': 0.11, 'roc_2': 0.09}",0.7290969899665551,-2.0,0.7290969899665551,"(1304, 8)",Sell Strong,EQIX
96,0.7725752508361204,113.46,2018-05-21,"{'macd': 0.16, 'macdh': 0.15, 'volume': 0.14, 'sod_14': 0.14, 'rsi_14': 0.12, 'obv_2': 0.1, 'wr_14': 0.1, 'roc_2': 0.09}",0.7725752508361204,1.0,0.7725752508361204,"(1304, 8)",Buy,ERIE
97,0.7804878048780488,22.19,2018-05-21,"{'macdh': 0.17, 'macd': 0.15, 'volume': 0.15, 'sod_14': 0.14, 'obv_2': 0.12, 'rsi_14': 0.11, 'wr_14': 0.09, 'roc_2': 0.07}",0.7804878048780488,1.0,0.7804878048780488,"(274, 8)",Buy,ERM
98,0.745819397993311,214.95,2018-05-21,"{'macd': 0.17, 'macdh': 0.14, 'sod_14': 0.13, 'rsi_14': 0.12, 'volume': 0.12, 'wr_14': 0.11, 'obv_2': 0.1, 'roc_2': 0.1}",0.745819397993311,-1.0,0.745819397993311,"(1304, 8)",Sell,ESGR
99,0.8262548262548263,35.59,2018-05-21,"{'macd': 0.15, 'macdh': 0.14, 'rsi_14': 0.14, 'volume': 0.13, 'sod_14': 0.13, 'wr_14': 0.12, 'obv_2': 0.11, 'roc_2': 0.09}",0.8262548262548263,2.0,0.8262548262548263,"(1146, 8)",Buy Strong,ESNT
100,0.7357859531772575,76.52,2018-05-21,"{'macd': 0.17, 'macdh': 0.13, 'rsi_14': 0.13, 'volume': 0.13, 'sod_14': 0.13, 'obv_2': 0.11, 'wr_14': 0.1, 'roc_2': 0.09}",0.7357859531772575,-1.0,0.7357859531772575,"(1304, 8)",Sell,ESRX
101,0.7357859531772575,65.3,2018-05-21,"{'macd': 0.15, 'rsi_14': 0.15, 'volume': 0.14, 'macdh': 0.13, 'sod_14': 0.12, 'obv_2': 0.11, 'wr_14': 0.11, 'roc_2': 0.09}",0.7357859531772575,1.0,0.7357859531772575,"(1304, 8)",Buy,ETFC
102,0.7290969899665551,26.02,2018-05-21,"{'macd': 0.15, 'rsi_14': 0.14, 'volume': 0.14, 'macdh': 0.13, 'sod_14': 0.12, 'obv_2': 0.11, 'wr_14': 0.11, 'roc_2': 0.1}",0.7290969899665551,-2.0,0.7290969899665551,"(1304, 8)",Sell Strong,ETO
103,0.7424749163879598,110.3,2018-05-21,"{'sod_14': 0.15, 'macd': 0.14, 'macdh': 0.14, 'rsi_14': 0.14, 'volume': 0.13, 'wr_14': 0.11, 'obv_2': 0.1, 'roc_2': 0.1}",0.7424749163879598,-1.0,0.7424749163879598,"(1304, 8)",Sell,EVR
104,0.7959866220735786,71.35,2018-05-21,"{'macd': 0.17, 'macdh': 0.14, 'rsi_14': 0.14, 'volume': 0.13, 'sod_14': 0.12, 'obv_2': 0.11, 'wr_14': 0.11, 'roc_2': 0.09}",0.7959866220735786,-1.0,0.7959866220735786,"(1304, 8)",Sell,EWBC
105,0.7190635451505016,116.36,2018-05-21,"{'sod_14': 0.15, 'macd': 0.14, 'macdh': 0.14, 'obv_2': 0.12, 'volume': 0.12, 'wr_14': 0.12, 'rsi_14': 0.11, 'roc_2': 0.09}",0.7190635451505016,2.0,0.7190635451505016,"(1304, 8)",Buy Strong,EXPE
106,0.7958477508650519,131.37,2018-05-21,"{'volume': 0.18, 'sod_14': 0.15, 'macd': 0.13, 'obv_2': 0.13, 'rsi_14': 0.12, 'macdh': 0.11, 'wr_14': 0.1, 'roc_2': 0.09}",0.7958477508650519,2.0,0.7958477508650519,"(1265, 8)",Buy Strong,EZJ
107,0.745819397993311,53.77,2018-05-21,"{'macd': 0.15, 'volume': 0.15, 'rsi_14': 0.14, 'macdh': 0.13, 'sod_14': 0.12, 'obv_2': 0.11, 'roc_2': 0.1, 'wr_14': 0.1}",0.745819397993311,2.0,0.745819397993311,"(1304, 8)",Buy Strong,FAST
108,0.7627118644067796,184.49,2018-05-21,"{'rsi_14': 0.16, 'macd': 0.15, 'sod_14': 0.14, 'volume': 0.13, 'macdh': 0.12, 'obv_2': 0.1, 'roc_2': 0.1, 'wr_14': 0.1}",0.7627118644067796,-1.0,0.7627118644067796,"(1288, 8)",Sell,FB
109,0.6889632107023411,457.29,2018-05-21,"{'sod_14': 0.15, 'macd': 0.14, 'macdh': 0.13, 'rsi_14': 0.13, 'volume': 0.13, 'obv_2': 0.12, 'roc_2': 0.1, 'wr_14': 0.1}",0.6889632107023411,-2.0,0.6889632107023411,"(1304, 8)",Sell Strong,FCNCA
110,0.9029850746268657,22.3,2018-05-21,"{'volume': 0.21, 'sod_14': 0.14, 'macdh': 0.12, 'obv_2': 0.12, 'macd': 0.11, 'rsi_14': 0.11, 'roc_2': 0.1, 'wr_14': 0.1}",0.9029850746268657,-2.0,0.9029850746268657,"(644, 8)",Sell Strong,FCPT
111,0.7625418060200669,50.3856,2018-05-21,"{'macd': 0.16, 'volume': 0.15, 'rsi_14': 0.13, 'sod_14': 0.13, 'macdh': 0.12, 'obv_2': 0.11, 'wr_14': 0.11, 'roc_2': 0.09}",0.7625418060200669,1.0,0.7625418060200669,"(1304, 8)",Buy,FDM
112,0.6889632107023411,32.15,2018-05-21,"{'macd': 0.15, 'sod_14': 0.14, 'macdh': 0.13, 'rsi_14': 0.13, 'volume': 0.13, 'wr_14': 0.12, 'obv_2': 0.11, 'roc_2': 0.1}",0.6889632107023411,-2.0,0.6889632107023411,"(1304, 8)",Sell Strong,FFBC
113,0.7892976588628763,53.5,2018-05-21,"{'sod_14': 0.15, 'macd': 0.14, 'rsi_14': 0.14, 'macdh': 0.13, 'volume': 0.13, 'wr_14': 0.11, 'obv_2': 0.1, 'roc_2': 0.09}",0.7892976588628763,1.0,0.7892976588628763,"(1304, 8)",Buy,FFIN
114,0.8662207357859532,3.69,2018-05-21,"{'macd': 0.16, 'sod_14': 0.15, 'macdh': 0.13, 'volume': 0.13, 'rsi_14': 0.12, 'obv_2': 0.11, 'roc_2': 0.1, 'wr_14': 0.1}",0.8662207357859532,2.0,0.8662207357859532,"(1304, 8)",Buy Strong,FGP
115,0.8488372093023255,28.65,2018-05-21,"{'macd': 0.17, 'rsi_14': 0.15, 'volume': 0.15, 'macdh': 0.13, 'obv_2': 0.11, 'sod_14': 0.11, 'wr_14': 0.1, 'roc_2': 0.08}",0.8488372093023255,2.0,0.8488372093023255,"(452, 8)",Buy Strong,FHB
116,0.7157190635451505,73.25,2018-05-21,"{'macd': 0.18, 'sod_14': 0.14, 'macdh': 0.13, 'rsi_14': 0.12, 'volume': 0.12, 'wr_14': 0.12, 'obv_2': 0.11, 'roc_2': 0.1}",0.7157190635451505,2.0,0.7157190635451505,"(1304, 8)",Buy Strong,FISV
117,0.782608695652174,30.9,2018-05-21,"{'macd': 0.17, 'macdh': 0.14, 'sod_14': 0.14, 'volume': 0.13, 'rsi_14': 0.12, 'obv_2': 0.11, 'wr_14': 0.11, 'roc_2': 0.09}",0.782608695652174,-2.0,0.782608695652174,"(1304, 8)",Sell Strong,FITB
118,0.6989966555183946,26.15,2018-05-21,"{'macd': 0.15, 'volume': 0.14, 'macdh': 0.13, 'rsi_14': 0.13, 'sod_14': 0.13, 'wr_14': 0.12, 'obv_2': 0.11, 'roc_2': 0.09}",0.6989966555183946,-1.0,0.6989966555183946,"(1304, 8)",Sell,FMBI
119,0.7759197324414716,44.65,2018-05-21,"{'macd': 0.15, 'sod_14': 0.15, 'macdh': 0.14, 'rsi_14': 0.14, 'volume': 0.13, 'wr_14': 0.11, 'obv_2': 0.1, 'roc_2': 0.08}",0.7759197324414716,-1.0,0.7759197324414716,"(1304, 8)",Sell,FNGN
120,0.7703180212014135,37.45,2018-05-21,"{'sod_14': 0.17, 'macd': 0.14, 'macdh': 0.14, 'rsi_14': 0.12, 'volume': 0.12, 'wr_14': 0.11, 'obv_2': 0.1, 'roc_2': 0.1}",0.7703180212014135,-1.0,0.7703180212014135,"(1240, 8)",Sell,FOX
121,0.8021201413427562,37.93,2018-05-21,"{'macd': 0.15, 'macdh': 0.15, 'sod_14': 0.14, 'volume': 0.13, 'rsi_14': 0.12, 'obv_2': 0.11, 'wr_14': 0.11, 'roc_2': 0.09}",0.8021201413427562,-2.0,0.8021201413427562,"(1240, 8)",Sell Strong,FOXA
122,0.74375,70.97,2018-05-21,"{'rsi_14': 0.17, 'macd': 0.14, 'volume': 0.14, 'macdh': 0.12, 'sod_14': 0.12, 'wr_14': 0.11, 'obv_2': 0.1, 'roc_2': 0.09}",0.74375,-2.0,0.74375,"(749, 8)",Sell Strong,FSV
123,0.68561872909699,17.75,2018-05-21,"{'macd': 0.14, 'macdh': 0.14, 'volume': 0.13, 'sod_14': 0.13, 'rsi_14': 0.12, 'wr_14': 0.12, 'obv_2': 0.11, 'roc_2': 0.11}",0.68561872909699,-1.0,0.68561872909699,"(1304, 8)",Sell,FULT
124,0.7357859531772575,40.02,2018-05-21,"{'macd': 0.15, 'macdh': 0.15, 'sod_14': 0.15, 'rsi_14': 0.13, 'volume': 0.12, 'obv_2': 0.11, 'wr_14': 0.1, 'roc_2': 0.08}",0.7357859531772575,1.0,0.7357859531772575,"(1304, 8)",Buy,GBCI
125,0.8319327731092437,31.1,2018-05-21,"{'sod_14': 0.17, 'rsi_14': 0.15, 'macd': 0.13, 'volume': 0.13, 'macdh': 0.12, 'obv_2': 0.12, 'wr_14': 0.1, 'roc_2': 0.09}",0.8319327731092437,2.0,0.8319327731092437,"(585, 8)",Buy Strong,GCP
126,0.7759197324414716,15.26,2018-05-21,"{'macd': 0.17, 'volume': 0.14, 'macdh': 0.13, 'rsi_14': 0.13, 'sod_14': 0.12, 'obv_2': 0.11, 'wr_14': 0.1, 'roc_2': 0.09}",0.7759197324414716,-1.0,0.7759197324414716,"(1304, 8)",Sell,GE
127,0.7926421404682275,67.63,2018-05-21,"{'volume': 0.16, 'macd': 0.15, 'macdh': 0.14, 'rsi_14': 0.13, 'sod_14': 0.13, 'obv_2': 0.1, 'wr_14': 0.1, 'roc_2': 0.09}",0.7926421404682275,-2.0,0.7926421404682275,"(1304, 8)",Sell Strong,GILD
128,0.7759197324414716,10.97,2018-05-21,"{'rsi_14': 0.16, 'macd': 0.15, 'macdh': 0.14, 'volume': 0.13, 'sod_14': 0.13, 'obv_2': 0.1, 'wr_14': 0.1, 'roc_2': 0.09}",0.7759197324414716,2.0,0.7759197324414716,"(1304, 8)",Buy Strong,GLO
129,0.8921161825726142,34.61,2018-05-21,"{'macd': 0.2, 'volume': 0.15, 'macdh': 0.13, 'rsi_14': 0.13, 'sod_14': 0.12, 'obv_2': 0.1, 'wr_14': 0.09, 'roc_2': 0.08}",0.8921161825726142,-1.0,0.8921161825726142,"(1073, 8)",Sell,GLPI
130,0.8093645484949833,3.48,2018-05-21,"{'rsi_14': 0.15, 'volume': 0.15, 'sod_14': 0.15, 'macd': 0.14, 'macdh': 0.12, 'obv_2': 0.1, 'wr_14': 0.1, 'roc_2': 0.08}",0.8093645484949833,-2.0,0.8093645484949833,"(1304, 8)",Sell Strong,GNC
131,0.8578680203045685,17.78,2018-05-21,"{'volume': 0.22, 'macd': 0.19, 'macdh': 0.13, 'rsi_14': 0.11, 'sod_14': 0.11, 'obv_2': 0.09, 'roc_2': 0.08, 'wr_14': 0.08}",0.8578680203045685,1.0,0.8578680203045685,"(897, 8)",Buy,GNK
132,0.7264957264957265,1079.58,2018-05-21,"{'macd': 0.16, 'macdh': 0.14, 'rsi_14': 0.14, 'sod_14': 0.13, 'volume': 0.12, 'obv_2': 0.11, 'wr_14': 0.11, 'roc_2': 0.09}",0.7264957264957265,2.0,0.7264957264957265,"(1046, 8)",Buy Strong,GOOG
133,0.822742474916388,1084.01,2018-05-21,"{'macd': 0.16, 'macdh': 0.15, 'sod_14': 0.14, 'rsi_14': 0.13, 'volume': 0.13, 'wr_14': 0.11, 'obv_2': 0.1, 'roc_2': 0.09}",0.822742474916388,2.0,0.822742474916388,"(1304, 8)",Buy Strong,GOOGL
134,0.7224080267558528,11.09,2018-05-21,"{'volume': 0.15, 'macd': 0.13, 'macdh': 0.13, 'obv_2': 0.13, 'sod_14': 0.13, 'rsi_14': 0.12, 'wr_14': 0.11, 'roc_2': 0.1}",0.7224080267558528,1.0,0.7224080267558528,"(1304, 8)",Buy,GPOR
135,0.7892976588628763,42.96,2018-05-21,"{'macd': 0.15, 'macdh': 0.13, 'rsi_14': 0.13, 'volume': 0.13, 'sod_14': 0.13, 'obv_2': 0.11, 'roc_2': 0.11, 'wr_14': 0.11}",0.7892976588628763,1.0,0.7892976588628763,"(1304, 8)",Buy,GRI
136,0.7491638795986622,237.7,2018-05-21,"{'macd': 0.14, 'macdh': 0.14, 'rsi_14': 0.14, 'volume': 0.13, 'sod_14': 0.13, 'obv_2': 0.11, 'wr_14': 0.11, 'roc_2': 0.09}",0.7491638795986622,2.0,0.7491638795986622,"(1304, 8)",Buy Strong,GS
137,0.745819397993311,40.05,2018-05-21,"{'macd': 0.16, 'rsi_14': 0.14, 'volume': 0.14, 'sod_14': 0.14, 'macdh': 0.12, 'obv_2': 0.11, 'wr_14': 0.11, 'roc_2': 0.09}",0.745819397993311,-2.0,0.745819397993311,"(1304, 8)",Sell Strong,GSK
138,0.8361204013377926,0.715,2018-05-21,"{'volume': 0.17, 'sod_14': 0.14, 'macd': 0.13, 'macdh': 0.13, 'rsi_14': 0.13, 'obv_2': 0.11, 'wr_14': 0.1, 'roc_2': 0.09}",0.8361204013377926,1.0,0.8361204013377926,"(1304, 8)",Buy,GSS
139,0.7525083612040134,87.37,2018-05-21,"{'macd': 0.15, 'macdh': 0.14, 'sod_14': 0.14, 'rsi_14': 0.13, 'volume': 0.12, 'obv_2': 0.11, 'wr_14': 0.11, 'roc_2': 0.09}",0.7525083612040134,-2.0,0.7525083612040134,"(1304, 8)",Sell Strong,HAS
140,0.6588628762541806,15.22,2018-05-21,"{'sod_14': 0.15, 'macdh': 0.14, 'macd': 0.13, 'rsi_14': 0.13, 'volume': 0.13, 'wr_14': 0.12, 'obv_2': 0.1, 'roc_2': 0.1}",0.6588628762541806,2.0,0.6588628762541806,"(1304, 8)",Buy Strong,HBAN
141,0.7792642140468228,52.65,2018-05-21,"{'macd': 0.16, 'macdh': 0.14, 'volume': 0.14, 'sod_14': 0.14, 'rsi_14': 0.13, 'obv_2': 0.11, 'wr_14': 0.1, 'roc_2': 0.09}",0.7792642140468228,-1.0,0.7792642140468228,"(1304, 8)",Sell,HBHC
142,0.7190635451505016,189.79,2018-05-21,"{'macd': 0.14, 'rsi_14': 0.14, 'volume': 0.14, 'macdh': 0.13, 'sod_14': 0.13, 'obv_2': 0.12, 'roc_2': 0.1, 'wr_14': 0.1}",0.7190635451505016,1.0,0.7190635451505016,"(1304, 8)",Buy,HD
143,0.7558528428093646,3.98,2018-05-21,"{'volume': 0.16, 'macd': 0.15, 'sod_14': 0.14, 'macdh': 0.13, 'obv_2': 0.12, 'rsi_14': 0.11, 'wr_14': 0.1, 'roc_2': 0.09}",0.7558528428093646,-2.0,0.7558528428093646,"(1304, 8)",Sell Strong,HL
144,0.7725752508361204,39.07,2018-05-21,"{'volume': 0.15, 'macd': 0.14, 'macdh': 0.14, 'sod_14': 0.14, 'rsi_14': 0.13, 'wr_14': 0.11, 'obv_2': 0.1, 'roc_2': 0.09}",0.7725752508361204,1.0,0.7725752508361204,"(1304, 8)",Buy,HOLX
145,0.7491638795986622,23.6,2018-05-21,"{'macd': 0.15, 'volume': 0.15, 'sod_14': 0.14, 'rsi_14': 0.13, 'macdh': 0.12, 'obv_2': 0.11, 'wr_14': 0.1, 'roc_2': 0.09}",0.7491638795986622,1.0,0.7491638795986622,"(1304, 8)",Buy,HOMB
146,0.8308823529411765,22.09,2018-05-21,"{'volume': 0.15, 'macd': 0.14, 'rsi_14': 0.14, 'obv_2': 0.13, 'macdh': 0.12, 'sod_14': 0.12, 'roc_2': 0.11, 'wr_14': 0.1}",0.8308823529411765,-1.0,0.8308823529411765,"(652, 8)",Sell,HPQ
147,0.7230046948356808,74.35,2018-05-21,"{'volume': 0.15, 'sod_14': 0.15, 'macd': 0.14, 'rsi_14': 0.14, 'macdh': 0.12, 'wr_14': 0.12, 'obv_2': 0.1, 'roc_2': 0.08}",0.7230046948356808,-1.0,0.7230046948356808,"(959, 8)",Sell,HQY
148,0.8127090301003345,59.92,2018-05-21,"{'macd': 0.14, 'macdh': 0.14, 'rsi_14': 0.14, 'sod_14': 0.14, 'volume': 0.13, 'wr_14': 0.12, 'obv_2': 0.1, 'roc_2': 0.09}",0.8127090301003345,2.0,0.8127090301003345,"(1304, 8)",Buy Strong,HRI
149,0.7926421404682275,71.46,2018-05-21,"{'macd': 0.17, 'macdh': 0.14, 'sod_14': 0.14, 'rsi_14': 0.13, 'volume': 0.13, 'obv_2': 0.11, 'wr_14': 0.1, 'roc_2': 0.09}",0.7926421404682275,-2.0,0.7926421404682275,"(1304, 8)",Sell Strong,HSIC
150,0.782608695652174,6.02,2018-05-21,"{'macd': 0.14, 'volume': 0.14, 'macdh': 0.13, 'sod_14': 0.13, 'obv_2': 0.12, 'rsi_14': 0.12, 'roc_2': 0.11, 'wr_14': 0.1}",0.782608695652174,2.0,0.782608695652174,"(1304, 8)",Buy Strong,IAG
151,0.7759197324414716,80.95,2018-05-21,"{'volume': 0.15, 'macd': 0.14, 'macdh': 0.14, 'sod_14': 0.14, 'rsi_14': 0.12, 'obv_2': 0.11, 'wr_14': 0.1, 'roc_2': 0.09}",0.7759197324414716,-1.0,0.7759197324414716,"(1304, 8)",Sell,IBKC
152,0.7926421404682275,79.01,2018-05-21,"{'macdh': 0.16, 'rsi_14': 0.16, 'macd': 0.15, 'sod_14': 0.13, 'volume': 0.12, 'wr_14': 0.1, 'obv_2': 0.09, 'roc_2': 0.09}",0.7926421404682275,-2.0,0.7926421404682275,"(1304, 8)",Sell Strong,IBKR
153,0.745819397993311,145.49,2018-05-21,"{'macdh': 0.15, 'macd': 0.14, 'rsi_14': 0.14, 'volume': 0.13, 'sod_14': 0.13, 'wr_14': 0.11, 'obv_2': 0.1, 'roc_2': 0.1}",0.745819397993311,-1.0,0.745819397993311,"(1304, 8)",Sell,IBM
154,0.7190635451505016,43.65,2018-05-21,"{'macd': 0.16, 'rsi_14': 0.14, 'macdh': 0.13, 'volume': 0.13, 'sod_14': 0.13, 'obv_2': 0.11, 'roc_2': 0.1, 'wr_14': 0.1}",0.7190635451505016,-1.0,0.7190635451505016,"(1304, 8)",Sell,IBOC
155,0.842809364548495,201.19,2018-05-21,"{'macd': 0.17, 'macdh': 0.14, 'rsi_14': 0.14, 'sod_14': 0.14, 'volume': 0.13, 'wr_14': 0.1, 'obv_2': 0.09, 'roc_2': 0.09}",0.842809364548495,-2.0,0.842809364548495,"(1304, 8)",Sell Strong,IDXX
156,0.7926421404682275,65.74,2018-05-21,"{'macd': 0.16, 'sod_14': 0.15, 'rsi_14': 0.13, 'volume': 0.13, 'macdh': 0.12, 'wr_14': 0.12, 'obv_2': 0.1, 'roc_2': 0.1}",0.7926421404682275,2.0,0.7926421404682275,"(1304, 8)",Buy Strong,IHG
157,0.7859531772575251,4.17,2018-05-21,"{'volume': 0.16, 'sod_14': 0.16, 'macd': 0.14, 'rsi_14': 0.13, 'macdh': 0.12, 'obv_2': 0.11, 'wr_14': 0.1, 'roc_2': 0.08}",0.7859531772575251,1.0,0.7859531772575251,"(1304, 8)",Buy,III
158,0.802675585284281,268.29,2018-05-21,"{'macd': 0.17, 'macdh': 0.14, 'rsi_14': 0.14, 'sod_14': 0.14, 'volume': 0.13, 'obv_2': 0.11, 'wr_14': 0.1, 'roc_2': 0.09}",0.802675585284281,-1.0,0.802675585284281,"(1304, 8)",Sell,ILMN
159,0.8361204013377926,1.39,2018-05-21,"{'macd': 0.19, 'macdh': 0.17, 'volume': 0.13, 'sod_14': 0.13, 'rsi_14': 0.12, 'obv_2': 0.09, 'wr_14': 0.09, 'roc_2': 0.07}",0.8361204013377926,-2.0,0.8361204013377926,"(1304, 8)",Sell Strong,IMI
160,0.7759197324414716,66.79,2018-05-21,"{'volume': 0.16, 'macd': 0.15, 'sod_14': 0.14, 'macdh': 0.13, 'rsi_14': 0.13, 'obv_2': 0.11, 'wr_14': 0.1, 'roc_2': 0.08}",0.7759197324414716,-1.0,0.7759197324414716,"(1304, 8)",Sell,INCY
161,0.6321070234113713,76.3,2018-05-21,"{'macd': 0.16, 'sod_14': 0.14, 'macdh': 0.13, 'rsi_14': 0.13, 'volume': 0.12, 'obv_2': 0.11, 'roc_2': 0.1, 'wr_14': 0.1}",0.6321070234113713,1.0,0.6321070234113713,"(1304, 8)",Buy,INDB
162,0.8595317725752508,12.36,2018-05-21,"{'rsi_14': 0.16, 'macd': 0.15, 'sod_14': 0.15, 'volume': 0.14, 'macdh': 0.12, 'obv_2': 0.1, 'wr_14': 0.1, 'roc_2': 0.08}",0.8595317725752508,-1.0,0.8595317725752508,"(1304, 8)",Sell,INF
163,0.85,51.6,2018-05-21,"{'sod_14': 0.15, 'macd': 0.14, 'rsi_14': 0.14, 'volume': 0.14, 'macdh': 0.12, 'obv_2': 0.11, 'wr_14': 0.1, 'roc_2': 0.09}",0.85,1.0,0.85,"(988, 8)",Buy,INFO
164,0.7859531772575251,54.32,2018-05-21,"{'macd': 0.16, 'macdh': 0.15, 'sod_14': 0.14, 'rsi_14': 0.13, 'volume': 0.12, 'wr_14': 0.11, 'obv_2': 0.1, 'roc_2': 0.09}",0.7859531772575251,-2.0,0.7859531772575251,"(1304, 8)",Sell Strong,INTC
165,0.6822742474916388,191.69,2018-05-21,"{'macd': 0.15, 'macdh': 0.15, 'sod_14': 0.14, 'rsi_14': 0.12, 'volume': 0.12, 'wr_14': 0.11, 'obv_2': 0.1, 'roc_2': 0.1}",0.6822742474916388,-1.0,0.6822742474916388,"(1304, 8)",Sell,INTU
166,0.7442748091603053,28.88,2018-05-21,"{'volume': 0.2, 'obv_2': 0.14, 'macd': 0.12, 'sod_14': 0.12, 'macdh': 0.11, 'rsi_14': 0.11, 'roc_2': 0.1, 'wr_14': 0.1}",0.7442748091603053,-2.0,0.7442748091603053,"(1157, 8)",Sell Strong,IPO
167,0.7625418060200669,13.62,2018-05-21,"{'volume': 0.2, 'macd': 0.14, 'macdh': 0.13, 'sod_14': 0.13, 'obv_2': 0.11, 'rsi_14': 0.11, 'roc_2': 0.09, 'wr_14': 0.09}",0.7625418060200669,-2.0,0.7625418060200669,"(1304, 8)",Sell Strong,ISBC
168,0.8127090301003345,463.38,2018-05-21,"{'macd': 0.18, 'rsi_14': 0.14, 'sod_14': 0.14, 'volume': 0.13, 'macdh': 0.12, 'wr_14': 0.12, 'obv_2': 0.1, 'roc_2': 0.08}",0.8127090301003345,1.0,0.8127090301003345,"(1304, 8)",Buy,ISRG
169,0.7224080267558528,128.1,2018-05-21,"{'macd': 0.15, 'volume': 0.14, 'sod_14': 0.14, 'rsi_14': 0.13, 'macdh': 0.12, 'obv_2': 0.11, 'wr_14': 0.11, 'roc_2': 0.09}",0.7224080267558528,1.0,0.7224080267558528,"(1304, 8)",Buy,JBHT
170,0.7911111111111111,36.28,2018-05-21,"{'volume': 0.17, 'macd': 0.15, 'macdh': 0.13, 'rsi_14': 0.13, 'obv_2': 0.12, 'sod_14': 0.12, 'wr_14': 0.1, 'roc_2': 0.08}",0.7911111111111111,2.0,0.7911111111111111,"(1007, 8)",Buy Strong,JD
171,0.7558528428093646,3.64,2018-05-21,"{'volume': 0.15, 'macd': 0.14, 'sod_14': 0.14, 'macdh': 0.13, 'rsi_14': 0.13, 'obv_2': 0.11, 'wr_14': 0.11, 'roc_2': 0.09}",0.7558528428093646,1.0,0.7558528428093646,"(1304, 8)",Buy,JE
172,0.7792642140468228,123.72,2018-05-21,"{'macd': 0.14, 'rsi_14': 0.14, 'sod_14': 0.14, 'macdh': 0.13, 'volume': 0.13, 'obv_2': 0.11, 'wr_14': 0.11, 'roc_2': 0.1}",0.7792642140468228,-1.0,0.7792642140468228,"(1304, 8)",Sell,JNJ
173,0.6588628762541806,112.15,2018-05-21,"{'macd': 0.15, 'sod_14': 0.15, 'macdh': 0.13, 'rsi_14': 0.13, 'volume': 0.13, 'obv_2': 0.11, 'wr_14': 0.1, 'roc_2': 0.09}",0.6588628762541806,2.0,0.6588628762541806,"(1304, 8)",Buy Strong,JPM
174,0.7662337662337663,56.45,2018-05-21,"{'rsi_14': 0.16, 'macd': 0.15, 'volume': 0.15, 'sod_14': 0.14, 'macdh': 0.12, 'wr_14': 0.11, 'obv_2': 0.09, 'roc_2': 0.08}",0.7662337662337663,2.0,0.7662337662337663,"(726, 8)",Buy Strong,KHC
175,0.6521739130434783,30.98,2018-05-21,"{'macd': 0.14, 'macdh': 0.14, 'sod_14': 0.14, 'volume': 0.13, 'obv_2': 0.12, 'rsi_14': 0.12, 'roc_2': 0.11, 'wr_14': 0.11}",0.6521739130434783,1.0,0.6521739130434783,"(1304, 8)",Buy,KIE
176,0.7658862876254181,111.44,2018-05-21,"{'macd': 0.15, 'macdh': 0.15, 'rsi_14': 0.14, 'sod_14': 0.14, 'volume': 0.13, 'obv_2': 0.11, 'wr_14': 0.11, 'roc_2': 0.09}",0.7658862876254181,1.0,0.7658862876254181,"(1304, 8)",Buy,KLAC
177,0.7558528428093646,42.41,2018-05-21,"{'sod_14': 0.16, 'macd': 0.14, 'macdh': 0.13, 'rsi_14': 0.13, 'volume': 0.13, 'wr_14': 0.11, 'obv_2': 0.1, 'roc_2': 0.1}",0.7558528428093646,1.0,0.7558528428093646,"(1304, 8)",Buy,KO
178,0.7759197324414716,68.84,2018-05-21,"{'macd': 0.16, 'volume': 0.14, 'macdh': 0.13, 'rsi_14': 0.13, 'sod_14': 0.13, 'obv_2': 0.11, 'wr_14': 0.1, 'roc_2': 0.09}",0.7759197324414716,1.0,0.7759197324414716,"(1304, 8)",Buy,LAMR
179,0.802675585284281,12.78,2018-05-21,"{'volume': 0.16, 'macd': 0.14, 'sod_14': 0.14, 'macdh': 0.13, 'rsi_14': 0.13, 'obv_2': 0.11, 'wr_14': 0.1, 'roc_2': 0.09}",0.802675585284281,-1.0,0.802675585284281,"(1304, 8)",Sell,LAND
180,0.7908163265306123,70.63,2018-05-21,"{'macd': 0.16, 'volume': 0.16, 'macdh': 0.14, 'rsi_14': 0.13, 'sod_14': 0.12, 'wr_14': 0.11, 'obv_2': 0.09, 'roc_2': 0.08}",0.7908163265306123,-2.0,0.7908163265306123,"(892, 8)",Sell Strong,LBRDK
181,0.6956521739130435,29.05,2018-05-21,"{'macd': 0.14, 'macdh': 0.14, 'volume': 0.13, 'sod_14': 0.13, 'obv_2': 0.12, 'roc_2': 0.12, 'rsi_14': 0.12, 'wr_14': 0.11}",0.6956521739130435,-1.0,0.6956521739130435,"(1304, 8)",Sell,LBTYA
182,0.745819397993311,28.25,2018-05-21,"{'volume': 0.18, 'macd': 0.14, 'macdh': 0.12, 'obv_2': 0.12, 'rsi_14': 0.12, 'sod_14': 0.12, 'roc_2': 0.1, 'wr_14': 0.1}",0.745819397993311,-1.0,0.745819397993311,"(1304, 8)",Sell,LBTYK
183,0.7692307692307693,324.28,2018-05-21,"{'macd': 0.16, 'volume': 0.16, 'rsi_14': 0.13, 'macdh': 0.12, 'obv_2': 0.12, 'sod_14': 0.12, 'wr_14': 0.1, 'roc_2': 0.09}",0.7692307692307693,1.0,0.7692307692307693,"(1304, 8)",Buy,LMT
184,0.8127090301003345,71.91,2018-05-21,"{'sod_14': 0.15, 'macd': 0.14, 'rsi_14': 0.14, 'macdh': 0.13, 'volume': 0.13, 'obv_2': 0.11, 'wr_14': 0.11, 'roc_2': 0.09}",0.8127090301003345,-1.0,0.8127090301003345,"(1304, 8)",Sell,LPLA
185,0.7591973244147158,199.87,2018-05-21,"{'macd': 0.16, 'rsi_14': 0.14, 'macdh': 0.13, 'volume': 0.13, 'sod_14': 0.13, 'obv_2': 0.12, 'wr_14': 0.1, 'roc_2': 0.09}",0.7591973244147158,-2.0,0.7591973244147158,"(1304, 8)",Sell Strong,LRCX
186,0.7959866220735786,43.76,2018-05-21,"{'macd': 0.15, 'sod_14': 0.15, 'macdh': 0.14, 'rsi_14': 0.14, 'volume': 0.13, 'obv_2': 0.1, 'wr_14': 0.1, 'roc_2': 0.09}",0.7959866220735786,-2.0,0.7959866220735786,"(1304, 8)",Sell Strong,LTXB
187,0.7324414715719063,191.2,2018-05-21,"{'macd': 0.15, 'volume': 0.15, 'rsi_14': 0.14, 'macdh': 0.13, 'obv_2': 0.12, 'sod_14': 0.12, 'wr_14': 0.11, 'roc_2': 0.08}",0.7324414715719063,-1.0,0.7324414715719063,"(1304, 8)",Sell,MA
188,0.8253424657534246,12.64,2018-05-21,"{'sod_14': 0.16, 'macd': 0.15, 'macdh': 0.14, 'volume': 0.14, 'rsi_14': 0.12, 'obv_2': 0.11, 'wr_14': 0.1, 'roc_2': 0.08}",0.8253424657534246,2.0,0.8253424657534246,"(1275, 8)",Buy Strong,MAB
189,0.8127090301003345,138.8,2018-05-21,"{'macd': 0.16, 'rsi_14': 0.14, 'volume': 0.14, 'sod_14': 0.14, 'macdh': 0.13, 'obv_2': 0.1, 'wr_14': 0.1, 'roc_2': 0.09}",0.8127090301003345,2.0,0.8127090301003345,"(1304, 8)",Buy Strong,MAR
190,0.725752508361204,49.28,2018-05-21,"{'macd': 0.15, 'macdh': 0.14, 'sod_14': 0.14, 'volume': 0.13, 'obv_2': 0.12, 'rsi_14': 0.12, 'wr_14': 0.11, 'roc_2': 0.1}",0.725752508361204,2.0,0.725752508361204,"(1304, 8)",Buy Strong,MBFI
191,0.7993311036789298,161.48,2018-05-21,"{'macd': 0.16, 'rsi_14': 0.15, 'sod_14': 0.15, 'macdh': 0.13, 'volume': 0.13, 'obv_2': 0.1, 'wr_14': 0.1, 'roc_2': 0.09}",0.7993311036789298,2.0,0.7993311036789298,"(1304, 8)",Buy Strong,MCD
192,0.7090301003344481,93.81,2018-05-21,"{'sod_14': 0.15, 'macd': 0.14, 'macdh': 0.14, 'rsi_14': 0.13, 'volume': 0.13, 'obv_2': 0.11, 'wr_14': 0.11, 'roc_2': 0.1}",0.7090301003344481,-1.0,0.7090301003344481,"(1304, 8)",Sell,MCHP
193,0.7638888888888888,26.53,2018-05-21,"{'volume': 0.16, 'sod_14': 0.15, 'macd': 0.13, 'macdh': 0.13, 'rsi_14': 0.13, 'wr_14': 0.12, 'obv_2': 0.1, 'roc_2': 0.09}",0.7638888888888888,-1.0,0.7638888888888888,"(1259, 8)",Sell,MCRO
194,0.7558528428093646,32.45,2018-05-21,"{'sod_14': 0.15, 'macd': 0.14, 'macdh': 0.13, 'rsi_14': 0.13, 'volume': 0.13, 'obv_2': 0.11, 'wr_14': 0.11, 'roc_2': 0.1}",0.7558528428093646,2.0,0.7558528428093646,"(1304, 8)",Buy Strong,MCS
195,0.7525083612040134,30.77,2018-05-21,"{'volume': 0.17, 'sod_14': 0.13, 'macd': 0.12, 'macdh': 0.12, 'obv_2': 0.12, 'rsi_14': 0.12, 'wr_14': 0.11, 'roc_2': 0.1}",0.7525083612040134,1.0,0.7525083612040134,"(1304, 8)",Buy,MDC
196,0.7558528428093646,39.34,2018-05-21,"{'macd': 0.14, 'macdh': 0.14, 'rsi_14': 0.14, 'volume': 0.14, 'sod_14': 0.13, 'obv_2': 0.12, 'wr_14': 0.11, 'roc_2': 0.1}",0.7558528428093646,2.0,0.7558528428093646,"(1304, 8)",Buy Strong,MDLZ
197,0.7926421404682275,290.6,2018-05-21,"{'macd': 0.16, 'macdh': 0.14, 'rsi_14': 0.14, 'sod_14': 0.13, 'volume': 0.12, 'obv_2': 0.11, 'wr_14': 0.11, 'roc_2': 0.09}",0.7926421404682275,2.0,0.7926421404682275,"(1304, 8)",Buy Strong,MELI
198,0.7792642140468228,210.59,2018-05-21,"{'macd': 0.15, 'macdh': 0.14, 'volume': 0.14, 'sod_14': 0.14, 'rsi_14': 0.13, 'wr_14': 0.11, 'obv_2': 0.1, 'roc_2': 0.08}",0.7792642140468228,-2.0,0.7792642140468228,"(1304, 8)",Sell Strong,MKTX
199,0.7792642140468228,201.76,2018-05-21,"{'macd': 0.16, 'sod_14': 0.14, 'macdh': 0.13, 'rsi_14': 0.13, 'volume': 0.13, 'obv_2': 0.11, 'roc_2': 0.1, 'wr_14': 0.1}",0.7792642140468228,-2.0,0.7792642140468228,"(1304, 8)",Sell Strong,MMM
200,0.8595317725752508,49.91,2018-05-21,"{'macd': 0.16, 'sod_14': 0.15, 'rsi_14': 0.14, 'volume': 0.14, 'macdh': 0.13, 'wr_14': 0.11, 'obv_2': 0.1, 'roc_2': 0.08}",0.8595317725752508,-1.0,0.8595317725752508,"(1304, 8)",Sell,MNST
201,0.7792642140468228,21.25,2018-05-21,"{'volume': 0.15, 'rsi_14': 0.14, 'sod_14': 0.14, 'macd': 0.13, 'macdh': 0.13, 'obv_2': 0.11, 'roc_2': 0.1, 'wr_14': 0.1}",0.7792642140468228,-1.0,0.7792642140468228,"(1304, 8)",Sell,MRC
202,0.7491638795986622,58.57,2018-05-21,"{'sod_14': 0.16, 'macdh': 0.13, 'volume': 0.13, 'macd': 0.12, 'rsi_14': 0.12, 'obv_2': 0.11, 'wr_14': 0.11, 'roc_2': 0.1}",0.7491638795986622,1.0,0.7491638795986622,"(1304, 8)",Buy,MRK
203,0.8093645484949833,21.9,2018-05-21,"{'volume': 0.19, 'macdh': 0.14, 'macd': 0.13, 'obv_2': 0.13, 'rsi_14': 0.12, 'sod_14': 0.12, 'wr_14': 0.1, 'roc_2': 0.08}",0.8093645484949833,-1.0,0.8093645484949833,"(1304, 8)",Sell,MRO
204,0.6406779661016949,97.6,2018-05-21,"{'rsi_14': 0.14, 'macd': 0.13, 'macdh': 0.13, 'volume': 0.13, 'sod_14': 0.13, 'obv_2': 0.12, 'roc_2': 0.11, 'wr_14': 0.11}",0.6406779661016949,2.0,0.6406779661016949,"(1288, 8)",Buy Strong,MSFT
205,0.8093645484949833,55.48,2018-05-21,"{'macd': 0.2, 'rsi_14': 0.15, 'macdh': 0.14, 'volume': 0.12, 'sod_14': 0.12, 'obv_2': 0.1, 'wr_14': 0.1, 'roc_2': 0.08}",0.8093645484949833,-2.0,0.8093645484949833,"(1304, 8)",Sell Strong,MU
206,0.7558528428093646,58.27,2018-05-21,"{'macd': 0.15, 'macdh': 0.15, 'sod_14': 0.14, 'volume': 0.13, 'rsi_14': 0.12, 'obv_2': 0.11, 'wr_14': 0.11, 'roc_2': 0.09}",0.7558528428093646,2.0,0.7558528428093646,"(1304, 8)",Buy Strong,MXIM
207,0.7692307692307693,12.4,2018-05-21,"{'macd': 0.16, 'volume': 0.15, 'rsi_14': 0.13, 'sod_14': 0.13, 'macdh': 0.12, 'obv_2': 0.12, 'wr_14': 0.1, 'roc_2': 0.09}",0.7692307692307693,2.0,0.7692307692307693,"(1304, 8)",Buy Strong,MYI
208,0.7759197324414716,39.55,2018-05-21,"{'macd': 0.16, 'volume': 0.15, 'macdh': 0.14, 'rsi_14': 0.13, 'sod_14': 0.12, 'obv_2': 0.11, 'wr_14': 0.11, 'roc_2': 0.09}",0.7759197324414716,-2.0,0.7759197324414716,"(1304, 8)",Sell Strong,MYL
209,0.7090301003344481,59.7,2018-05-21,"{'rsi_14': 0.15, 'macd': 0.14, 'macdh': 0.13, 'volume': 0.13, 'sod_14': 0.13, 'obv_2': 0.11, 'roc_2': 0.11, 'wr_14': 0.11}",0.7090301003344481,-1.0,0.7090301003344481,"(1304, 8)",Sell,NAVG
210,0.8528138528138528,14.27,2018-05-21,"{'volume': 0.16, 'macd': 0.15, 'macdh': 0.14, 'rsi_14': 0.14, 'sod_14': 0.13, 'obv_2': 0.1, 'wr_14': 0.1, 'roc_2': 0.08}",0.8528138528138528,2.0,0.8528138528138528,"(1031, 8)",Buy Strong,NAVI
211,0.6956521739130435,38.47,2018-05-21,"{'macd': 0.16, 'macdh': 0.14, 'sod_14': 0.14, 'volume': 0.13, 'rsi_14': 0.12, 'obv_2': 0.11, 'wr_14': 0.11, 'roc_2': 0.1}",0.6956521739130435,2.0,0.6956521739130435,"(1304, 8)",Buy Strong,NBTB
212,0.7290969899665551,91.21,2018-05-21,"{'volume': 0.15, 'macd': 0.14, 'macdh': 0.13, 'rsi_14': 0.13, 'obv_2': 0.12, 'wr_14': 0.12, 'sod_14': 0.12, 'roc_2': 0.09}",0.7290969899665551,-2.0,0.7290969899665551,"(1304, 8)",Sell Strong,NDAQ
213,0.8160535117056856,331.82,2018-05-21,"{'volume': 0.16, 'macdh': 0.14, 'sod_14': 0.14, 'rsi_14': 0.13, 'macd': 0.12, 'obv_2': 0.12, 'wr_14': 0.1, 'roc_2': 0.09}",0.8160535117056856,2.0,0.8160535117056856,"(1304, 8)",Buy Strong,NFLX
214,0.745819397993311,4.67,2018-05-21,"{'macd': 0.15, 'rsi_14': 0.14, 'macdh': 0.13, 'volume': 0.13, 'sod_14': 0.13, 'obv_2': 0.11, 'wr_14': 0.11, 'roc_2': 0.1}",0.745819397993311,-1.0,0.745819397993311,"(1304, 8)",Sell,NG
215,0.7095435684647303,26.89,2018-05-21,"{'macd': 0.15, 'volume': 0.15, 'macdh': 0.14, 'sod_14': 0.13, 'rsi_14': 0.12, 'obv_2': 0.11, 'wr_14': 0.11, 'roc_2': 0.09}",0.7095435684647303,-1.0,0.7095435684647303,"(1071, 8)",Sell,NGHC
216,0.802675585284281,71.38,2018-05-21,"{'macd': 0.14, 'rsi_14': 0.14, 'volume': 0.14, 'sod_14': 0.14, 'macdh': 0.13, 'obv_2': 0.11, 'wr_14': 0.11, 'roc_2': 0.09}",0.802675585284281,-1.0,0.802675585284281,"(1304, 8)",Sell,NKE
217,0.7491638795986622,331.36,2018-05-21,"{'macd': 0.16, 'volume': 0.15, 'rsi_14': 0.13, 'sod_14': 0.13, 'macdh': 0.11, 'obv_2': 0.11, 'roc_2': 0.1, 'wr_14': 0.1}",0.7491638795986622,1.0,0.7491638795986622,"(1304, 8)",Buy,NOC
218,0.7525083612040134,233.59,2018-05-21,"{'macd': 0.15, 'volume': 0.15, 'macdh': 0.13, 'sod_14': 0.13, 'obv_2': 0.12, 'rsi_14': 0.12, 'wr_14': 0.11, 'roc_2': 0.09}",0.7525083612040134,-1.0,0.7525083612040134,"(1304, 8)",Sell,NTES
219,0.8316831683168316,24.34,2018-05-21,"{'volume': 0.17, 'macdh': 0.16, 'sod_14': 0.15, 'macd': 0.14, 'obv_2': 0.11, 'wr_14': 0.11, 'rsi_14': 0.1, 'roc_2': 0.07}",0.8316831683168316,2.0,0.8316831683168316,"(514, 8)",Buy Strong,NTLA
220,0.7224080267558528,108.45,2018-05-21,"{'macd': 0.14, 'macdh': 0.14, 'rsi_14': 0.14, 'sod_14': 0.14, 'volume': 0.12, 'wr_14': 0.11, 'obv_2': 0.1, 'roc_2': 0.1}",0.7224080267558528,2.0,0.7224080267558528,"(1304, 8)",Buy Strong,NTRS
221,0.8561872909698997,244.24,2018-05-21,"{'macd': 0.22, 'macdh': 0.14, 'volume': 0.14, 'rsi_14': 0.12, 'sod_14': 0.11, 'obv_2': 0.1, 'wr_14': 0.09, 'roc_2': 0.08}",0.8561872909698997,1.0,0.8561872909698997,"(1304, 8)",Buy,NVDA
222,0.7591973244147158,17.14,2018-05-21,"{'macdh': 0.16, 'macd': 0.15, 'rsi_14': 0.13, 'volume': 0.13, 'sod_14': 0.13, 'obv_2': 0.11, 'wr_14': 0.11, 'roc_2': 0.1}",0.7591973244147158,2.0,0.7591973244147158,"(1304, 8)",Buy Strong,NWBI
223,0.7424749163879598,18.0,2018-05-21,"{'macd': 0.15, 'macdh': 0.14, 'volume': 0.14, 'sod_14': 0.13, 'rsi_14': 0.12, 'obv_2': 0.11, 'wr_14': 0.11, 'roc_2': 0.1}",0.7424749163879598,2.0,0.7424749163879598,"(1304, 8)",Buy Strong,ONB
224,0.7315436241610739,47.21,2018-05-21,"{'volume': 0.15, 'macd': 0.14, 'macdh': 0.14, 'sod_14': 0.14, 'rsi_14': 0.12, 'obv_2': 0.11, 'wr_14': 0.11, 'roc_2': 0.09}",0.7315436241610739,-2.0,0.7315436241610739,"(1302, 8)",Sell Strong,ORCL
225,0.7892976588628763,276.18,2018-05-21,"{'macd': 0.17, 'macdh': 0.15, 'volume': 0.14, 'rsi_14': 0.13, 'wr_14': 0.12, 'sod_14': 0.12, 'obv_2': 0.09, 'roc_2': 0.09}",0.7892976588628763,-2.0,0.7892976588628763,"(1304, 8)",Sell Strong,ORLY
226,0.7993079584775087,41.2,2018-05-21,"{'volume': 0.2, 'macd': 0.14, 'macdh': 0.12, 'obv_2': 0.12, 'rsi_14': 0.12, 'sod_14': 0.12, 'roc_2': 0.1, 'wr_14': 0.09}",0.7993079584775087,1.0,0.7993079584775087,"(1266, 8)",Buy,OSB
227,0.7491638795986622,48.7,2018-05-21,"{'volume': 0.16, 'macd': 0.15, 'macdh': 0.13, 'sod_14': 0.13, 'rsi_14': 0.12, 'obv_2': 0.11, 'wr_14': 0.1, 'roc_2': 0.09}",0.7491638795986622,-2.0,0.7491638795986622,"(1304, 8)",Sell Strong,OZRK
228,0.7090301003344481,54.5,2018-05-21,"{'volume': 0.17, 'macdh': 0.14, 'sod_14': 0.14, 'macd': 0.13, 'rsi_14': 0.12, 'obv_2': 0.11, 'wr_14': 0.11, 'roc_2': 0.08}",0.7090301003344481,1.0,0.7090301003344481,"(1304, 8)",Buy,PACW
229,0.7324414715719063,48.47,2018-05-21,"{'volume': 0.16, 'sod_14': 0.15, 'macd': 0.14, 'macdh': 0.13, 'rsi_14': 0.12, 'obv_2': 0.11, 'wr_14': 0.1, 'roc_2': 0.09}",0.7324414715719063,-1.0,0.7324414715719063,"(1304, 8)",Sell,PAG
230,0.7023411371237458,65.12,2018-05-21,"{'macd': 0.17, 'macdh': 0.14, 'rsi_14': 0.14, 'volume': 0.12, 'wr_14': 0.12, 'sod_14': 0.12, 'obv_2': 0.11, 'roc_2': 0.09}",0.7023411371237458,-2.0,0.7023411371237458,"(1304, 8)",Sell Strong,PAYX
231,0.6889632107023411,18.82,2018-05-21,"{'macd': 0.15, 'sod_14': 0.14, 'macdh': 0.13, 'rsi_14': 0.13, 'volume': 0.13, 'obv_2': 0.11, 'wr_14': 0.11, 'roc_2': 0.1}",0.6889632107023411,2.0,0.6889632107023411,"(1304, 8)",Buy Strong,PBCT
232,0.7357859531772575,66.01,2018-05-21,"{'macd': 0.16, 'sod_14': 0.15, 'macdh': 0.13, 'rsi_14': 0.12, 'volume': 0.12, 'obv_2': 0.11, 'roc_2': 0.1, 'wr_14': 0.1}",0.7357859531772575,1.0,0.7357859531772575,"(1304, 8)",Buy,PCAR
233,0.7391304347826086,48.95,2018-05-21,"{'macd': 0.15, 'macdh': 0.14, 'volume': 0.14, 'sod_14': 0.13, 'rsi_14': 0.12, 'obv_2': 0.11, 'wr_14': 0.11, 'roc_2': 0.1}",0.7391304347826086,-1.0,0.7391304347826086,"(1304, 8)",Sell,PCH
234,0.7625418060200669,36.3,2018-05-21,"{'macd': 0.16, 'rsi_14': 0.15, 'macdh': 0.13, 'sod_14': 0.13, 'volume': 0.12, 'obv_2': 0.11, 'wr_14': 0.11, 'roc_2': 0.09}",0.7625418060200669,2.0,0.7625418060200669,"(1304, 8)",Buy Strong,PETS
235,0.7926421404682275,35.8,2018-05-21,"{'macd': 0.14, 'rsi_14': 0.14, 'volume': 0.14, 'sod_14': 0.14, 'macdh': 0.13, 'obv_2': 0.12, 'wr_14': 0.11, 'roc_2': 0.09}",0.7926421404682275,1.0,0.7926421404682275,"(1304, 8)",Buy,PFE
236,0.7224080267558528,59.18,2018-05-21,"{'sod_14': 0.17, 'volume': 0.16, 'macd': 0.13, 'macdh': 0.12, 'obv_2': 0.11, 'rsi_14': 0.11, 'wr_14': 0.1, 'roc_2': 0.09}",0.7224080267558528,1.0,0.7224080267558528,"(1304, 8)",Buy,PFG
237,0.7224080267558528,74.06,2018-05-21,"{'macd': 0.15, 'volume': 0.14, 'macdh': 0.13, 'rsi_14': 0.13, 'sod_14': 0.13, 'obv_2': 0.11, 'wr_14': 0.11, 'roc_2': 0.09}",0.7224080267558528,-2.0,0.7224080267558528,"(1304, 8)",Sell Strong,PG
238,0.7725752508361204,24.1,2018-05-21,"{'volume': 0.18, 'sod_14': 0.15, 'macd': 0.14, 'macdh': 0.13, 'rsi_14': 0.13, 'obv_2': 0.1, 'roc_2': 0.09, 'wr_14': 0.09}",0.7725752508361204,-1.0,0.7725752508361204,"(1304, 8)",Sell,PIN
239,0.7625418060200669,67.85,2018-05-21,"{'volume': 0.16, 'macdh': 0.15, 'macd': 0.14, 'rsi_14': 0.13, 'sod_14': 0.12, 'obv_2': 0.11, 'wr_14': 0.11, 'roc_2': 0.08}",0.7625418060200669,-1.0,0.7625418060200669,"(1304, 8)",Sell,PNFP
240,0.7859531772575251,40.15,2018-05-21,"{'macd': 0.16, 'rsi_14': 0.14, 'volume': 0.14, 'sod_14': 0.13, 'macdh': 0.12, 'obv_2': 0.11, 'roc_2': 0.1, 'wr_14': 0.1}",0.7859531772575251,-2.0,0.7859531772575251,"(1304, 8)",Sell Strong,PRAA
241,0.7525083612040134,101.61,2018-05-21,"{'macdh': 0.14, 'volume': 0.14, 'sod_14': 0.14, 'macd': 0.13, 'rsi_14': 0.13, 'obv_2': 0.11, 'wr_14': 0.1, 'roc_2': 0.09}",0.7525083612040134,-2.0,0.7525083612040134,"(1304, 8)",Sell Strong,PRU
242,0.8051948051948052,81.25,2018-05-21,"{'rsi_14': 0.18, 'sod_14': 0.15, 'macd': 0.14, 'volume': 0.13, 'macdh': 0.11, 'wr_14': 0.11, 'obv_2': 0.1, 'roc_2': 0.1}",0.8051948051948052,-2.0,0.8051948051948052,"(726, 8)",Sell Strong,PYPL
243,0.8060200668896321,10.05,2018-05-21,"{'macd': 0.18, 'sod_14': 0.16, 'macdh': 0.13, 'rsi_14': 0.13, 'volume': 0.12, 'obv_2': 0.1, 'wr_14': 0.1, 'roc_2': 0.08}",0.8060200668896321,-2.0,0.8060200668896321,"(1304, 8)",Sell Strong,PZC
244,0.7692307692307693,57.71,2018-05-21,"{'macd': 0.14, 'macdh': 0.14, 'rsi_14': 0.14, 'volume': 0.14, 'sod_14': 0.13, 'obv_2': 0.11, 'wr_14': 0.11, 'roc_2': 0.09}",0.7692307692307693,-2.0,0.7692307692307693,"(1304, 8)",Sell Strong,QCOM
245,0.8487972508591065,18.47,2018-05-21,"{'macd': 0.16, 'volume': 0.14, 'macdh': 0.13, 'rsi_14': 0.13, 'sod_14': 0.13, 'obv_2': 0.11, 'roc_2': 0.1, 'wr_14': 0.1}",0.8487972508591065,1.0,0.8487972508591065,"(1272, 8)",Buy,QIWI
246,0.8060200668896321,22.56,2018-05-21,"{'macd': 0.15, 'volume': 0.15, 'sod_14': 0.15, 'macdh': 0.13, 'rsi_14': 0.12, 'wr_14': 0.11, 'obv_2': 0.1, 'roc_2': 0.09}",0.8060200668896321,-2.0,0.8060200668896321,"(1304, 8)",Sell Strong,QRTEA
247,0.782608695652174,7.95,2018-05-21,"{'volume': 0.16, 'macd': 0.15, 'rsi_14': 0.14, 'sod_14': 0.13, 'macdh': 0.12, 'obv_2': 0.12, 'wr_14': 0.1, 'roc_2': 0.09}",0.782608695652174,1.0,0.782608695652174,"(1304, 8)",Buy,RBS
248,0.7290969899665551,15.71,2018-05-21,"{'macd': 0.15, 'macdh': 0.14, 'sod_14': 0.14, 'rsi_14': 0.13, 'obv_2': 0.12, 'volume': 0.12, 'roc_2': 0.1, 'wr_14': 0.1}",0.7290969899665551,-2.0,0.7290969899665551,"(1304, 8)",Sell Strong,RDI
249,0.7023411371237458,296.6,2018-05-21,"{'macd': 0.19, 'macdh': 0.15, 'sod_14': 0.13, 'rsi_14': 0.12, 'volume': 0.11, 'obv_2': 0.1, 'roc_2': 0.1, 'wr_14': 0.1}",0.7023411371237458,-2.0,0.7023411371237458,"(1304, 8)",Sell Strong,REGN
250,0.802675585284281,59.16,2018-05-21,"{'macd': 0.15, 'volume': 0.15, 'sod_14': 0.15, 'macdh': 0.12, 'obv_2': 0.12, 'rsi_14': 0.12, 'wr_14': 0.1, 'roc_2': 0.09}",0.802675585284281,1.0,0.802675585284281,"(1304, 8)",Buy,RIO
251,0.7090301003344481,47.73,2018-05-21,"{'macd': 0.15, 'volume': 0.14, 'macdh': 0.13, 'rsi_14': 0.13, 'sod_14': 0.13, 'obv_2': 0.12, 'wr_14': 0.11, 'roc_2': 0.1}",0.7090301003344481,-2.0,0.7090301003344481,"(1304, 8)",Sell Strong,RNST
252,0.7391304347826086,17.38,2018-05-21,"{'volume': 0.17, 'rsi_14': 0.14, 'macd': 0.13, 'macdh': 0.12, 'obv_2': 0.12, 'sod_14': 0.12, 'wr_14': 0.11, 'roc_2': 0.09}",0.7391304347826086,-1.0,0.7391304347826086,"(1304, 8)",Sell,ROIC
253,0.7725752508361204,81.93,2018-05-21,"{'rsi_14': 0.15, 'sod_14': 0.15, 'macd': 0.14, 'macdh': 0.13, 'volume': 0.13, 'wr_14': 0.12, 'obv_2': 0.1, 'roc_2': 0.09}",0.7725752508361204,-2.0,0.7725752508361204,"(1304, 8)",Sell Strong,ROST
254,0.8,18.4,2018-05-21,"{'macd': 0.2, 'obv_2': 0.13, 'rsi_14': 0.13, 'volume': 0.13, 'sod_14': 0.11, 'macdh': 0.1, 'roc_2': 0.1, 'wr_14': 0.09}",0.8,-2.0,0.8,"(230, 8)",Sell Strong,SAFE
255,0.7424749163879598,159.77,2018-05-21,"{'macd': 0.16, 'rsi_14': 0.14, 'volume': 0.14, 'macdh': 0.13, 'sod_14': 0.13, 'obv_2': 0.11, 'wr_14': 0.1, 'roc_2': 0.09}",0.7424749163879598,-2.0,0.7424749163879598,"(1304, 8)",Sell Strong,SBAC
256,0.7658862876254181,131.16,2018-05-21,"{'volume': 0.16, 'macdh': 0.15, 'macd': 0.14, 'sod_14': 0.13, 'rsi_14': 0.12, 'obv_2': 0.11, 'wr_14': 0.1, 'roc_2': 0.09}",0.7658862876254181,1.0,0.7658862876254181,"(1304, 8)",Buy,SBNY
257,0.7926421404682275,19.58,2018-05-21,"{'volume': 0.16, 'rsi_14': 0.14, 'macdh': 0.13, 'sod_14': 0.13, 'macd': 0.12, 'obv_2': 0.12, 'wr_14': 0.1, 'roc_2': 0.09}",0.7926421404682275,-2.0,0.7926421404682275,"(1304, 8)",Sell Strong,SBRA
258,0.7424749163879598,57.34,2018-05-21,"{'rsi_14': 0.15, 'sod_14': 0.15, 'macd': 0.14, 'macdh': 0.13, 'obv_2': 0.11, 'volume': 0.11, 'wr_14': 0.1, 'roc_2': 0.09}",0.7424749163879598,-2.0,0.7424749163879598,"(1304, 8)",Sell Strong,SBUX
259,0.7684563758389261,18.36,2018-05-21,"{'macd': 0.14, 'rsi_14': 0.14, 'volume': 0.14, 'sod_14': 0.14, 'macdh': 0.12, 'obv_2': 0.12, 'wr_14': 0.11, 'roc_2': 0.09}",0.7684563758389261,2.0,0.7684563758389261,"(1301, 8)",Buy Strong,SCIN
260,0.7811447811447811,27.9473,2018-05-21,"{'macd': 0.14, 'volume': 0.14, 'sod_14': 0.14, 'macdh': 0.13, 'rsi_14': 0.13, 'wr_14': 0.12, 'obv_2': 0.11, 'roc_2': 0.08}",0.7811447811447811,-1.0,0.7811447811447811,"(1296, 8)",Sell,SDP
261,0.8127090301003345,1.52,2018-05-21,"{'macd': 0.16, 'sod_14': 0.15, 'rsi_14': 0.13, 'volume': 0.13, 'macdh': 0.12, 'wr_14': 0.11, 'obv_2': 0.1, 'roc_2': 0.09}",0.8127090301003345,1.0,0.8127090301003345,"(1304, 8)",Buy,SDR
262,0.7759197324414716,65.45,2018-05-21,"{'macd': 0.18, 'volume': 0.14, 'rsi_14': 0.13, 'sod_14': 0.13, 'macdh': 0.12, 'wr_14': 0.11, 'obv_2': 0.1, 'roc_2': 0.09}",0.7759197324414716,1.0,0.7759197324414716,"(1304, 8)",Buy,SEIC
263,0.7876106194690266,43.68,2018-05-21,"{'macd': 0.17, 'volume': 0.16, 'macdh': 0.12, 'rsi_14': 0.12, 'sod_14': 0.12, 'obv_2': 0.11, 'wr_14': 0.1, 'roc_2': 0.09}",0.7876106194690266,2.0,0.7876106194690266,"(1013, 8)",Buy Strong,SFBS
264,0.7324414715719063,31.35,2018-05-21,"{'volume': 0.17, 'macd': 0.15, 'sod_14': 0.14, 'macdh': 0.13, 'obv_2': 0.11, 'roc_2': 0.1, 'rsi_14': 0.1, 'wr_14': 0.1}",0.7324414715719063,-2.0,0.7324414715719063,"(1304, 8)",Sell Strong,SFNC
265,0.7684563758389261,23.34,2018-05-21,"{'macdh': 0.15, 'volume': 0.15, 'sod_14': 0.15, 'macd': 0.13, 'rsi_14': 0.12, 'obv_2': 0.11, 'wr_14': 0.1, 'roc_2': 0.09}",0.7684563758389261,1.0,0.7684563758389261,"(1299, 8)",Buy,SGC
266,0.7926421404682275,15.5,2018-05-21,"{'macd': 0.15, 'macdh': 0.14, 'volume': 0.14, 'sod_14': 0.14, 'rsi_14': 0.13, 'obv_2': 0.1, 'wr_14': 0.1, 'roc_2': 0.08}",0.7926421404682275,-1.0,0.7926421404682275,"(1304, 8)",Sell,SGMO
267,0.7892976588628763,71.3,2018-05-21,"{'macd': 0.16, 'volume': 0.16, 'rsi_14': 0.14, 'macdh': 0.13, 'sod_14': 0.12, 'obv_2': 0.11, 'roc_2': 0.09, 'wr_14': 0.09}",0.7892976588628763,-2.0,0.7892976588628763,"(1304, 8)",Sell Strong,SHI
268,0.8294314381270903,168.95,2018-05-21,"{'volume': 0.21, 'sod_14': 0.15, 'macd': 0.14, 'macdh': 0.12, 'rsi_14': 0.12, 'obv_2': 0.11, 'wr_14': 0.09, 'roc_2': 0.07}",0.8294314381270903,-2.0,0.8294314381270903,"(1304, 8)",Sell Strong,SHPG
269,0.68561872909699,56.8,2018-05-21,"{'rsi_14': 0.16, 'volume': 0.15, 'macd': 0.14, 'macdh': 0.13, 'sod_14': 0.12, 'wr_14': 0.11, 'obv_2': 0.1, 'roc_2': 0.09}",0.68561872909699,2.0,0.68561872909699,"(1304, 8)",Buy Strong,SIGI
270,0.7224080267558528,7.0,2018-05-21,"{'volume': 0.15, 'macd': 0.14, 'sod_14': 0.14, 'macdh': 0.13, 'rsi_14': 0.13, 'obv_2': 0.12, 'roc_2': 0.1, 'wr_14': 0.1}",0.7224080267558528,1.0,0.7224080267558528,"(1304, 8)",Buy,SIRI
271,0.7926421404682275,322.2,2018-05-21,"{'macd': 0.15, 'volume': 0.14, 'sod_14': 0.14, 'macdh': 0.13, 'rsi_14': 0.13, 'wr_14': 0.12, 'obv_2': 0.1, 'roc_2': 0.09}",0.7926421404682275,1.0,0.7926421404682275,"(1304, 8)",Buy,SIVB
272,0.8762541806020067,32.47,2018-05-21,"{'sod_14': 0.16, 'macd': 0.15, 'volume': 0.15, 'macdh': 0.13, 'rsi_14': 0.12, 'obv_2': 0.1, 'wr_14': 0.1, 'roc_2': 0.09}",0.8762541806020067,1.0,0.8762541806020067,"(1304, 8)",Buy,SKY
273,0.7692307692307693,11.64,2018-05-21,"{'macd': 0.15, 'macdh': 0.15, 'sod_14': 0.15, 'rsi_14': 0.14, 'volume': 0.12, 'wr_14': 0.11, 'obv_2': 0.09, 'roc_2': 0.09}",0.7692307692307693,2.0,0.7692307692307693,"(1304, 8)",Buy Strong,SLM
274,0.7800687285223368,44.87,2018-05-21,"{'volume': 0.19, 'macd': 0.14, 'sod_14': 0.13, 'obv_2': 0.12, 'rsi_14': 0.12, 'macdh': 0.11, 'wr_14': 0.1, 'roc_2': 0.08}",0.7800687285223368,-1.0,0.7800687285223368,"(1274, 8)",Sell,SMIN
275,0.7324414715719063,44.45,2018-05-21,"{'macd': 0.17, 'rsi_14': 0.14, 'volume': 0.14, 'macdh': 0.12, 'sod_14': 0.12, 'obv_2': 0.11, 'wr_14': 0.1, 'roc_2': 0.09}",0.7324414715719063,1.0,0.7324414715719063,"(1304, 8)",Buy,SMP
276,0.8695652173913043,4.1,2018-05-21,"{'volume': 0.19, 'macd': 0.17, 'macdh': 0.14, 'rsi_14': 0.13, 'obv_2': 0.11, 'sod_14': 0.1, 'wr_14': 0.08, 'roc_2': 0.07}",0.8695652173913043,-1.0,0.8695652173913043,"(1304, 8)",Sell,SN
277,0.8361204013377926,35.93,2018-05-21,"{'macd': 0.15, 'volume': 0.15, 'sod_14': 0.15, 'rsi_14': 0.13, 'macdh': 0.12, 'wr_14': 0.12, 'obv_2': 0.1, 'roc_2': 0.08}",0.8361204013377926,1.0,0.8361204013377926,"(1304, 8)",Buy,SNN
278,0.802675585284281,89.43,2018-05-21,"{'sod_14': 0.16, 'macd': 0.15, 'macdh': 0.14, 'volume': 0.14, 'rsi_14': 0.13, 'wr_14': 0.11, 'obv_2': 0.1, 'roc_2': 0.09}",0.802675585284281,2.0,0.802675585284281,"(1304, 8)",Buy Strong,SNPS
279,0.817258883248731,7.61,2018-05-21,"{'macd': 0.17, 'volume': 0.16, 'sod_14': 0.15, 'rsi_14': 0.13, 'macdh': 0.11, 'wr_14': 0.1, 'obv_2': 0.09, 'roc_2': 0.09}",0.817258883248731,-1.0,0.817258883248731,"(898, 8)",Sell,SNR
280,0.7563025210084033,0.392,2018-05-21,"{'volume': 0.18, 'macd': 0.13, 'rsi_14': 0.13, 'obv_2': 0.12, 'wr_14': 0.12, 'sod_14': 0.12, 'macdh': 0.1, 'roc_2': 0.09}",0.7563025210084033,2.0,0.7563025210084033,"(586, 8)",Buy Strong,SPI
281,0.7892976588628763,90.6,2018-05-21,"{'macd': 0.15, 'volume': 0.15, 'macdh': 0.14, 'rsi_14': 0.13, 'sod_14': 0.13, 'wr_14': 0.12, 'obv_2': 0.11, 'roc_2': 0.09}",0.7892976588628763,-2.0,0.7892976588628763,"(1304, 8)",Sell Strong,SSB
282,0.8127090301003345,57.25,2018-05-21,"{'volume': 0.15, 'macd': 0.14, 'rsi_14': 0.14, 'sod_14': 0.14, 'macdh': 0.13, 'obv_2': 0.12, 'wr_14': 0.1, 'roc_2': 0.08}",0.8127090301003345,-2.0,0.8127090301003345,"(1304, 8)",Sell Strong,STX
283,0.7447552447552448,9.43,2018-05-21,"{'sod_14': 0.16, 'volume': 0.15, 'macd': 0.14, 'macdh': 0.13, 'rsi_14': 0.13, 'wr_14': 0.11, 'obv_2': 0.1, 'roc_2': 0.09}",0.7447552447552448,-2.0,0.7447552447552448,"(1251, 8)",Sell Strong,SVT
284,0.8060200668896321,98.85,2018-05-21,"{'volume': 0.16, 'macd': 0.15, 'macdh': 0.15, 'sod_14': 0.14, 'rsi_14': 0.13, 'obv_2': 0.11, 'wr_14': 0.1, 'roc_2': 0.08}",0.8060200668896321,-2.0,0.8060200668896321,"(1304, 8)",Sell Strong,SWKS
285,0.7993311036789298,21.59,2018-05-21,"{'volume': 0.18, 'obv_2': 0.16, 'macd': 0.14, 'sod_14': 0.12, 'macdh': 0.11, 'rsi_14': 0.11, 'roc_2': 0.09, 'wr_14': 0.09}",0.7993311036789298,-1.0,0.7993311036789298,"(1304, 8)",Sell,SYMC
286,0.7859531772575251,1.95,2018-05-21,"{'volume': 0.18, 'macd': 0.14, 'macdh': 0.13, 'sod_14': 0.13, 'rsi_14': 0.12, 'obv_2': 0.11, 'wr_14': 0.11, 'roc_2': 0.08}",0.7859531772575251,-2.0,0.7859531772575251,"(1304, 8)",Sell Strong,SYNC
287,0.8127090301003345,30.81,2018-05-21,"{'macd': 0.15, 'volume': 0.15, 'macdh': 0.13, 'rsi_14': 0.13, 'sod_14': 0.13, 'obv_2': 0.11, 'wr_14': 0.1, 'roc_2': 0.09}",0.8127090301003345,2.0,0.8127090301003345,"(1304, 8)",Buy Strong,SYNT
288,0.7892976588628763,11.35,2018-05-21,"{'macd': 0.15, 'volume': 0.15, 'macdh': 0.14, 'rsi_14': 0.14, 'sod_14': 0.13, 'obv_2': 0.11, 'wr_14': 0.1, 'roc_2': 0.09}",0.7892976588628763,-2.0,0.7892976588628763,"(1304, 8)",Sell Strong,TCAP
289,0.8361204013377926,101.55,2018-05-21,"{'macd': 0.15, 'rsi_14': 0.15, 'macdh': 0.14, 'volume': 0.14, 'sod_14': 0.13, 'obv_2': 0.11, 'wr_14': 0.1, 'roc_2': 0.08}",0.8361204013377926,-1.0,0.8361204013377926,"(1304, 8)",Sell,TCBI
290,0.7859531772575251,9.26,2018-05-21,"{'macd': 0.15, 'macdh': 0.15, 'sod_14': 0.14, 'rsi_14': 0.13, 'volume': 0.13, 'obv_2': 0.11, 'wr_14': 0.11, 'roc_2': 0.09}",0.7859531772575251,-2.0,0.7859531772575251,"(1304, 8)",Sell Strong,TEF
291,0.7993079584775087,44.65,2018-05-21,"{'volume': 0.21, 'macd': 0.13, 'sod_14': 0.13, 'macdh': 0.12, 'obv_2': 0.12, 'rsi_14': 0.12, 'roc_2': 0.09, 'wr_14': 0.09}",0.7993079584775087,2.0,0.7993079584775087,"(1265, 8)",Buy Strong,TEP
292,0.7290969899665551,15.33,2018-05-21,"{'macd': 0.16, 'volume': 0.15, 'sod_14': 0.14, 'rsi_14': 0.13, 'macdh': 0.12, 'obv_2': 0.1, 'wr_14': 0.1, 'roc_2': 0.09}",0.7290969899665551,-2.0,0.7290969899665551,"(1304, 8)",Sell Strong,TFSL
293,0.7250859106529209,57.19,2018-05-21,"{'macd': 0.14, 'rsi_14': 0.14, 'sod_14': 0.14, 'macdh': 0.13, 'volume': 0.13, 'obv_2': 0.1, 'wr_14': 0.1, 'roc_2': 0.09}",0.7250859106529209,-1.0,0.7250859106529209,"(1274, 8)",Sell,TMUS
294,0.725752508361204,32.96,2018-05-21,"{'macd': 0.15, 'macdh': 0.14, 'volume': 0.14, 'rsi_14': 0.12, 'sod_14': 0.12, 'obv_2': 0.11, 'roc_2': 0.11, 'wr_14': 0.11}",0.725752508361204,1.0,0.725752508361204,"(1304, 8)",Buy,TRMK
295,0.7391304347826086,121.94,2018-05-21,"{'volume': 0.16, 'macd': 0.14, 'rsi_14': 0.14, 'macdh': 0.13, 'sod_14': 0.13, 'obv_2': 0.11, 'wr_14': 0.11, 'roc_2': 0.09}",0.7391304347826086,2.0,0.7391304347826086,"(1304, 8)",Buy Strong,TROW
296,0.7090301003344481,131.14,2018-05-21,"{'macd': 0.15, 'macdh': 0.14, 'rsi_14': 0.14, 'sod_14': 0.14, 'wr_14': 0.13, 'volume': 0.11, 'obv_2': 0.1, 'roc_2': 0.09}",0.7090301003344481,2.0,0.7090301003344481,"(1304, 8)",Buy Strong,TRV
297,0.7658862876254181,73.64,2018-05-21,"{'macd': 0.16, 'macdh': 0.14, 'volume': 0.14, 'rsi_14': 0.13, 'sod_14': 0.13, 'wr_14': 0.11, 'obv_2': 0.1, 'roc_2': 0.09}",0.7658862876254181,-2.0,0.7658862876254181,"(1304, 8)",Sell Strong,TSCO
298,0.8127090301003345,284.49,2018-05-21,"{'rsi_14': 0.15, 'volume': 0.15, 'macd': 0.14, 'sod_14': 0.14, 'macdh': 0.13, 'obv_2': 0.1, 'wr_14': 0.1, 'roc_2': 0.09}",0.8127090301003345,2.0,0.8127090301003345,"(1304, 8)",Buy Strong,TSLA
299,0.745819397993311,115.96,2018-05-21,"{'macd': 0.18, 'macdh': 0.14, 'rsi_14': 0.14, 'sod_14': 0.13, 'volume': 0.12, 'obv_2': 0.1, 'roc_2': 0.1, 'wr_14': 0.1}",0.745819397993311,2.0,0.745819397993311,"(1304, 8)",Buy Strong,TTWO
300,0.8565891472868217,33.63,2018-05-21,"{'macd': 0.18, 'macdh': 0.15, 'volume': 0.13, 'sod_14': 0.13, 'rsi_14': 0.11, 'wr_14': 0.11, 'obv_2': 0.1, 'roc_2': 0.09}",0.8565891472868217,-1.0,0.8565891472868217,"(1141, 8)",Sell,TWTR
301,0.7324414715719063,110.41,2018-05-21,"{'macd': 0.15, 'macdh': 0.15, 'rsi_14': 0.13, 'volume': 0.13, 'sod_14': 0.13, 'obv_2': 0.12, 'wr_14': 0.1, 'roc_2': 0.09}",0.7324414715719063,2.0,0.7324414715719063,"(1304, 8)",Buy Strong,TXN
302,0.9141414141414141,17.7858,2018-05-18,"{'volume': 0.18, 'sod_14': 0.17, 'macd': 0.15, 'rsi_14': 0.13, 'obv_2': 0.11, 'macdh': 0.1, 'roc_2': 0.08, 'wr_14': 0.08}",0.9141414141414141,-1.0,0.9141414141414141,"(900, 8)",Sell,UBM
303,0.7625418060200669,36.75,2018-05-21,"{'macd': 0.16, 'volume': 0.16, 'macdh': 0.13, 'rsi_14': 0.13, 'sod_14': 0.12, 'obv_2': 0.11, 'wr_14': 0.1, 'roc_2': 0.09}",0.7625418060200669,-1.0,0.7625418060200669,"(1304, 8)",Sell,UBSI
304,0.7725752508361204,33.45,2018-05-21,"{'volume': 0.15, 'macd': 0.14, 'macdh': 0.14, 'rsi_14': 0.14, 'sod_14': 0.12, 'obv_2': 0.1, 'roc_2': 0.1, 'wr_14': 0.1}",0.7725752508361204,-1.0,0.7725752508361204,"(1304, 8)",Sell,UCBI
305,0.8566433566433567,16.52,2018-05-21,"{'volume': 0.18, 'macd': 0.15, 'sod_14': 0.15, 'rsi_14': 0.13, 'macdh': 0.11, 'obv_2': 0.11, 'wr_14': 0.09, 'roc_2': 0.08}",0.8566433566433567,-1.0,0.8566433566433567,"(1251, 8)",Sell,ULE
306,0.8327759197324415,254.77,2018-05-21,"{'macd': 0.18, 'macdh': 0.14, 'rsi_14': 0.14, 'volume': 0.14, 'wr_14': 0.11, 'sod_14': 0.11, 'obv_2': 0.1, 'roc_2': 0.08}",0.8327759197324415,-1.0,0.8327759197324415,"(1304, 8)",Sell,ULTA
307,0.8160535117056856,79.39,2018-05-21,"{'macd': 0.15, 'sod_14': 0.14, 'macdh': 0.13, 'rsi_14': 0.13, 'volume': 0.13, 'obv_2': 0.11, 'wr_14': 0.11, 'roc_2': 0.09}",0.8160535117056856,-2.0,0.8160535117056856,"(1304, 8)",Sell Strong,UMBF
308,0.7491638795986622,23.95,2018-05-21,"{'volume': 0.16, 'macd': 0.15, 'macdh': 0.14, 'sod_14': 0.14, 'obv_2': 0.12, 'rsi_14': 0.11, 'wr_14': 0.1, 'roc_2': 0.09}",0.7491638795986622,-2.0,0.7491638795986622,"(1304, 8)",Sell Strong,UMPQ
309,0.6956521739130435,247.9,2018-05-21,"{'macd': 0.15, 'volume': 0.14, 'sod_14': 0.14, 'macdh': 0.12, 'obv_2': 0.12, 'rsi_14': 0.12, 'wr_14': 0.11, 'roc_2': 0.09}",0.6956521739130435,-1.0,0.6956521739130435,"(1304, 8)",Sell,UNH
310,0.7738095238095238,20.03,2018-05-21,"{'macd': 0.17, 'sod_14': 0.15, 'macdh': 0.14, 'volume': 0.14, 'rsi_14': 0.12, 'wr_14': 0.11, 'obv_2': 0.09, 'roc_2': 0.08}",0.7738095238095238,-1.0,0.7738095238095238,"(779, 8)",Sell,UNIT
311,0.8160535117056856,28.24,2018-05-21,"{'macd': 0.16, 'macdh': 0.14, 'sod_14': 0.14, 'rsi_14': 0.13, 'volume': 0.13, 'obv_2': 0.12, 'wr_14': 0.1, 'roc_2': 0.09}",0.8160535117056856,-2.0,0.8160535117056856,"(1304, 8)",Sell Strong,UTG
312,0.7625418060200669,128.05,2018-05-21,"{'macd': 0.16, 'rsi_14': 0.14, 'sod_14': 0.14, 'volume': 0.13, 'macdh': 0.12, 'obv_2': 0.11, 'wr_14': 0.11, 'roc_2': 0.1}",0.7625418060200669,1.0,0.7625418060200669,"(1304, 8)",Buy,UTX
313,0.725752508361204,130.66,2018-05-21,"{'macd': 0.14, 'macdh': 0.13, 'volume': 0.13, 'sod_14': 0.13, 'obv_2': 0.12, 'rsi_14': 0.12, 'roc_2': 0.11, 'wr_14': 0.11}",0.725752508361204,1.0,0.725752508361204,"(1304, 8)",Buy,V
314,0.8160535117056856,26.54,2018-05-21,"{'macd': 0.17, 'rsi_14': 0.15, 'macdh': 0.14, 'sod_14': 0.14, 'volume': 0.12, 'obv_2': 0.11, 'wr_14': 0.1, 'roc_2': 0.08}",0.8160535117056856,-2.0,0.8160535117056856,"(1304, 8)",Sell Strong,VOD
315,0.7157190635451505,107.16,2018-05-21,"{'macd': 0.14, 'volume': 0.14, 'sod_14': 0.14, 'macdh': 0.13, 'rsi_14': 0.12, 'wr_14': 0.12, 'obv_2': 0.11, 'roc_2': 0.1}",0.7157190635451505,1.0,0.7157190635451505,"(1304, 8)",Buy,VRSK
316,0.7725752508361204,156.22,2018-05-21,"{'macd': 0.15, 'rsi_14': 0.14, 'sod_14': 0.14, 'macdh': 0.13, 'volume': 0.12, 'wr_14': 0.11, 'obv_2': 0.1, 'roc_2': 0.1}",0.7725752508361204,2.0,0.7725752508361204,"(1304, 8)",Buy Strong,VRTX
317,0.7625418060200669,48.43,2018-05-21,"{'macdh': 0.14, 'rsi_14': 0.14, 'volume': 0.14, 'macd': 0.13, 'sod_14': 0.13, 'obv_2': 0.11, 'wr_14': 0.11, 'roc_2': 0.1}",0.7625418060200669,1.0,0.7625418060200669,"(1304, 8)",Buy,VZ
318,0.7558528428093646,57.78,2018-05-21,"{'macd': 0.16, 'macdh': 0.14, 'rsi_14': 0.13, 'volume': 0.13, 'sod_14': 0.13, 'wr_14': 0.11, 'obv_2': 0.1, 'roc_2': 0.1}",0.7558528428093646,-2.0,0.7558528428093646,"(1304, 8)",Sell Strong,WABC
319,0.7424749163879598,32.7,2018-05-21,"{'macd': 0.15, 'sod_14': 0.15, 'macdh': 0.14, 'rsi_14': 0.13, 'volume': 0.13, 'obv_2': 0.11, 'wr_14': 0.11, 'roc_2': 0.09}",0.7424749163879598,2.0,0.7424749163879598,"(1304, 8)",Buy Strong,WAFD
320,0.7658862876254181,64.5,2018-05-21,"{'rsi_14': 0.14, 'sod_14': 0.14, 'macd': 0.13, 'macdh': 0.13, 'volume': 0.13, 'obv_2': 0.12, 'wr_14': 0.11, 'roc_2': 0.1}",0.7658862876254181,-2.0,0.7658862876254181,"(1304, 8)",Sell Strong,WBA
321,0.68561872909699,131.7,2018-05-21,"{'macd': 0.15, 'rsi_14': 0.14, 'volume': 0.14, 'macdh': 0.13, 'sod_14': 0.13, 'obv_2': 0.12, 'wr_14': 0.11, 'roc_2': 0.09}",0.68561872909699,-2.0,0.68561872909699,"(1304, 8)",Sell Strong,WDAY
322,0.8595317725752508,86.53,2018-05-21,"{'volume': 0.16, 'macd': 0.15, 'sod_14': 0.15, 'rsi_14': 0.13, 'macdh': 0.12, 'obv_2': 0.11, 'roc_2': 0.09, 'wr_14': 0.09}",0.8595317725752508,-2.0,0.8595317725752508,"(1304, 8)",Sell Strong,WDC
323,0.7424749163879598,11.51,2018-05-21,"{'macdh': 0.16, 'macd': 0.15, 'volume': 0.14, 'rsi_14': 0.13, 'sod_14': 0.12, 'obv_2': 0.1, 'wr_14': 0.1, 'roc_2': 0.09}",0.7424749163879598,-2.0,0.7424749163879598,"(1304, 8)",Sell Strong,WETF
324,0.8408304498269896,0.155,2018-03-26,"{'macd': 0.18, 'rsi_14': 0.14, 'sod_14': 0.14, 'macdh': 0.12, 'volume': 0.12, 'obv_2': 0.1, 'roc_2': 0.1, 'wr_14': 0.1}",0.8408304498269896,2.0,0.8408304498269896,"(1265, 8)",Buy Strong,WG
325,0.6747967479674797,155.62,2018-05-21,"{'macd': 0.17, 'volume': 0.16, 'sod_14': 0.14, 'rsi_14': 0.13, 'macdh': 0.12, 'wr_14': 0.1, 'obv_2': 0.09, 'roc_2': 0.08}",0.6747967479674797,2.0,0.6747967479674797,"(599, 8)",Buy Strong,WLTW
326,0.8294314381270903,84.51,2018-05-21,"{'sod_14': 0.15, 'macd': 0.14, 'macdh': 0.14, 'volume': 0.14, 'rsi_14': 0.13, 'obv_2': 0.11, 'wr_14': 0.11, 'roc_2': 0.09}",0.8294314381270903,2.0,0.8294314381270903,"(1304, 8)",Buy Strong,WMT
327,0.7357859531772575,90.87,2018-05-21,"{'volume': 0.16, 'macd': 0.14, 'macdh': 0.14, 'sod_14': 0.13, 'obv_2': 0.11, 'rsi_14': 0.11, 'wr_14': 0.11, 'roc_2': 0.1}",0.7357859531772575,1.0,0.7357859531772575,"(1304, 8)",Buy,WPP
328,0.7224080267558528,97.56,2018-05-21,"{'macd': 0.15, 'rsi_14': 0.14, 'volume': 0.14, 'sod_14': 0.14, 'macdh': 0.13, 'obv_2': 0.1, 'roc_2': 0.1, 'wr_14': 0.1}",0.7224080267558528,-1.0,0.7224080267558528,"(1304, 8)",Sell,WTFC
329,0.8528428093645485,194.18,2018-05-21,"{'macd': 0.2, 'volume': 0.16, 'rsi_14': 0.14, 'macdh': 0.12, 'sod_14': 0.12, 'obv_2': 0.1, 'wr_14': 0.1, 'roc_2': 0.07}",0.8528428093645485,1.0,0.8528428093645485,"(1304, 8)",Buy,WYNN
330,0.7357859531772575,72.27,2018-05-21,"{'macd': 0.15, 'macdh': 0.15, 'sod_14': 0.13, 'obv_2': 0.12, 'rsi_14': 0.12, 'volume': 0.12, 'wr_14': 0.12, 'roc_2': 0.1}",0.7357859531772575,-2.0,0.7357859531772575,"(1304, 8)",Sell Strong,XLNX
331,0.7692307692307693,82.28,2018-05-21,"{'macd': 0.16, 'volume': 0.15, 'sod_14': 0.14, 'macdh': 0.13, 'rsi_14': 0.12, 'obv_2': 0.11, 'wr_14': 0.1, 'roc_2': 0.09}",0.7692307692307693,2.0,0.7692307692307693,"(1304, 8)",Buy Strong,XOM
332,0.7692307692307693,47.2,2018-05-21,"{'volume': 0.16, 'macd': 0.15, 'obv_2': 0.13, 'rsi_14': 0.13, 'macdh': 0.12, 'sod_14': 0.12, 'wr_14': 0.1, 'roc_2': 0.09}",0.7692307692307693,2.0,0.7692307692307693,"(1304, 8)",Buy Strong,XRAY
333,0.7658862876254181,51.82,2018-05-21,"{'macd': 0.17, 'volume': 0.16, 'macdh': 0.13, 'rsi_14': 0.13, 'sod_14': 0.12, 'obv_2': 0.11, 'wr_14': 0.11, 'roc_2': 0.08}",0.7658862876254181,2.0,0.7658862876254181,"(1304, 8)",Buy Strong,ZG
334,0.7357859531772575,57.96,2018-05-21,"{'macd': 0.15, 'macdh': 0.15, 'volume': 0.15, 'rsi_14': 0.13, 'sod_14': 0.13, 'obv_2': 0.11, 'wr_14': 0.11, 'roc_2': 0.09}",0.7357859531772575,1.0,0.7357859531772575,"(1304, 8)",Buy,ZION
